==================================
NUMPY DOC
http://docs.scipy.org/doc/numpy/reference/swig.interface-file.html

deb: https://packages.debian.org/source/wheezy/python-numpy

=> il y a des fichiers de test et un make pour leur compilation !!!
cf $PYTHON-NUMPY-DEBIAN/numpy-1.6.2/doc/swig
numpy.i s'y trouve

==================================
SWIG DOC
OLD VERSION (DEBIAN WHEEZY): http://swig.org/Doc2.0/Contents.html#Contents
NEW VER: http://swig.org/tutorial.html
     
     unix % swig -python example.i
     unix % gcc -c example.c example_wrap.c \
            -I/usr/local/include/python2.1
     unix % ld -shared example.o example_wrap.o -o _example.so 
     

We can now use the Python module as follows :

     >>> import example
     >>> example.fact(5)
     120
     >>> example.my_mod(7,3)
     1
     >>> example.get_time()
     'Sun Feb 11 23:01:07 1996'
     >>>
     

============================
