%!PS-Adobe-3.0 EPSF-3.0
%%Title: /home/aurelien/synchro/boulot/code/papers_code/schelling-2012/fig/dynamics-interf-dens.eps
%%Creator: matplotlib version 0.99.3, http://matplotlib.sourceforge.net/
%%CreationDate: Tue Jul 10 16:04:09 2012
%%Orientation: portrait
%%BoundingBox: 13 175 598 616
%%EndComments
%%BeginProlog
/mpldict 8 dict def
mpldict begin
/m { moveto } bind def
/l { lineto } bind def
/r { rlineto } bind def
/c { curveto } bind def
/cl { closepath } bind def
/box {
m
1 index 0 r
0 exch r
neg 0 r
cl
} bind def
/clipbox {
box
clip
newpath
} bind def
%!PS-Adobe-3.0 Resource-Font
%%Title: DejaVu Sans
%%Copyright: Copyright (c) 2003 by Bitstream, Inc. All Rights Reserved. Copyright (c) 2006 by Tavmjong Bah. All Rights Reserved. DejaVu changes are in public domain 
%%Creator: Converted from TrueType by PPR
25 dict begin
/_d{bind def}bind def
/_m{moveto}_d
/_l{lineto}_d
/_cl{closepath eofill}_d
/_c{curveto}_d
/_sc{7 -1 roll{setcachedevice}{pop pop pop pop pop pop}ifelse}_d
/_e{exec}_d
/FontName /DejaVuSans def
/PaintType 0 def
/FontMatrix[.001 0 0 .001 0 0]def
/FontBBox[-1020 -414 1681 1167]def
/FontType 3 def
/Encoding StandardEncoding def
/FontInfo 10 dict dup begin
/FamilyName (DejaVu Sans) def
/FullName (DejaVu Sans) def
/Notice (Copyright (c) 2003 by Bitstream, Inc. All Rights Reserved. Copyright (c) 2006 by Tavmjong Bah. All Rights Reserved. DejaVu changes are in public domain ) def
/Weight (Book) def
/Version (Version 2.31) def
/ItalicAngle 0.0 def
/isFixedPitch false def
/UnderlinePosition -130 def
/UnderlineThickness 90 def
end readonly def
/CharStrings 31 dict dup begin
/space{318 0 0 0 0 0 _sc
}_d
/period{318 0 107 0 210 124 _sc
107 124 _m
210 124 _l
210 0 _l
107 0 _l
107 124 _l
_cl}_d
/zero{636 0 66 -13 570 742 _sc
318 664 _m
267 664 229 639 203 589 _c
177 539 165 464 165 364 _c
165 264 177 189 203 139 _c
229 89 267 64 318 64 _c
369 64 407 89 433 139 _c
458 189 471 264 471 364 _c
471 464 458 539 433 589 _c
407 639 369 664 318 664 _c
318 742 _m
399 742 461 709 505 645 _c
548 580 570 486 570 364 _c
570 241 548 147 505 83 _c
461 19 399 -13 318 -13 _c
236 -13 173 19 130 83 _c
87 147 66 241 66 364 _c
66 486 87 580 130 645 _c
173 709 236 742 318 742 _c
_cl}_d
/one{636 0 110 0 544 729 _sc
124 83 _m
285 83 _l
285 639 _l
110 604 _l
110 694 _l
284 729 _l
383 729 _l
383 83 _l
544 83 _l
544 0 _l
124 0 _l
124 83 _l
_cl}_d
/two{{636 0 73 0 536 742 _sc
192 83 _m
536 83 _l
536 0 _l
73 0 _l
73 83 _l
110 121 161 173 226 239 _c
290 304 331 346 348 365 _c
380 400 402 430 414 455 _c
426 479 433 504 433 528 _c
433 566 419 598 392 622 _c
365 646 330 659 286 659 _c
255 659 222 653 188 643 _c
154 632 117 616 78 594 _c
78 694 _l
118 710 155 722 189 730 _c
223 738 255 742 284 742 _c
359 742 419 723 464 685 _c
509 647 532 597 532 534 _c
532 504 526 475 515 449 _c
504 422 484 390 454 354 _c
446 344 420 317 376 272 _c
332 227 271 164 192 83 _c
_cl}_e}_d
/three{{636 0 76 -13 556 742 _sc
406 393 _m
453 383 490 362 516 330 _c
542 298 556 258 556 212 _c
556 140 531 84 482 45 _c
432 6 362 -13 271 -13 _c
240 -13 208 -10 176 -4 _c
144 1 110 10 76 22 _c
76 117 _l
103 101 133 89 166 81 _c
198 73 232 69 268 69 _c
330 69 377 81 409 105 _c
441 129 458 165 458 212 _c
458 254 443 288 413 312 _c
383 336 341 349 287 349 _c
202 349 _l
202 430 _l
291 430 _l
339 430 376 439 402 459 _c
428 478 441 506 441 543 _c
441 580 427 609 401 629 _c
374 649 336 659 287 659 _c
260 659 231 656 200 650 _c
169 644 135 635 98 623 _c
98 711 _l
135 721 170 729 203 734 _c
235 739 266 742 296 742 _c
}_e{370 742 429 725 473 691 _c
517 657 539 611 539 553 _c
539 513 527 479 504 451 _c
481 423 448 403 406 393 _c
_cl}_e}_d
/four{636 0 49 0 580 729 _sc
378 643 _m
129 254 _l
378 254 _l
378 643 _l
352 729 _m
476 729 _l
476 254 _l
580 254 _l
580 172 _l
476 172 _l
476 0 _l
378 0 _l
378 172 _l
49 172 _l
49 267 _l
352 729 _l
_cl}_d
/five{{636 0 77 -13 549 729 _sc
108 729 _m
495 729 _l
495 646 _l
198 646 _l
198 467 _l
212 472 227 476 241 478 _c
255 480 270 482 284 482 _c
365 482 429 459 477 415 _c
525 370 549 310 549 234 _c
549 155 524 94 475 51 _c
426 8 357 -13 269 -13 _c
238 -13 207 -10 175 -6 _c
143 -1 111 6 77 17 _c
77 116 _l
106 100 136 88 168 80 _c
199 72 232 69 267 69 _c
323 69 368 83 401 113 _c
433 143 450 183 450 234 _c
450 284 433 324 401 354 _c
368 384 323 399 267 399 _c
241 399 214 396 188 390 _c
162 384 135 375 108 363 _c
108 729 _l
_cl}_e}_d
/six{{636 0 70 -13 573 742 _sc
330 404 _m
286 404 251 388 225 358 _c
199 328 186 286 186 234 _c
186 181 199 139 225 109 _c
251 79 286 64 330 64 _c
374 64 409 79 435 109 _c
461 139 474 181 474 234 _c
474 286 461 328 435 358 _c
409 388 374 404 330 404 _c
526 713 _m
526 623 _l
501 635 476 644 451 650 _c
425 656 400 659 376 659 _c
310 659 260 637 226 593 _c
192 549 172 482 168 394 _c
187 422 211 444 240 459 _c
269 474 301 482 336 482 _c
409 482 467 459 509 415 _c
551 371 573 310 573 234 _c
573 159 550 99 506 54 _c
462 9 403 -13 330 -13 _c
246 -13 181 19 137 83 _c
92 147 70 241 70 364 _c
70 479 97 571 152 639 _c
206 707 280 742 372 742 _c
}_e{396 742 421 739 447 735 _c
472 730 498 723 526 713 _c
_cl}_e}_d
/seven{636 0 82 0 551 729 _sc
82 729 _m
551 729 _l
551 687 _l
286 0 _l
183 0 _l
432 646 _l
82 646 _l
82 729 _l
_cl}_d
/eight{{636 0 68 -13 568 742 _sc
318 346 _m
271 346 234 333 207 308 _c
180 283 167 249 167 205 _c
167 161 180 126 207 101 _c
234 76 271 64 318 64 _c
364 64 401 76 428 102 _c
455 127 469 161 469 205 _c
469 249 455 283 429 308 _c
402 333 365 346 318 346 _c
219 388 _m
177 398 144 418 120 447 _c
96 476 85 511 85 553 _c
85 611 105 657 147 691 _c
188 725 245 742 318 742 _c
390 742 447 725 489 691 _c
530 657 551 611 551 553 _c
551 511 539 476 515 447 _c
491 418 459 398 417 388 _c
464 377 501 355 528 323 _c
554 291 568 251 568 205 _c
568 134 546 80 503 43 _c
459 5 398 -13 318 -13 _c
237 -13 175 5 132 43 _c
89 80 68 134 68 205 _c
68 251 81 291 108 323 _c
134 355 171 377 219 388 _c
}_e{183 544 _m
183 506 194 476 218 455 _c
242 434 275 424 318 424 _c
360 424 393 434 417 455 _c
441 476 453 506 453 544 _c
453 582 441 611 417 632 _c
393 653 360 664 318 664 _c
275 664 242 653 218 632 _c
194 611 183 582 183 544 _c
_cl}_e}_d
/equal{838 0 106 172 732 454 _sc
106 454 _m
732 454 _l
732 372 _l
106 372 _l
106 454 _l
106 255 _m
732 255 _l
732 172 _l
106 172 _l
106 255 _l
_cl}_d
/a{{613 0 60 -13 522 560 _sc
343 275 _m
270 275 220 266 192 250 _c
164 233 150 205 150 165 _c
150 133 160 107 181 89 _c
202 70 231 61 267 61 _c
317 61 357 78 387 114 _c
417 149 432 196 432 255 _c
432 275 _l
343 275 _l
522 312 _m
522 0 _l
432 0 _l
432 83 _l
411 49 385 25 355 10 _c
325 -5 287 -13 243 -13 _c
187 -13 142 2 109 33 _c
76 64 60 106 60 159 _c
60 220 80 266 122 298 _c
163 329 224 345 306 345 _c
432 345 _l
432 354 _l
432 395 418 427 391 450 _c
364 472 326 484 277 484 _c
245 484 215 480 185 472 _c
155 464 127 453 100 439 _c
100 522 _l
}_e{132 534 164 544 195 550 _c
226 556 256 560 286 560 _c
365 560 424 539 463 498 _c
502 457 522 395 522 312 _c
_cl}_e}_d
/b{{635 0 91 -13 580 760 _sc
487 273 _m
487 339 473 390 446 428 _c
418 466 381 485 334 485 _c
286 485 249 466 222 428 _c
194 390 181 339 181 273 _c
181 207 194 155 222 117 _c
249 79 286 61 334 61 _c
381 61 418 79 446 117 _c
473 155 487 207 487 273 _c
181 464 _m
199 496 223 520 252 536 _c
281 552 316 560 356 560 _c
422 560 476 533 518 481 _c
559 428 580 359 580 273 _c
580 187 559 117 518 65 _c
476 13 422 -13 356 -13 _c
316 -13 281 -5 252 10 _c
223 25 199 49 181 82 _c
181 0 _l
91 0 _l
91 760 _l
181 760 _l
181 464 _l
_cl}_e}_d
/c{{550 0 55 -13 488 560 _sc
488 526 _m
488 442 _l
462 456 437 466 411 473 _c
385 480 360 484 334 484 _c
276 484 230 465 198 428 _c
166 391 150 339 150 273 _c
150 206 166 154 198 117 _c
230 80 276 62 334 62 _c
360 62 385 65 411 72 _c
437 79 462 90 488 104 _c
488 21 _l
462 9 436 0 410 -5 _c
383 -10 354 -13 324 -13 _c
242 -13 176 12 128 64 _c
79 115 55 185 55 273 _c
55 362 79 432 128 483 _c
177 534 244 560 330 560 _c
358 560 385 557 411 551 _c
437 545 463 537 488 526 _c
_cl}_e}_d
/d{{635 0 55 -13 544 760 _sc
454 464 _m
454 760 _l
544 760 _l
544 0 _l
454 0 _l
454 82 _l
435 49 411 25 382 10 _c
353 -5 319 -13 279 -13 _c
213 -13 159 13 117 65 _c
75 117 55 187 55 273 _c
55 359 75 428 117 481 _c
159 533 213 560 279 560 _c
319 560 353 552 382 536 _c
411 520 435 496 454 464 _c
148 273 _m
148 207 161 155 188 117 _c
215 79 253 61 301 61 _c
348 61 385 79 413 117 _c
440 155 454 207 454 273 _c
454 339 440 390 413 428 _c
385 466 348 485 301 485 _c
253 485 215 466 188 428 _c
161 390 148 339 148 273 _c
_cl}_e}_d
/e{{615 0 55 -13 562 560 _sc
562 296 _m
562 252 _l
149 252 _l
153 190 171 142 205 110 _c
238 78 284 62 344 62 _c
378 62 412 66 444 74 _c
476 82 509 95 541 113 _c
541 28 _l
509 14 476 3 442 -3 _c
408 -9 373 -13 339 -13 _c
251 -13 182 12 131 62 _c
80 112 55 181 55 268 _c
55 357 79 428 127 481 _c
175 533 241 560 323 560 _c
397 560 455 536 498 489 _c
540 441 562 377 562 296 _c
472 322 _m
471 371 457 410 431 440 _c
404 469 368 484 324 484 _c
274 484 234 469 204 441 _c
174 413 156 373 152 322 _c
472 322 _l
_cl}_e}_d
/f{352 0 23 0 371 760 _sc
371 760 _m
371 685 _l
285 685 _l
253 685 230 678 218 665 _c
205 652 199 629 199 595 _c
199 547 _l
347 547 _l
347 477 _l
199 477 _l
199 0 _l
109 0 _l
109 477 _l
23 477 _l
23 547 _l
109 547 _l
109 585 _l
109 645 123 690 151 718 _c
179 746 224 760 286 760 _c
371 760 _l
_cl}_d
/g{{635 0 55 -207 544 560 _sc
454 280 _m
454 344 440 395 414 431 _c
387 467 349 485 301 485 _c
253 485 215 467 188 431 _c
161 395 148 344 148 280 _c
148 215 161 165 188 129 _c
215 93 253 75 301 75 _c
349 75 387 93 414 129 _c
440 165 454 215 454 280 _c
544 68 _m
544 -24 523 -93 482 -139 _c
440 -184 377 -207 292 -207 _c
260 -207 231 -204 203 -200 _c
175 -195 147 -188 121 -178 _c
121 -91 _l
147 -105 173 -115 199 -122 _c
225 -129 251 -133 278 -133 _c
336 -133 380 -117 410 -87 _c
439 -56 454 -10 454 52 _c
454 96 _l
435 64 411 40 382 24 _c
353 8 319 0 279 0 _c
211 0 157 25 116 76 _c
75 127 55 195 55 280 _c
55 364 75 432 116 483 _c
157 534 211 560 279 560 _c
}_e{319 560 353 552 382 536 _c
411 520 435 496 454 464 _c
454 547 _l
544 547 _l
544 68 _l
_cl}_e}_d
/i{278 0 94 0 184 760 _sc
94 547 _m
184 547 _l
184 0 _l
94 0 _l
94 547 _l
94 760 _m
184 760 _l
184 646 _l
94 646 _l
94 760 _l
_cl}_d
/l{278 0 94 0 184 760 _sc
94 760 _m
184 760 _l
184 0 _l
94 0 _l
94 760 _l
_cl}_d
/m{{974 0 91 0 889 560 _sc
520 442 _m
542 482 569 511 600 531 _c
631 550 668 560 711 560 _c
767 560 811 540 842 500 _c
873 460 889 403 889 330 _c
889 0 _l
799 0 _l
799 327 _l
799 379 789 418 771 444 _c
752 469 724 482 686 482 _c
639 482 602 466 575 435 _c
548 404 535 362 535 309 _c
535 0 _l
445 0 _l
445 327 _l
445 379 435 418 417 444 _c
398 469 369 482 331 482 _c
285 482 248 466 221 435 _c
194 404 181 362 181 309 _c
181 0 _l
91 0 _l
91 547 _l
181 547 _l
181 462 _l
201 495 226 520 255 536 _c
283 552 317 560 357 560 _c
397 560 430 550 458 530 _c
486 510 506 480 520 442 _c
}_e{_cl}_e}_d
/n{634 0 91 0 549 560 _sc
549 330 _m
549 0 _l
459 0 _l
459 327 _l
459 379 448 417 428 443 _c
408 469 378 482 338 482 _c
289 482 251 466 223 435 _c
195 404 181 362 181 309 _c
181 0 _l
91 0 _l
91 547 _l
181 547 _l
181 462 _l
202 494 227 519 257 535 _c
286 551 320 560 358 560 _c
420 560 468 540 500 501 _c
532 462 549 405 549 330 _c
_cl}_d
/o{612 0 55 -13 557 560 _sc
306 484 _m
258 484 220 465 192 427 _c
164 389 150 338 150 273 _c
150 207 163 156 191 118 _c
219 80 257 62 306 62 _c
354 62 392 80 420 118 _c
448 156 462 207 462 273 _c
462 337 448 389 420 427 _c
392 465 354 484 306 484 _c
306 560 _m
384 560 445 534 490 484 _c
534 433 557 363 557 273 _c
557 183 534 113 490 63 _c
445 12 384 -13 306 -13 _c
227 -13 165 12 121 63 _c
77 113 55 183 55 273 _c
55 363 77 433 121 484 _c
165 534 227 560 306 560 _c
_cl}_d
/p{{635 0 91 -207 580 560 _sc
181 82 _m
181 -207 _l
91 -207 _l
91 547 _l
181 547 _l
181 464 _l
199 496 223 520 252 536 _c
281 552 316 560 356 560 _c
422 560 476 533 518 481 _c
559 428 580 359 580 273 _c
580 187 559 117 518 65 _c
476 13 422 -13 356 -13 _c
316 -13 281 -5 252 10 _c
223 25 199 49 181 82 _c
487 273 _m
487 339 473 390 446 428 _c
418 466 381 485 334 485 _c
286 485 249 466 222 428 _c
194 390 181 339 181 273 _c
181 207 194 155 222 117 _c
249 79 286 61 334 61 _c
381 61 418 79 446 117 _c
473 155 487 207 487 273 _c
_cl}_e}_d
/r{411 0 91 0 411 560 _sc
411 463 _m
401 469 390 473 378 476 _c
366 478 353 480 339 480 _c
288 480 249 463 222 430 _c
194 397 181 350 181 288 _c
181 0 _l
91 0 _l
91 547 _l
181 547 _l
181 462 _l
199 495 224 520 254 536 _c
284 552 321 560 365 560 _c
371 560 378 559 386 559 _c
393 558 401 557 411 555 _c
411 463 _l
_cl}_d
/s{{521 0 54 -13 472 560 _sc
443 531 _m
443 446 _l
417 458 391 468 364 475 _c
336 481 308 485 279 485 _c
234 485 200 478 178 464 _c
156 450 145 430 145 403 _c
145 382 153 366 169 354 _c
185 342 217 330 265 320 _c
296 313 _l
360 299 405 279 432 255 _c
458 230 472 195 472 151 _c
472 100 452 60 412 31 _c
372 1 316 -13 246 -13 _c
216 -13 186 -10 154 -5 _c
122 0 89 8 54 20 _c
54 113 _l
87 95 120 82 152 74 _c
184 65 216 61 248 61 _c
290 61 323 68 346 82 _c
368 96 380 117 380 144 _c
380 168 371 187 355 200 _c
339 213 303 226 247 238 _c
216 245 _l
160 257 119 275 95 299 _c
70 323 58 356 58 399 _c
58 450 76 490 112 518 _c
148 546 200 560 268 560 _c
}_e{301 560 332 557 362 552 _c
391 547 418 540 443 531 _c
_cl}_e}_d
/t{392 0 27 0 368 702 _sc
183 702 _m
183 547 _l
368 547 _l
368 477 _l
183 477 _l
183 180 _l
183 135 189 106 201 94 _c
213 81 238 75 276 75 _c
368 75 _l
368 0 _l
276 0 _l
206 0 158 13 132 39 _c
106 65 93 112 93 180 _c
93 477 _l
27 477 _l
27 547 _l
93 547 _l
93 702 _l
183 702 _l
_cl}_d
/u{634 0 85 -13 543 560 _sc
85 216 _m
85 547 _l
175 547 _l
175 219 _l
175 167 185 129 205 103 _c
225 77 255 64 296 64 _c
344 64 383 79 411 110 _c
439 141 453 183 453 237 _c
453 547 _l
543 547 _l
543 0 _l
453 0 _l
453 84 _l
431 50 405 26 377 10 _c
348 -5 315 -13 277 -13 _c
214 -13 166 6 134 45 _c
101 83 85 140 85 216 _c
_cl}_d
/v{592 0 30 0 562 547 _sc
30 547 _m
125 547 _l
296 88 _l
467 547 _l
562 547 _l
357 0 _l
235 0 _l
30 547 _l
_cl}_d
/y{592 0 30 -207 562 547 _sc
322 -50 _m
296 -114 271 -157 247 -177 _c
223 -197 191 -207 151 -207 _c
79 -207 _l
79 -132 _l
132 -132 _l
156 -132 175 -126 189 -114 _c
203 -102 218 -75 235 -31 _c
251 9 _l
30 547 _l
125 547 _l
296 119 _l
467 547 _l
562 547 _l
322 -50 _l
_cl}_d
end readonly def

/BuildGlyph
 {exch begin
 CharStrings exch
 2 copy known not{pop /.notdef}if
 true 3 1 roll get exec
 end}_d

/BuildChar {
 1 index /Encoding get exch get
 1 index /BuildGlyph get exec
}_d

FontName currentdict end definefont pop
end
%%EndProlog
mpldict begin
13.5 175.5 translate
585 441 0 0 clipbox
1.000 setlinewidth
1 setlinejoin
2 setlinecap
[] 0 setdash
1.000 setgray
gsave
0 0 m
585 0 l
585 441 l
0 441 l
0 0 l
gsave
fill
grestore
stroke
grestore
gsave
73.125 44.1 m
526.5 44.1 l
526.5 396.9 l
73.125 396.9 l
73.125 44.1 l
fill
grestore
0 setlinecap
[6 6] 0 setdash
1.000 0.000 0.000 setrgbcolor
gsave
453.4 352.8 73.12 44.1 clipbox
73.125 347.9 m
74.4851 320.292 l
76.2986 280.308 l
78.5655 248.052 l
79.4723 231.252 l
80.8324 212.38 l
81.7391 199.444 l
82.1925 195.636 l
82.6459 188.636 l
83.0992 186.956 l
83.5526 182.364 l
84.4594 171.052 l
85.3661 164.164 l
86.2729 158.172 l
87.633 149.436 l
91.26 128.548 l
92.1668 120.54 l
92.6201 119.252 l
93.5269 113.204 l
93.9802 114.884 l
95.3404 112.644 l
96.7005 105.588 l
97.1539 103.908 l
98.0606 99.932 l
98.514 100.1 l
98.9674 99.876 l
99.4207 98.924 l
99.8741 99.988 l
100.781 96.908 l
101.688 92.092 l
103.501 86.94 l
104.408 85.484 l
106.221 79.1 l
106.675 79.996 l
107.128 79.828 l
108.488 76.86 l
110.755 69.972 l
111.662 69.916 l
112.115 68.348 l
112.569 68.348 l
113.475 67.116 l
113.929 66.78 l
114.835 64.764 l
115.742 65.38 l
116.196 65.324 l
117.102 63.028 l
118.009 60.228 l
119.369 61.012 l
119.823 60.62 l
120.276 61.012 l
120.729 60.676 l
122.09 57.708 l
122.996 57.652 l
123.903 56.476 l
124.81 56.42 l
126.623 55.244 l
127.53 53.396 l
127.983 52.668 l
128.437 52.948 l
128.89 52.388 l
129.344 52.948 l
130.25 51.94 l
130.704 52.108 l
131.157 51.268 l
132.064 51.38 l
132.971 50.764 l
133.424 50.484 l
133.877 50.708 l
134.331 50.316 l
135.237 50.932 l
135.691 50.428 l
137.958 50.428 l
138.411 50.092 l
139.318 49.98 l
142.038 49.196 l
142.491 49.196 l
143.398 48.58 l
143.852 48.972 l
144.305 48.86 l
144.758 48.356 l
145.665 48.468 l
146.572 48.748 l
147.932 47.908 l
150.199 48.244 l
151.106 47.908 l
152.012 47.74 l
152.466 47.796 l
153.372 47.572 l
155.639 46.9 l
156.546 46.844 l
156.999 46.676 l
158.359 47.404 l
159.266 47.236 l
160.626 46.9 l
162.44 47.068 l
163.8 47.852 l
164.707 47.796 l
165.614 46.452 l
166.067 46.844 l
166.974 46.508 l
171.054 46.9 l
172.868 46.004 l
174.228 45.724 l
175.134 46.116 l
176.041 45.78 l
177.401 46.004 l
178.308 45.556 l
178.761 45.276 l
179.215 45.724 l
180.121 45.612 l
182.388 45.5 l
184.202 46.172 l
185.562 45.5 l
186.922 45.668 l
188.282 45.444 l
189.189 45.836 l
191.456 45.612 l
191.909 46.172 l
192.363 45.668 l
194.63 45.668 l
195.536 46.004 l
197.35 46.06 l
197.803 46.396 l
198.257 46.116 l
198.71 46.452 l
200.07 46.06 l
202.337 46.06 l
204.604 46.9 l
205.057 46.676 l
205.964 46.788 l
206.417 46.284 l
207.324 46.564 l
208.231 46.62 l
212.764 46.34 l
213.671 46.676 l
214.578 46.004 l
216.845 46.62 l
217.752 46.004 l
219.112 46.004 l
219.565 46.06 l
220.472 45.668 l
222.739 46.06 l
223.645 45.332 l
224.552 45.612 l
226.366 45.164 l
227.273 45.108 l
229.086 45.332 l
229.993 45.78 l
230.9 45.388 l
231.353 45.612 l
232.26 45.276 l
237.7 45.892 l
238.607 45.276 l
239.514 45.5 l
241.781 45.052 l
242.687 45.612 l
243.141 45.444 l
244.047 45.668 l
248.128 46.004 l
248.581 45.724 l
249.035 46.004 l
249.941 45.5 l
251.301 45.388 l
253.568 46.06 l
254.928 45.892 l
256.288 45.78 l
257.649 45.332 l
259.462 45.5 l
263.543 45.388 l
264.903 45.052 l
266.716 45.108 l
268.983 46.172 l
269.89 46.172 l
270.343 45.836 l
270.797 46.116 l
271.703 45.78 l
272.157 45.836 l
273.063 45.612 l
274.877 46.172 l
276.237 46.564 l
277.597 46.228 l
279.864 46.004 l
280.771 45.332 l
281.678 45.276 l
283.038 45.276 l
287.571 46.06 l
289.385 46.676 l
290.292 46.732 l
291.198 46.004 l
292.105 45.78 l
292.559 45.388 l
293.012 45.668 l
293.465 45.332 l
293.919 45.556 l
294.825 45.388 l
297.092 45.388 l
297.999 44.94 l
298.906 44.94 l
301.626 46.004 l
302.533 46.172 l
302.986 45.668 l
303.893 45.78 l
305.253 45.388 l
305.706 45.668 l
306.613 45.612 l
307.067 45.556 l
307.52 45.836 l
308.88 45.612 l
309.333 46.116 l
311.147 45.612 l
312.96 45.5 l
314.321 46.004 l
317.494 45.332 l
318.854 45.836 l
319.761 45.556 l
321.575 46.228 l
322.481 45.948 l
322.935 45.78 l
323.841 46.172 l
325.202 46.396 l
327.468 46.508 l
328.375 46.116 l
329.282 46.732 l
329.735 46.34 l
332.002 46.676 l
333.362 46.396 l
334.722 46.172 l
336.989 45.78 l
337.443 46.172 l
338.349 46.34 l
339.709 46.396 l
340.616 45.836 l
343.79 46.06 l
344.243 46.396 l
347.87 45.556 l
348.777 46.06 l
350.591 45.724 l
351.497 45.78 l
352.857 45.836 l
353.764 45.556 l
354.218 45.332 l
355.124 45.612 l
356.938 45.5 l
359.205 45.22 l
360.111 45.5 l
361.471 45.668 l
362.378 45.556 l
362.832 45.78 l
363.738 45.388 l
364.645 45.388 l
365.552 45.892 l
366.005 45.668 l
366.912 45.892 l
369.179 45.892 l
370.539 45.948 l
371.899 46.004 l
373.259 46.284 l
373.713 46.284 l
374.166 45.892 l
375.073 46.732 l
378.246 46.228 l
378.7 46.62 l
380.06 46.228 l
383.687 47.348 l
384.594 46.9 l
385.047 47.068 l
385.954 46.396 l
387.767 46.452 l
389.127 46.732 l
389.581 47.012 l
390.941 46.34 l
391.394 46.62 l
392.301 46.452 l
393.208 46.732 l
395.021 46.452 l
395.475 45.892 l
400.462 46.396 l
401.822 46.116 l
404.089 46.564 l
404.995 46.956 l
405.902 46.62 l
406.809 46.788 l
408.623 45.892 l
409.983 46.508 l
410.889 46.676 l
411.343 46.844 l
411.796 46.34 l
414.516 46.508 l
415.877 45.948 l
416.783 46.284 l
417.69 46.172 l
418.143 46.508 l
419.504 46.284 l
419.957 45.612 l
420.41 45.78 l
420.864 45.5 l
421.77 45.78 l
423.584 46.004 l
424.037 45.444 l
424.944 45.556 l
428.118 45.668 l
429.931 45.388 l
430.385 45.052 l
431.745 45.276 l
433.105 45.164 l
435.372 45.276 l
436.732 45.164 l
442.626 45.668 l
443.532 45.556 l
445.799 45.78 l
446.253 45.556 l
446.706 45.836 l
448.066 45.668 l
448.973 45.836 l
449.88 45.052 l
452.147 45.892 l
453.053 45.724 l
453.96 46.004 l
455.774 45.668 l
456.68 46.172 l
457.587 46.284 l
459.854 45.5 l
462.121 45.948 l
463.481 45.612 l
466.655 46.172 l
468.015 46.676 l
469.375 46.004 l
470.282 46.396 l
471.642 46.9 l
473.455 46.396 l
477.082 45.78 l
477.989 45.724 l
478.896 46.172 l
480.256 45.612 l
484.336 45.5 l
484.79 45.276 l
485.696 45.444 l
486.15 45.052 l
488.417 45.052 l
490.683 45.276 l
491.59 45.332 l
493.404 45.22 l
497.937 45.724 l
499.298 45.332 l
500.204 45.388 l
502.018 45.332 l
504.285 45.78 l
504.738 45.556 l
505.645 46.06 l
507.458 45.724 l
508.365 46.508 l
508.818 46.9 l
509.272 46.844 l
510.179 45.948 l
511.539 45.892 l
512.899 45.668 l
514.712 45.892 l
515.166 46.06 l
516.072 45.948 l
516.979 45.78 l
520.606 45.556 l
521.06 45.444 l
521.513 45.892 l
522.42 45.612 l
523.78 45.612 l
524.687 45.612 l
525.593 45.724 l
526.047 45.836 l
526.047 45.836 l
stroke
grestore
0.000 0.000 1.000 setrgbcolor
gsave
453.4 352.8 73.12 44.1 clipbox
73.125 352.66 m
73.5784 346.332 l
74.9385 317.94 l
75.8453 306.684 l
77.2054 293.636 l
79.0189 279.412 l
79.9256 270.06 l
80.379 265.58 l
81.2858 265.132 l
81.7391 265.3 l
82.1925 261.492 l
82.6459 261.66 l
83.5526 254.044 l
84.006 253.764 l
84.4594 251.748 l
84.9128 252.868 l
86.2729 243.572 l
87.1796 242.172 l
87.633 239.036 l
88.0864 238.924 l
88.5397 236.908 l
89.4465 238.364 l
89.8999 237.58 l
90.3533 235.004 l
90.8066 235.228 l
91.7134 230.636 l
92.1668 232.652 l
93.5269 224.756 l
95.3404 217.532 l
95.7938 218.204 l
96.2471 216.58 l
97.1539 211.316 l
98.514 216.076 l
98.9674 215.236 l
99.4207 212.1 l
100.328 215.068 l
100.781 211.54 l
101.234 212.268 l
101.688 209.972 l
102.141 209.524 l
102.594 208.516 l
103.501 205.94 l
103.954 206.5 l
105.315 201.628 l
105.768 202.02 l
106.221 198.548 l
106.675 199.444 l
107.128 201.516 l
107.582 201.516 l
108.035 202.58 l
108.488 202.468 l
108.942 203.42 l
109.395 201.292 l
109.848 202.02 l
110.755 198.828 l
111.209 199.22 l
112.115 200.956 l
112.569 202.916 l
113.022 202.804 l
113.929 204.036 l
114.382 206.836 l
116.196 200.004 l
116.649 201.236 l
117.556 196.98 l
118.009 196.14 l
118.916 197.092 l
119.823 200.172 l
120.729 195.356 l
121.183 197.428 l
121.636 195.412 l
122.543 188.972 l
123.45 191.492 l
123.903 189.7 l
124.81 183.54 l
125.263 182.644 l
125.716 184.268 l
126.623 183.092 l
127.53 185.668 l
128.437 181.748 l
128.89 183.26 l
129.344 182.532 l
129.797 182.588 l
130.25 186.06 l
130.704 184.884 l
131.157 185.5 l
131.61 184.884 l
132.517 187.46 l
132.971 186.284 l
133.877 182.7 l
134.784 183.82 l
136.144 177.604 l
136.597 177.884 l
137.051 178.556 l
137.504 176.316 l
137.958 176.204 l
138.411 174.02 l
139.771 178.052 l
140.225 178.444 l
140.678 180.348 l
142.038 180.964 l
142.491 180.516 l
142.945 181.076 l
143.398 180.964 l
143.852 181.244 l
144.305 179.34 l
144.758 181.132 l
145.212 180.068 l
145.665 180.908 l
146.118 183.428 l
146.572 183.26 l
147.478 184.324 l
147.932 179.9 l
149.745 185.22 l
150.199 184.828 l
150.652 183.596 l
151.106 185.444 l
152.012 183.876 l
152.466 185.668 l
152.919 182.924 l
153.372 183.708 l
153.826 182.476 l
154.733 183.876 l
155.186 180.012 l
156.093 183.092 l
156.546 181.356 l
156.999 180.964 l
157.453 181.636 l
157.906 181.58 l
158.359 178.388 l
159.266 181.692 l
159.72 182.98 l
160.173 179.452 l
160.626 180.964 l
161.08 179.116 l
161.533 178.892 l
162.44 177.716 l
162.893 178.556 l
163.347 177.268 l
163.8 179.844 l
164.253 179.844 l
165.614 175.196 l
166.067 176.148 l
166.52 175.252 l
166.974 176.26 l
167.427 178.164 l
167.88 177.996 l
169.24 181.076 l
169.694 178.444 l
170.147 178.836 l
170.601 178.22 l
171.054 175.868 l
172.414 176.428 l
172.868 172.956 l
173.321 172.228 l
173.774 174.748 l
174.228 173.628 l
174.681 174.58 l
175.134 172.508 l
175.588 172.788 l
176.948 177.044 l
177.401 175.028 l
177.855 175.476 l
178.308 173.236 l
178.761 173.572 l
179.215 171.892 l
179.668 172.9 l
180.575 171.892 l
181.028 171.78 l
181.482 170.212 l
182.388 169.372 l
182.842 169.876 l
183.295 168.252 l
183.749 172.228 l
184.202 172.788 l
185.109 171.836 l
186.015 174.188 l
186.922 171.388 l
187.376 171.388 l
188.282 173.068 l
190.096 168.364 l
190.549 170.604 l
191.002 170.828 l
191.456 174.972 l
192.363 175.588 l
192.816 172.508 l
193.723 173.292 l
194.63 170.828 l
195.083 171.5 l
195.536 171.22 l
195.99 172.956 l
196.443 172.172 l
197.35 169.652 l
197.803 169.596 l
198.71 168.252 l
199.163 171.612 l
199.617 172.06 l
200.07 173.068 l
200.523 173.124 l
200.977 172.508 l
201.43 173.852 l
201.883 170.996 l
202.337 172.732 l
202.79 172.004 l
203.244 170.212 l
203.697 170.492 l
204.15 174.356 l
204.604 173.46 l
205.057 170.716 l
205.511 171.724 l
205.964 169.652 l
206.417 169.596 l
207.777 164.388 l
210.044 171.892 l
210.498 168.868 l
210.951 168.588 l
211.858 167.02 l
212.764 168.7 l
214.578 166.796 l
215.485 169.204 l
215.938 169.428 l
216.392 168.196 l
216.845 168.7 l
217.298 170.492 l
218.205 168.924 l
218.658 170.548 l
219.112 166.852 l
220.019 166.852 l
220.472 168.196 l
220.925 167.244 l
221.832 169.596 l
222.285 168.308 l
222.739 169.148 l
223.192 167.804 l
224.099 167.58 l
225.006 169.484 l
225.459 169.26 l
225.912 170.044 l
226.366 172.004 l
226.819 170.716 l
227.726 170.716 l
228.179 171.332 l
228.633 168.868 l
229.086 170.268 l
229.539 169.876 l
229.993 168.364 l
230.446 169.932 l
231.806 167.244 l
232.26 167.804 l
232.713 169.428 l
233.62 168.98 l
234.526 171.108 l
234.98 171.052 l
236.34 173.516 l
236.793 172.788 l
237.247 173.18 l
237.7 172.9 l
238.154 168.364 l
239.06 169.82 l
239.967 172.62 l
240.874 169.26 l
241.327 171.332 l
241.781 170.436 l
242.687 172.228 l
243.141 171.388 l
243.594 171.892 l
244.047 175.364 l
244.501 172.396 l
244.954 172.228 l
245.861 173.908 l
246.314 172.62 l
246.768 172.508 l
247.674 174.244 l
248.581 173.46 l
249.035 175.532 l
249.488 174.356 l
249.941 170.548 l
250.395 174.468 l
251.301 175.644 l
252.208 172.396 l
252.662 171.836 l
253.115 172.844 l
254.022 170.884 l
254.475 171.5 l
254.928 170.716 l
255.835 170.268 l
256.742 172.228 l
258.102 167.188 l
259.009 165.62 l
260.369 165.9 l
261.276 170.268 l
261.729 168.196 l
262.182 168.644 l
262.636 170.828 l
263.089 170.436 l
264.903 167.188 l
265.356 169.204 l
265.809 169.204 l
266.716 167.244 l
267.17 164.444 l
267.623 165.788 l
268.076 164.5 l
268.53 165.172 l
268.983 167.076 l
270.343 166.292 l
270.797 168.98 l
271.25 168.812 l
271.703 169.652 l
272.157 166.348 l
272.61 166.012 l
273.063 166.404 l
273.97 169.54 l
274.877 165.844 l
275.784 164.78 l
276.237 165.788 l
276.69 167.916 l
277.144 165.34 l
277.597 167.132 l
278.05 167.468 l
278.957 171.444 l
279.411 171.052 l
279.864 169.26 l
281.678 172.172 l
282.131 170.66 l
283.038 171.724 l
283.491 169.82 l
283.944 170.772 l
284.398 169.316 l
284.851 165.732 l
285.305 167.804 l
286.211 167.972 l
286.665 169.204 l
287.118 168.14 l
287.571 168.364 l
288.025 171.276 l
288.932 168.308 l
290.745 166.348 l
291.198 166.404 l
291.652 167.132 l
292.105 166.684 l
292.559 166.74 l
293.012 167.412 l
293.919 164.892 l
294.372 165.844 l
294.825 165.06 l
295.279 165.06 l
295.732 165.508 l
296.185 164.78 l
296.639 162.932 l
297.092 162.876 l
297.999 167.076 l
298.452 165.116 l
298.906 166.18 l
299.359 162.988 l
299.812 164.052 l
300.266 163.044 l
300.719 162.932 l
301.173 161.924 l
302.079 163.38 l
304.346 159.796 l
304.8 160.02 l
305.253 161.42 l
305.706 160.972 l
306.16 162.932 l
306.613 162.652 l
307.067 161.028 l
307.52 163.268 l
307.973 159.404 l
308.427 159.404 l
308.88 161.252 l
309.787 160.58 l
310.24 163.772 l
310.694 163.884 l
311.147 165.62 l
311.6 165.452 l
312.054 165.844 l
312.507 168.14 l
312.96 168.14 l
313.414 168.7 l
313.867 166.292 l
315.227 167.3 l
315.681 170.436 l
316.587 168.196 l
317.041 168.476 l
318.401 163.884 l
319.308 163.884 l
319.761 163.884 l
320.214 167.244 l
320.668 167.636 l
321.121 170.604 l
321.575 169.316 l
322.028 171.22 l
322.481 169.82 l
322.935 171.332 l
323.841 169.652 l
324.295 170.436 l
325.202 168.252 l
325.655 169.764 l
326.562 168.7 l
327.015 170.212 l
329.735 165.34 l
330.642 167.972 l
331.095 165.9 l
331.549 167.972 l
332.002 166.348 l
332.456 166.348 l
332.909 166.74 l
333.362 166.348 l
333.816 169.26 l
334.269 168.42 l
334.722 168.476 l
335.176 170.212 l
335.629 166.628 l
336.083 167.58 l
336.536 167.132 l
336.989 170.38 l
337.443 170.716 l
338.803 166.572 l
339.709 165.004 l
340.163 165.116 l
340.616 166.18 l
341.07 163.156 l
341.523 163.38 l
341.976 162.764 l
342.43 163.492 l
342.883 162.54 l
344.243 163.044 l
345.15 166.236 l
345.603 164.556 l
346.057 167.692 l
346.51 165.676 l
346.964 166.18 l
347.417 166.068 l
347.87 164.724 l
348.324 165.116 l
348.777 164.78 l
349.23 166.012 l
349.684 165.34 l
350.591 165.396 l
351.044 164.668 l
351.497 164.948 l
351.951 164.556 l
352.404 163.492 l
352.857 163.94 l
353.311 162.428 l
353.764 162.988 l
354.218 162.484 l
354.671 162.988 l
355.578 167.748 l
356.031 167.86 l
356.938 169.484 l
357.391 168.588 l
357.845 168.812 l
358.298 169.82 l
358.751 169.092 l
359.205 169.092 l
360.111 166.292 l
360.565 167.02 l
361.018 165.34 l
361.471 165.34 l
361.925 166.292 l
362.378 164.668 l
363.285 158.116 l
365.099 165.284 l
366.005 163.38 l
366.912 165.9 l
367.365 163.604 l
368.272 163.268 l
368.726 164.332 l
369.179 163.772 l
370.086 168.14 l
370.539 167.636 l
370.992 168.196 l
371.446 166.236 l
371.899 168.364 l
372.353 167.972 l
373.259 165.62 l
374.619 167.692 l
375.073 167.244 l
375.526 165.116 l
375.98 165.06 l
376.433 162.204 l
376.886 163.38 l
377.34 161.756 l
377.793 162.54 l
378.246 160.188 l
378.7 161.252 l
379.153 159.572 l
379.607 162.036 l
380.513 160.916 l
380.967 161.924 l
381.42 160.468 l
382.327 162.428 l
382.78 161.42 l
383.233 161.98 l
383.687 161.924 l
384.14 163.94 l
384.594 163.772 l
385.047 164.052 l
385.5 162.484 l
385.954 162.652 l
386.407 165.004 l
387.314 165.34 l
388.221 167.636 l
389.127 162.316 l
389.581 162.036 l
390.034 162.316 l
390.488 160.692 l
390.941 160.524 l
391.394 161.7 l
391.848 165.116 l
392.301 162.932 l
392.754 167.748 l
393.661 161.756 l
394.115 162.036 l
394.568 160.972 l
395.021 163.548 l
395.475 162.428 l
395.928 162.764 l
396.835 158.788 l
397.288 160.132 l
398.195 158.62 l
398.648 160.58 l
399.102 160.356 l
400.008 166.068 l
400.462 165.956 l
401.822 159.628 l
402.275 162.54 l
402.729 160.244 l
403.182 163.66 l
403.635 162.54 l
404.089 164.948 l
404.542 165.172 l
405.449 160.804 l
405.902 159.74 l
406.356 160.244 l
407.716 164.164 l
408.169 167.076 l
409.076 167.804 l
409.529 166.908 l
409.983 167.244 l
410.889 164.388 l
411.343 167.076 l
411.796 166.236 l
412.703 167.748 l
413.156 166.908 l
413.61 169.372 l
414.063 169.764 l
414.516 167.972 l
416.33 168.14 l
416.783 167.468 l
417.237 167.804 l
417.69 167.076 l
418.143 167.244 l
418.597 166.74 l
419.05 168.196 l
419.504 167.132 l
420.41 163.548 l
420.864 165.06 l
421.317 164.892 l
422.677 165.788 l
423.584 170.604 l
424.037 167.86 l
424.491 167.244 l
425.397 159.908 l
425.851 160.804 l
426.304 162.932 l
426.758 163.1 l
427.211 163.66 l
427.664 162.764 l
428.118 160.972 l
428.571 161.868 l
429.024 160.356 l
429.478 162.652 l
430.385 159.516 l
431.291 162.092 l
432.198 158.284 l
432.651 158.956 l
434.012 162.596 l
434.465 161.364 l
434.918 161.308 l
435.372 162.316 l
435.825 160.972 l
436.278 161.14 l
436.732 164.388 l
437.185 163.268 l
437.639 164.22 l
438.092 163.492 l
438.999 163.828 l
439.905 166.628 l
440.812 165.788 l
441.266 166.124 l
441.719 165.508 l
442.172 162.988 l
442.626 162.372 l
443.079 163.156 l
443.532 162.54 l
443.986 163.38 l
444.439 163.436 l
444.893 164.78 l
445.346 164.332 l
445.799 165.228 l
446.253 162.82 l
446.706 163.66 l
447.159 163.772 l
447.613 164.724 l
448.066 164.556 l
449.426 167.86 l
449.88 166.852 l
450.333 168.028 l
450.786 168.084 l
451.24 168.924 l
452.6 164.556 l
453.053 164.332 l
453.507 162.82 l
453.96 162.596 l
454.413 163.156 l
454.867 162.204 l
455.32 162.708 l
455.774 162.204 l
456.68 165.116 l
457.134 164.836 l
457.587 163.884 l
458.947 166.012 l
459.401 165.284 l
459.854 167.636 l
460.307 167.356 l
461.214 165.788 l
461.667 166.012 l
462.574 163.548 l
463.028 164.836 l
463.481 168.196 l
463.934 168.812 l
464.388 168.476 l
465.294 164.052 l
466.201 165.62 l
466.655 165.116 l
467.108 165.228 l
467.561 165.956 l
468.015 165.564 l
468.468 164.332 l
469.375 166.908 l
469.828 166.012 l
470.735 162.428 l
471.188 162.316 l
471.642 161.644 l
472.095 161.756 l
472.548 162.316 l
473.002 163.66 l
473.909 161.98 l
474.362 161.98 l
475.269 162.82 l
475.722 162.428 l
476.629 164.612 l
477.082 160.468 l
477.536 162.876 l
477.989 161.924 l
479.349 168.196 l
479.802 165.284 l
480.709 164.5 l
481.163 164.332 l
481.616 163.212 l
482.069 164.892 l
482.523 164.724 l
482.976 165.172 l
483.883 167.524 l
484.336 167.468 l
484.79 165.508 l
485.243 165.06 l
485.696 166.852 l
486.15 166.74 l
486.603 165.116 l
487.51 165.284 l
488.417 162.876 l
488.87 162.148 l
489.323 160.468 l
489.777 162.372 l
490.23 161.756 l
490.683 162.82 l
491.137 162.26 l
491.59 164.052 l
492.044 162.484 l
492.497 164.556 l
492.95 164.052 l
493.404 165.004 l
494.764 159.012 l
495.217 161.252 l
496.124 162.036 l
496.577 159.348 l
497.031 160.244 l
497.484 158.676 l
497.937 160.02 l
498.391 158.9 l
498.844 158.676 l
499.298 162.54 l
499.751 160.972 l
500.204 162.708 l
500.658 162.54 l
501.564 161.028 l
502.018 162.708 l
502.471 161.252 l
503.378 160.524 l
503.831 159.292 l
504.285 159.236 l
505.191 160.02 l
505.645 161.028 l
506.098 160.188 l
506.552 162.764 l
507.005 161.812 l
507.458 163.436 l
507.912 162.932 l
508.365 163.772 l
508.818 163.716 l
509.725 159.684 l
510.179 161.476 l
511.085 156.828 l
511.992 155.372 l
512.445 155.428 l
512.899 153.468 l
513.352 155.484 l
513.806 155.092 l
514.259 153.916 l
515.166 155.932 l
516.526 154.812 l
517.886 160.3 l
518.793 159.404 l
519.246 160.02 l
519.699 164.836 l
520.606 161.756 l
521.06 162.652 l
521.513 162.54 l
522.42 165.9 l
522.873 165.732 l
523.78 162.932 l
524.233 163.996 l
524.687 163.884 l
525.14 162.652 l
525.593 163.436 l
526.047 162.652 l
526.047 162.652 l
stroke
grestore
2 setlinecap
[] 0 setdash
gsave
453.4 352.8 73.12 44.1 clipbox
73.125 348.46 m
75.3919 308.756 l
76.2986 293.244 l
78.5655 267.092 l
82.1925 231.812 l
83.5526 222.068 l
84.006 221.06 l
84.9128 214.284 l
86.2729 208.628 l
87.633 199.444 l
88.5397 193.9 l
89.4465 187.908 l
92.1668 171.444 l
92.6201 170.772 l
93.9802 163.996 l
96.7005 160.3 l
97.1539 160.524 l
97.6073 159.404 l
98.0606 156.492 l
99.8741 153.244 l
100.781 150.052 l
102.141 149.996 l
102.594 150.836 l
103.954 144.732 l
104.408 144.564 l
105.315 142.66 l
106.675 140.308 l
107.128 140.14 l
110.302 135.268 l
110.755 134.82 l
111.209 133.196 l
111.662 133.532 l
113.475 130.732 l
113.929 130.732 l
114.835 128.66 l
115.289 128.828 l
115.742 127.148 l
116.649 127.372 l
118.916 122.668 l
119.369 120.764 l
119.823 120.876 l
120.276 120.54 l
120.729 118.748 l
121.636 118.244 l
122.543 118.58 l
123.45 116.9 l
124.356 116.9 l
124.81 115.108 l
125.716 114.604 l
126.17 113.932 l
126.623 113.876 l
127.53 112.756 l
127.983 112.924 l
128.437 112.476 l
128.89 112.644 l
129.797 112.252 l
131.157 112.028 l
131.61 111.02 l
132.064 111.412 l
132.517 111.244 l
132.971 111.692 l
133.424 111.132 l
135.237 111.58 l
135.691 111.244 l
136.144 111.468 l
137.958 110.068 l
138.864 111.244 l
139.771 109.508 l
140.225 110.46 l
141.131 108.78 l
141.585 108.948 l
142.038 107.828 l
142.491 107.996 l
143.398 106.652 l
143.852 106.932 l
144.758 105.588 l
145.212 105.644 l
145.665 105.364 l
146.118 105.532 l
146.572 104.972 l
147.478 105.196 l
147.932 105.196 l
148.385 103.964 l
149.292 104.86 l
150.199 104.412 l
150.652 104.468 l
151.106 104.132 l
151.559 104.692 l
152.466 103.404 l
153.826 103.124 l
154.733 104.524 l
155.186 104.132 l
155.639 103.18 l
156.546 103.124 l
156.999 103.516 l
157.453 103.18 l
157.906 103.404 l
158.813 102.396 l
159.266 102.34 l
159.72 103.18 l
160.173 103.068 l
160.626 103.404 l
161.533 102.732 l
162.44 102.676 l
164.253 101.668 l
165.16 101.892 l
165.614 102.284 l
166.067 101.724 l
166.974 101.836 l
167.88 100.996 l
168.334 101.444 l
169.24 100.828 l
169.694 101.164 l
170.147 100.548 l
170.601 100.66 l
171.054 100.156 l
171.507 100.604 l
172.414 100.1 l
172.868 100.548 l
173.321 100.436 l
174.228 99.148 l
174.681 99.652 l
175.134 99.036 l
175.588 99.148 l
176.041 98.812 l
176.495 99.372 l
176.948 99.204 l
177.401 99.428 l
178.308 99.148 l
179.215 99.092 l
179.668 98.252 l
180.575 98.364 l
181.028 98.42 l
181.482 97.972 l
182.388 96.684 l
185.562 97.412 l
186.469 96.908 l
186.922 96.964 l
187.376 96.292 l
187.829 96.908 l
188.736 96.068 l
189.189 96.516 l
189.642 96.124 l
191.002 96.516 l
192.816 95.62 l
193.723 95.9 l
194.176 95.9 l
194.63 96.404 l
196.443 95.116 l
196.896 95.452 l
198.257 95.284 l
200.523 95.004 l
201.883 95.452 l
203.244 94.388 l
204.15 93.884 l
204.604 94.164 l
205.964 93.828 l
206.871 93.716 l
207.777 94.332 l
208.231 93.94 l
208.684 93.996 l
209.138 94.612 l
210.498 94.388 l
211.858 94.724 l
212.764 94.444 l
213.671 94.556 l
214.125 94.22 l
215.031 94.5 l
215.485 94.388 l
216.392 95.004 l
217.298 95.452 l
218.205 95.508 l
219.565 95.676 l
220.019 95.676 l
220.472 94.948 l
223.645 95.06 l
224.099 94.78 l
224.552 95.228 l
225.006 95.004 l
225.459 95.172 l
226.366 94.668 l
226.819 95.396 l
227.273 94.948 l
230.9 95.116 l
231.353 94.612 l
233.62 94.724 l
234.073 94.5 l
234.526 94.668 l
234.98 94.108 l
235.433 94.668 l
237.247 94.612 l
238.154 95.172 l
239.06 95.284 l
241.781 95.396 l
242.234 95.62 l
243.141 95.228 l
244.501 96.012 l
245.407 95.452 l
246.314 96.068 l
247.221 96.292 l
247.674 95.9 l
249.035 96.852 l
249.941 96.46 l
250.395 96.516 l
251.301 96.292 l
252.208 96.572 l
252.662 96.292 l
253.568 96.74 l
254.475 96.18 l
254.928 96.628 l
255.382 96.236 l
255.835 96.572 l
256.288 96.348 l
256.742 96.628 l
257.195 96.348 l
257.649 96.908 l
258.102 96.572 l
260.369 97.132 l
261.729 96.852 l
263.089 97.132 l
263.996 96.404 l
264.903 96.572 l
265.356 96.796 l
266.716 96.124 l
268.53 95.788 l
269.436 96.852 l
270.343 96.068 l
271.25 95.9 l
271.703 95.844 l
272.157 96.292 l
273.063 95.676 l
273.517 96.012 l
274.423 95.844 l
276.237 95.508 l
277.144 95.62 l
279.864 96.628 l
280.317 96.012 l
281.678 96.012 l
282.131 95.62 l
282.584 95.956 l
283.944 95.172 l
284.851 95.452 l
286.211 95.62 l
287.118 95.62 l
287.571 96.18 l
288.025 96.124 l
288.932 96.628 l
289.838 95.62 l
290.745 95.9 l
292.105 95.62 l
293.465 95.732 l
293.919 94.948 l
294.372 95.564 l
296.639 95.732 l
297.546 96.236 l
300.266 96.012 l
303.893 136.724 l
305.253 144.788 l
305.706 144.06 l
308.427 157.892 l
309.333 160.524 l
310.24 163.044 l
310.694 164.332 l
311.147 164.444 l
311.6 165.396 l
312.054 164.444 l
312.96 167.692 l
313.414 167.02 l
313.867 165.172 l
314.321 165.06 l
315.681 172.06 l
316.134 170.772 l
316.587 171.78 l
317.494 171.108 l
317.947 168.532 l
318.854 168.42 l
319.308 167.524 l
319.761 170.268 l
320.214 170.66 l
321.575 168.98 l
322.481 168.98 l
322.935 170.548 l
323.388 169.932 l
323.841 171.332 l
325.202 168.42 l
325.655 171.332 l
326.108 169.876 l
326.562 171.612 l
327.468 171.78 l
327.922 171.724 l
328.829 169.988 l
329.282 169.092 l
329.735 170.1 l
330.189 167.076 l
330.642 168.252 l
331.095 167.58 l
331.549 169.596 l
332.002 169.988 l
332.456 168.868 l
332.909 168.868 l
333.362 169.54 l
333.816 168.812 l
334.269 169.316 l
335.176 167.692 l
335.629 168.084 l
336.083 170.604 l
336.536 169.708 l
336.989 170.1 l
337.443 169.596 l
337.896 167.86 l
338.349 168.196 l
339.256 166.292 l
339.709 166.236 l
340.163 170.548 l
340.616 171.108 l
342.43 176.652 l
342.883 174.692 l
343.337 174.3 l
343.79 174.356 l
344.243 173.012 l
344.697 174.188 l
345.15 171.948 l
346.057 174.076 l
346.51 173.852 l
346.964 174.468 l
347.417 174.076 l
347.87 170.828 l
350.137 175.084 l
350.591 173.684 l
351.497 176.26 l
351.951 176.652 l
352.857 176.26 l
353.311 176.596 l
353.764 176.204 l
354.218 177.1 l
355.124 176.204 l
355.578 175.14 l
356.031 172.9 l
356.484 174.244 l
356.938 170.884 l
357.391 173.068 l
357.845 172.508 l
358.298 173.348 l
358.751 173.348 l
359.205 174.02 l
360.111 172.06 l
360.565 173.18 l
361.018 173.068 l
361.471 168.084 l
361.925 167.244 l
362.378 170.044 l
363.738 167.244 l
364.192 167.58 l
365.099 166.74 l
365.552 167.188 l
366.005 170.1 l
366.459 167.524 l
366.912 169.988 l
367.365 170.38 l
368.272 172.564 l
368.726 172.34 l
369.179 171.5 l
369.632 171.556 l
370.086 172.732 l
370.539 172.396 l
370.992 171.444 l
371.446 171.388 l
372.353 168.756 l
372.806 168.756 l
373.713 170.212 l
374.619 173.852 l
375.073 173.516 l
375.526 174.58 l
375.98 174.356 l
376.433 176.204 l
376.886 175.532 l
377.34 175.7 l
377.793 175.084 l
378.246 171.388 l
378.7 171.556 l
379.153 168.98 l
379.607 170.324 l
380.513 169.596 l
380.967 169.82 l
381.42 169.428 l
381.873 167.86 l
382.327 169.652 l
383.233 166.796 l
383.687 170.38 l
384.14 169.596 l
385.047 170.884 l
385.954 167.916 l
386.407 167.86 l
386.861 168.756 l
387.314 168.868 l
387.767 167.972 l
388.221 170.604 l
388.674 169.764 l
389.127 172.396 l
390.034 171.948 l
390.488 172.172 l
390.941 174.636 l
391.394 173.796 l
391.848 169.652 l
392.754 174.636 l
394.115 171.052 l
394.568 167.692 l
395.021 167.636 l
395.475 167.916 l
395.928 166.348 l
396.381 166.404 l
396.835 167.412 l
397.288 165.956 l
397.742 165.732 l
398.195 164.78 l
399.102 168.476 l
399.555 168.644 l
400.008 169.316 l
400.462 171.444 l
400.915 170.492 l
401.369 167.468 l
401.822 167.188 l
402.729 169.428 l
403.182 167.692 l
404.089 169.092 l
404.542 168.532 l
404.995 168.644 l
405.449 168.14 l
405.902 169.204 l
406.356 171.22 l
406.809 169.092 l
407.262 168.588 l
407.716 167.524 l
408.169 164.948 l
408.623 165.116 l
409.076 163.212 l
410.436 166.348 l
410.889 162.82 l
411.343 165.004 l
411.796 165.508 l
412.25 166.628 l
412.703 166.572 l
413.156 167.02 l
413.61 168.532 l
414.063 167.916 l
414.97 165.62 l
415.877 167.524 l
416.33 167.748 l
416.783 169.316 l
417.237 168.476 l
418.143 165.62 l
419.05 166.012 l
419.957 160.412 l
420.41 160.692 l
420.864 162.484 l
421.77 161.644 l
422.224 163.268 l
423.584 162.204 l
424.944 163.268 l
425.397 163.492 l
425.851 164.836 l
426.758 161.924 l
427.211 165.228 l
428.571 160.972 l
429.024 160.748 l
429.478 161.028 l
429.931 160.188 l
430.385 161.42 l
430.838 164.556 l
431.745 162.484 l
433.105 166.46 l
433.558 165.9 l
434.012 166.068 l
435.372 168.252 l
435.825 170.828 l
436.278 168.812 l
436.732 169.988 l
437.185 170.156 l
437.639 172.004 l
438.092 167.692 l
438.545 168.252 l
438.999 169.428 l
439.452 172.564 l
440.359 169.54 l
440.812 172.004 l
441.266 171.78 l
443.986 166.348 l
444.439 166.684 l
444.893 166.236 l
445.346 166.796 l
445.799 166.628 l
446.253 162.596 l
446.706 161.756 l
447.159 164.612 l
448.066 161.308 l
448.973 161.98 l
449.426 163.66 l
449.88 162.596 l
450.333 165.956 l
450.786 166.18 l
451.693 166.964 l
452.147 167.132 l
452.6 166.18 l
453.053 166.684 l
453.507 164.388 l
454.413 165.508 l
455.32 162.764 l
455.774 163.548 l
456.227 163.548 l
456.68 162.26 l
457.587 165.732 l
458.494 167.244 l
458.947 166.964 l
459.401 165.452 l
460.307 166.964 l
460.761 165.452 l
461.214 165.508 l
461.667 166.124 l
462.121 165.676 l
462.574 167.188 l
463.028 165.788 l
463.481 167.412 l
463.934 171.164 l
464.388 171.388 l
464.841 169.54 l
465.294 170.548 l
466.655 167.636 l
467.108 165.564 l
467.561 166.684 l
468.015 165.9 l
468.921 168.084 l
469.828 167.076 l
470.282 169.148 l
470.735 169.596 l
471.188 168.812 l
471.642 166.404 l
473.455 166.964 l
474.815 164.556 l
475.269 162.652 l
475.722 163.828 l
476.175 163.212 l
477.536 167.468 l
479.349 164.78 l
480.256 166.628 l
481.163 164.22 l
482.069 168.924 l
482.523 169.932 l
482.976 168.084 l
483.883 172.676 l
484.79 169.988 l
485.243 171.22 l
485.696 169.708 l
486.15 169.764 l
486.603 170.156 l
487.056 169.148 l
487.51 171.668 l
487.963 171.22 l
489.323 175.812 l
489.777 174.748 l
490.23 170.212 l
491.137 169.148 l
492.497 169.26 l
492.95 168.196 l
493.404 169.428 l
493.857 169.26 l
494.31 171.5 l
495.217 169.82 l
496.124 167.244 l
496.577 167.356 l
497.031 166.908 l
497.484 163.268 l
497.937 163.716 l
498.391 163.66 l
498.844 165.34 l
499.298 163.492 l
499.751 163.716 l
500.204 163.268 l
500.658 164.164 l
501.111 166.964 l
501.564 162.54 l
502.018 161.924 l
502.471 162.596 l
503.378 165.9 l
503.831 165.06 l
504.285 165.06 l
504.738 165.732 l
505.191 168.42 l
506.552 163.828 l
507.005 165.172 l
507.458 163.1 l
507.912 165.34 l
508.365 165.396 l
508.818 166.292 l
509.725 163.212 l
510.179 163.1 l
511.085 167.02 l
511.539 167.3 l
511.992 168.42 l
512.445 167.916 l
512.899 165.732 l
513.352 166.348 l
513.806 166.292 l
514.259 165.676 l
514.712 163.996 l
515.166 163.772 l
516.072 165.564 l
516.526 164.892 l
516.979 166.684 l
517.433 166.348 l
517.886 165.452 l
518.339 165.732 l
518.793 166.964 l
519.246 166.908 l
520.153 166.46 l
520.606 166.348 l
521.06 165.732 l
521.966 166.348 l
522.873 165.676 l
523.78 166.628 l
524.233 166.292 l
524.687 166.74 l
525.593 169.708 l
526.047 168.364 l
526.047 168.364 l
stroke
grestore
0.500 setlinewidth
0 setlinecap
0.000 setgray
gsave
/o {
gsave
newpath
translate
0 0 m
0 4 l
stroke
grestore
} bind def
73.125 44.1 o
grestore
gsave
/o {
gsave
newpath
translate
0 0 m
0 -4 l
stroke
grestore
} bind def
73.125 396.9 o
grestore
/DejaVuSans findfont
12.000 scalefont
setfont
gsave
70.101562 31.021875 translate
0.000000 rotate
0.000000 0.171875 m /zero glyphshow
grestore
gsave
/o {
gsave
newpath
translate
0 0 m
0 4 l
stroke
grestore
} bind def
163.8 44.1 o
grestore
gsave
/o {
gsave
newpath
translate
0 0 m
0 -4 l
stroke
grestore
} bind def
163.8 396.9 o
grestore
gsave
153.175000 31.021875 translate
0.000000 rotate
0.000000 0.171875 m /two glyphshow
7.634766 0.171875 m /zero glyphshow
15.269531 0.171875 m /zero glyphshow
grestore
gsave
/o {
gsave
newpath
translate
0 0 m
0 4 l
stroke
grestore
} bind def
254.475 44.1 o
grestore
gsave
/o {
gsave
newpath
translate
0 0 m
0 -4 l
stroke
grestore
} bind def
254.475 396.9 o
grestore
gsave
243.709375 31.021875 translate
0.000000 rotate
0.000000 0.171875 m /four glyphshow
7.634766 0.171875 m /zero glyphshow
15.269531 0.171875 m /zero glyphshow
grestore
gsave
/o {
gsave
newpath
translate
0 0 m
0 4 l
stroke
grestore
} bind def
345.15 44.1 o
grestore
gsave
/o {
gsave
newpath
translate
0 0 m
0 -4 l
stroke
grestore
} bind def
345.15 396.9 o
grestore
gsave
334.509375 31.021875 translate
0.000000 rotate
0.000000 0.171875 m /six glyphshow
7.634766 0.171875 m /zero glyphshow
15.269531 0.171875 m /zero glyphshow
grestore
gsave
/o {
gsave
newpath
translate
0 0 m
0 4 l
stroke
grestore
} bind def
435.825 44.1 o
grestore
gsave
/o {
gsave
newpath
translate
0 0 m
0 -4 l
stroke
grestore
} bind def
435.825 396.9 o
grestore
gsave
425.168750 31.021875 translate
0.000000 rotate
0.000000 0.171875 m /eight glyphshow
7.634766 0.171875 m /zero glyphshow
15.269531 0.171875 m /zero glyphshow
grestore
gsave
/o {
gsave
newpath
translate
0 0 m
0 4 l
stroke
grestore
} bind def
526.5 44.1 o
grestore
gsave
/o {
gsave
newpath
translate
0 0 m
0 -4 l
stroke
grestore
} bind def
526.5 396.9 o
grestore
gsave
512.273438 31.021875 translate
0.000000 rotate
0.000000 0.171875 m /one glyphshow
7.634766 0.171875 m /zero glyphshow
15.269531 0.171875 m /zero glyphshow
22.904297 0.171875 m /zero glyphshow
grestore
284.32 15.1 m
0 2.5 rmoveto
(steps) show
gsave
/o {
gsave
newpath
translate
0 0 m
4 0 l
stroke
grestore
} bind def
73.125 44.1 o
grestore
gsave
/o {
gsave
newpath
translate
0 0 m
-4 0 l
stroke
grestore
} bind def
526.5 44.1 o
grestore
gsave
51.625000 39.560937 translate
0.000000 rotate
0.000000 0.171875 m /zero glyphshow
7.634766 0.171875 m /period glyphshow
11.449219 0.171875 m /zero glyphshow
grestore
gsave
/o {
gsave
newpath
translate
0 0 m
4 0 l
stroke
grestore
} bind def
73.125 94.5 o
grestore
gsave
/o {
gsave
newpath
translate
0 0 m
-4 0 l
stroke
grestore
} bind def
526.5 94.5 o
grestore
gsave
51.937500 89.960938 translate
0.000000 rotate
0.000000 0.171875 m /zero glyphshow
7.634766 0.171875 m /period glyphshow
11.449219 0.171875 m /one glyphshow
grestore
gsave
/o {
gsave
newpath
translate
0 0 m
4 0 l
stroke
grestore
} bind def
73.125 144.9 o
grestore
gsave
/o {
gsave
newpath
translate
0 0 m
-4 0 l
stroke
grestore
} bind def
526.5 144.9 o
grestore
gsave
52.031250 140.360938 translate
0.000000 rotate
0.000000 0.171875 m /zero glyphshow
7.634766 0.171875 m /period glyphshow
11.449219 0.171875 m /two glyphshow
grestore
gsave
/o {
gsave
newpath
translate
0 0 m
4 0 l
stroke
grestore
} bind def
73.125 195.3 o
grestore
gsave
/o {
gsave
newpath
translate
0 0 m
-4 0 l
stroke
grestore
} bind def
526.5 195.3 o
grestore
gsave
51.796875 190.760938 translate
0.000000 rotate
0.000000 0.171875 m /zero glyphshow
7.634766 0.171875 m /period glyphshow
11.449219 0.171875 m /three glyphshow
grestore
gsave
/o {
gsave
newpath
translate
0 0 m
4 0 l
stroke
grestore
} bind def
73.125 245.7 o
grestore
gsave
/o {
gsave
newpath
translate
0 0 m
-4 0 l
stroke
grestore
} bind def
526.5 245.7 o
grestore
gsave
51.500000 241.160938 translate
0.000000 rotate
0.000000 0.171875 m /zero glyphshow
7.634766 0.171875 m /period glyphshow
11.449219 0.171875 m /four glyphshow
grestore
gsave
/o {
gsave
newpath
translate
0 0 m
4 0 l
stroke
grestore
} bind def
73.125 296.1 o
grestore
gsave
/o {
gsave
newpath
translate
0 0 m
-4 0 l
stroke
grestore
} bind def
526.5 296.1 o
grestore
gsave
51.875000 291.560938 translate
0.000000 rotate
0.000000 0.171875 m /zero glyphshow
7.634766 0.171875 m /period glyphshow
11.449219 0.171875 m /five glyphshow
grestore
gsave
/o {
gsave
newpath
translate
0 0 m
4 0 l
stroke
grestore
} bind def
73.125 346.5 o
grestore
gsave
/o {
gsave
newpath
translate
0 0 m
-4 0 l
stroke
grestore
} bind def
526.5 346.5 o
grestore
gsave
51.593750 341.960938 translate
0.000000 rotate
0.000000 0.171875 m /zero glyphshow
7.634766 0.171875 m /period glyphshow
11.449219 0.171875 m /six glyphshow
grestore
gsave
/o {
gsave
newpath
translate
0 0 m
4 0 l
stroke
grestore
} bind def
73.125 396.9 o
grestore
gsave
/o {
gsave
newpath
translate
0 0 m
-4 0 l
stroke
grestore
} bind def
526.5 396.9 o
grestore
gsave
51.859375 392.360938 translate
0.000000 rotate
0.000000 0.171875 m /zero glyphshow
7.634766 0.171875 m /period glyphshow
11.449219 0.171875 m /seven glyphshow
grestore
46.5 104.578 m
gsave
90 rotate
0 2.5 rmoveto
(ensemble average of interface density) show
grestore
1.000 setlinewidth
2 setlinecap
gsave
73.125 396.9 m
526.5 396.9 l
stroke
grestore
gsave
526.5 44.1 m
526.5 396.9 l
stroke
grestore
gsave
73.125 44.1 m
526.5 44.1 l
stroke
grestore
gsave
73.125 44.1 m
73.125 396.9 l
stroke
grestore
/DejaVuSans findfont
14.400 scalefont
setfont
148.641 401.9 m
0 2.906 rmoveto
(tolerance= 0.30  density=0.80  frac=0.20) show
gsave
281.163 323.139 m
519.3 323.139 l
519.3 389.7 l
281.163 389.7 l
281.163 323.139 l
cl
gsave
1.000 setgray
fill
grestore
stroke
grestore
0 setlinecap
[6 6] 0 setdash
1.000 0.000 0.000 setrgbcolor
gsave
291.243 378.339 m
311.403 378.339 l
stroke
grestore
0.000 setgray
327.243 370.393 m
0 2.906 rmoveto
(no perturbation) show
0.000 0.000 1.000 setrgbcolor
gsave
291.243 357.593 m
311.403 357.593 l
stroke
grestore
0.000 setgray
327.243 349.646 m
0 2.906 rmoveto
(perturb. starting at t=0) show
2 setlinecap
[] 0 setdash
0.000 0.000 1.000 setrgbcolor
gsave
291.243 336.846 m
311.403 336.846 l
stroke
grestore
0.000 setgray
327.243 328.899 m
0 2.906 rmoveto
(perturb. starting at t=500) show

end
showpage
