%!PS-Adobe-3.0 EPSF-3.0
%%Title: /home/aurelien/synchro/boulot/code/papers_code/schelling-2012/fig/fit_rm_simu_mod2.eps
%%Creator: matplotlib version 0.99.3, http://matplotlib.sourceforge.net/
%%CreationDate: Tue Oct  2 15:15:47 2012
%%Orientation: portrait
%%BoundingBox: 13 175 598 616
%%EndComments
%%BeginProlog
/mpldict 8 dict def
mpldict begin
/m { moveto } bind def
/l { lineto } bind def
/r { rlineto } bind def
/c { curveto } bind def
/cl { closepath } bind def
/box {
m
1 index 0 r
0 exch r
neg 0 r
cl
} bind def
/clipbox {
box
clip
newpath
} bind def
%!PS-Adobe-3.0 Resource-Font
%%Title: DejaVu Sans
%%Copyright: Copyright (c) 2003 by Bitstream, Inc. All Rights Reserved. Copyright (c) 2006 by Tavmjong Bah. All Rights Reserved. DejaVu changes are in public domain 
%%Creator: Converted from TrueType by PPR
25 dict begin
/_d{bind def}bind def
/_m{moveto}_d
/_l{lineto}_d
/_cl{closepath eofill}_d
/_c{curveto}_d
/_sc{7 -1 roll{setcachedevice}{pop pop pop pop pop pop}ifelse}_d
/_e{exec}_d
/FontName /DejaVuSans def
/PaintType 0 def
/FontMatrix[.001 0 0 .001 0 0]def
/FontBBox[-1020 -414 1681 1167]def
/FontType 3 def
/Encoding StandardEncoding def
/FontInfo 10 dict dup begin
/FamilyName (DejaVu Sans) def
/FullName (DejaVu Sans) def
/Notice (Copyright (c) 2003 by Bitstream, Inc. All Rights Reserved. Copyright (c) 2006 by Tavmjong Bah. All Rights Reserved. DejaVu changes are in public domain ) def
/Weight (Book) def
/Version (Version 2.31) def
/ItalicAngle 0.0 def
/isFixedPitch false def
/UnderlinePosition -130 def
/UnderlineThickness 90 def
end readonly def
/CharStrings 38 dict dup begin
/space{318 0 0 0 0 0 _sc
}_d
/parenleft{390 0 86 -131 310 759 _sc
310 759 _m
266 683 234 609 213 536 _c
191 463 181 389 181 314 _c
181 238 191 164 213 91 _c
234 17 266 -56 310 -131 _c
232 -131 _l
183 -54 146 20 122 94 _c
98 168 86 241 86 314 _c
86 386 98 459 122 533 _c
146 607 182 682 232 759 _c
310 759 _l
_cl}_d
/parenright{390 0 80 -131 304 759 _sc
80 759 _m
158 759 _l
206 682 243 607 267 533 _c
291 459 304 386 304 314 _c
304 241 291 168 267 94 _c
243 20 206 -54 158 -131 _c
80 -131 _l
123 -56 155 17 177 91 _c
198 164 209 238 209 314 _c
209 389 198 463 177 536 _c
155 609 123 683 80 759 _c
_cl}_d
/comma{318 0 77 -115 220 124 _sc
117 124 _m
220 124 _l
220 40 _l
140 -115 _l
77 -115 _l
117 40 _l
117 124 _l
_cl}_d
/hyphen{361 0 49 234 312 314 _sc
49 314 _m
312 314 _l
312 234 _l
49 234 _l
49 314 _l
_cl}_d
/period{318 0 107 0 210 124 _sc
107 124 _m
210 124 _l
210 0 _l
107 0 _l
107 124 _l
_cl}_d
/slash{337 0 0 -92 337 729 _sc
254 729 _m
337 729 _l
83 -92 _l
0 -92 _l
254 729 _l
_cl}_d
/zero{636 0 66 -13 570 742 _sc
318 664 _m
267 664 229 639 203 589 _c
177 539 165 464 165 364 _c
165 264 177 189 203 139 _c
229 89 267 64 318 64 _c
369 64 407 89 433 139 _c
458 189 471 264 471 364 _c
471 464 458 539 433 589 _c
407 639 369 664 318 664 _c
318 742 _m
399 742 461 709 505 645 _c
548 580 570 486 570 364 _c
570 241 548 147 505 83 _c
461 19 399 -13 318 -13 _c
236 -13 173 19 130 83 _c
87 147 66 241 66 364 _c
66 486 87 580 130 645 _c
173 709 236 742 318 742 _c
_cl}_d
/one{636 0 110 0 544 729 _sc
124 83 _m
285 83 _l
285 639 _l
110 604 _l
110 694 _l
284 729 _l
383 729 _l
383 83 _l
544 83 _l
544 0 _l
124 0 _l
124 83 _l
_cl}_d
/two{{636 0 73 0 536 742 _sc
192 83 _m
536 83 _l
536 0 _l
73 0 _l
73 83 _l
110 121 161 173 226 239 _c
290 304 331 346 348 365 _c
380 400 402 430 414 455 _c
426 479 433 504 433 528 _c
433 566 419 598 392 622 _c
365 646 330 659 286 659 _c
255 659 222 653 188 643 _c
154 632 117 616 78 594 _c
78 694 _l
118 710 155 722 189 730 _c
223 738 255 742 284 742 _c
359 742 419 723 464 685 _c
509 647 532 597 532 534 _c
532 504 526 475 515 449 _c
504 422 484 390 454 354 _c
446 344 420 317 376 272 _c
332 227 271 164 192 83 _c
_cl}_e}_d
/three{{636 0 76 -13 556 742 _sc
406 393 _m
453 383 490 362 516 330 _c
542 298 556 258 556 212 _c
556 140 531 84 482 45 _c
432 6 362 -13 271 -13 _c
240 -13 208 -10 176 -4 _c
144 1 110 10 76 22 _c
76 117 _l
103 101 133 89 166 81 _c
198 73 232 69 268 69 _c
330 69 377 81 409 105 _c
441 129 458 165 458 212 _c
458 254 443 288 413 312 _c
383 336 341 349 287 349 _c
202 349 _l
202 430 _l
291 430 _l
339 430 376 439 402 459 _c
428 478 441 506 441 543 _c
441 580 427 609 401 629 _c
374 649 336 659 287 659 _c
260 659 231 656 200 650 _c
169 644 135 635 98 623 _c
98 711 _l
135 721 170 729 203 734 _c
235 739 266 742 296 742 _c
}_e{370 742 429 725 473 691 _c
517 657 539 611 539 553 _c
539 513 527 479 504 451 _c
481 423 448 403 406 393 _c
_cl}_e}_d
/four{636 0 49 0 580 729 _sc
378 643 _m
129 254 _l
378 254 _l
378 643 _l
352 729 _m
476 729 _l
476 254 _l
580 254 _l
580 172 _l
476 172 _l
476 0 _l
378 0 _l
378 172 _l
49 172 _l
49 267 _l
352 729 _l
_cl}_d
/five{{636 0 77 -13 549 729 _sc
108 729 _m
495 729 _l
495 646 _l
198 646 _l
198 467 _l
212 472 227 476 241 478 _c
255 480 270 482 284 482 _c
365 482 429 459 477 415 _c
525 370 549 310 549 234 _c
549 155 524 94 475 51 _c
426 8 357 -13 269 -13 _c
238 -13 207 -10 175 -6 _c
143 -1 111 6 77 17 _c
77 116 _l
106 100 136 88 168 80 _c
199 72 232 69 267 69 _c
323 69 368 83 401 113 _c
433 143 450 183 450 234 _c
450 284 433 324 401 354 _c
368 384 323 399 267 399 _c
241 399 214 396 188 390 _c
162 384 135 375 108 363 _c
108 729 _l
_cl}_e}_d
/six{{636 0 70 -13 573 742 _sc
330 404 _m
286 404 251 388 225 358 _c
199 328 186 286 186 234 _c
186 181 199 139 225 109 _c
251 79 286 64 330 64 _c
374 64 409 79 435 109 _c
461 139 474 181 474 234 _c
474 286 461 328 435 358 _c
409 388 374 404 330 404 _c
526 713 _m
526 623 _l
501 635 476 644 451 650 _c
425 656 400 659 376 659 _c
310 659 260 637 226 593 _c
192 549 172 482 168 394 _c
187 422 211 444 240 459 _c
269 474 301 482 336 482 _c
409 482 467 459 509 415 _c
551 371 573 310 573 234 _c
573 159 550 99 506 54 _c
462 9 403 -13 330 -13 _c
246 -13 181 19 137 83 _c
92 147 70 241 70 364 _c
70 479 97 571 152 639 _c
206 707 280 742 372 742 _c
}_e{396 742 421 739 447 735 _c
472 730 498 723 526 713 _c
_cl}_e}_d
/seven{636 0 82 0 551 729 _sc
82 729 _m
551 729 _l
551 687 _l
286 0 _l
183 0 _l
432 646 _l
82 646 _l
82 729 _l
_cl}_d
/nine{{636 0 63 -13 566 742 _sc
110 15 _m
110 105 _l
134 93 159 84 185 78 _c
210 72 235 69 260 69 _c
324 69 374 90 408 134 _c
442 178 462 244 468 334 _c
448 306 424 284 396 269 _c
367 254 335 247 300 247 _c
226 247 168 269 126 313 _c
84 357 63 417 63 494 _c
63 568 85 628 129 674 _c
173 719 232 742 306 742 _c
390 742 455 709 499 645 _c
543 580 566 486 566 364 _c
566 248 538 157 484 89 _c
429 21 356 -13 264 -13 _c
239 -13 214 -10 189 -6 _c
163 -2 137 5 110 15 _c
306 324 _m
350 324 385 339 411 369 _c
437 399 450 441 450 494 _c
450 546 437 588 411 618 _c
385 648 350 664 306 664 _c
262 664 227 648 201 618 _c
175 588 162 546 162 494 _c
}_e{162 441 175 399 201 369 _c
227 339 262 324 306 324 _c
_cl}_e}_d
/equal{838 0 106 172 732 454 _sc
106 454 _m
732 454 _l
732 372 _l
106 372 _l
106 454 _l
106 255 _m
732 255 _l
732 172 _l
106 172 _l
106 255 _l
_cl}_d
/F{575 0 98 0 517 729 _sc
98 729 _m
517 729 _l
517 646 _l
197 646 _l
197 431 _l
486 431 _l
486 348 _l
197 348 _l
197 0 _l
98 0 _l
98 729 _l
_cl}_d
/M{863 0 98 0 765 729 _sc
98 729 _m
245 729 _l
431 233 _l
618 729 _l
765 729 _l
765 0 _l
669 0 _l
669 640 _l
481 140 _l
382 140 _l
194 640 _l
194 0 _l
98 0 _l
98 729 _l
_cl}_d
/R{{695 0 98 0 666 729 _sc
444 342 _m
465 334 486 319 506 296 _c
526 272 546 240 566 199 _c
666 0 _l
560 0 _l
467 187 _l
443 235 419 268 397 284 _c
374 300 343 308 304 308 _c
197 308 _l
197 0 _l
98 0 _l
98 729 _l
321 729 _l
404 729 466 711 507 677 _c
548 642 569 589 569 519 _c
569 473 558 434 537 404 _c
515 374 484 353 444 342 _c
197 648 _m
197 389 _l
321 389 _l
368 389 404 400 428 422 _c
452 444 465 476 465 519 _c
465 561 452 593 428 615 _c
404 637 368 648 321 648 _c
197 648 _l
_cl}_e}_d
/a{{613 0 60 -13 522 560 _sc
343 275 _m
270 275 220 266 192 250 _c
164 233 150 205 150 165 _c
150 133 160 107 181 89 _c
202 70 231 61 267 61 _c
317 61 357 78 387 114 _c
417 149 432 196 432 255 _c
432 275 _l
343 275 _l
522 312 _m
522 0 _l
432 0 _l
432 83 _l
411 49 385 25 355 10 _c
325 -5 287 -13 243 -13 _c
187 -13 142 2 109 33 _c
76 64 60 106 60 159 _c
60 220 80 266 122 298 _c
163 329 224 345 306 345 _c
432 345 _l
432 354 _l
432 395 418 427 391 450 _c
364 472 326 484 277 484 _c
245 484 215 480 185 472 _c
155 464 127 453 100 439 _c
100 522 _l
}_e{132 534 164 544 195 550 _c
226 556 256 560 286 560 _c
365 560 424 539 463 498 _c
502 457 522 395 522 312 _c
_cl}_e}_d
/b{{635 0 91 -13 580 760 _sc
487 273 _m
487 339 473 390 446 428 _c
418 466 381 485 334 485 _c
286 485 249 466 222 428 _c
194 390 181 339 181 273 _c
181 207 194 155 222 117 _c
249 79 286 61 334 61 _c
381 61 418 79 446 117 _c
473 155 487 207 487 273 _c
181 464 _m
199 496 223 520 252 536 _c
281 552 316 560 356 560 _c
422 560 476 533 518 481 _c
559 428 580 359 580 273 _c
580 187 559 117 518 65 _c
476 13 422 -13 356 -13 _c
316 -13 281 -5 252 10 _c
223 25 199 49 181 82 _c
181 0 _l
91 0 _l
91 760 _l
181 760 _l
181 464 _l
_cl}_e}_d
/c{{550 0 55 -13 488 560 _sc
488 526 _m
488 442 _l
462 456 437 466 411 473 _c
385 480 360 484 334 484 _c
276 484 230 465 198 428 _c
166 391 150 339 150 273 _c
150 206 166 154 198 117 _c
230 80 276 62 334 62 _c
360 62 385 65 411 72 _c
437 79 462 90 488 104 _c
488 21 _l
462 9 436 0 410 -5 _c
383 -10 354 -13 324 -13 _c
242 -13 176 12 128 64 _c
79 115 55 185 55 273 _c
55 362 79 432 128 483 _c
177 534 244 560 330 560 _c
358 560 385 557 411 551 _c
437 545 463 537 488 526 _c
_cl}_e}_d
/d{{635 0 55 -13 544 760 _sc
454 464 _m
454 760 _l
544 760 _l
544 0 _l
454 0 _l
454 82 _l
435 49 411 25 382 10 _c
353 -5 319 -13 279 -13 _c
213 -13 159 13 117 65 _c
75 117 55 187 55 273 _c
55 359 75 428 117 481 _c
159 533 213 560 279 560 _c
319 560 353 552 382 536 _c
411 520 435 496 454 464 _c
148 273 _m
148 207 161 155 188 117 _c
215 79 253 61 301 61 _c
348 61 385 79 413 117 _c
440 155 454 207 454 273 _c
454 339 440 390 413 428 _c
385 466 348 485 301 485 _c
253 485 215 466 188 428 _c
161 390 148 339 148 273 _c
_cl}_e}_d
/e{{615 0 55 -13 562 560 _sc
562 296 _m
562 252 _l
149 252 _l
153 190 171 142 205 110 _c
238 78 284 62 344 62 _c
378 62 412 66 444 74 _c
476 82 509 95 541 113 _c
541 28 _l
509 14 476 3 442 -3 _c
408 -9 373 -13 339 -13 _c
251 -13 182 12 131 62 _c
80 112 55 181 55 268 _c
55 357 79 428 127 481 _c
175 533 241 560 323 560 _c
397 560 455 536 498 489 _c
540 441 562 377 562 296 _c
472 322 _m
471 371 457 410 431 440 _c
404 469 368 484 324 484 _c
274 484 234 469 204 441 _c
174 413 156 373 152 322 _c
472 322 _l
_cl}_e}_d
/f{352 0 23 0 371 760 _sc
371 760 _m
371 685 _l
285 685 _l
253 685 230 678 218 665 _c
205 652 199 629 199 595 _c
199 547 _l
347 547 _l
347 477 _l
199 477 _l
199 0 _l
109 0 _l
109 477 _l
23 477 _l
23 547 _l
109 547 _l
109 585 _l
109 645 123 690 151 718 _c
179 746 224 760 286 760 _c
371 760 _l
_cl}_d
/h{634 0 91 0 549 760 _sc
549 330 _m
549 0 _l
459 0 _l
459 327 _l
459 379 448 417 428 443 _c
408 469 378 482 338 482 _c
289 482 251 466 223 435 _c
195 404 181 362 181 309 _c
181 0 _l
91 0 _l
91 760 _l
181 760 _l
181 462 _l
202 494 227 519 257 535 _c
286 551 320 560 358 560 _c
420 560 468 540 500 501 _c
532 462 549 405 549 330 _c
_cl}_d
/i{278 0 94 0 184 760 _sc
94 547 _m
184 547 _l
184 0 _l
94 0 _l
94 547 _l
94 760 _m
184 760 _l
184 646 _l
94 646 _l
94 760 _l
_cl}_d
/l{278 0 94 0 184 760 _sc
94 760 _m
184 760 _l
184 0 _l
94 0 _l
94 760 _l
_cl}_d
/m{{974 0 91 0 889 560 _sc
520 442 _m
542 482 569 511 600 531 _c
631 550 668 560 711 560 _c
767 560 811 540 842 500 _c
873 460 889 403 889 330 _c
889 0 _l
799 0 _l
799 327 _l
799 379 789 418 771 444 _c
752 469 724 482 686 482 _c
639 482 602 466 575 435 _c
548 404 535 362 535 309 _c
535 0 _l
445 0 _l
445 327 _l
445 379 435 418 417 444 _c
398 469 369 482 331 482 _c
285 482 248 466 221 435 _c
194 404 181 362 181 309 _c
181 0 _l
91 0 _l
91 547 _l
181 547 _l
181 462 _l
201 495 226 520 255 536 _c
283 552 317 560 357 560 _c
397 560 430 550 458 530 _c
486 510 506 480 520 442 _c
}_e{_cl}_e}_d
/n{634 0 91 0 549 560 _sc
549 330 _m
549 0 _l
459 0 _l
459 327 _l
459 379 448 417 428 443 _c
408 469 378 482 338 482 _c
289 482 251 466 223 435 _c
195 404 181 362 181 309 _c
181 0 _l
91 0 _l
91 547 _l
181 547 _l
181 462 _l
202 494 227 519 257 535 _c
286 551 320 560 358 560 _c
420 560 468 540 500 501 _c
532 462 549 405 549 330 _c
_cl}_d
/o{612 0 55 -13 557 560 _sc
306 484 _m
258 484 220 465 192 427 _c
164 389 150 338 150 273 _c
150 207 163 156 191 118 _c
219 80 257 62 306 62 _c
354 62 392 80 420 118 _c
448 156 462 207 462 273 _c
462 337 448 389 420 427 _c
392 465 354 484 306 484 _c
306 560 _m
384 560 445 534 490 484 _c
534 433 557 363 557 273 _c
557 183 534 113 490 63 _c
445 12 384 -13 306 -13 _c
227 -13 165 12 121 63 _c
77 113 55 183 55 273 _c
55 363 77 433 121 484 _c
165 534 227 560 306 560 _c
_cl}_d
/p{{635 0 91 -207 580 560 _sc
181 82 _m
181 -207 _l
91 -207 _l
91 547 _l
181 547 _l
181 464 _l
199 496 223 520 252 536 _c
281 552 316 560 356 560 _c
422 560 476 533 518 481 _c
559 428 580 359 580 273 _c
580 187 559 117 518 65 _c
476 13 422 -13 356 -13 _c
316 -13 281 -5 252 10 _c
223 25 199 49 181 82 _c
487 273 _m
487 339 473 390 446 428 _c
418 466 381 485 334 485 _c
286 485 249 466 222 428 _c
194 390 181 339 181 273 _c
181 207 194 155 222 117 _c
249 79 286 61 334 61 _c
381 61 418 79 446 117 _c
473 155 487 207 487 273 _c
_cl}_e}_d
/r{411 0 91 0 411 560 _sc
411 463 _m
401 469 390 473 378 476 _c
366 478 353 480 339 480 _c
288 480 249 463 222 430 _c
194 397 181 350 181 288 _c
181 0 _l
91 0 _l
91 547 _l
181 547 _l
181 462 _l
199 495 224 520 254 536 _c
284 552 321 560 365 560 _c
371 560 378 559 386 559 _c
393 558 401 557 411 555 _c
411 463 _l
_cl}_d
/s{{521 0 54 -13 472 560 _sc
443 531 _m
443 446 _l
417 458 391 468 364 475 _c
336 481 308 485 279 485 _c
234 485 200 478 178 464 _c
156 450 145 430 145 403 _c
145 382 153 366 169 354 _c
185 342 217 330 265 320 _c
296 313 _l
360 299 405 279 432 255 _c
458 230 472 195 472 151 _c
472 100 452 60 412 31 _c
372 1 316 -13 246 -13 _c
216 -13 186 -10 154 -5 _c
122 0 89 8 54 20 _c
54 113 _l
87 95 120 82 152 74 _c
184 65 216 61 248 61 _c
290 61 323 68 346 82 _c
368 96 380 117 380 144 _c
380 168 371 187 355 200 _c
339 213 303 226 247 238 _c
216 245 _l
160 257 119 275 95 299 _c
70 323 58 356 58 399 _c
58 450 76 490 112 518 _c
148 546 200 560 268 560 _c
}_e{301 560 332 557 362 552 _c
391 547 418 540 443 531 _c
_cl}_e}_d
/t{392 0 27 0 368 702 _sc
183 702 _m
183 547 _l
368 547 _l
368 477 _l
183 477 _l
183 180 _l
183 135 189 106 201 94 _c
213 81 238 75 276 75 _c
368 75 _l
368 0 _l
276 0 _l
206 0 158 13 132 39 _c
106 65 93 112 93 180 _c
93 477 _l
27 477 _l
27 547 _l
93 547 _l
93 702 _l
183 702 _l
_cl}_d
/u{634 0 85 -13 543 560 _sc
85 216 _m
85 547 _l
175 547 _l
175 219 _l
175 167 185 129 205 103 _c
225 77 255 64 296 64 _c
344 64 383 79 411 110 _c
439 141 453 183 453 237 _c
453 547 _l
543 547 _l
543 0 _l
453 0 _l
453 84 _l
431 50 405 26 377 10 _c
348 -5 315 -13 277 -13 _c
214 -13 166 6 134 45 _c
101 83 85 140 85 216 _c
_cl}_d
/y{592 0 30 -207 562 547 _sc
322 -50 _m
296 -114 271 -157 247 -177 _c
223 -197 191 -207 151 -207 _c
79 -207 _l
79 -132 _l
132 -132 _l
156 -132 175 -126 189 -114 _c
203 -102 218 -75 235 -31 _c
251 9 _l
30 547 _l
125 547 _l
296 119 _l
467 547 _l
562 547 _l
322 -50 _l
_cl}_d
end readonly def

/BuildGlyph
 {exch begin
 CharStrings exch
 2 copy known not{pop /.notdef}if
 true 3 1 roll get exec
 end}_d

/BuildChar {
 1 index /Encoding get exch get
 1 index /BuildGlyph get exec
}_d

FontName currentdict end definefont pop
end
%%EndProlog
mpldict begin
13.5 175.5 translate
585 441 0 0 clipbox
1.000 setlinewidth
1 setlinejoin
2 setlinecap
[] 0 setdash
1.000 setgray
gsave
0 0 m
585 0 l
585 441 l
0 441 l
0 0 l
gsave
fill
grestore
stroke
grestore
gsave
73.125 44.1 m
526.5 44.1 l
526.5 396.9 l
73.125 396.9 l
73.125 44.1 l
fill
grestore
0.000 0.000 1.000 setrgbcolor
gsave
453.4 352.8 73.12 44.1 clipbox
88.425 220.735 m
108.384 218.383 l
124.947 215.656 l
124.947 215.656 l
139.108 212.599 l
151.478 209.263 l
162.463 205.699 l
174.099 201.239 l
185.598 196.097 l
197.126 190.207 l
209.497 183.139 l
225.819 172.956 l
251.024 157.145 l
260.985 151.654 l
269.762 147.487 l
278.571 144.067 l
287.356 141.468 l
296.128 139.649 l
304.861 138.499 l
316.136 137.731 l
332.408 137.391 l
388.744 137.343 l
462.574 137.343 l
462.574 137.343 l
stroke
grestore
0.500 setlinewidth
0 setlinecap
0.000 setgray
gsave
453.4 352.8 73.12 44.1 clipbox
/o {
gsave
newpath
translate
0 -3 m
0.795609 -3 1.55874 -2.6839 2.12132 -2.12132 c
2.6839 -1.55874 3 -0.795609 3 0 c
3 0.795609 2.6839 1.55874 2.12132 2.12132 c
1.55874 2.6839 0.795609 3 0 3 c
-0.795609 3 -1.55874 2.6839 -2.12132 2.12132 c
-2.6839 1.55874 -3 0.795609 -3 0 c
-3 -0.795609 -2.6839 -1.55874 -2.12132 -2.12132 c
-1.55874 -2.6839 -0.795609 -3 0 -3 c
cl
gsave
0.000 0.500 0.000 setrgbcolor
fill
grestore
stroke
grestore
} bind def
88.425 292.068 o
88.425 292.068 o
93.1166 287.57 o
97.3997 283.714 o
101.34 278.573 o
104.988 268.077 o
108.384 267.006 o
114.545 258.866 o
117.359 256.938 o
120.02 246.014 o
124.947 248.37 o
129.425 238.088 o
133.529 229.091 o
137.317 224.593 o
140.835 215.596 o
144.118 207.028 o
148.665 215.596 o
151.478 212.597 o
155.418 223.308 o
160.225 221.808 o
163.544 220.737 o
167.649 205.528 o
171.437 202.958 o
174.955 197.174 o
179.025 192.033 o
182.785 202.744 o
186.277 205.528 o
190.165 192.676 o
193.769 192.248 o
197.664 190.962 o
201.769 181.966 o
205.557 178.324 o
209.075 170.613 o
212.753 180.252 o
216.905 181.109 o
220.397 176.396 o
224.285 163.544 o
228.177 158.617 o
231.784 178.752 o
235.642 158.617 o
239.449 161.83 o
243.195 156.046 o
247.069 163.33 o
250.843 146.836 o
254.685 144.051 o
258.405 140.409 o
262.153 137.196 o
266.038 150.905 o
269.762 157.332 o
273.568 139.338 o
277.314 132.484 o
281.091 138.91 o
284.872 138.481 o
288.721 149.834 o
292.447 144.908 o
296.273 157.117 o
300.024 146.407 o
303.82 146.836 o
307.574 144.479 o
311.381 137.196 o
315.162 154.975 o
318.946 138.267 o
322.715 129.27 o
326.489 150.477 o
330.284 125.201 o
334.077 150.905 o
337.847 137.625 o
341.636 133.983 o
345.395 131.841 o
349.183 145.336 o
352.975 124.558 o
356.75 137.839 o
360.531 145.979 o
364.314 127.771 o
368.079 109.778 o
371.858 126.272 o
375.641 122.63 o
379.421 146.193 o
383.204 125.201 o
386.981 130.127 o
390.764 142.337 o
394.543 137.41 o
398.325 122.844 o
402.107 129.056 o
405.884 151.762 o
409.66 133.555 o
413.441 150.477 o
417.219 139.338 o
421.003 142.123 o
424.778 139.981 o
428.56 154.547 o
432.34 132.484 o
436.117 142.123 o
439.899 129.485 o
443.679 142.551 o
447.457 127.557 o
451.237 137.41 o
455.017 124.772 o
458.794 130.127 o
462.574 126.7 o
grestore
gsave
/o {
gsave
newpath
translate
0 0 m
0 4 l
stroke
grestore
} bind def
88.425 44.1 o
grestore
gsave
/o {
gsave
newpath
translate
0 0 m
0 -4 l
stroke
grestore
} bind def
88.425 396.9 o
grestore
gsave
73.425000 21.100000 translate
0.000000 rotate
/DejaVuSans findfont
16.0 scalefont
setfont
0.000000 1.579687 moveto
/one glyphshow

10.179688 1.579687 moveto
/zero glyphshow

/DejaVuSans findfont
11.2 scalefont
setfont
20.359375 10.829687 moveto
/one glyphshow


grestore
gsave
/o {
gsave
newpath
translate
0 0 m
0 4 l
stroke
grestore
} bind def
201.769 44.1 o
grestore
gsave
/o {
gsave
newpath
translate
0 0 m
0 -4 l
stroke
grestore
} bind def
201.769 396.9 o
grestore
gsave
186.768750 21.100000 translate
0.000000 rotate
/DejaVuSans findfont
16.0 scalefont
setfont
0.000000 1.437500 moveto
/one glyphshow

10.179688 1.437500 moveto
/zero glyphshow

/DejaVuSans findfont
11.2 scalefont
setfont
20.359375 10.687500 moveto
/two glyphshow


grestore
gsave
/o {
gsave
newpath
translate
0 0 m
0 4 l
stroke
grestore
} bind def
315.113 44.1 o
grestore
gsave
/o {
gsave
newpath
translate
0 0 m
0 -4 l
stroke
grestore
} bind def
315.113 396.9 o
grestore
gsave
300.112500 21.100000 translate
0.000000 rotate
/DejaVuSans findfont
16.0 scalefont
setfont
0.000000 1.437500 moveto
/one glyphshow

10.179688 1.437500 moveto
/zero glyphshow

/DejaVuSans findfont
11.2 scalefont
setfont
20.359375 10.687500 moveto
/three glyphshow


grestore
gsave
/o {
gsave
newpath
translate
0 0 m
0 4 l
stroke
grestore
} bind def
428.456 44.1 o
grestore
gsave
/o {
gsave
newpath
translate
0 0 m
0 -4 l
stroke
grestore
} bind def
428.456 396.9 o
grestore
gsave
413.456250 21.100000 translate
0.000000 rotate
/DejaVuSans findfont
16.0 scalefont
setfont
0.000000 1.579687 moveto
/one glyphshow

10.179688 1.579687 moveto
/zero glyphshow

/DejaVuSans findfont
11.2 scalefont
setfont
20.359375 10.829687 moveto
/four glyphshow


grestore
gsave
/o {
gsave
newpath
translate
0 0 m
0 2 l
stroke
grestore
} bind def
77.4409 44.1 o
grestore
gsave
/o {
gsave
newpath
translate
0 0 m
0 -2 l
stroke
grestore
} bind def
77.4409 396.9 o
grestore
gsave
/o {
gsave
newpath
translate
0 0 m
0 2 l
stroke
grestore
} bind def
83.2387 44.1 o
grestore
gsave
/o {
gsave
newpath
translate
0 0 m
0 -2 l
stroke
grestore
} bind def
83.2387 396.9 o
grestore
gsave
/o {
gsave
newpath
translate
0 0 m
0 2 l
stroke
grestore
} bind def
122.545 44.1 o
grestore
gsave
/o {
gsave
newpath
translate
0 0 m
0 -2 l
stroke
grestore
} bind def
122.545 396.9 o
grestore
gsave
/o {
gsave
newpath
translate
0 0 m
0 2 l
stroke
grestore
} bind def
142.504 44.1 o
grestore
gsave
/o {
gsave
newpath
translate
0 0 m
0 -2 l
stroke
grestore
} bind def
142.504 396.9 o
grestore
gsave
/o {
gsave
newpath
translate
0 0 m
0 2 l
stroke
grestore
} bind def
156.665 44.1 o
grestore
gsave
/o {
gsave
newpath
translate
0 0 m
0 -2 l
stroke
grestore
} bind def
156.665 396.9 o
grestore
gsave
/o {
gsave
newpath
translate
0 0 m
0 2 l
stroke
grestore
} bind def
167.649 44.1 o
grestore
gsave
/o {
gsave
newpath
translate
0 0 m
0 -2 l
stroke
grestore
} bind def
167.649 396.9 o
grestore
gsave
/o {
gsave
newpath
translate
0 0 m
0 2 l
stroke
grestore
} bind def
176.624 44.1 o
grestore
gsave
/o {
gsave
newpath
translate
0 0 m
0 -2 l
stroke
grestore
} bind def
176.624 396.9 o
grestore
gsave
/o {
gsave
newpath
translate
0 0 m
0 2 l
stroke
grestore
} bind def
184.212 44.1 o
grestore
gsave
/o {
gsave
newpath
translate
0 0 m
0 -2 l
stroke
grestore
} bind def
184.212 396.9 o
grestore
gsave
/o {
gsave
newpath
translate
0 0 m
0 2 l
stroke
grestore
} bind def
190.785 44.1 o
grestore
gsave
/o {
gsave
newpath
translate
0 0 m
0 -2 l
stroke
grestore
} bind def
190.785 396.9 o
grestore
gsave
/o {
gsave
newpath
translate
0 0 m
0 2 l
stroke
grestore
} bind def
196.582 44.1 o
grestore
gsave
/o {
gsave
newpath
translate
0 0 m
0 -2 l
stroke
grestore
} bind def
196.582 396.9 o
grestore
gsave
/o {
gsave
newpath
translate
0 0 m
0 2 l
stroke
grestore
} bind def
235.889 44.1 o
grestore
gsave
/o {
gsave
newpath
translate
0 0 m
0 -2 l
stroke
grestore
} bind def
235.889 396.9 o
grestore
gsave
/o {
gsave
newpath
translate
0 0 m
0 2 l
stroke
grestore
} bind def
255.847 44.1 o
grestore
gsave
/o {
gsave
newpath
translate
0 0 m
0 -2 l
stroke
grestore
} bind def
255.847 396.9 o
grestore
gsave
/o {
gsave
newpath
translate
0 0 m
0 2 l
stroke
grestore
} bind def
270.008 44.1 o
grestore
gsave
/o {
gsave
newpath
translate
0 0 m
0 -2 l
stroke
grestore
} bind def
270.008 396.9 o
grestore
gsave
/o {
gsave
newpath
translate
0 0 m
0 2 l
stroke
grestore
} bind def
280.993 44.1 o
grestore
gsave
/o {
gsave
newpath
translate
0 0 m
0 -2 l
stroke
grestore
} bind def
280.993 396.9 o
grestore
gsave
/o {
gsave
newpath
translate
0 0 m
0 2 l
stroke
grestore
} bind def
289.967 44.1 o
grestore
gsave
/o {
gsave
newpath
translate
0 0 m
0 -2 l
stroke
grestore
} bind def
289.967 396.9 o
grestore
gsave
/o {
gsave
newpath
translate
0 0 m
0 2 l
stroke
grestore
} bind def
297.555 44.1 o
grestore
gsave
/o {
gsave
newpath
translate
0 0 m
0 -2 l
stroke
grestore
} bind def
297.555 396.9 o
grestore
gsave
/o {
gsave
newpath
translate
0 0 m
0 2 l
stroke
grestore
} bind def
304.128 44.1 o
grestore
gsave
/o {
gsave
newpath
translate
0 0 m
0 -2 l
stroke
grestore
} bind def
304.128 396.9 o
grestore
gsave
/o {
gsave
newpath
translate
0 0 m
0 2 l
stroke
grestore
} bind def
309.926 44.1 o
grestore
gsave
/o {
gsave
newpath
translate
0 0 m
0 -2 l
stroke
grestore
} bind def
309.926 396.9 o
grestore
gsave
/o {
gsave
newpath
translate
0 0 m
0 2 l
stroke
grestore
} bind def
349.232 44.1 o
grestore
gsave
/o {
gsave
newpath
translate
0 0 m
0 -2 l
stroke
grestore
} bind def
349.232 396.9 o
grestore
gsave
/o {
gsave
newpath
translate
0 0 m
0 2 l
stroke
grestore
} bind def
369.191 44.1 o
grestore
gsave
/o {
gsave
newpath
translate
0 0 m
0 -2 l
stroke
grestore
} bind def
369.191 396.9 o
grestore
gsave
/o {
gsave
newpath
translate
0 0 m
0 2 l
stroke
grestore
} bind def
383.352 44.1 o
grestore
gsave
/o {
gsave
newpath
translate
0 0 m
0 -2 l
stroke
grestore
} bind def
383.352 396.9 o
grestore
gsave
/o {
gsave
newpath
translate
0 0 m
0 2 l
stroke
grestore
} bind def
394.336 44.1 o
grestore
gsave
/o {
gsave
newpath
translate
0 0 m
0 -2 l
stroke
grestore
} bind def
394.336 396.9 o
grestore
gsave
/o {
gsave
newpath
translate
0 0 m
0 2 l
stroke
grestore
} bind def
403.311 44.1 o
grestore
gsave
/o {
gsave
newpath
translate
0 0 m
0 -2 l
stroke
grestore
} bind def
403.311 396.9 o
grestore
gsave
/o {
gsave
newpath
translate
0 0 m
0 2 l
stroke
grestore
} bind def
410.899 44.1 o
grestore
gsave
/o {
gsave
newpath
translate
0 0 m
0 -2 l
stroke
grestore
} bind def
410.899 396.9 o
grestore
gsave
/o {
gsave
newpath
translate
0 0 m
0 2 l
stroke
grestore
} bind def
417.472 44.1 o
grestore
gsave
/o {
gsave
newpath
translate
0 0 m
0 -2 l
stroke
grestore
} bind def
417.472 396.9 o
grestore
gsave
/o {
gsave
newpath
translate
0 0 m
0 2 l
stroke
grestore
} bind def
423.27 44.1 o
grestore
gsave
/o {
gsave
newpath
translate
0 0 m
0 -2 l
stroke
grestore
} bind def
423.27 396.9 o
grestore
gsave
/o {
gsave
newpath
translate
0 0 m
0 2 l
stroke
grestore
} bind def
462.576 44.1 o
grestore
gsave
/o {
gsave
newpath
translate
0 0 m
0 -2 l
stroke
grestore
} bind def
462.576 396.9 o
grestore
gsave
/o {
gsave
newpath
translate
0 0 m
0 2 l
stroke
grestore
} bind def
482.535 44.1 o
grestore
gsave
/o {
gsave
newpath
translate
0 0 m
0 -2 l
stroke
grestore
} bind def
482.535 396.9 o
grestore
gsave
/o {
gsave
newpath
translate
0 0 m
0 2 l
stroke
grestore
} bind def
496.696 44.1 o
grestore
gsave
/o {
gsave
newpath
translate
0 0 m
0 -2 l
stroke
grestore
} bind def
496.696 396.9 o
grestore
gsave
/o {
gsave
newpath
translate
0 0 m
0 2 l
stroke
grestore
} bind def
507.68 44.1 o
grestore
gsave
/o {
gsave
newpath
translate
0 0 m
0 -2 l
stroke
grestore
} bind def
507.68 396.9 o
grestore
gsave
/o {
gsave
newpath
translate
0 0 m
0 2 l
stroke
grestore
} bind def
516.655 44.1 o
grestore
gsave
/o {
gsave
newpath
translate
0 0 m
0 -2 l
stroke
grestore
} bind def
516.655 396.9 o
grestore
gsave
/o {
gsave
newpath
translate
0 0 m
0 2 l
stroke
grestore
} bind def
524.243 44.1 o
grestore
gsave
/o {
gsave
newpath
translate
0 0 m
0 -2 l
stroke
grestore
} bind def
524.243 396.9 o
grestore
/DejaVuSans findfont
16.000 scalefont
setfont
283.375 1.537 m
0 3.328 rmoveto
(step) show
gsave
/o {
gsave
newpath
translate
0 0 m
4 0 l
stroke
grestore
} bind def
73.125 52.1557 o
grestore
gsave
/o {
gsave
newpath
translate
0 0 m
-4 0 l
stroke
grestore
} bind def
526.5 52.1557 o
grestore
gsave
46.328125 46.101050 translate
0.000000 rotate
0.000000 0.234375 m /zero glyphshow
10.179688 0.234375 m /period glyphshow
15.265625 0.234375 m /two glyphshow
grestore
gsave
/o {
gsave
newpath
translate
0 0 m
4 0 l
stroke
grestore
} bind def
73.125 109.992 o
grestore
gsave
/o {
gsave
newpath
translate
0 0 m
-4 0 l
stroke
grestore
} bind def
526.5 109.992 o
grestore
gsave
46.000000 103.937116 translate
0.000000 rotate
0.000000 0.234375 m /zero glyphshow
10.179688 0.234375 m /period glyphshow
15.265625 0.234375 m /three glyphshow
grestore
gsave
/o {
gsave
newpath
translate
0 0 m
4 0 l
stroke
grestore
} bind def
73.125 167.828 o
grestore
gsave
/o {
gsave
newpath
translate
0 0 m
-4 0 l
stroke
grestore
} bind def
526.5 167.828 o
grestore
gsave
45.625000 161.773181 translate
0.000000 rotate
0.000000 0.234375 m /zero glyphshow
10.179688 0.234375 m /period glyphshow
15.265625 0.234375 m /four glyphshow
grestore
gsave
/o {
gsave
newpath
translate
0 0 m
4 0 l
stroke
grestore
} bind def
73.125 225.664 o
grestore
gsave
/o {
gsave
newpath
translate
0 0 m
-4 0 l
stroke
grestore
} bind def
526.5 225.664 o
grestore
gsave
46.125000 219.609247 translate
0.000000 rotate
0.000000 0.234375 m /zero glyphshow
10.179688 0.234375 m /period glyphshow
15.265625 0.234375 m /five glyphshow
grestore
gsave
/o {
gsave
newpath
translate
0 0 m
4 0 l
stroke
grestore
} bind def
73.125 283.5 o
grestore
gsave
/o {
gsave
newpath
translate
0 0 m
-4 0 l
stroke
grestore
} bind def
526.5 283.5 o
grestore
gsave
45.734375 277.445312 translate
0.000000 rotate
0.000000 0.234375 m /zero glyphshow
10.179688 0.234375 m /period glyphshow
15.265625 0.234375 m /six glyphshow
grestore
gsave
/o {
gsave
newpath
translate
0 0 m
4 0 l
stroke
grestore
} bind def
73.125 341.336 o
grestore
gsave
/o {
gsave
newpath
translate
0 0 m
-4 0 l
stroke
grestore
} bind def
526.5 341.336 o
grestore
gsave
46.093750 335.281378 translate
0.000000 rotate
0.000000 0.234375 m /zero glyphshow
10.179688 0.234375 m /period glyphshow
15.265625 0.234375 m /seven glyphshow
grestore
40.625 153.148 m
gsave
90 rotate
0 3.328 rmoveto
(interface density) show
grestore
1.000 setlinewidth
2 setlinecap
gsave
73.125 396.9 m
526.5 396.9 l
stroke
grestore
gsave
526.5 44.1 m
526.5 396.9 l
stroke
grestore
gsave
73.125 44.1 m
526.5 44.1 l
stroke
grestore
gsave
73.125 44.1 m
73.125 396.9 l
stroke
grestore
/DejaVuSans findfont
19.200 scalefont
setfont
214.805 401.9 m
0 1.766 rmoveto
(Fit RM /simulation ) show
gsave
83.3894 327.012 m
516.9 327.012 l
516.9 387.3 l
83.3894 387.3 l
83.3894 327.012 l
cl
gsave
1.000 setgray
fill
grestore
stroke
grestore
0.000 0.000 1.000 setrgbcolor
gsave
96.8294 371.903 m
123.709 371.903 l
stroke
grestore
0.000 setgray
144.829 361.229 m
0 3.953 rmoveto
(fit RM \(alpha=1.4e-03, beta=4.9e-03\) ) show
0.500 setlinewidth
0 setlinecap
gsave
/o {
gsave
newpath
translate
0 -3 m
0.795609 -3 1.55874 -2.6839 2.12132 -2.12132 c
2.6839 -1.55874 3 -0.795609 3 0 c
3 0.795609 2.6839 1.55874 2.12132 2.12132 c
1.55874 2.6839 0.795609 3 0 3 c
-0.795609 3 -1.55874 2.6839 -2.12132 2.12132 c
-2.6839 1.55874 -3 0.795609 -3 0 c
-3 -0.795609 -2.6839 -1.55874 -2.12132 -2.12132 c
-1.55874 -2.6839 -0.795609 -3 0 -3 c
cl
gsave
0.000 0.500 0.000 setrgbcolor
fill
grestore
stroke
grestore
} bind def
96.8294 343.912 o
123.709 343.912 o
grestore
144.829 334.692 m
0 2.5 rmoveto
(simulation \(f=0.20\)) show

end
showpage
