%!PS-Adobe-3.0 EPSF-3.0
%%Title: /home/aurelien/synchro/boulot/code/papers_code/schelling-2012/fig/perturbated_temporal_dyn.eps
%%Creator: matplotlib version 1.1.1rc2, http://matplotlib.sourceforge.net/
%%CreationDate: Wed Jun  5 14:34:46 2013
%%Orientation: portrait
%%BoundingBox: 13 175 598 616
%%EndComments
%%BeginProlog
/mpldict 8 dict def
mpldict begin
/m { moveto } bind def
/l { lineto } bind def
/r { rlineto } bind def
/c { curveto } bind def
/cl { closepath } bind def
/box {
m
1 index 0 r
0 exch r
neg 0 r
cl
} bind def
/clipbox {
box
clip
newpath
} bind def
%!PS-Adobe-3.0 Resource-Font
%%Title: DejaVu Sans
%%Copyright: Copyright (c) 2003 by Bitstream, Inc. All Rights Reserved. Copyright (c) 2006 by Tavmjong Bah. All Rights Reserved. DejaVu changes are in public domain 
%%Creator: Converted from TrueType to type 3 by PPR
25 dict begin
/_d{bind def}bind def
/_m{moveto}_d
/_l{lineto}_d
/_cl{closepath eofill}_d
/_c{curveto}_d
/_sc{7 -1 roll{setcachedevice}{pop pop pop pop pop pop}ifelse}_d
/_e{exec}_d
/FontName /DejaVuSans def
/PaintType 0 def
/FontMatrix[.001 0 0 .001 0 0]def
/FontBBox[-1021 -415 1681 1167]def
/FontType 3 def
/Encoding [ /space /comma /period /zero /one /two /three /four /five /six /seven /eight /nine /equal /a /b /c /d /e /f /g /h /i /l /m /n /o /p /r /s /t /v /w /y ] def
/FontInfo 10 dict dup begin
/FamilyName (DejaVu Sans) def
/FullName (DejaVu Sans) def
/Notice (Copyright (c) 2003 by Bitstream, Inc. All Rights Reserved. Copyright (c) 2006 by Tavmjong Bah. All Rights Reserved. DejaVu changes are in public domain ) def
/Weight (Book) def
/Version (Version 2.33) def
/ItalicAngle 0.0 def
/isFixedPitch false def
/UnderlinePosition -130 def
/UnderlineThickness 90 def
end readonly def
/CharStrings 34 dict dup begin
/space{318 0 0 0 0 0 _sc
}_d
/comma{318 0 77 -115 220 124 _sc
117 124 _m
220 124 _l
220 40 _l
140 -115 _l
77 -115 _l
117 40 _l
117 124 _l
_cl}_d
/period{318 0 107 0 210 124 _sc
107 124 _m
210 124 _l
210 0 _l
107 0 _l
107 124 _l
_cl}_d
/zero{636 0 66 -13 570 742 _sc
318 664 _m
267 664 229 639 203 589 _c
177 539 165 464 165 364 _c
165 264 177 189 203 139 _c
229 89 267 64 318 64 _c
369 64 407 89 433 139 _c
458 189 471 264 471 364 _c
471 464 458 539 433 589 _c
407 639 369 664 318 664 _c
318 742 _m
399 742 461 709 505 645 _c
548 580 570 486 570 364 _c
570 241 548 147 505 83 _c
461 19 399 -13 318 -13 _c
236 -13 173 19 130 83 _c
87 147 66 241 66 364 _c
66 486 87 580 130 645 _c
173 709 236 742 318 742 _c
_cl}_d
/one{636 0 110 0 544 729 _sc
124 83 _m
285 83 _l
285 639 _l
110 604 _l
110 694 _l
284 729 _l
383 729 _l
383 83 _l
544 83 _l
544 0 _l
124 0 _l
124 83 _l
_cl}_d
/two{{636 0 73 0 536 742 _sc
192 83 _m
536 83 _l
536 0 _l
73 0 _l
73 83 _l
110 121 161 173 226 239 _c
290 304 331 346 348 365 _c
380 400 402 430 414 455 _c
426 479 433 504 433 528 _c
433 566 419 598 392 622 _c
365 646 330 659 286 659 _c
255 659 222 653 188 643 _c
154 632 117 616 78 594 _c
78 694 _l
118 710 155 722 189 730 _c
223 738 255 742 284 742 _c
}_e{359 742 419 723 464 685 _c
509 647 532 597 532 534 _c
532 504 526 475 515 449 _c
504 422 484 390 454 354 _c
446 344 420 317 376 272 _c
332 227 271 164 192 83 _c
_cl}_e}_d
/three{{636 0 76 -13 556 742 _sc
406 393 _m
453 383 490 362 516 330 _c
542 298 556 258 556 212 _c
556 140 531 84 482 45 _c
432 6 362 -13 271 -13 _c
240 -13 208 -10 176 -4 _c
144 1 110 10 76 22 _c
76 117 _l
103 101 133 89 166 81 _c
198 73 232 69 268 69 _c
330 69 377 81 409 105 _c
441 129 458 165 458 212 _c
458 254 443 288 413 312 _c
383 336 341 349 287 349 _c
}_e{202 349 _l
202 430 _l
291 430 _l
339 430 376 439 402 459 _c
428 478 441 506 441 543 _c
441 580 427 609 401 629 _c
374 649 336 659 287 659 _c
260 659 231 656 200 650 _c
169 644 135 635 98 623 _c
98 711 _l
135 721 170 729 203 734 _c
235 739 266 742 296 742 _c
370 742 429 725 473 691 _c
517 657 539 611 539 553 _c
539 513 527 479 504 451 _c
481 423 448 403 406 393 _c
_cl}_e}_d
/four{636 0 49 0 580 729 _sc
378 643 _m
129 254 _l
378 254 _l
378 643 _l
352 729 _m
476 729 _l
476 254 _l
580 254 _l
580 172 _l
476 172 _l
476 0 _l
378 0 _l
378 172 _l
49 172 _l
49 267 _l
352 729 _l
_cl}_d
/five{{636 0 77 -13 549 729 _sc
108 729 _m
495 729 _l
495 646 _l
198 646 _l
198 467 _l
212 472 227 476 241 478 _c
255 480 270 482 284 482 _c
365 482 429 459 477 415 _c
525 370 549 310 549 234 _c
549 155 524 94 475 51 _c
426 8 357 -13 269 -13 _c
238 -13 207 -10 175 -6 _c
143 -1 111 6 77 17 _c
77 116 _l
106 100 136 88 168 80 _c
199 72 232 69 267 69 _c
}_e{323 69 368 83 401 113 _c
433 143 450 183 450 234 _c
450 284 433 324 401 354 _c
368 384 323 399 267 399 _c
241 399 214 396 188 390 _c
162 384 135 375 108 363 _c
108 729 _l
_cl}_e}_d
/six{{636 0 70 -13 573 742 _sc
330 404 _m
286 404 251 388 225 358 _c
199 328 186 286 186 234 _c
186 181 199 139 225 109 _c
251 79 286 64 330 64 _c
374 64 409 79 435 109 _c
461 139 474 181 474 234 _c
474 286 461 328 435 358 _c
409 388 374 404 330 404 _c
526 713 _m
526 623 _l
501 635 476 644 451 650 _c
425 656 400 659 376 659 _c
310 659 260 637 226 593 _c
}_e{192 549 172 482 168 394 _c
187 422 211 444 240 459 _c
269 474 301 482 336 482 _c
409 482 467 459 509 415 _c
551 371 573 310 573 234 _c
573 159 550 99 506 54 _c
462 9 403 -13 330 -13 _c
246 -13 181 19 137 83 _c
92 147 70 241 70 364 _c
70 479 97 571 152 639 _c
206 707 280 742 372 742 _c
396 742 421 739 447 735 _c
472 730 498 723 526 713 _c
_cl}_e}_d
/seven{636 0 82 0 551 729 _sc
82 729 _m
551 729 _l
551 687 _l
286 0 _l
183 0 _l
432 646 _l
82 646 _l
82 729 _l
_cl}_d
/eight{{636 0 68 -13 568 742 _sc
318 346 _m
271 346 234 333 207 308 _c
180 283 167 249 167 205 _c
167 161 180 126 207 101 _c
234 76 271 64 318 64 _c
364 64 401 76 428 102 _c
455 127 469 161 469 205 _c
469 249 455 283 429 308 _c
402 333 365 346 318 346 _c
219 388 _m
177 398 144 418 120 447 _c
96 476 85 511 85 553 _c
85 611 105 657 147 691 _c
188 725 245 742 318 742 _c
}_e{390 742 447 725 489 691 _c
530 657 551 611 551 553 _c
551 511 539 476 515 447 _c
491 418 459 398 417 388 _c
464 377 501 355 528 323 _c
554 291 568 251 568 205 _c
568 134 546 80 503 43 _c
459 5 398 -13 318 -13 _c
237 -13 175 5 132 43 _c
89 80 68 134 68 205 _c
68 251 81 291 108 323 _c
134 355 171 377 219 388 _c
183 544 _m
183 506 194 476 218 455 _c
}_e{242 434 275 424 318 424 _c
360 424 393 434 417 455 _c
441 476 453 506 453 544 _c
453 582 441 611 417 632 _c
393 653 360 664 318 664 _c
275 664 242 653 218 632 _c
194 611 183 582 183 544 _c
_cl}_e}_d
/nine{{636 0 63 -13 566 742 _sc
110 15 _m
110 105 _l
134 93 159 84 185 78 _c
210 72 235 69 260 69 _c
324 69 374 90 408 134 _c
442 178 462 244 468 334 _c
448 306 424 284 396 269 _c
367 254 335 247 300 247 _c
226 247 168 269 126 313 _c
84 357 63 417 63 494 _c
63 568 85 628 129 674 _c
173 719 232 742 306 742 _c
390 742 455 709 499 645 _c
543 580 566 486 566 364 _c
}_e{566 248 538 157 484 89 _c
429 21 356 -13 264 -13 _c
239 -13 214 -10 189 -6 _c
163 -2 137 5 110 15 _c
306 324 _m
350 324 385 339 411 369 _c
437 399 450 441 450 494 _c
450 546 437 588 411 618 _c
385 648 350 664 306 664 _c
262 664 227 648 201 618 _c
175 588 162 546 162 494 _c
162 441 175 399 201 369 _c
227 339 262 324 306 324 _c
_cl}_e}_d
/equal{838 0 106 172 732 454 _sc
106 454 _m
732 454 _l
732 372 _l
106 372 _l
106 454 _l
106 255 _m
732 255 _l
732 172 _l
106 172 _l
106 255 _l
_cl}_d
/a{{613 0 60 -13 522 560 _sc
343 275 _m
270 275 220 266 192 250 _c
164 233 150 205 150 165 _c
150 133 160 107 181 89 _c
202 70 231 61 267 61 _c
317 61 357 78 387 114 _c
417 149 432 196 432 255 _c
432 275 _l
343 275 _l
522 312 _m
522 0 _l
432 0 _l
432 83 _l
411 49 385 25 355 10 _c
325 -5 287 -13 243 -13 _c
187 -13 142 2 109 33 _c
76 64 60 106 60 159 _c
}_e{60 220 80 266 122 298 _c
163 329 224 345 306 345 _c
432 345 _l
432 354 _l
432 395 418 427 391 450 _c
364 472 326 484 277 484 _c
245 484 215 480 185 472 _c
155 464 127 453 100 439 _c
100 522 _l
132 534 164 544 195 550 _c
226 556 256 560 286 560 _c
365 560 424 539 463 498 _c
502 457 522 395 522 312 _c
_cl}_e}_d
/b{{635 0 91 -13 580 760 _sc
487 273 _m
487 339 473 390 446 428 _c
418 466 381 485 334 485 _c
286 485 249 466 222 428 _c
194 390 181 339 181 273 _c
181 207 194 155 222 117 _c
249 79 286 61 334 61 _c
381 61 418 79 446 117 _c
473 155 487 207 487 273 _c
181 464 _m
199 496 223 520 252 536 _c
281 552 316 560 356 560 _c
422 560 476 533 518 481 _c
559 428 580 359 580 273 _c
}_e{580 187 559 117 518 65 _c
476 13 422 -13 356 -13 _c
316 -13 281 -5 252 10 _c
223 25 199 49 181 82 _c
181 0 _l
91 0 _l
91 760 _l
181 760 _l
181 464 _l
_cl}_e}_d
/c{{550 0 55 -13 488 560 _sc
488 526 _m
488 442 _l
462 456 437 466 411 473 _c
385 480 360 484 334 484 _c
276 484 230 465 198 428 _c
166 391 150 339 150 273 _c
150 206 166 154 198 117 _c
230 80 276 62 334 62 _c
360 62 385 65 411 72 _c
437 79 462 90 488 104 _c
488 21 _l
462 9 436 0 410 -5 _c
383 -10 354 -13 324 -13 _c
242 -13 176 12 128 64 _c
}_e{79 115 55 185 55 273 _c
55 362 79 432 128 483 _c
177 534 244 560 330 560 _c
358 560 385 557 411 551 _c
437 545 463 537 488 526 _c
_cl}_e}_d
/d{{635 0 55 -13 544 760 _sc
454 464 _m
454 760 _l
544 760 _l
544 0 _l
454 0 _l
454 82 _l
435 49 411 25 382 10 _c
353 -5 319 -13 279 -13 _c
213 -13 159 13 117 65 _c
75 117 55 187 55 273 _c
55 359 75 428 117 481 _c
159 533 213 560 279 560 _c
319 560 353 552 382 536 _c
411 520 435 496 454 464 _c
148 273 _m
148 207 161 155 188 117 _c
215 79 253 61 301 61 _c
}_e{348 61 385 79 413 117 _c
440 155 454 207 454 273 _c
454 339 440 390 413 428 _c
385 466 348 485 301 485 _c
253 485 215 466 188 428 _c
161 390 148 339 148 273 _c
_cl}_e}_d
/e{{615 0 55 -13 562 560 _sc
562 296 _m
562 252 _l
149 252 _l
153 190 171 142 205 110 _c
238 78 284 62 344 62 _c
378 62 412 66 444 74 _c
476 82 509 95 541 113 _c
541 28 _l
509 14 476 3 442 -3 _c
408 -9 373 -13 339 -13 _c
251 -13 182 12 131 62 _c
80 112 55 181 55 268 _c
55 357 79 428 127 481 _c
175 533 241 560 323 560 _c
397 560 455 536 498 489 _c
}_e{540 441 562 377 562 296 _c
472 322 _m
471 371 457 410 431 440 _c
404 469 368 484 324 484 _c
274 484 234 469 204 441 _c
174 413 156 373 152 322 _c
472 322 _l
_cl}_e}_d
/f{352 0 23 0 371 760 _sc
371 760 _m
371 685 _l
285 685 _l
253 685 230 678 218 665 _c
205 652 199 629 199 595 _c
199 547 _l
347 547 _l
347 477 _l
199 477 _l
199 0 _l
109 0 _l
109 477 _l
23 477 _l
23 547 _l
109 547 _l
109 585 _l
109 645 123 690 151 718 _c
179 746 224 760 286 760 _c
371 760 _l
_cl}_d
/g{{635 0 55 -207 544 560 _sc
454 280 _m
454 344 440 395 414 431 _c
387 467 349 485 301 485 _c
253 485 215 467 188 431 _c
161 395 148 344 148 280 _c
148 215 161 165 188 129 _c
215 93 253 75 301 75 _c
349 75 387 93 414 129 _c
440 165 454 215 454 280 _c
544 68 _m
544 -24 523 -93 482 -139 _c
440 -184 377 -207 292 -207 _c
260 -207 231 -204 203 -200 _c
175 -195 147 -188 121 -178 _c
}_e{121 -91 _l
147 -105 173 -115 199 -122 _c
225 -129 251 -133 278 -133 _c
336 -133 380 -117 410 -87 _c
439 -56 454 -10 454 52 _c
454 96 _l
435 64 411 40 382 24 _c
353 8 319 0 279 0 _c
211 0 157 25 116 76 _c
75 127 55 195 55 280 _c
55 364 75 432 116 483 _c
157 534 211 560 279 560 _c
319 560 353 552 382 536 _c
411 520 435 496 454 464 _c
454 547 _l
544 547 _l
}_e{544 68 _l
_cl}_e}_d
/h{634 0 91 0 549 760 _sc
549 330 _m
549 0 _l
459 0 _l
459 327 _l
459 379 448 417 428 443 _c
408 469 378 482 338 482 _c
289 482 251 466 223 435 _c
195 404 181 362 181 309 _c
181 0 _l
91 0 _l
91 760 _l
181 760 _l
181 462 _l
202 494 227 519 257 535 _c
286 551 320 560 358 560 _c
420 560 468 540 500 501 _c
532 462 549 405 549 330 _c
_cl}_d
/i{278 0 94 0 184 760 _sc
94 547 _m
184 547 _l
184 0 _l
94 0 _l
94 547 _l
94 760 _m
184 760 _l
184 646 _l
94 646 _l
94 760 _l
_cl}_d
/l{278 0 94 0 184 760 _sc
94 760 _m
184 760 _l
184 0 _l
94 0 _l
94 760 _l
_cl}_d
/m{{974 0 91 0 889 560 _sc
520 442 _m
542 482 569 511 600 531 _c
631 550 668 560 711 560 _c
767 560 811 540 842 500 _c
873 460 889 403 889 330 _c
889 0 _l
799 0 _l
799 327 _l
799 379 789 418 771 444 _c
752 469 724 482 686 482 _c
639 482 602 466 575 435 _c
548 404 535 362 535 309 _c
535 0 _l
445 0 _l
445 327 _l
445 379 435 418 417 444 _c
398 469 369 482 331 482 _c
}_e{285 482 248 466 221 435 _c
194 404 181 362 181 309 _c
181 0 _l
91 0 _l
91 547 _l
181 547 _l
181 462 _l
201 495 226 520 255 536 _c
283 552 317 560 357 560 _c
397 560 430 550 458 530 _c
486 510 506 480 520 442 _c
_cl}_e}_d
/n{634 0 91 0 549 560 _sc
549 330 _m
549 0 _l
459 0 _l
459 327 _l
459 379 448 417 428 443 _c
408 469 378 482 338 482 _c
289 482 251 466 223 435 _c
195 404 181 362 181 309 _c
181 0 _l
91 0 _l
91 547 _l
181 547 _l
181 462 _l
202 494 227 519 257 535 _c
286 551 320 560 358 560 _c
420 560 468 540 500 501 _c
532 462 549 405 549 330 _c
_cl}_d
/o{612 0 55 -13 557 560 _sc
306 484 _m
258 484 220 465 192 427 _c
164 389 150 338 150 273 _c
150 207 163 156 191 118 _c
219 80 257 62 306 62 _c
354 62 392 80 420 118 _c
448 156 462 207 462 273 _c
462 337 448 389 420 427 _c
392 465 354 484 306 484 _c
306 560 _m
384 560 445 534 490 484 _c
534 433 557 363 557 273 _c
557 183 534 113 490 63 _c
445 12 384 -13 306 -13 _c
227 -13 165 12 121 63 _c
77 113 55 183 55 273 _c
55 363 77 433 121 484 _c
165 534 227 560 306 560 _c
_cl}_d
/p{{635 0 91 -207 580 560 _sc
181 82 _m
181 -207 _l
91 -207 _l
91 547 _l
181 547 _l
181 464 _l
199 496 223 520 252 536 _c
281 552 316 560 356 560 _c
422 560 476 533 518 481 _c
559 428 580 359 580 273 _c
580 187 559 117 518 65 _c
476 13 422 -13 356 -13 _c
316 -13 281 -5 252 10 _c
223 25 199 49 181 82 _c
487 273 _m
487 339 473 390 446 428 _c
418 466 381 485 334 485 _c
}_e{286 485 249 466 222 428 _c
194 390 181 339 181 273 _c
181 207 194 155 222 117 _c
249 79 286 61 334 61 _c
381 61 418 79 446 117 _c
473 155 487 207 487 273 _c
_cl}_e}_d
/r{411 0 91 0 411 560 _sc
411 463 _m
401 469 390 473 378 476 _c
366 478 353 480 339 480 _c
288 480 249 463 222 430 _c
194 397 181 350 181 288 _c
181 0 _l
91 0 _l
91 547 _l
181 547 _l
181 462 _l
199 495 224 520 254 536 _c
284 552 321 560 365 560 _c
371 560 378 559 386 559 _c
393 558 401 557 411 555 _c
411 463 _l
_cl}_d
/s{{521 0 54 -13 472 560 _sc
443 531 _m
443 446 _l
417 458 391 468 364 475 _c
336 481 308 485 279 485 _c
234 485 200 478 178 464 _c
156 450 145 430 145 403 _c
145 382 153 366 169 354 _c
185 342 217 330 265 320 _c
296 313 _l
360 299 405 279 432 255 _c
458 230 472 195 472 151 _c
472 100 452 60 412 31 _c
372 1 316 -13 246 -13 _c
216 -13 186 -10 154 -5 _c
}_e{122 0 89 8 54 20 _c
54 113 _l
87 95 120 82 152 74 _c
184 65 216 61 248 61 _c
290 61 323 68 346 82 _c
368 96 380 117 380 144 _c
380 168 371 187 355 200 _c
339 213 303 226 247 238 _c
216 245 _l
160 257 119 275 95 299 _c
70 323 58 356 58 399 _c
58 450 76 490 112 518 _c
148 546 200 560 268 560 _c
301 560 332 557 362 552 _c
391 547 418 540 443 531 _c
}_e{_cl}_e}_d
/t{392 0 27 0 368 702 _sc
183 702 _m
183 547 _l
368 547 _l
368 477 _l
183 477 _l
183 180 _l
183 135 189 106 201 94 _c
213 81 238 75 276 75 _c
368 75 _l
368 0 _l
276 0 _l
206 0 158 13 132 39 _c
106 65 93 112 93 180 _c
93 477 _l
27 477 _l
27 547 _l
93 547 _l
93 702 _l
183 702 _l
_cl}_d
/v{592 0 30 0 562 547 _sc
30 547 _m
125 547 _l
296 88 _l
467 547 _l
562 547 _l
357 0 _l
235 0 _l
30 547 _l
_cl}_d
/w{818 0 42 0 776 547 _sc
42 547 _m
132 547 _l
244 120 _l
356 547 _l
462 547 _l
574 120 _l
686 547 _l
776 547 _l
633 0 _l
527 0 _l
409 448 _l
291 0 _l
185 0 _l
42 547 _l
_cl}_d
/y{592 0 30 -207 562 547 _sc
322 -50 _m
296 -114 271 -157 247 -177 _c
223 -197 191 -207 151 -207 _c
79 -207 _l
79 -132 _l
132 -132 _l
156 -132 175 -126 189 -114 _c
203 -102 218 -75 235 -31 _c
251 9 _l
30 547 _l
125 547 _l
296 119 _l
467 547 _l
562 547 _l
322 -50 _l
_cl}_d
end readonly def

/BuildGlyph
 {exch begin
 CharStrings exch
 2 copy known not{pop /.notdef}if
 true 3 1 roll get exec
 end}_d

/BuildChar {
 1 index /Encoding get exch get
 1 index /BuildGlyph get exec
}_d

FontName currentdict end definefont pop
end
%%EndProlog
mpldict begin
13.5 175.5 translate
585 441 0 0 clipbox
gsave
0 0 m
585 0 l
585 441 l
0 441 l
cl
1.000 setgray
fill
grestore
gsave
73.125 44.1 m
526.5 44.1 l
526.5 396.9 l
73.125 396.9 l
cl
1.000 setgray
fill
grestore
1.000 setlinewidth
1 setlinejoin
0 setlinecap
[6 6] 0 setdash
0.000 setgray
gsave
453.4 352.8 73.12 44.1 clipbox
73.125 383.964 m
74.0318 369.901 l
75.8453 348.439 l
76.752 340.501 l
77.6587 326.046 l
78.5655 315.952 l
79.4723 310.758 l
82.1925 285.131 l
83.0992 279.692 l
84.006 269.598 l
84.9128 263.62 l
85.8195 259.259 l
86.7263 251.125 l
87.633 247.401 l
88.5397 241.668 l
89.4465 236.817 l
90.3533 233.142 l
91.26 227.164 l
92.1668 224.714 l
93.0735 221.137 l
93.9802 213.885 l
94.887 209.23 l
95.7938 207.711 l
96.7005 201.733 l
97.6073 197.764 l
99.4207 186.788 l
100.328 185.318 l
101.234 184.485 l
103.048 174.979 l
103.954 171.892 l
104.861 169.785 l
105.768 165.718 l
106.675 165.228 l
108.488 157.241 l
109.395 153.713 l
110.302 152.39 l
111.209 148.029 l
112.115 146.265 l
113.022 145.432 l
113.929 144.158 l
114.835 141.071 l
115.742 140.091 l
116.649 136.318 l
117.556 135.632 l
118.463 131.663 l
119.369 131.271 l
120.276 131.32 l
121.183 129.948 l
122.996 126.273 l
123.903 123.284 l
125.716 118.972 l
126.623 117.208 l
127.53 114.268 l
128.437 112.602 l
129.344 112.063 l
130.25 111.132 l
131.157 108.976 l
132.971 107.506 l
133.877 106.085 l
134.784 105.938 l
135.691 104.86 l
136.597 104.762 l
137.504 102.998 l
138.411 101.675 l
139.318 99.421 l
140.225 98.441 l
141.131 97.853 l
142.038 95.795 l
142.945 95.648 l
143.852 93.247 l
146.572 89.327 l
147.478 89.964 l
148.385 90.748 l
149.292 89.229 l
150.199 89.621 l
151.106 88.935 l
152.012 90.062 l
152.919 90.699 l
153.826 90.307 l
154.733 88.788 l
155.639 88.69 l
156.546 87.661 l
157.453 87.661 l
158.359 85.799 l
159.266 85.848 l
160.173 85.407 l
161.08 85.211 l
162.893 82.467 l
163.8 82.173 l
164.707 82.908 l
165.614 82.32 l
166.52 81.536 l
167.427 81.291 l
168.334 82.124 l
170.147 80.654 l
171.054 79.282 l
171.961 79.478 l
172.868 80.017 l
173.774 79.821 l
174.681 79.821 l
175.588 80.311 l
176.495 79.135 l
177.401 79.821 l
178.308 78.645 l
179.215 77.812 l
180.121 77.616 l
181.028 76.734 l
181.935 76.93 l
182.842 75.313 l
184.655 73.745 l
185.562 72.667 l
186.469 72.863 l
187.376 73.402 l
188.282 73.5 l
189.189 73.108 l
191.002 73.402 l
192.816 72.226 l
193.723 72.569 l
194.63 71.736 l
195.536 71.344 l
196.443 70.658 l
197.35 70.364 l
198.257 70.756 l
199.163 70.168 l
200.07 70.315 l
200.977 69.629 l
201.883 69.482 l
202.79 69.972 l
203.697 69.629 l
205.511 69.825 l
206.417 69.482 l
207.324 70.119 l
208.231 69.923 l
209.138 70.07 l
210.044 70.56 l
210.951 69.874 l
211.858 70.413 l
212.764 70.56 l
214.578 70.07 l
215.485 68.6 l
216.392 68.453 l
217.298 68.6 l
218.205 67.767 l
220.019 67.571 l
220.925 67.375 l
221.832 67.375 l
222.739 66.836 l
223.645 67.081 l
224.552 67.963 l
225.459 68.159 l
229.086 64.484 l
229.993 64.827 l
230.9 64.386 l
231.806 63.7 l
232.713 63.994 l
234.526 63.994 l
235.433 63.357 l
236.34 63.112 l
237.247 63.063 l
239.967 63.651 l
240.874 63.406 l
241.781 63.798 l
242.687 63.161 l
244.501 63.455 l
245.407 63.945 l
246.314 63.945 l
247.221 63.308 l
248.128 62.279 l
249.035 61.593 l
249.941 61.936 l
250.848 62.671 l
251.755 63.553 l
252.662 63.21 l
253.568 62.671 l
254.475 62.818 l
255.382 62.328 l
256.288 62.769 l
257.195 62.23 l
258.102 62.622 l
259.009 61.446 l
259.916 61.544 l
260.822 61.789 l
261.729 61.446 l
262.636 61.397 l
263.543 61.887 l
264.449 61.985 l
265.356 61.005 l
266.263 61.544 l
267.17 61.642 l
268.076 60.956 l
268.983 61.642 l
269.89 61.789 l
270.797 62.916 l
271.703 62.524 l
272.61 61.495 l
273.517 61.054 l
274.423 61.789 l
276.237 60.662 l
277.144 60.466 l
278.05 60.76 l
278.957 60.221 l
280.771 59.878 l
281.678 59.486 l
282.584 59.78 l
283.491 59.927 l
285.305 60.662 l
286.211 59.927 l
287.118 60.074 l
288.025 59.829 l
288.932 59.731 l
289.838 60.123 l
290.745 59.829 l
291.652 59.731 l
292.559 60.221 l
293.465 59.682 l
294.372 59.682 l
295.279 59.241 l
296.185 59.339 l
297.092 59.633 l
297.999 59.339 l
299.812 58.31 l
300.719 58.016 l
301.626 57.428 l
302.533 58.555 l
303.44 58.114 l
304.346 57.477 l
305.253 57.477 l
306.16 57.82 l
307.067 57.428 l
307.973 57.281 l
308.88 57.526 l
309.787 57.33 l
310.694 57.526 l
311.6 57.232 l
312.507 57.673 l
313.414 57.673 l
314.321 58.114 l
315.227 57.918 l
316.134 57.869 l
317.041 57.183 l
317.947 57.134 l
319.761 57.624 l
320.668 57.82 l
322.481 56.546 l
323.388 56.35 l
324.295 56.644 l
325.202 55.958 l
326.108 56.154 l
327.015 56.546 l
327.922 56.399 l
328.829 56.056 l
329.735 56.203 l
330.642 56.105 l
331.549 55.566 l
333.362 55.517 l
334.269 55.811 l
335.176 55.811 l
336.083 56.154 l
336.989 55.909 l
337.896 55.37 l
339.709 55.37 l
340.616 55.125 l
341.523 55.223 l
344.243 56.007 l
345.15 56.007 l
346.057 56.154 l
347.87 55.174 l
348.777 55.811 l
350.591 55.517 l
351.497 54.88 l
354.218 55.321 l
355.124 56.056 l
356.938 56.203 l
357.845 55.321 l
358.751 55.86 l
359.658 56.007 l
360.565 56.742 l
361.471 56.105 l
362.378 55.174 l
364.192 55.321 l
365.099 54.978 l
366.912 55.321 l
367.819 55.811 l
368.726 55.37 l
369.632 55.321 l
370.539 54.929 l
371.446 55.076 l
372.353 54.439 l
373.259 55.174 l
375.073 55.566 l
375.98 55.174 l
377.793 55.272 l
379.607 54.684 l
380.513 54.635 l
381.42 54.733 l
382.327 54.684 l
383.233 55.272 l
384.14 54.537 l
385.047 54.782 l
385.954 54.39 l
386.861 54.243 l
387.767 54.733 l
388.674 55.076 l
389.581 55.272 l
390.488 54.733 l
391.394 54.929 l
393.208 54.488 l
394.115 55.223 l
395.021 55.125 l
396.835 55.223 l
397.742 55.713 l
398.648 54.782 l
399.555 55.37 l
402.275 54.831 l
404.089 54.929 l
404.995 54.929 l
406.809 54.684 l
407.716 54.047 l
408.623 54.145 l
409.529 54.488 l
411.343 54.831 l
412.25 54.096 l
414.063 54.341 l
414.97 54.684 l
416.783 54.782 l
418.597 53.851 l
419.504 53.508 l
421.317 53.998 l
422.224 54.488 l
424.037 53.606 l
424.944 53.704 l
425.851 53.459 l
426.758 53.998 l
427.664 54.194 l
428.571 53.655 l
429.478 53.9 l
430.385 53.606 l
431.291 53.606 l
432.198 53.949 l
433.105 54.096 l
434.918 53.753 l
435.825 53.802 l
436.732 54.145 l
437.639 54.096 l
438.545 54.488 l
439.452 54.341 l
440.359 54.88 l
441.266 54.782 l
443.079 55.125 l
443.986 54.929 l
445.799 55.37 l
446.706 54.733 l
447.613 54.341 l
448.52 54.292 l
449.426 54.439 l
450.333 54.145 l
451.24 53.508 l
452.147 53.214 l
453.053 53.606 l
453.96 53.753 l
454.867 53.018 l
455.774 52.577 l
456.68 52.724 l
457.587 52.381 l
459.401 52.626 l
460.307 52.528 l
461.214 53.067 l
462.121 53.018 l
463.028 52.577 l
463.934 52.724 l
464.841 51.793 l
465.748 51.891 l
466.655 52.479 l
467.561 52.675 l
468.468 52.381 l
469.375 52.528 l
470.282 52.479 l
472.095 52.577 l
473.002 51.989 l
473.909 52.136 l
474.815 51.842 l
475.722 51.891 l
476.629 52.479 l
477.536 52.185 l
478.442 52.283 l
479.349 52.136 l
480.256 52.528 l
481.163 52.626 l
482.069 53.508 l
482.976 53.704 l
483.883 52.675 l
484.79 52.234 l
485.696 52.871 l
487.51 52.92 l
488.417 52.332 l
489.323 52.43 l
490.23 52.283 l
491.137 52.332 l
492.044 52.234 l
492.95 52.626 l
493.857 52.626 l
494.764 52.43 l
496.577 52.626 l
497.484 52.332 l
498.391 52.773 l
499.298 52.479 l
500.204 52.381 l
501.111 52.871 l
502.018 53.067 l
502.925 52.283 l
505.645 52.283 l
506.552 52.577 l
507.458 52.675 l
509.272 52.577 l
510.179 52.283 l
511.085 52.185 l
511.992 51.842 l
512.899 51.94 l
513.806 52.234 l
514.712 52.332 l
515.619 51.94 l
516.526 52.234 l
517.433 52.136 l
518.339 51.842 l
521.06 51.695 l
521.966 51.303 l
522.873 51.303 l
523.78 51.107 l
524.687 51.352 l
525.593 51.303 l
525.593 51.303 l
stroke
grestore
[1 3] 0 setdash
gsave
453.4 352.8 73.12 44.1 clipbox
73.125 368.921 m
74.0318 358.141 l
74.9385 349.762 l
75.8453 339.815 l
76.752 333.543 l
77.6587 328.986 l
78.5655 323.302 l
80.379 306.936 l
81.2858 302.232 l
82.1925 295.617 l
84.006 286.209 l
84.9128 278.957 l
86.7263 268.128 l
87.633 265.433 l
88.5397 264.306 l
91.26 251.517 l
92.1668 250.145 l
93.0735 246.47 l
94.887 237.209 l
95.7938 234.612 l
96.7005 232.456 l
97.6073 229.222 l
98.514 226.723 l
99.4207 223.293 l
100.328 220.647 l
101.234 218.834 l
102.141 215.796 l
103.048 213.346 l
103.954 211.925 l
105.768 206.731 l
107.582 203.007 l
108.488 201.733 l
109.395 201.831 l
110.302 201.145 l
111.209 200.312 l
112.115 198.009 l
113.022 194.971 l
114.835 195.804 l
115.742 193.452 l
116.649 190.659 l
117.556 190.414 l
118.463 188.748 l
119.369 186.494 l
120.276 185.22 l
122.996 180.81 l
123.903 180.516 l
124.81 179.046 l
125.716 178.213 l
126.623 179.144 l
127.53 177.772 l
128.437 177.821 l
129.344 177.086 l
130.25 177.135 l
132.064 175.371 l
132.971 174.146 l
133.877 173.558 l
134.784 174.097 l
135.691 172.088 l
136.597 172.039 l
137.504 171.549 l
138.411 169.099 l
140.225 169.54 l
141.131 169.197 l
142.038 169.589 l
142.945 169.834 l
143.852 167.433 l
144.758 166.257 l
145.665 167.58 l
146.572 164.787 l
147.478 163.709 l
149.292 162.19 l
150.199 162.729 l
151.106 162.533 l
152.012 162.778 l
152.919 160.573 l
155.639 159.936 l
156.546 159.25 l
157.453 157.143 l
158.359 157.29 l
159.266 157.633 l
160.173 157.829 l
161.08 157.045 l
161.987 156.849 l
162.893 157.143 l
163.8 155.526 l
164.707 155.134 l
165.614 153.664 l
166.52 154.84 l
167.427 155.33 l
168.334 156.359 l
169.24 155.477 l
170.147 154.35 l
171.054 155.134 l
171.961 154.007 l
173.774 152.929 l
174.681 151.704 l
175.588 152.096 l
176.495 152.243 l
177.401 153.272 l
178.308 153.174 l
179.215 150.92 l
180.121 150.479 l
181.028 150.969 l
181.935 149.891 l
182.842 150.969 l
183.749 151.704 l
184.655 150.283 l
185.562 150.087 l
186.469 150.43 l
187.376 149.303 l
188.282 148.47 l
189.189 148.421 l
190.096 147.539 l
191.002 147.539 l
191.909 146.853 l
192.816 145.383 l
193.723 146.216 l
194.63 146.314 l
196.443 144.207 l
197.35 144.06 l
198.257 144.305 l
199.163 145.677 l
200.07 145.726 l
200.977 146.118 l
202.79 146.51 l
203.697 146.951 l
204.604 146.118 l
205.511 146.853 l
206.417 146.755 l
207.324 145.726 l
208.231 145.334 l
210.044 145.579 l
210.951 144.893 l
211.858 144.55 l
212.764 144.697 l
213.671 144.256 l
214.578 144.991 l
215.485 144.893 l
216.392 142.835 l
217.298 143.129 l
218.205 143.864 l
219.112 144.011 l
220.019 143.031 l
220.925 143.423 l
221.832 143.521 l
222.739 142.296 l
224.552 143.374 l
225.459 142.541 l
226.366 140.336 l
227.273 141.071 l
228.179 141.659 l
229.993 141.953 l
230.9 142.541 l
231.806 141.316 l
232.713 140.728 l
233.62 140.679 l
234.526 141.267 l
235.433 140.532 l
236.34 140.777 l
237.247 141.561 l
238.154 141.169 l
239.06 141.463 l
239.967 140.483 l
240.874 140.777 l
241.781 139.65 l
242.687 139.258 l
243.594 138.523 l
244.501 137.935 l
245.407 137.592 l
246.314 139.405 l
247.221 140.14 l
248.128 138.915 l
249.035 139.454 l
249.941 140.63 l
250.848 140.875 l
251.755 140.336 l
252.662 140.532 l
253.568 139.797 l
254.475 140.042 l
255.382 139.258 l
256.288 139.65 l
258.102 137.984 l
259.009 137.739 l
259.916 137.886 l
260.822 137.739 l
261.729 137.739 l
262.636 137.102 l
263.543 137.837 l
264.449 137.347 l
265.356 136.661 l
266.263 137.641 l
267.17 137.837 l
268.076 138.523 l
268.983 138.817 l
269.89 137.641 l
270.797 138.768 l
271.703 137.886 l
272.61 136.612 l
273.517 135.681 l
274.423 135.73 l
275.33 136.22 l
276.237 136.563 l
277.144 136.612 l
278.05 135.877 l
278.957 135.877 l
279.864 135.289 l
280.771 136.171 l
281.678 136.514 l
282.584 136.612 l
283.491 137.053 l
284.398 135.779 l
285.305 136.269 l
286.211 136.367 l
287.118 136.808 l
288.025 137.004 l
288.932 136.171 l
289.838 135.828 l
290.745 136.073 l
291.652 135.24 l
292.559 135.436 l
293.465 136.661 l
294.372 137.298 l
295.279 136.71 l
296.185 137.004 l
297.092 137.102 l
297.999 135.926 l
298.906 137.494 l
299.812 136.416 l
300.719 135.926 l
302.533 136.318 l
303.44 136.906 l
304.346 136.269 l
305.253 136.563 l
306.16 137.641 l
307.973 135.877 l
308.88 135.583 l
309.787 135.926 l
310.694 135.24 l
311.6 135.681 l
313.414 135.142 l
314.321 135.093 l
315.227 135.828 l
316.134 135.191 l
317.041 135.632 l
317.947 136.318 l
318.854 136.416 l
320.668 136.024 l
321.575 137.249 l
322.481 137.053 l
323.388 136.024 l
324.295 135.681 l
326.108 136.465 l
327.015 135.485 l
327.922 135.828 l
328.829 135.779 l
330.642 134.064 l
331.549 135.044 l
332.456 135.24 l
333.362 134.946 l
334.269 134.162 l
335.176 134.211 l
336.083 133.182 l
336.989 132.888 l
337.896 133.329 l
338.803 133.329 l
339.709 133.623 l
340.616 134.701 l
341.523 134.456 l
342.43 133.525 l
343.337 134.064 l
344.243 133.525 l
346.057 133.133 l
346.964 134.113 l
347.87 133.525 l
348.777 133.133 l
349.684 134.064 l
351.497 135.142 l
352.404 135.485 l
353.311 135.485 l
354.218 134.848 l
355.124 133.672 l
356.031 134.603 l
356.938 134.113 l
357.845 133.476 l
358.751 133.329 l
359.658 133.672 l
360.565 133.329 l
361.471 133.574 l
362.378 133.574 l
363.285 132.104 l
364.192 131.761 l
365.099 131.565 l
366.005 132.447 l
366.912 132.3 l
367.819 131.81 l
369.632 132.3 l
370.539 131.908 l
371.446 131.81 l
372.353 132.545 l
373.259 132.888 l
374.166 133.427 l
375.073 134.407 l
375.98 134.848 l
376.886 134.211 l
377.793 133.084 l
378.7 133.476 l
379.607 134.75 l
380.513 135.24 l
381.42 133.525 l
382.327 133.378 l
383.233 132.496 l
384.14 134.897 l
385.047 134.309 l
385.954 135.73 l
386.861 135.289 l
387.767 135.289 l
388.674 134.358 l
389.581 134.162 l
390.488 134.113 l
391.394 134.603 l
392.301 134.505 l
393.208 134.211 l
394.115 134.946 l
395.928 135.73 l
396.835 136.024 l
397.742 134.603 l
398.648 135.191 l
399.555 135.632 l
400.462 135.044 l
401.369 134.799 l
402.275 135.093 l
403.182 133.868 l
404.089 132.937 l
404.995 132.545 l
405.902 133.28 l
406.809 134.162 l
407.716 133.917 l
408.623 133.868 l
409.529 133.427 l
410.436 133.819 l
411.343 133.378 l
412.25 134.162 l
413.156 133.378 l
414.063 132.986 l
414.97 133.672 l
415.877 133.28 l
416.783 132.545 l
418.597 132.251 l
419.504 130.83 l
420.41 131.81 l
421.317 132.104 l
422.224 131.81 l
423.131 131.271 l
424.037 131.663 l
424.944 130.977 l
427.664 131.369 l
428.571 130.683 l
429.478 131.271 l
430.385 132.79 l
431.291 131.957 l
432.198 132.447 l
433.105 131.565 l
434.012 131.173 l
434.918 131.026 l
435.825 132.3 l
436.732 131.761 l
437.639 132.447 l
438.545 132.251 l
439.452 131.173 l
440.359 130.536 l
441.266 131.663 l
442.172 131.075 l
443.079 130.634 l
443.986 131.761 l
444.893 132.006 l
445.799 131.32 l
446.706 131.957 l
447.613 132.349 l
448.52 131.908 l
449.426 132.349 l
450.333 132.202 l
451.24 132.594 l
452.147 132.349 l
453.053 132.349 l
453.96 132.594 l
454.867 133.182 l
455.774 132.986 l
456.68 132.398 l
457.587 132.3 l
458.494 132.643 l
461.214 133.084 l
462.121 132.888 l
463.028 133.574 l
463.934 132.643 l
464.841 132.251 l
465.748 131.467 l
466.655 133.672 l
467.561 132.3 l
469.375 132.594 l
471.188 133.819 l
472.095 133.035 l
473.002 132.398 l
473.909 131.124 l
474.815 131.369 l
475.722 131.418 l
476.629 130.585 l
477.536 131.271 l
479.349 129.801 l
480.256 130.732 l
481.163 130.487 l
482.069 130.781 l
482.976 130.193 l
483.883 130.046 l
484.79 130.193 l
485.696 130.732 l
486.603 131.712 l
487.51 131.418 l
488.417 132.349 l
489.323 132.692 l
490.23 132.3 l
491.137 132.447 l
492.044 131.565 l
492.95 131.075 l
493.857 131.614 l
494.764 130.291 l
495.671 131.369 l
496.577 131.467 l
498.391 130.193 l
499.298 131.418 l
500.204 131.761 l
501.111 131.32 l
502.018 131.614 l
502.925 129.948 l
503.831 131.075 l
504.738 130.781 l
505.645 131.418 l
506.552 131.81 l
507.458 132.349 l
508.365 132.3 l
509.272 131.516 l
510.179 132.349 l
511.085 132.202 l
511.992 132.447 l
512.899 132.937 l
513.806 133.182 l
514.712 131.908 l
515.619 131.467 l
516.526 130.879 l
517.433 131.222 l
518.339 130.193 l
519.246 129.899 l
520.153 129.801 l
521.966 130.536 l
522.873 130.438 l
523.78 131.173 l
524.687 131.516 l
525.593 133.819 l
525.593 133.819 l
stroke
grestore
[3 5 1 5] 0 setdash
gsave
453.4 352.8 73.12 44.1 clipbox
73.125 386.218 m
74.0318 377.104 l
74.9385 365.883 l
77.6587 344.666 l
79.4723 332.22 l
80.379 324.772 l
81.2858 319.97 l
82.1925 317.52 l
83.0992 308.014 l
84.006 305.76 l
84.9128 301.301 l
86.7263 290.129 l
87.633 289.247 l
88.5397 286.797 l
89.4465 285.768 l
91.26 278.859 l
92.1668 280.427 l
93.9802 271.705 l
94.887 270.333 l
95.7938 270.823 l
96.7005 270.97 l
97.6073 266.511 l
98.514 263.473 l
99.4207 263.032 l
100.328 260.729 l
101.234 257.446 l
102.141 257.348 l
103.048 262.346 l
103.954 259.455 l
104.861 257.789 l
105.768 254.408 l
106.675 255.143 l
107.582 253.869 l
108.488 250.537 l
109.395 250.782 l
110.302 248.969 l
111.209 248.92 l
112.115 249.018 l
113.022 249.998 l
114.835 246.519 l
115.742 244.314 l
116.649 245.98 l
117.556 243.775 l
118.463 239.463 l
119.369 242.109 l
120.276 243.481 l
121.183 242.501 l
122.09 240.639 l
122.996 240.835 l
123.903 238.875 l
125.716 237.062 l
126.623 239.757 l
127.53 237.895 l
128.437 238.679 l
129.344 238.091 l
130.25 237.356 l
131.157 237.797 l
132.064 238.679 l
132.971 237.454 l
133.877 237.699 l
134.784 236.572 l
135.691 235.788 l
136.597 234.269 l
137.504 229.712 l
139.318 228.536 l
140.225 230.3 l
141.131 230.398 l
142.038 234.367 l
142.945 235.151 l
143.852 233.681 l
144.758 233.093 l
145.665 234.465 l
146.572 233.338 l
147.478 232.75 l
149.292 226.821 l
151.106 225.645 l
152.012 226.919 l
153.826 225.743 l
154.733 224.959 l
155.639 224.567 l
156.546 227.654 l
157.453 228.928 l
158.359 228.144 l
159.266 227.899 l
160.173 226.184 l
161.08 223.979 l
161.987 223.538 l
162.893 220.01 l
163.8 220.402 l
164.707 223.244 l
165.614 222.264 l
166.52 222.411 l
167.427 221.186 l
168.334 220.745 l
169.24 220.696 l
170.147 215.894 l
171.054 216.188 l
171.961 214.914 l
172.868 214.424 l
173.774 213.101 l
174.681 214.865 l
175.588 214.13 l
176.495 213.983 l
177.401 212.66 l
178.308 213.248 l
179.215 211.386 l
180.121 212.317 l
181.028 213.983 l
181.935 217.217 l
182.842 216.727 l
183.749 216.874 l
185.562 215.698 l
186.469 215.355 l
187.376 215.649 l
188.282 212.366 l
189.189 211.925 l
191.909 216.139 l
192.816 217.315 l
194.63 218.932 l
195.536 220.01 l
196.443 219.863 l
197.35 217.756 l
198.257 215.355 l
199.163 215.6 l
200.07 219.52 l
200.977 215.404 l
201.883 217.119 l
202.79 216.335 l
204.604 214.326 l
205.511 215.012 l
206.417 214.473 l
207.324 214.375 l
209.138 213.199 l
210.044 214.13 l
210.951 214.669 l
211.858 215.551 l
212.764 213.101 l
213.671 213.493 l
214.578 211.092 l
215.485 213.444 l
216.392 214.865 l
218.205 209.916 l
219.112 210.504 l
220.019 208.985 l
220.925 208.691 l
221.832 211.141 l
222.739 210.602 l
223.645 207.368 l
224.552 208.446 l
225.459 206.143 l
226.366 208.054 l
227.273 206.829 l
229.086 205.359 l
229.993 207.858 l
230.9 209.573 l
231.806 207.564 l
232.713 207.319 l
233.62 209.328 l
234.526 208.495 l
235.433 208.201 l
236.34 212.415 l
237.247 213.297 l
238.154 216.825 l
239.06 218.736 l
239.967 217.756 l
240.874 215.845 l
241.781 215.11 l
242.687 216.286 l
243.594 216.629 l
245.407 218.736 l
246.314 217.952 l
247.221 219.814 l
248.128 217.658 l
249.035 214.718 l
249.941 212.415 l
250.848 213.003 l
251.755 212.954 l
252.662 213.493 l
253.568 212.219 l
254.475 211.484 l
255.382 209.475 l
256.288 209.23 l
258.102 206.339 l
259.009 207.417 l
259.916 208.299 l
260.822 211.778 l
261.729 210.553 l
262.636 212.366 l
263.543 212.121 l
264.449 211.729 l
265.356 213.885 l
266.263 214.179 l
267.17 213.003 l
268.076 214.326 l
268.983 213.689 l
269.89 213.199 l
270.797 215.404 l
271.703 213.934 l
272.61 216.335 l
273.517 214.865 l
274.423 215.208 l
275.33 213.738 l
276.237 214.522 l
277.144 219.716 l
278.05 218.981 l
278.957 218.883 l
279.864 217.56 l
280.771 216.727 l
281.678 215.257 l
282.584 216.139 l
283.491 217.658 l
284.398 215.257 l
285.305 214.669 l
286.211 213.346 l
287.118 212.268 l
288.025 213.836 l
288.932 215.649 l
289.838 214.816 l
290.745 212.072 l
291.652 210.847 l
292.559 214.179 l
293.465 214.375 l
294.372 212.66 l
295.279 212.709 l
296.185 213.493 l
297.092 212.268 l
297.999 214.62 l
298.906 214.375 l
299.812 216.972 l
300.719 218.981 l
301.626 218.736 l
302.533 214.865 l
303.44 214.522 l
304.346 214.718 l
305.253 215.11 l
306.16 218.197 l
307.067 216.482 l
307.973 216.433 l
308.88 217.56 l
309.787 218.344 l
310.694 218.344 l
311.6 216.09 l
312.507 215.502 l
313.414 213.64 l
314.321 214.62 l
315.227 216.041 l
316.134 215.747 l
317.041 213.983 l
317.947 211.778 l
318.854 210.406 l
319.761 210.014 l
320.668 211.386 l
321.575 211.533 l
322.481 211.043 l
323.388 211.386 l
324.295 210.063 l
325.202 205.653 l
326.108 206.143 l
327.015 208.005 l
327.922 205.261 l
328.829 206.388 l
329.735 208.299 l
330.642 208.789 l
331.549 209.083 l
332.456 209.72 l
333.362 207.123 l
334.269 207.074 l
335.176 207.76 l
336.083 206.241 l
336.989 208.201 l
337.896 209.083 l
338.803 209.181 l
339.709 207.907 l
340.616 207.956 l
341.523 207.172 l
342.43 207.123 l
344.243 211.729 l
345.15 210.994 l
346.057 213.542 l
346.964 211.876 l
347.87 211.386 l
348.777 210.21 l
350.591 208.495 l
351.497 207.025 l
352.404 207.907 l
353.311 204.477 l
354.218 203.84 l
355.124 204.624 l
356.031 204.281 l
356.938 204.379 l
357.845 203.644 l
358.751 204.379 l
360.565 207.123 l
361.471 210.112 l
362.378 210.406 l
363.285 210.994 l
364.192 214.326 l
365.099 212.464 l
366.912 210.063 l
367.819 207.172 l
368.726 209.965 l
369.632 209.573 l
370.539 211.484 l
371.446 210.21 l
372.353 209.867 l
373.259 211.141 l
374.166 209.671 l
375.073 211.68 l
375.98 211.876 l
376.886 209.475 l
377.793 210.112 l
378.7 209.426 l
379.607 210.112 l
380.513 211.092 l
381.42 209.377 l
382.327 209.72 l
384.14 211.092 l
385.047 209.573 l
385.954 208.446 l
386.861 208.985 l
387.767 212.415 l
388.674 211.386 l
389.581 210.896 l
390.488 211.876 l
391.394 214.032 l
392.301 214.179 l
393.208 211.386 l
394.115 210.21 l
395.021 210.749 l
395.928 208.25 l
396.835 210.651 l
397.742 209.916 l
398.648 211.631 l
399.555 211.533 l
400.462 211.239 l
401.369 212.611 l
402.275 211.827 l
403.182 209.573 l
404.089 212.807 l
404.995 212.758 l
405.902 212.121 l
406.809 209.965 l
407.716 208.936 l
408.623 211.141 l
409.529 207.956 l
410.436 209.377 l
411.343 208.544 l
413.156 205.947 l
414.063 208.348 l
414.97 206.878 l
417.69 204.428 l
418.597 202.076 l
419.504 204.428 l
420.41 204.183 l
421.317 204.771 l
422.224 205.016 l
423.131 204.722 l
424.037 205.212 l
424.944 205.212 l
425.851 207.515 l
426.758 206.094 l
429.478 198.646 l
430.385 201.586 l
431.291 203.056 l
432.198 201.439 l
433.105 200.949 l
434.012 199.773 l
434.918 200.802 l
435.825 198.744 l
436.732 199.724 l
437.639 202.272 l
438.545 203.35 l
439.452 200.949 l
440.359 202.615 l
441.266 201.194 l
442.172 200.851 l
443.079 201.782 l
443.986 200.557 l
444.893 200.655 l
445.799 201.88 l
446.706 201.782 l
447.613 199.577 l
448.52 202.027 l
449.426 203.644 l
450.333 202.566 l
451.24 203.693 l
452.147 203.546 l
453.053 202.615 l
453.96 200.214 l
454.867 200.851 l
455.774 202.713 l
456.68 201.831 l
459.401 197.421 l
460.307 195.314 l
461.214 194.824 l
462.121 195.363 l
463.028 194.285 l
463.934 196.686 l
464.841 196.539 l
465.748 195.314 l
466.655 195.657 l
467.561 195.314 l
468.468 195.216 l
469.375 193.354 l
470.282 195.314 l
471.188 196.441 l
472.095 200.9 l
473.002 200.655 l
473.909 200.116 l
474.815 199.381 l
475.722 202.517 l
476.629 200.459 l
477.536 198.793 l
478.442 198.891 l
479.349 201.194 l
480.256 200.361 l
481.163 203.889 l
482.069 205.065 l
482.976 204.428 l
483.883 204.428 l
484.79 203.742 l
485.696 204.771 l
486.603 201.341 l
487.51 198.891 l
488.417 202.37 l
489.323 202.811 l
490.23 202.664 l
491.137 201.586 l
492.044 199.626 l
492.95 199.234 l
493.857 199.234 l
494.764 200.949 l
495.671 204.967 l
496.577 201.684 l
497.484 200.802 l
498.391 201.145 l
499.298 199.234 l
500.204 200.067 l
501.111 202.223 l
502.018 201.243 l
502.925 199.528 l
503.831 199.332 l
504.738 197.862 l
505.645 198.156 l
506.552 200.361 l
507.458 201.831 l
508.365 200.704 l
509.272 200.508 l
510.179 201.635 l
511.085 201.439 l
511.992 200.949 l
512.899 201.586 l
513.806 203.644 l
514.712 201.194 l
515.619 201.733 l
516.526 198.45 l
517.433 202.37 l
518.339 199.43 l
519.246 200.361 l
520.153 201.096 l
521.06 200.802 l
521.966 202.076 l
522.873 201.39 l
523.78 201.537 l
524.687 200.018 l
525.593 199.577 l
525.593 199.577 l
stroke
grestore
2 setlinecap
[] 0 setdash
gsave
453.4 352.8 73.12 44.1 clipbox
73.125 383.18 m
74.0318 373.625 l
74.9385 365.687 l
75.8453 355.446 l
76.752 348.782 l
77.6587 340.599 l
78.5655 333.69 l
79.4723 328.692 l
81.2858 313.992 l
82.1925 308.798 l
84.006 295.519 l
88.5397 272.097 l
90.3533 266.021 l
91.26 261.268 l
92.1668 258.377 l
93.0735 252.742 l
93.9802 251.37 l
94.887 246.666 l
95.7938 243.922 l
96.7005 240.541 l
97.6073 237.993 l
98.514 234.955 l
99.4207 233.583 l
100.328 230.104 l
101.234 225.694 l
102.141 223.685 l
103.048 220.059 l
103.954 218.001 l
104.861 216.237 l
105.768 213.297 l
106.675 213.052 l
107.582 212.17 l
108.488 210.455 l
110.302 204.232 l
112.115 203.154 l
113.022 201.537 l
113.929 200.606 l
114.835 197.078 l
115.742 192.962 l
116.649 191.933 l
117.556 191.149 l
118.463 192.276 l
119.369 189.924 l
120.276 189.777 l
122.996 184.877 l
123.903 183.015 l
124.81 182.623 l
125.716 183.505 l
126.623 183.848 l
127.53 182.084 l
129.344 179.879 l
130.25 177.772 l
131.157 176.645 l
132.064 177.282 l
132.971 175.665 l
133.877 175.616 l
134.784 174.636 l
135.691 172.431 l
136.597 173.068 l
137.504 173.509 l
139.318 172.137 l
140.225 171.01 l
142.038 168.168 l
142.945 169.001 l
143.852 166.551 l
145.665 168.756 l
146.572 167.776 l
147.478 167.139 l
148.385 164.836 l
149.292 163.709 l
150.199 163.807 l
152.012 162.729 l
152.919 162.778 l
153.826 161.749 l
154.733 162.68 l
155.639 161.406 l
156.546 161.161 l
157.453 161.259 l
158.359 160.671 l
159.266 159.152 l
160.173 159.446 l
161.08 159.005 l
161.987 157.731 l
162.893 156.8 l
163.8 155.085 l
165.614 155.281 l
166.52 154.693 l
168.334 154.693 l
169.24 154.595 l
170.147 154.742 l
171.054 154.154 l
171.961 154.105 l
172.868 153.517 l
173.774 154.056 l
174.681 154.938 l
175.588 154.105 l
176.495 152.439 l
178.308 152.537 l
179.215 151.998 l
180.121 151.851 l
181.028 150.675 l
181.935 150.675 l
182.842 149.94 l
183.749 149.744 l
184.655 150.724 l
185.562 150.185 l
186.469 150.969 l
187.376 149.989 l
188.282 149.891 l
189.189 149.646 l
190.096 148.715 l
191.002 148.666 l
191.909 148.96 l
192.816 148.519 l
193.723 147.931 l
194.63 147.588 l
195.536 148.176 l
196.443 147.441 l
197.35 149.156 l
199.163 148.225 l
200.07 148.372 l
200.977 147.196 l
201.883 147.588 l
202.79 147.098 l
203.697 146.951 l
204.604 146.608 l
205.511 147.637 l
206.417 146.265 l
207.324 145.971 l
208.231 146.51 l
209.138 145.285 l
210.044 144.795 l
210.951 145.53 l
211.858 145.579 l
212.764 146.069 l
213.671 146.265 l
214.578 144.354 l
216.392 145.922 l
217.298 143.864 l
219.112 144.403 l
220.019 144.06 l
220.925 144.207 l
221.832 144.109 l
222.739 145.628 l
223.645 146.216 l
224.552 146.412 l
226.366 145.432 l
227.273 146.069 l
228.179 145.726 l
229.086 144.55 l
229.993 144.207 l
230.9 144.305 l
231.806 144.207 l
232.713 144.403 l
233.62 143.864 l
234.526 144.501 l
235.433 143.864 l
236.34 143.717 l
237.247 142.59 l
238.154 143.031 l
239.06 141.757 l
239.967 141.218 l
240.874 141.659 l
241.781 140.483 l
242.687 140.826 l
243.594 140.238 l
244.501 140.042 l
245.407 140.042 l
246.314 139.356 l
247.221 139.16 l
248.128 139.258 l
249.035 139.846 l
249.941 139.65 l
250.848 139.601 l
251.755 140.581 l
252.662 140.483 l
253.568 140.777 l
254.475 140.679 l
255.382 140.238 l
256.288 138.572 l
257.195 139.503 l
258.102 139.307 l
259.916 139.944 l
260.822 140.532 l
262.636 139.307 l
263.543 138.572 l
264.449 138.915 l
265.356 139.062 l
267.17 138.425 l
268.076 138.817 l
268.983 138.278 l
269.89 138.866 l
270.797 138.425 l
271.703 138.376 l
272.61 138.817 l
273.517 138.033 l
274.423 137.102 l
275.33 136.759 l
276.237 136.808 l
277.144 136.269 l
278.957 138.278 l
279.864 138.67 l
281.678 139.111 l
282.584 138.327 l
283.491 138.621 l
284.398 138.768 l
285.305 139.16 l
286.211 138.376 l
288.025 137.935 l
288.932 137.837 l
289.838 138.719 l
290.745 139.062 l
291.652 138.474 l
292.559 137.543 l
295.279 138.229 l
296.185 138.915 l
297.999 138.131 l
298.906 139.013 l
299.812 138.278 l
300.719 137.347 l
301.626 140.336 l
302.533 144.011 l
303.44 149.94 l
305.253 156.163 l
306.16 159.201 l
307.067 163.709 l
307.973 166.453 l
308.88 168.168 l
309.787 168.168 l
311.6 171.843 l
312.507 172.823 l
313.414 174.195 l
314.321 173.362 l
315.227 176.4 l
316.134 175.959 l
317.947 183.946 l
318.854 187.082 l
319.761 188.895 l
321.575 190.512 l
322.481 190.414 l
323.388 192.423 l
324.295 190.022 l
325.202 191.541 l
326.108 194.138 l
327.015 196 l
327.922 194.383 l
328.829 195.902 l
329.735 196.147 l
330.642 195.02 l
332.456 197.078 l
335.176 195.216 l
336.083 195.265 l
336.989 195.559 l
337.896 193.942 l
339.709 194.628 l
340.616 195.51 l
341.523 194.334 l
342.43 195.902 l
343.337 195.804 l
344.243 196.147 l
345.15 195.412 l
346.057 196.588 l
346.964 196.686 l
347.87 196.392 l
348.777 196.98 l
349.684 195.216 l
350.591 196.245 l
351.497 193.746 l
352.404 195.314 l
353.311 196.294 l
354.218 196.147 l
355.124 197.568 l
356.031 198.744 l
357.845 191.443 l
358.751 193.354 l
359.658 190.365 l
360.565 194.824 l
361.471 194.04 l
362.378 197.715 l
363.285 198.793 l
364.192 197.421 l
365.099 197.372 l
366.005 197.519 l
366.912 197.078 l
367.819 198.205 l
368.726 197.372 l
369.632 199.185 l
370.539 197.715 l
371.446 199.43 l
372.353 198.352 l
373.259 196.882 l
374.166 195.951 l
375.073 197.274 l
375.98 196.539 l
376.886 197.519 l
377.793 195.706 l
378.7 197.029 l
379.607 196.098 l
380.513 196.882 l
381.42 197.372 l
382.327 198.597 l
383.233 200.851 l
384.14 200.41 l
385.047 198.744 l
385.954 198.254 l
387.767 199.381 l
388.674 199.479 l
389.581 199.185 l
390.488 199.185 l
392.301 198.646 l
393.208 197.274 l
394.115 195.608 l
395.021 198.009 l
395.928 197.372 l
396.835 197.47 l
397.742 195.804 l
399.555 198.548 l
400.462 198.989 l
401.369 199.724 l
402.275 200.263 l
403.182 201.782 l
404.089 200.753 l
404.995 200.214 l
405.902 199.43 l
406.809 201.243 l
407.716 200.312 l
408.623 198.499 l
409.529 195.706 l
410.436 197.421 l
411.343 198.45 l
413.156 202.517 l
414.063 200.165 l
414.97 200.459 l
415.877 201.194 l
417.69 201.586 l
418.597 200.361 l
419.504 199.381 l
421.317 205.604 l
422.224 205.457 l
423.131 202.811 l
424.037 201.341 l
424.944 198.94 l
425.851 199.675 l
426.758 199.626 l
427.664 200.165 l
428.571 198.744 l
429.478 198.401 l
430.385 198.646 l
431.291 199.724 l
432.198 200.116 l
433.105 198.744 l
434.012 197.764 l
436.732 202.909 l
437.639 204.281 l
439.452 201.978 l
440.359 202.517 l
441.266 205.653 l
442.172 204.477 l
443.079 205.114 l
444.893 208.887 l
445.799 207.319 l
446.706 205.163 l
447.613 203.742 l
448.52 205.898 l
449.426 204.673 l
450.333 205.163 l
451.24 205.8 l
452.147 203.154 l
453.053 201.537 l
453.96 202.37 l
454.867 202.615 l
455.774 203.007 l
456.68 201.537 l
457.587 200.459 l
458.494 198.646 l
459.401 199.724 l
460.307 201.635 l
461.214 200.067 l
462.121 201.831 l
463.028 202.027 l
463.934 199.479 l
464.841 200.214 l
465.748 200.753 l
466.655 200.998 l
467.561 197.862 l
468.468 197.813 l
469.375 198.499 l
470.282 201.635 l
471.188 202.86 l
472.095 202.86 l
473.909 199.92 l
475.722 204.771 l
476.629 203.497 l
477.536 205.849 l
478.442 203.154 l
479.349 201.488 l
480.256 202.076 l
481.163 199.773 l
482.069 199.822 l
482.976 199.038 l
483.883 196.49 l
484.79 198.205 l
486.603 195.069 l
487.51 194.04 l
488.417 194.775 l
489.323 196 l
490.23 196.98 l
491.137 198.793 l
492.044 198.842 l
492.95 198.107 l
493.857 198.891 l
494.764 198.891 l
495.671 195.706 l
496.577 197.372 l
497.484 197.911 l
498.391 196.637 l
499.298 196.392 l
500.204 196.441 l
501.111 196.637 l
502.018 197.127 l
502.925 198.205 l
503.831 197.127 l
504.738 199.087 l
505.645 198.058 l
506.552 197.617 l
507.458 199.136 l
508.365 199.038 l
509.272 198.058 l
510.179 197.862 l
511.085 199.185 l
511.992 198.499 l
512.899 198.744 l
513.806 198.303 l
514.712 196.98 l
515.619 197.715 l
516.526 195.461 l
517.433 197.617 l
518.339 196.833 l
519.246 195.314 l
520.153 196 l
521.06 194.236 l
521.966 195.216 l
522.873 195.412 l
523.78 197.47 l
524.687 196.245 l
525.593 196.049 l
525.593 196.049 l
stroke
grestore
0.500 setlinewidth
0 setlinecap
gsave
/o {
gsave
newpath
translate
0.5 setlinewidth
1 setlinejoin
0 setlinecap
0 0 m
0 4 l
gsave
0.000 setgray
fill
grestore
stroke
grestore
} bind def
73.125 44.1 o
grestore
gsave
/o {
gsave
newpath
translate
0.5 setlinewidth
1 setlinejoin
0 setlinecap
0 0 m
0 -4 l
gsave
0.000 setgray
fill
grestore
stroke
grestore
} bind def
73.125 396.9 o
grestore
/DejaVuSans findfont
16.000 scalefont
setfont
gsave
69.093750 27.990625 translate
0.000000 rotate
0.000000 0.234375 m /zero glyphshow
grestore
gsave
/o {
gsave
newpath
translate
0.5 setlinewidth
1 setlinejoin
0 setlinecap
0 0 m
0 4 l
gsave
0.000 setgray
fill
grestore
stroke
grestore
} bind def
163.8 44.1 o
grestore
gsave
/o {
gsave
newpath
translate
0.5 setlinewidth
1 setlinejoin
0 setlinecap
0 0 m
0 -4 l
gsave
0.000 setgray
fill
grestore
stroke
grestore
} bind def
163.8 396.9 o
grestore
gsave
149.932813 27.990625 translate
0.000000 rotate
0.000000 0.234375 m /one glyphshow
10.179688 0.234375 m /zero glyphshow
20.359375 0.234375 m /zero glyphshow
grestore
gsave
/o {
gsave
newpath
translate
0.5 setlinewidth
1 setlinejoin
0 setlinecap
0 0 m
0 4 l
gsave
0.000 setgray
fill
grestore
stroke
grestore
} bind def
254.475 44.1 o
grestore
gsave
/o {
gsave
newpath
translate
0.5 setlinewidth
1 setlinejoin
0 setlinecap
0 0 m
0 -4 l
gsave
0.000 setgray
fill
grestore
stroke
grestore
} bind def
254.475 396.9 o
grestore
gsave
240.310938 27.990625 translate
0.000000 rotate
0.000000 0.234375 m /two glyphshow
10.179688 0.234375 m /zero glyphshow
20.359375 0.234375 m /zero glyphshow
grestore
gsave
/o {
gsave
newpath
translate
0.5 setlinewidth
1 setlinejoin
0 setlinecap
0 0 m
0 4 l
gsave
0.000 setgray
fill
grestore
stroke
grestore
} bind def
345.15 44.1 o
grestore
gsave
/o {
gsave
newpath
translate
0.5 setlinewidth
1 setlinejoin
0 setlinecap
0 0 m
0 -4 l
gsave
0.000 setgray
fill
grestore
stroke
grestore
} bind def
345.15 396.9 o
grestore
gsave
331.009375 27.990625 translate
0.000000 rotate
0.000000 0.234375 m /three glyphshow
10.179688 0.234375 m /zero glyphshow
20.359375 0.234375 m /zero glyphshow
grestore
gsave
/o {
gsave
newpath
translate
0.5 setlinewidth
1 setlinejoin
0 setlinecap
0 0 m
0 4 l
gsave
0.000 setgray
fill
grestore
stroke
grestore
} bind def
435.825 44.1 o
grestore
gsave
/o {
gsave
newpath
translate
0.5 setlinewidth
1 setlinejoin
0 setlinecap
0 0 m
0 -4 l
gsave
0.000 setgray
fill
grestore
stroke
grestore
} bind def
435.825 396.9 o
grestore
gsave
421.465625 27.990625 translate
0.000000 rotate
0.000000 0.234375 m /four glyphshow
10.179688 0.234375 m /zero glyphshow
20.359375 0.234375 m /zero glyphshow
grestore
gsave
/o {
gsave
newpath
translate
0.5 setlinewidth
1 setlinejoin
0 setlinecap
0 0 m
0 4 l
gsave
0.000 setgray
fill
grestore
stroke
grestore
} bind def
526.5 44.1 o
grestore
gsave
/o {
gsave
newpath
translate
0.5 setlinewidth
1 setlinejoin
0 setlinecap
0 0 m
0 -4 l
gsave
0.000 setgray
fill
grestore
stroke
grestore
} bind def
526.5 396.9 o
grestore
gsave
512.367188 27.990625 translate
0.000000 rotate
0.000000 0.234375 m /five glyphshow
10.179688 0.234375 m /zero glyphshow
20.359375 0.234375 m /zero glyphshow
grestore
gsave
279.156250 8.428125 translate
0.000000 rotate
0.000000 3.328125 m /s glyphshow
8.335938 3.328125 m /t glyphshow
14.609375 3.328125 m /e glyphshow
24.453125 3.328125 m /p glyphshow
34.609375 3.328125 m /s glyphshow
grestore
gsave
/o {
gsave
newpath
translate
0.5 setlinewidth
1 setlinejoin
0 setlinecap
0 0 m
4 0 l
gsave
0.000 setgray
fill
grestore
stroke
grestore
} bind def
73.125 44.1 o
grestore
gsave
/o {
gsave
newpath
translate
0.5 setlinewidth
1 setlinejoin
0 setlinecap
0 0 m
-4 0 l
gsave
0.000 setgray
fill
grestore
stroke
grestore
} bind def
526.5 44.1 o
grestore
gsave
45.781250 38.045312 translate
0.000000 rotate
0.000000 0.234375 m /zero glyphshow
10.179688 0.234375 m /period glyphshow
15.265625 0.234375 m /zero glyphshow
grestore
gsave
/o {
gsave
newpath
translate
0.5 setlinewidth
1 setlinejoin
0 setlinecap
0 0 m
4 0 l
gsave
0.000 setgray
fill
grestore
stroke
grestore
} bind def
73.125 88.2 o
grestore
gsave
/o {
gsave
newpath
translate
0.5 setlinewidth
1 setlinejoin
0 setlinecap
0 0 m
-4 0 l
gsave
0.000 setgray
fill
grestore
stroke
grestore
} bind def
526.5 88.2 o
grestore
gsave
46.203125 82.145313 translate
0.000000 rotate
0.000000 0.234375 m /zero glyphshow
10.179688 0.234375 m /period glyphshow
15.265625 0.234375 m /one glyphshow
grestore
gsave
/o {
gsave
newpath
translate
0.5 setlinewidth
1 setlinejoin
0 setlinecap
0 0 m
4 0 l
gsave
0.000 setgray
fill
grestore
stroke
grestore
} bind def
73.125 132.3 o
grestore
gsave
/o {
gsave
newpath
translate
0.5 setlinewidth
1 setlinejoin
0 setlinecap
0 0 m
-4 0 l
gsave
0.000 setgray
fill
grestore
stroke
grestore
} bind def
526.5 132.3 o
grestore
gsave
46.328125 126.245313 translate
0.000000 rotate
0.000000 0.234375 m /zero glyphshow
10.179688 0.234375 m /period glyphshow
15.265625 0.234375 m /two glyphshow
grestore
gsave
/o {
gsave
newpath
translate
0.5 setlinewidth
1 setlinejoin
0 setlinecap
0 0 m
4 0 l
gsave
0.000 setgray
fill
grestore
stroke
grestore
} bind def
73.125 176.4 o
grestore
gsave
/o {
gsave
newpath
translate
0.5 setlinewidth
1 setlinejoin
0 setlinecap
0 0 m
-4 0 l
gsave
0.000 setgray
fill
grestore
stroke
grestore
} bind def
526.5 176.4 o
grestore
gsave
46.000000 170.345313 translate
0.000000 rotate
0.000000 0.234375 m /zero glyphshow
10.179688 0.234375 m /period glyphshow
15.265625 0.234375 m /three glyphshow
grestore
gsave
/o {
gsave
newpath
translate
0.5 setlinewidth
1 setlinejoin
0 setlinecap
0 0 m
4 0 l
gsave
0.000 setgray
fill
grestore
stroke
grestore
} bind def
73.125 220.5 o
grestore
gsave
/o {
gsave
newpath
translate
0.5 setlinewidth
1 setlinejoin
0 setlinecap
0 0 m
-4 0 l
gsave
0.000 setgray
fill
grestore
stroke
grestore
} bind def
526.5 220.5 o
grestore
gsave
45.625000 214.445313 translate
0.000000 rotate
0.000000 0.234375 m /zero glyphshow
10.179688 0.234375 m /period glyphshow
15.265625 0.234375 m /four glyphshow
grestore
gsave
/o {
gsave
newpath
translate
0.5 setlinewidth
1 setlinejoin
0 setlinecap
0 0 m
4 0 l
gsave
0.000 setgray
fill
grestore
stroke
grestore
} bind def
73.125 264.6 o
grestore
gsave
/o {
gsave
newpath
translate
0.5 setlinewidth
1 setlinejoin
0 setlinecap
0 0 m
-4 0 l
gsave
0.000 setgray
fill
grestore
stroke
grestore
} bind def
526.5 264.6 o
grestore
gsave
46.125000 258.545313 translate
0.000000 rotate
0.000000 0.234375 m /zero glyphshow
10.179688 0.234375 m /period glyphshow
15.265625 0.234375 m /five glyphshow
grestore
gsave
/o {
gsave
newpath
translate
0.5 setlinewidth
1 setlinejoin
0 setlinecap
0 0 m
4 0 l
gsave
0.000 setgray
fill
grestore
stroke
grestore
} bind def
73.125 308.7 o
grestore
gsave
/o {
gsave
newpath
translate
0.5 setlinewidth
1 setlinejoin
0 setlinecap
0 0 m
-4 0 l
gsave
0.000 setgray
fill
grestore
stroke
grestore
} bind def
526.5 308.7 o
grestore
gsave
45.734375 302.645313 translate
0.000000 rotate
0.000000 0.234375 m /zero glyphshow
10.179688 0.234375 m /period glyphshow
15.265625 0.234375 m /six glyphshow
grestore
gsave
/o {
gsave
newpath
translate
0.5 setlinewidth
1 setlinejoin
0 setlinecap
0 0 m
4 0 l
gsave
0.000 setgray
fill
grestore
stroke
grestore
} bind def
73.125 352.8 o
grestore
gsave
/o {
gsave
newpath
translate
0.5 setlinewidth
1 setlinejoin
0 setlinecap
0 0 m
-4 0 l
gsave
0.000 setgray
fill
grestore
stroke
grestore
} bind def
526.5 352.8 o
grestore
gsave
46.093750 346.745313 translate
0.000000 rotate
0.000000 0.234375 m /zero glyphshow
10.179688 0.234375 m /period glyphshow
15.265625 0.234375 m /seven glyphshow
grestore
gsave
/o {
gsave
newpath
translate
0.5 setlinewidth
1 setlinejoin
0 setlinecap
0 0 m
4 0 l
gsave
0.000 setgray
fill
grestore
stroke
grestore
} bind def
73.125 396.9 o
grestore
gsave
/o {
gsave
newpath
translate
0.5 setlinewidth
1 setlinejoin
0 setlinecap
0 0 m
-4 0 l
gsave
0.000 setgray
fill
grestore
stroke
grestore
} bind def
526.5 396.9 o
grestore
gsave
45.812500 390.845313 translate
0.000000 rotate
0.000000 0.234375 m /zero glyphshow
10.179688 0.234375 m /period glyphshow
15.265625 0.234375 m /eight glyphshow
grestore
gsave
40.625000 71.664063 translate
90.000000 rotate
0.000000 3.328125 m /e glyphshow
9.843750 3.328125 m /n glyphshow
19.984375 3.328125 m /s glyphshow
28.320312 3.328125 m /e glyphshow
38.164062 3.328125 m /m glyphshow
53.750000 3.328125 m /b glyphshow
63.906250 3.328125 m /l glyphshow
68.351562 3.328125 m /e glyphshow
78.195312 3.328125 m /space glyphshow
83.281250 3.328125 m /a glyphshow
93.085938 3.328125 m /v glyphshow
102.554688 3.328125 m /e glyphshow
112.398438 3.328125 m /r glyphshow
118.976562 3.328125 m /a glyphshow
128.781250 3.328125 m /g glyphshow
138.937500 3.328125 m /e glyphshow
148.781250 3.328125 m /space glyphshow
153.867188 3.328125 m /o glyphshow
163.656250 3.328125 m /f glyphshow
169.289062 3.328125 m /space glyphshow
174.375000 3.328125 m /c glyphshow
183.171875 3.328125 m /o glyphshow
192.960938 3.328125 m /n glyphshow
203.101562 3.328125 m /t glyphshow
209.375000 3.328125 m /a glyphshow
219.179688 3.328125 m /c glyphshow
227.976562 3.328125 m /t glyphshow
234.250000 3.328125 m /space glyphshow
239.335938 3.328125 m /d glyphshow
249.492188 3.328125 m /e glyphshow
259.335938 3.328125 m /n glyphshow
269.476562 3.328125 m /s glyphshow
277.812500 3.328125 m /i glyphshow
282.257812 3.328125 m /t glyphshow
288.531250 3.328125 m /y glyphshow
grestore
1.000 setlinewidth
2 setlinecap
gsave
73.125 396.9 m
526.5 396.9 l
stroke
grestore
gsave
526.5 44.1 m
526.5 396.9 l
stroke
grestore
gsave
73.125 44.1 m
526.5 44.1 l
stroke
grestore
gsave
73.125 44.1 m
73.125 396.9 l
stroke
grestore
/DejaVuSans findfont
19.200 scalefont
setfont
gsave
112.531250 397.946875 translate
0.000000 rotate
0.000000 3.953125 m /t glyphshow
7.547729 3.953125 m /o glyphshow
19.325195 3.953125 m /l glyphshow
24.673462 3.953125 m /e glyphshow
36.516724 3.953125 m /r glyphshow
44.431030 3.953125 m /a glyphshow
56.227295 3.953125 m /n glyphshow
68.427734 3.953125 m /c glyphshow
79.011475 3.953125 m /e glyphshow
90.854736 3.953125 m /equal glyphshow
106.984131 3.953125 m /space glyphshow
113.103149 3.953125 m /zero glyphshow
125.350586 3.953125 m /period glyphshow
131.469604 3.953125 m /three glyphshow
143.717041 3.953125 m /zero glyphshow
155.964478 3.953125 m /space glyphshow
162.083496 3.953125 m /space glyphshow
168.202515 3.953125 m /d glyphshow
180.421753 3.953125 m /e glyphshow
192.265015 3.953125 m /n glyphshow
204.465454 3.953125 m /s glyphshow
214.494629 3.953125 m /i glyphshow
219.842896 3.953125 m /t glyphshow
227.390625 3.953125 m /y glyphshow
238.782715 3.953125 m /equal glyphshow
254.912109 3.953125 m /zero glyphshow
267.159546 3.953125 m /period glyphshow
273.278564 3.953125 m /nine glyphshow
285.526001 3.953125 m /zero glyphshow
297.773438 3.953125 m /space glyphshow
303.892456 3.953125 m /space glyphshow
310.011475 3.953125 m /f glyphshow
316.788452 3.953125 m /equal glyphshow
332.917847 3.953125 m /zero glyphshow
345.165283 3.953125 m /period glyphshow
351.284302 3.953125 m /two glyphshow
363.531738 3.953125 m /zero glyphshow
grestore
gsave
204.827 269.577 m
516.9 269.577 l
516.9 387.3 l
204.827 387.3 l
204.827 269.577 l
cl
gsave
1.000 setgray
fill
grestore
stroke
grestore
0 setlinecap
[6 6] 0 setdash
gsave
218.267 371.903 m
245.147 371.903 l
stroke
grestore
gsave
266.266875 361.229375 translate
0.000000 rotate
0.000000 3.953125 m /n glyphshow
12.200439 3.953125 m /o glyphshow
23.977905 3.953125 m /space glyphshow
30.096924 3.953125 m /s glyphshow
40.126099 3.953125 m /w glyphshow
55.870117 3.953125 m /i glyphshow
61.218384 3.953125 m /t glyphshow
68.766113 3.953125 m /c glyphshow
79.349854 3.953125 m /h glyphshow
91.550293 3.953125 m /i glyphshow
96.898560 3.953125 m /n glyphshow
109.098999 3.953125 m /g glyphshow
121.318237 3.953125 m /comma glyphshow
127.437256 3.953125 m /space glyphshow
133.556274 3.953125 m /f glyphshow
140.333252 3.953125 m /equal glyphshow
156.462646 3.953125 m /zero glyphshow
grestore
[1 3] 0 setdash
gsave
218.267 343.912 m
245.147 343.912 l
stroke
grestore
gsave
266.266875 333.238750 translate
0.000000 rotate
0.000000 3.953125 m /n glyphshow
12.200439 3.953125 m /o glyphshow
23.977905 3.953125 m /space glyphshow
30.096924 3.953125 m /s glyphshow
40.126099 3.953125 m /w glyphshow
55.870117 3.953125 m /i glyphshow
61.218384 3.953125 m /t glyphshow
68.766113 3.953125 m /c glyphshow
79.349854 3.953125 m /h glyphshow
91.550293 3.953125 m /i glyphshow
96.898560 3.953125 m /n glyphshow
109.098999 3.953125 m /g glyphshow
121.318237 3.953125 m /comma glyphshow
127.437256 3.953125 m /space glyphshow
133.556274 3.953125 m /space glyphshow
139.675293 3.953125 m /f glyphshow
146.452271 3.953125 m /equal glyphshow
162.581665 3.953125 m /zero glyphshow
174.829102 3.953125 m /period glyphshow
180.948120 3.953125 m /two glyphshow
grestore
[3 5 1 5] 0 setdash
gsave
218.267 315.921 m
245.147 315.921 l
stroke
grestore
gsave
266.266875 305.248125 translate
0.000000 rotate
0.000000 3.953125 m /s glyphshow
10.029175 3.953125 m /w glyphshow
25.773193 3.953125 m /i glyphshow
31.121460 3.953125 m /t glyphshow
38.669189 3.953125 m /c glyphshow
49.252930 3.953125 m /h glyphshow
61.453369 3.953125 m /i glyphshow
66.801636 3.953125 m /n glyphshow
79.002075 3.953125 m /g glyphshow
91.221313 3.953125 m /space glyphshow
97.340332 3.953125 m /s glyphshow
107.369507 3.953125 m /t glyphshow
114.917236 3.953125 m /a glyphshow
126.713501 3.953125 m /r glyphshow
134.627808 3.953125 m /t glyphshow
142.175537 3.953125 m /s glyphshow
152.204712 3.953125 m /space glyphshow
158.323730 3.953125 m /a glyphshow
170.119995 3.953125 m /t glyphshow
177.667725 3.953125 m /space glyphshow
183.786743 3.953125 m /t glyphshow
191.334473 3.953125 m /equal glyphshow
207.463867 3.953125 m /zero glyphshow
grestore
2 setlinecap
[] 0 setdash
gsave
218.267 287.931 m
245.147 287.931 l
stroke
grestore
gsave
266.266875 277.257500 translate
0.000000 rotate
0.000000 3.953125 m /s glyphshow
10.029175 3.953125 m /w glyphshow
25.773193 3.953125 m /i glyphshow
31.121460 3.953125 m /t glyphshow
38.669189 3.953125 m /c glyphshow
49.252930 3.953125 m /h glyphshow
61.453369 3.953125 m /i glyphshow
66.801636 3.953125 m /n glyphshow
79.002075 3.953125 m /g glyphshow
91.221313 3.953125 m /space glyphshow
97.340332 3.953125 m /s glyphshow
107.369507 3.953125 m /t glyphshow
114.917236 3.953125 m /a glyphshow
126.713501 3.953125 m /r glyphshow
134.627808 3.953125 m /t glyphshow
142.175537 3.953125 m /s glyphshow
152.204712 3.953125 m /space glyphshow
158.323730 3.953125 m /a glyphshow
170.119995 3.953125 m /t glyphshow
177.667725 3.953125 m /space glyphshow
183.786743 3.953125 m /t glyphshow
191.334473 3.953125 m /equal glyphshow
207.463867 3.953125 m /two glyphshow
219.711304 3.953125 m /five glyphshow
231.958740 3.953125 m /zero glyphshow
grestore

end
showpage
