%!PS-Adobe-3.0 EPSF-3.0
%%Title: /home/aurelien/synchro/boulot/code/papers_code/schelling-2012/fig/phase_diagram_noisetol_3D_interface.eps
%%Creator: matplotlib version 1.1.1rc2, http://matplotlib.sourceforge.net/
%%CreationDate: Tue Jun 11 17:23:02 2013
%%Orientation: portrait
%%BoundingBox: 13 175 598 616
%%EndComments
%%BeginProlog
/mpldict 8 dict def
mpldict begin
/m { moveto } bind def
/l { lineto } bind def
/r { rlineto } bind def
/c { curveto } bind def
/cl { closepath } bind def
/box {
m
1 index 0 r
0 exch r
neg 0 r
cl
} bind def
/clipbox {
box
clip
newpath
} bind def
%!PS-Adobe-3.0 Resource-Font
%%Title: DejaVu Sans
%%Copyright: Copyright (c) 2003 by Bitstream, Inc. All Rights Reserved. Copyright (c) 2006 by Tavmjong Bah. All Rights Reserved. DejaVu changes are in public domain 
%%Creator: Converted from TrueType to type 3 by PPR
25 dict begin
/_d{bind def}bind def
/_m{moveto}_d
/_l{lineto}_d
/_cl{closepath eofill}_d
/_c{curveto}_d
/_sc{7 -1 roll{setcachedevice}{pop pop pop pop pop pop}ifelse}_d
/_e{exec}_d
/FontName /DejaVuSans def
/PaintType 0 def
/FontMatrix[.001 0 0 .001 0 0]def
/FontBBox[-1021 -415 1681 1167]def
/FontType 3 def
/Encoding [ /period /zero /one /two /three /four /five /six /seven /eight /nine /a /c /e /f /l /n /o /r /t ] def
/FontInfo 10 dict dup begin
/FamilyName (DejaVu Sans) def
/FullName (DejaVu Sans) def
/Notice (Copyright (c) 2003 by Bitstream, Inc. All Rights Reserved. Copyright (c) 2006 by Tavmjong Bah. All Rights Reserved. DejaVu changes are in public domain ) def
/Weight (Book) def
/Version (Version 2.33) def
/ItalicAngle 0.0 def
/isFixedPitch false def
/UnderlinePosition -130 def
/UnderlineThickness 90 def
end readonly def
/CharStrings 20 dict dup begin
/period{318 0 107 0 210 124 _sc
107 124 _m
210 124 _l
210 0 _l
107 0 _l
107 124 _l
_cl}_d
/zero{636 0 66 -13 570 742 _sc
318 664 _m
267 664 229 639 203 589 _c
177 539 165 464 165 364 _c
165 264 177 189 203 139 _c
229 89 267 64 318 64 _c
369 64 407 89 433 139 _c
458 189 471 264 471 364 _c
471 464 458 539 433 589 _c
407 639 369 664 318 664 _c
318 742 _m
399 742 461 709 505 645 _c
548 580 570 486 570 364 _c
570 241 548 147 505 83 _c
461 19 399 -13 318 -13 _c
236 -13 173 19 130 83 _c
87 147 66 241 66 364 _c
66 486 87 580 130 645 _c
173 709 236 742 318 742 _c
_cl}_d
/one{636 0 110 0 544 729 _sc
124 83 _m
285 83 _l
285 639 _l
110 604 _l
110 694 _l
284 729 _l
383 729 _l
383 83 _l
544 83 _l
544 0 _l
124 0 _l
124 83 _l
_cl}_d
/two{{636 0 73 0 536 742 _sc
192 83 _m
536 83 _l
536 0 _l
73 0 _l
73 83 _l
110 121 161 173 226 239 _c
290 304 331 346 348 365 _c
380 400 402 430 414 455 _c
426 479 433 504 433 528 _c
433 566 419 598 392 622 _c
365 646 330 659 286 659 _c
255 659 222 653 188 643 _c
154 632 117 616 78 594 _c
78 694 _l
118 710 155 722 189 730 _c
223 738 255 742 284 742 _c
}_e{359 742 419 723 464 685 _c
509 647 532 597 532 534 _c
532 504 526 475 515 449 _c
504 422 484 390 454 354 _c
446 344 420 317 376 272 _c
332 227 271 164 192 83 _c
_cl}_e}_d
/three{{636 0 76 -13 556 742 _sc
406 393 _m
453 383 490 362 516 330 _c
542 298 556 258 556 212 _c
556 140 531 84 482 45 _c
432 6 362 -13 271 -13 _c
240 -13 208 -10 176 -4 _c
144 1 110 10 76 22 _c
76 117 _l
103 101 133 89 166 81 _c
198 73 232 69 268 69 _c
330 69 377 81 409 105 _c
441 129 458 165 458 212 _c
458 254 443 288 413 312 _c
383 336 341 349 287 349 _c
}_e{202 349 _l
202 430 _l
291 430 _l
339 430 376 439 402 459 _c
428 478 441 506 441 543 _c
441 580 427 609 401 629 _c
374 649 336 659 287 659 _c
260 659 231 656 200 650 _c
169 644 135 635 98 623 _c
98 711 _l
135 721 170 729 203 734 _c
235 739 266 742 296 742 _c
370 742 429 725 473 691 _c
517 657 539 611 539 553 _c
539 513 527 479 504 451 _c
481 423 448 403 406 393 _c
_cl}_e}_d
/four{636 0 49 0 580 729 _sc
378 643 _m
129 254 _l
378 254 _l
378 643 _l
352 729 _m
476 729 _l
476 254 _l
580 254 _l
580 172 _l
476 172 _l
476 0 _l
378 0 _l
378 172 _l
49 172 _l
49 267 _l
352 729 _l
_cl}_d
/five{{636 0 77 -13 549 729 _sc
108 729 _m
495 729 _l
495 646 _l
198 646 _l
198 467 _l
212 472 227 476 241 478 _c
255 480 270 482 284 482 _c
365 482 429 459 477 415 _c
525 370 549 310 549 234 _c
549 155 524 94 475 51 _c
426 8 357 -13 269 -13 _c
238 -13 207 -10 175 -6 _c
143 -1 111 6 77 17 _c
77 116 _l
106 100 136 88 168 80 _c
199 72 232 69 267 69 _c
}_e{323 69 368 83 401 113 _c
433 143 450 183 450 234 _c
450 284 433 324 401 354 _c
368 384 323 399 267 399 _c
241 399 214 396 188 390 _c
162 384 135 375 108 363 _c
108 729 _l
_cl}_e}_d
/six{{636 0 70 -13 573 742 _sc
330 404 _m
286 404 251 388 225 358 _c
199 328 186 286 186 234 _c
186 181 199 139 225 109 _c
251 79 286 64 330 64 _c
374 64 409 79 435 109 _c
461 139 474 181 474 234 _c
474 286 461 328 435 358 _c
409 388 374 404 330 404 _c
526 713 _m
526 623 _l
501 635 476 644 451 650 _c
425 656 400 659 376 659 _c
310 659 260 637 226 593 _c
}_e{192 549 172 482 168 394 _c
187 422 211 444 240 459 _c
269 474 301 482 336 482 _c
409 482 467 459 509 415 _c
551 371 573 310 573 234 _c
573 159 550 99 506 54 _c
462 9 403 -13 330 -13 _c
246 -13 181 19 137 83 _c
92 147 70 241 70 364 _c
70 479 97 571 152 639 _c
206 707 280 742 372 742 _c
396 742 421 739 447 735 _c
472 730 498 723 526 713 _c
_cl}_e}_d
/seven{636 0 82 0 551 729 _sc
82 729 _m
551 729 _l
551 687 _l
286 0 _l
183 0 _l
432 646 _l
82 646 _l
82 729 _l
_cl}_d
/eight{{636 0 68 -13 568 742 _sc
318 346 _m
271 346 234 333 207 308 _c
180 283 167 249 167 205 _c
167 161 180 126 207 101 _c
234 76 271 64 318 64 _c
364 64 401 76 428 102 _c
455 127 469 161 469 205 _c
469 249 455 283 429 308 _c
402 333 365 346 318 346 _c
219 388 _m
177 398 144 418 120 447 _c
96 476 85 511 85 553 _c
85 611 105 657 147 691 _c
188 725 245 742 318 742 _c
}_e{390 742 447 725 489 691 _c
530 657 551 611 551 553 _c
551 511 539 476 515 447 _c
491 418 459 398 417 388 _c
464 377 501 355 528 323 _c
554 291 568 251 568 205 _c
568 134 546 80 503 43 _c
459 5 398 -13 318 -13 _c
237 -13 175 5 132 43 _c
89 80 68 134 68 205 _c
68 251 81 291 108 323 _c
134 355 171 377 219 388 _c
183 544 _m
183 506 194 476 218 455 _c
}_e{242 434 275 424 318 424 _c
360 424 393 434 417 455 _c
441 476 453 506 453 544 _c
453 582 441 611 417 632 _c
393 653 360 664 318 664 _c
275 664 242 653 218 632 _c
194 611 183 582 183 544 _c
_cl}_e}_d
/nine{{636 0 63 -13 566 742 _sc
110 15 _m
110 105 _l
134 93 159 84 185 78 _c
210 72 235 69 260 69 _c
324 69 374 90 408 134 _c
442 178 462 244 468 334 _c
448 306 424 284 396 269 _c
367 254 335 247 300 247 _c
226 247 168 269 126 313 _c
84 357 63 417 63 494 _c
63 568 85 628 129 674 _c
173 719 232 742 306 742 _c
390 742 455 709 499 645 _c
543 580 566 486 566 364 _c
}_e{566 248 538 157 484 89 _c
429 21 356 -13 264 -13 _c
239 -13 214 -10 189 -6 _c
163 -2 137 5 110 15 _c
306 324 _m
350 324 385 339 411 369 _c
437 399 450 441 450 494 _c
450 546 437 588 411 618 _c
385 648 350 664 306 664 _c
262 664 227 648 201 618 _c
175 588 162 546 162 494 _c
162 441 175 399 201 369 _c
227 339 262 324 306 324 _c
_cl}_e}_d
/a{{613 0 60 -13 522 560 _sc
343 275 _m
270 275 220 266 192 250 _c
164 233 150 205 150 165 _c
150 133 160 107 181 89 _c
202 70 231 61 267 61 _c
317 61 357 78 387 114 _c
417 149 432 196 432 255 _c
432 275 _l
343 275 _l
522 312 _m
522 0 _l
432 0 _l
432 83 _l
411 49 385 25 355 10 _c
325 -5 287 -13 243 -13 _c
187 -13 142 2 109 33 _c
76 64 60 106 60 159 _c
}_e{60 220 80 266 122 298 _c
163 329 224 345 306 345 _c
432 345 _l
432 354 _l
432 395 418 427 391 450 _c
364 472 326 484 277 484 _c
245 484 215 480 185 472 _c
155 464 127 453 100 439 _c
100 522 _l
132 534 164 544 195 550 _c
226 556 256 560 286 560 _c
365 560 424 539 463 498 _c
502 457 522 395 522 312 _c
_cl}_e}_d
/c{{550 0 55 -13 488 560 _sc
488 526 _m
488 442 _l
462 456 437 466 411 473 _c
385 480 360 484 334 484 _c
276 484 230 465 198 428 _c
166 391 150 339 150 273 _c
150 206 166 154 198 117 _c
230 80 276 62 334 62 _c
360 62 385 65 411 72 _c
437 79 462 90 488 104 _c
488 21 _l
462 9 436 0 410 -5 _c
383 -10 354 -13 324 -13 _c
242 -13 176 12 128 64 _c
}_e{79 115 55 185 55 273 _c
55 362 79 432 128 483 _c
177 534 244 560 330 560 _c
358 560 385 557 411 551 _c
437 545 463 537 488 526 _c
_cl}_e}_d
/e{{615 0 55 -13 562 560 _sc
562 296 _m
562 252 _l
149 252 _l
153 190 171 142 205 110 _c
238 78 284 62 344 62 _c
378 62 412 66 444 74 _c
476 82 509 95 541 113 _c
541 28 _l
509 14 476 3 442 -3 _c
408 -9 373 -13 339 -13 _c
251 -13 182 12 131 62 _c
80 112 55 181 55 268 _c
55 357 79 428 127 481 _c
175 533 241 560 323 560 _c
397 560 455 536 498 489 _c
}_e{540 441 562 377 562 296 _c
472 322 _m
471 371 457 410 431 440 _c
404 469 368 484 324 484 _c
274 484 234 469 204 441 _c
174 413 156 373 152 322 _c
472 322 _l
_cl}_e}_d
/f{352 0 23 0 371 760 _sc
371 760 _m
371 685 _l
285 685 _l
253 685 230 678 218 665 _c
205 652 199 629 199 595 _c
199 547 _l
347 547 _l
347 477 _l
199 477 _l
199 0 _l
109 0 _l
109 477 _l
23 477 _l
23 547 _l
109 547 _l
109 585 _l
109 645 123 690 151 718 _c
179 746 224 760 286 760 _c
371 760 _l
_cl}_d
/l{278 0 94 0 184 760 _sc
94 760 _m
184 760 _l
184 0 _l
94 0 _l
94 760 _l
_cl}_d
/n{634 0 91 0 549 560 _sc
549 330 _m
549 0 _l
459 0 _l
459 327 _l
459 379 448 417 428 443 _c
408 469 378 482 338 482 _c
289 482 251 466 223 435 _c
195 404 181 362 181 309 _c
181 0 _l
91 0 _l
91 547 _l
181 547 _l
181 462 _l
202 494 227 519 257 535 _c
286 551 320 560 358 560 _c
420 560 468 540 500 501 _c
532 462 549 405 549 330 _c
_cl}_d
/o{612 0 55 -13 557 560 _sc
306 484 _m
258 484 220 465 192 427 _c
164 389 150 338 150 273 _c
150 207 163 156 191 118 _c
219 80 257 62 306 62 _c
354 62 392 80 420 118 _c
448 156 462 207 462 273 _c
462 337 448 389 420 427 _c
392 465 354 484 306 484 _c
306 560 _m
384 560 445 534 490 484 _c
534 433 557 363 557 273 _c
557 183 534 113 490 63 _c
445 12 384 -13 306 -13 _c
227 -13 165 12 121 63 _c
77 113 55 183 55 273 _c
55 363 77 433 121 484 _c
165 534 227 560 306 560 _c
_cl}_d
/r{411 0 91 0 411 560 _sc
411 463 _m
401 469 390 473 378 476 _c
366 478 353 480 339 480 _c
288 480 249 463 222 430 _c
194 397 181 350 181 288 _c
181 0 _l
91 0 _l
91 547 _l
181 547 _l
181 462 _l
199 495 224 520 254 536 _c
284 552 321 560 365 560 _c
371 560 378 559 386 559 _c
393 558 401 557 411 555 _c
411 463 _l
_cl}_d
/t{392 0 27 0 368 702 _sc
183 702 _m
183 547 _l
368 547 _l
368 477 _l
183 477 _l
183 180 _l
183 135 189 106 201 94 _c
213 81 238 75 276 75 _c
368 75 _l
368 0 _l
276 0 _l
206 0 158 13 132 39 _c
106 65 93 112 93 180 _c
93 477 _l
27 477 _l
27 547 _l
93 547 _l
93 702 _l
183 702 _l
_cl}_d
end readonly def

/BuildGlyph
 {exch begin
 CharStrings exch
 2 copy known not{pop /.notdef}if
 true 3 1 roll get exec
 end}_d

/BuildChar {
 1 index /Encoding get exch get
 1 index /BuildGlyph get exec
}_d

FontName currentdict end definefont pop
end
%%EndProlog
mpldict begin
13.5 175.5 translate
585 441 0 0 clipbox
gsave
0 0 m
585 0 l
585 441 l
0 441 l
cl
1.000 setgray
fill
grestore
gsave
73.125 44.1 m
526.5 44.1 l
526.5 396.9 l
73.125 396.9 l
cl
1.000 setgray
fill
grestore
1.000 setlinewidth
1 setlinejoin
2 setlinecap
[] 0 setdash
0.950 setgray
gsave
476.771 166.469 m
279.077 237.49 l
277.314 386.961 l
488.52 318.174 l
gsave
fill
grestore
stroke
grestore
0.900 setgray
gsave
132.062 136.79 m
279.077 237.49 l
277.314 386.961 l
119.875 289.309 l
gsave
fill
grestore
stroke
grestore
0.925 setgray
gsave
335.855 56.2844 m
476.771 166.469 l
279.077 237.49 l
132.062 136.79 l
gsave
fill
grestore
stroke
grestore
0.750 setlinewidth
0.000 setgray
gsave
476.771 166.469 m
335.855 56.2844 l
stroke
grestore
/DejaVuSans findfont
16.000 scalefont
setfont
gsave
431.725978 78.726359 translate
0.000000 rotate
0.000000 0.000000 m /f glyphshow
grestore
/p0_0 {
newpath
translate
338.856 58.6308 m
135.184 138.929 l
123.232 291.391 l
} bind def
/p0_1 {
newpath
translate
367.266 80.845 m
164.761 159.187 l
155.005 311.099 l
} bind def
/p0_2 {
newpath
translate
394.972 102.509 m
193.637 178.967 l
185.975 330.308 l
} bind def
/p0_3 {
newpath
translate
422.001 123.644 m
221.839 198.283 l
216.172 349.038 l
} bind def
/p0_4 {
newpath
translate
448.377 144.268 m
249.388 217.154 l
245.625 367.306 l
} bind def
/p0_5 {
newpath
translate
474.124 164.4 m
276.308 235.593 l
274.361 385.129 l
} bind def
1.000 setlinewidth
0 setlinecap
0.900 setgray
gsave
0 0 p0_0
stroke
grestore
gsave
0 0 p0_1
stroke
grestore
gsave
0 0 p0_2
stroke
grestore
gsave
0 0 p0_3
stroke
grestore
gsave
0 0 p0_4
stroke
grestore
gsave
0 0 p0_5
stroke
grestore
2 setlinecap
0.000 setgray
gsave
337.15 59.3034 m
342.272 57.2841 l
stroke
grestore
gsave
338.990877 33.776582 translate
0.000000 rotate
0.000000 0.234375 m /zero glyphshow
10.179688 0.234375 m /period glyphshow
15.265625 0.234375 m /zero glyphshow
grestore
gsave
365.571 81.5008 m
370.66 79.5318 l
stroke
grestore
gsave
367.430624 56.124410 translate
0.000000 rotate
0.000000 0.234375 m /zero glyphshow
10.179688 0.234375 m /period glyphshow
15.265625 0.234375 m /one glyphshow
grestore
gsave
393.288 103.149 m
398.345 101.228 l
stroke
grestore
gsave
395.023975 77.919689 translate
0.000000 rotate
0.000000 0.234375 m /zero glyphshow
10.179688 0.234375 m /period glyphshow
15.265625 0.234375 m /two glyphshow
grestore
gsave
420.327 124.268 m
425.353 122.394 l
stroke
grestore
gsave
421.718376 99.182660 translate
0.000000 rotate
0.000000 0.234375 m /zero glyphshow
10.179688 0.234375 m /period glyphshow
15.265625 0.234375 m /three glyphshow
grestore
gsave
446.714 144.877 m
451.707 143.048 l
stroke
grestore
gsave
447.741288 119.932589 translate
0.000000 rotate
0.000000 0.234375 m /zero glyphshow
10.179688 0.234375 m /period glyphshow
15.265625 0.234375 m /four glyphshow
grestore
gsave
472.471 164.994 m
477.433 163.209 l
stroke
grestore
gsave
473.576822 140.187823 translate
0.000000 rotate
0.000000 0.234375 m /zero glyphshow
10.179688 0.234375 m /period glyphshow
15.265625 0.234375 m /five glyphshow
grestore
0.750 setlinewidth
gsave
132.062 136.79 m
335.855 56.2844 l
stroke
grestore
gsave
175.778480 72.684867 translate
338.444194 rotate
0.000000 0.234375 m /t glyphshow
6.273438 0.234375 m /o glyphshow
16.062500 0.234375 m /l glyphshow
20.507812 0.234375 m /e glyphshow
30.351562 0.234375 m /r glyphshow
36.929688 0.234375 m /a glyphshow
46.734375 0.234375 m /n glyphshow
56.875000 0.234375 m /c glyphshow
65.671875 0.234375 m /e glyphshow
grestore
/p1_0 {
newpath
translate
484.099 319.614 m
472.644 167.952 l
331.59 57.9694 l
} bind def
/p1_1 {
newpath
translate
457.748 328.196 m
448.039 176.791 l
306.166 68.0126 l
} bind def
/p1_2 {
newpath
translate
431.695 336.681 m
423.695 185.536 l
281.029 77.9428 l
} bind def
/p1_3 {
newpath
translate
405.934 345.071 m
399.606 194.19 l
256.173 87.7617 l
} bind def
/p1_4 {
newpath
translate
380.461 353.367 m
375.769 202.753 l
231.594 97.4712 l
} bind def
/p1_5 {
newpath
translate
355.27 361.572 m
352.181 211.228 l
207.288 107.073 l
} bind def
/p1_6 {
newpath
translate
330.358 369.685 m
328.837 219.614 l
183.249 116.569 l
} bind def
/p1_7 {
newpath
translate
305.719 377.71 m
305.733 227.914 l
159.473 125.962 l
} bind def
/p1_8 {
newpath
translate
281.349 385.646 m
282.866 236.129 l
135.957 135.251 l
} bind def
1.000 setlinewidth
0 setlinecap
0.900 setgray
gsave
0 0 p1_0
stroke
grestore
gsave
0 0 p1_1
stroke
grestore
gsave
0 0 p1_2
stroke
grestore
gsave
0 0 p1_3
stroke
grestore
gsave
0 0 p1_4
stroke
grestore
gsave
0 0 p1_5
stroke
grestore
gsave
0 0 p1_6
stroke
grestore
gsave
0 0 p1_7
stroke
grestore
gsave
0 0 p1_8
stroke
grestore
2 setlinecap
0.000 setgray
gsave
332.792 58.9069 m
329.181 56.0913 l
stroke
grestore
gsave
311.610288 31.245405 translate
0.000000 rotate
0.000000 0.234375 m /zero glyphshow
10.179688 0.234375 m /period glyphshow
15.265625 0.234375 m /one glyphshow
grestore
gsave
307.375 68.9396 m
303.744 66.1558 l
stroke
grestore
gsave
286.300831 41.370060 translate
0.000000 rotate
0.000000 0.234375 m /zero glyphshow
10.179688 0.234375 m /period glyphshow
15.265625 0.234375 m /two glyphshow
grestore
gsave
282.244 78.8593 m
278.595 76.1068 l
stroke
grestore
gsave
261.050551 51.380691 translate
0.000000 rotate
0.000000 0.234375 m /zero glyphshow
10.179688 0.234375 m /period glyphshow
15.265625 0.234375 m /three glyphshow
grestore
gsave
257.395 88.668 m
253.727 85.9462 l
stroke
grestore
gsave
236.057772 61.279214 translate
0.000000 rotate
0.000000 0.234375 m /zero glyphshow
10.179688 0.234375 m /period glyphshow
15.265625 0.234375 m /four glyphshow
grestore
gsave
232.822 98.3675 m
229.136 95.6759 l
stroke
grestore
gsave
211.778739 71.067500 translate
0.000000 rotate
0.000000 0.234375 m /zero glyphshow
10.179688 0.234375 m /period glyphshow
15.265625 0.234375 m /five glyphshow
grestore
gsave
208.521 107.96 m
204.818 105.298 l
stroke
grestore
gsave
187.326051 80.747382 translate
0.000000 rotate
0.000000 0.234375 m /zero glyphshow
10.179688 0.234375 m /period glyphshow
15.265625 0.234375 m /six glyphshow
grestore
gsave
184.487 117.446 m
180.768 114.814 l
stroke
grestore
gsave
163.515533 90.320651 translate
0.000000 rotate
0.000000 0.234375 m /zero glyphshow
10.179688 0.234375 m /period glyphshow
15.265625 0.234375 m /seven glyphshow
grestore
gsave
160.717 126.829 m
156.982 124.225 l
stroke
grestore
gsave
139.647481 99.789058 translate
0.000000 rotate
0.000000 0.234375 m /zero glyphshow
10.179688 0.234375 m /period glyphshow
15.265625 0.234375 m /eight glyphshow
grestore
gsave
137.206 136.109 m
133.455 133.534 l
stroke
grestore
gsave
116.194164 109.154316 translate
0.000000 rotate
0.000000 0.234375 m /zero glyphshow
10.179688 0.234375 m /period glyphshow
15.265625 0.234375 m /nine glyphshow
grestore
0.750 setlinewidth
gsave
132.062 136.79 m
119.875 289.309 l
stroke
grestore
/p2_0 {
newpath
translate
131.103 148.793 m
278.938 249.298 l
477.696 178.421 l
} bind def
/p2_1 {
newpath
translate
129.797 165.143 m
278.748 265.371 l
478.957 194.699 l
} bind def
/p2_2 {
newpath
translate
128.471 181.74 m
278.556 281.671 l
480.236 211.218 l
} bind def
/p2_3 {
newpath
translate
127.124 198.589 m
278.361 298.204 l
481.535 227.983 l
} bind def
/p2_4 {
newpath
translate
125.757 215.695 m
278.163 314.973 l
482.853 245 l
} bind def
/p2_5 {
newpath
translate
124.369 233.065 m
277.962 331.985 l
484.191 262.274 l
} bind def
/p2_6 {
newpath
translate
122.96 250.704 m
277.759 349.245 l
485.549 279.811 l
} bind def
/p2_7 {
newpath
translate
121.528 268.62 m
277.552 366.758 l
486.928 297.617 l
} bind def
1.000 setlinewidth
0 setlinecap
0.900 setgray
gsave
0 0 p2_0
stroke
grestore
gsave
0 0 p2_1
stroke
grestore
gsave
0 0 p2_2
stroke
grestore
gsave
0 0 p2_3
stroke
grestore
gsave
0 0 p2_4
stroke
grestore
gsave
0 0 p2_5
stroke
grestore
gsave
0 0 p2_6
stroke
grestore
gsave
0 0 p2_7
stroke
grestore
2 setlinecap
0.000 setgray
gsave
132.36 149.647 m
128.585 147.081 l
stroke
grestore
gsave
99.865300 134.992695 translate
0.000000 rotate
0.000000 0.234375 m /zero glyphshow
10.179688 0.234375 m /period glyphshow
15.265625 0.234375 m /one glyphshow
grestore
gsave
131.064 165.996 m
127.258 163.435 l
stroke
grestore
gsave
98.472028 151.347260 translate
0.000000 rotate
0.000000 0.234375 m /zero glyphshow
10.179688 0.234375 m /period glyphshow
15.265625 0.234375 m /two glyphshow
grestore
gsave
129.748 182.591 m
125.912 180.036 l
stroke
grestore
gsave
96.830250 167.948344 translate
0.000000 rotate
0.000000 0.234375 m /zero glyphshow
10.179688 0.234375 m /period glyphshow
15.265625 0.234375 m /three glyphshow
grestore
gsave
128.412 199.437 m
124.545 196.89 l
stroke
grestore
gsave
95.142591 184.801564 translate
0.000000 rotate
0.000000 0.234375 m /zero glyphshow
10.179688 0.234375 m /period glyphshow
15.265625 0.234375 m /four glyphshow
grestore
gsave
127.056 216.541 m
123.156 214.001 l
stroke
grestore
gsave
93.869474 201.912707 translate
0.000000 rotate
0.000000 0.234375 m /zero glyphshow
10.179688 0.234375 m /period glyphshow
15.265625 0.234375 m /five glyphshow
grestore
gsave
125.679 233.908 m
121.747 231.376 l
stroke
grestore
gsave
92.127554 219.287742 translate
0.000000 rotate
0.000000 0.234375 m /zero glyphshow
10.179688 0.234375 m /period glyphshow
15.265625 0.234375 m /six glyphshow
grestore
gsave
124.28 251.545 m
120.316 249.021 l
stroke
grestore
gsave
90.736597 236.932819 translate
0.000000 rotate
0.000000 0.234375 m /zero glyphshow
10.179688 0.234375 m /period glyphshow
15.265625 0.234375 m /seven glyphshow
grestore
gsave
122.859 269.457 m
118.862 266.943 l
stroke
grestore
gsave
89.000725 254.854283 translate
0.000000 rotate
0.000000 0.234375 m /zero glyphshow
10.179688 0.234375 m /period glyphshow
15.265625 0.234375 m /eight glyphshow
grestore
/p3_0 {
newpath
translate
336.654 211.292 m
331.037 212.986 l
325.386 209.01 l
319.782 205.53 l
314.232 205.582 l
308.707 206.979 l
303.198 208.888 l
297.702 210.991 l
292.911 99.4719 l
287.731 99.8749 l
282.71 87.5461 l
277.552 91.5223 l
272.485 89.9154 l
267.385 91.6989 l
262.335 91.6468 l
257.252 94.0014 l
252.163 96.9524 l
247.002 102.794 l
241.969 104.112 l
236.916 106.538 l
231.273 126.309 l
226.236 127.712 l
221.171 130.176 l
215.804 140.161 l
210.795 141.372 l
205.645 145.983 l
199.644 168.236 l
194.614 169.658 l
189.413 174.573 l
184.429 175.505 l
178.819 187.665 l
173.86 188.286 l
165.198 249.412 l
160.27 247.993 l
154.927 253.283 l
149.989 252.567 l
144.792 255.876 l
138.941 268.288 l
132.887 282.979 l
127.903 283.147 l
} bind def
/p3_1 {
newpath
translate
367.827 232.72 m
362.241 234.194 l
356.572 231.177 l
350.936 227.896 l
345.394 227.762 l
339.915 230.289 l
334.434 231.775 l
328.975 233.911 l
322.964 163.102 l
317.713 166.931 l
312.375 140.031 l
307.203 141.24 l
302.051 139.499 l
296.915 141.11 l
291.812 139.65 l
286.717 140.446 l
281.607 144.096 l
276.544 144.486 l
271.462 147.328 l
266.394 149.735 l
261.149 161.348 l
256.101 162.79 l
251.021 166.037 l
245.826 173.741 l
240.773 176.115 l
235.703 179.304 l
230.263 193.609 l
225.048 200.435 l
220.132 199.179 l
214.951 205.115 l
209.815 209.812 l
204.537 217.662 l
197.467 263.223 l
192.413 264.273 l
187.359 265.603 l
182.261 268.003 l
177.005 273.416 l
171.471 283.548 l
165.443 301.521 l
160.421 302.396 l
} bind def
/p3_2 {
newpath
translate
398.145 253.866 m
392.617 255.939 l
386.948 253.619 l
381.314 251.367 l
375.79 251.609 l
370.34 253.707 l
364.896 255.564 l
359.485 258.267 l
353.188 218.226 l
347.925 222.467 l
342.132 193.932 l
336.935 197.161 l
331.695 196.165 l
326.511 198.442 l
321.229 185.058 l
316.106 188.456 l
310.985 190.064 l
305.876 188.798 l
300.784 191.399 l
295.704 193.203 l
290.601 200.18 l
285.55 200.046 l
280.478 203.616 l
275.389 208.783 l
270.35 210.52 l
265.322 212.257 l
260.04 227.19 l
254.998 229.347 l
249.966 231.464 l
244.973 232.548 l
239.754 241.896 l
234.785 242.56 l
228.648 278.731 l
223.572 281.134 l
218.473 284.41 l
213.521 284.106 l
208.469 286.682 l
202.941 300.229 l
197.129 319.114 l
192.048 321.595 l
} bind def
/p3_3 {
newpath
translate
427.627 274.216 m
422.176 276.916 l
416.528 275.309 l
410.93 274.122 l
405.423 274.426 l
400.011 276.551 l
394.596 278.297 l
389.196 280.078 l
382.978 257.103 l
377.693 259.882 l
371.938 246.072 l
366.655 246.862 l
361.347 245.921 l
356.101 246.647 l
350.526 229.76 l
345.374 231.609 l
340.229 233.11 l
335.066 232.216 l
329.953 233.792 l
324.857 235.826 l
319.772 237.992 l
314.695 239.752 l
309.63 241.016 l
304.576 245.248 l
299.526 248.525 l
294.493 249.426 l
289.417 258.377 l
284.388 260.128 l
279.353 263.476 l
274.352 264.626 l
269.276 271.322 l
264.262 274.121 l
258.808 299.034 l
253.772 301.253 l
248.8 301.254 l
243.775 303.965 l
238.762 306.478 l
233.488 317.729 l
227.912 337.326 l
222.871 339.782 l
} bind def
/p3_4 {
newpath
translate
456.37 294.911 m
450.888 296.289 l
445.303 295.694 l
439.706 294.446 l
434.296 296.118 l
428.927 298.307 l
423.495 299.017 l
418.125 300.659 l
412.078 287.157 l
406.78 289.033 l
401.057 280.235 l
395.796 281.81 l
390.484 281.623 l
385.278 283.911 l
379.553 269.64 l
374.359 270.393 l
369.211 272.246 l
363.977 270.228 l
358.858 271.984 l
353.759 274.117 l
348.637 274.519 l
343.564 276.771 l
338.478 277.5 l
333.441 281.017 l
328.397 283.405 l
323.357 285.229 l
318.353 291.623 l
313.319 291.458 l
308.309 295.986 l
303.303 296.532 l
298.294 303.125 l
293.306 303.958 l
288.204 321.884 l
283.208 322.894 l
278.212 325.111 l
273.234 326.612 l
268.25 329.27 l
263.15 338.777 l
257.867 356.336 l
252.876 358.223 l
} bind def
/p3_5 {
newpath
translate
480.946 313.082 m
475.556 315.31 l
469.978 314.695 l
464.417 313.965 l
458.985 314.854 l
453.633 316.746 l
448.276 318.347 l
442.964 320.501 l
437.007 310.894 l
431.721 312.628 l
426.061 306.806 l
420.844 309.103 l
415.53 309.089 l
410.376 312.245 l
404.553 299.394 l
399.448 302.597 l
394.272 303.786 l
389.025 302.569 l
383.881 303.669 l
378.761 305.112 l
373.663 306.877 l
368.552 307.726 l
363.482 309.591 l
358.418 311.285 l
353.376 313.487 l
348.347 315.868 l
343.36 320.41 l
338.304 319.989 l
333.313 323.441 l
328.304 324.557 l
323.334 329.147 l
318.35 331.44 l
313.405 343.07 l
308.416 342.861 l
303.443 346.065 l
298.477 348.513 l
293.523 350.053 l
288.539 357.304 l
283.477 371.657 l
278.514 373.626 l
} bind def
/p3_6 {
newpath
translate
336.654 211.292 m
340.584 213.007 l
344.524 216.293 l
348.433 218.607 l
352.344 221.744 l
356.225 224.054 l
360.106 226.977 l
363.972 229.829 l
367.827 232.72 l
371.655 235.131 l
375.484 238.02 l
379.293 240.664 l
383.103 243.738 l
386.874 246.018 l
390.653 248.888 l
394.389 250.956 l
398.145 253.866 l
401.86 256.092 l
405.609 259.406 l
409.297 261.59 l
413.004 264.475 l
416.693 267.225 l
420.357 269.676 l
424.044 272.84 l
427.627 274.216 l
431.332 278.136 l
434.912 279.942 l
438.504 282.201 l
442.119 285.076 l
445.747 288.325 l
449.285 290.274 l
452.865 293.101 l
456.37 294.911 l
459.92 297.611 l
463.394 299.343 l
466.967 302.711 l
470.441 304.786 l
474.012 308.373 l
477.427 309.949 l
480.946 313.082 l
} bind def
/p3_7 {
newpath
translate
292.911 99.4719 m
296.656 105.663 l
300.395 113.623 l
304.141 120.582 l
307.89 127.873 l
311.646 136.887 l
315.406 144.651 l
319.198 156.893 l
322.964 163.102 l
326.784 175.167 l
330.524 178.253 l
334.325 186.984 l
338.143 196.346 l
341.9 201.278 l
345.691 208.397 l
349.464 214.441 l
353.188 218.226 l
357.031 227.67 l
360.736 230.946 l
364.459 235.332 l
368.213 241.059 l
371.953 246.381 l
375.642 250.143 l
379.284 252.68 l
382.978 257.103 l
386.657 261.261 l
390.34 265.72 l
393.961 268.723 l
397.632 273.207 l
401.265 276.924 l
404.89 280.606 l
408.46 283.246 l
412.078 287.157 l
415.674 290.77 l
419.234 293.767 l
422.781 296.728 l
426.364 300.548 l
429.859 302.849 l
433.397 306.159 l
437.007 310.894 l
} bind def
/p3_8 {
newpath
translate
252.163 96.9524 m
255.841 103.091 l
259.591 105.902 l
263.245 112.994 l
266.892 120.582 l
270.576 126.244 l
274.262 131.627 l
277.935 137.811 l
281.607 144.096 l
285.289 149.363 l
288.958 155.828 l
292.637 160.889 l
296.307 167.069 l
299.981 172.15 l
303.648 179.606 l
307.317 183.56 l
310.985 190.064 l
314.648 195.166 l
318.316 201.821 l
321.972 206.459 l
325.628 211.768 l
329.275 216.369 l
332.923 221.49 l
336.572 226.991 l
340.229 233.11 l
343.855 237.375 l
347.513 243.755 l
351.13 247.97 l
354.764 253.301 l
358.397 258.7 l
362.018 263.698 l
365.618 268.014 l
369.211 272.246 l
372.792 276.305 l
376.383 280.859 l
379.926 284.068 l
383.529 289.341 l
387.079 293.147 l
390.686 298.74 l
394.272 303.786 l
} bind def
/p3_9 {
newpath
translate
210.795 141.372 m
214.472 147.963 l
218.351 149.509 l
222.055 155.234 l
225.822 159.139 l
229.581 163.065 l
233.386 165.372 l
237.063 171.308 l
240.773 176.115 l
244.543 178.571 l
248.203 184.796 l
251.915 188.861 l
255.614 193.23 l
259.307 197.543 l
262.994 201.858 l
266.696 204.994 l
270.35 210.52 l
274.009 215.518 l
277.672 219.896 l
281.332 224.087 l
284.966 230.374 l
288.621 233.892 l
292.267 237.688 l
295.901 242.394 l
299.526 248.525 l
303.155 252.098 l
306.776 257.122 l
310.392 261.224 l
314.007 266.567 l
317.611 270.431 l
321.214 275.15 l
324.799 278.065 l
328.397 283.405 l
331.974 287.008 l
335.548 291.029 l
339.123 295.543 l
342.697 300.262 l
346.256 304.365 l
349.798 307.808 l
353.376 313.487 l
} bind def
/p3_a {
newpath
translate
165.198 249.412 m
169.282 251.275 l
173.446 251.469 l
177.511 253.039 l
181.765 250.802 l
185.472 258.4 l
189.412 261.505 l
193.438 262.589 l
197.467 263.223 l
201.47 263.997 l
205.393 266.157 l
209.328 267.7 l
213.305 267.784 l
217.135 271.124 l
220.991 273.508 l
224.779 277.455 l
228.648 278.731 l
232.512 279.619 l
236.327 281.59 l
240.099 284.558 l
243.829 288.685 l
247.59 291.336 l
251.351 293.466 l
255.115 294.864 l
258.808 299.034 l
262.536 300.933 l
266.236 303.731 l
269.934 305.962 l
273.615 308.52 l
277.284 311.17 l
280.902 317.521 l
284.589 316.423 l
288.204 321.884 l
291.848 322.151 l
295.456 326.566 l
299.065 329.019 l
302.661 332.9 l
306.25 335.441 l
309.831 339.319 l
313.405 343.07 l
} bind def
/p3_b {
newpath
translate
127.903 283.147 m
131.949 286.485 l
136.136 287.736 l
140.14 291.296 l
144.185 294.111 l
148.438 293.646 l
152.192 300.399 l
156.497 298.577 l
160.421 302.396 l
164.454 304.258 l
168.414 307.108 l
172.294 311.15 l
176.465 309.782 l
180.349 313.274 l
184.354 314.24 l
188.219 317.634 l
192.048 321.595 l
196.102 320.536 l
199.844 325.883 l
203.759 327.162 l
207.622 329.294 l
211.365 334.11 l
215.214 336.019 l
219.048 337.961 l
222.871 339.782 l
226.728 340.195 l
230.455 344.113 l
234.254 345.401 l
237.987 348.456 l
241.721 351.094 l
245.464 352.965 l
249.159 356.298 l
252.876 358.223 l
256.595 359.437 l
260.312 359.93 l
263.942 364.44 l
267.606 366.469 l
271.268 367.865 l
274.882 371.819 l
278.514 373.626 l
} bind def
0 setlinecap
gsave
453.4 352.8 73.12 44.1 clipbox
0 0 p3_0
stroke
grestore
gsave
453.4 352.8 73.12 44.1 clipbox
0 0 p3_1
stroke
grestore
gsave
453.4 352.8 73.12 44.1 clipbox
0 0 p3_2
stroke
grestore
gsave
453.4 352.8 73.12 44.1 clipbox
0 0 p3_3
stroke
grestore
gsave
453.4 352.8 73.12 44.1 clipbox
0 0 p3_4
stroke
grestore
gsave
453.4 352.8 73.12 44.1 clipbox
0 0 p3_5
stroke
grestore
gsave
453.4 352.8 73.12 44.1 clipbox
0 0 p3_6
stroke
grestore
gsave
453.4 352.8 73.12 44.1 clipbox
0 0 p3_7
stroke
grestore
gsave
453.4 352.8 73.12 44.1 clipbox
0 0 p3_8
stroke
grestore
gsave
453.4 352.8 73.12 44.1 clipbox
0 0 p3_9
stroke
grestore
gsave
453.4 352.8 73.12 44.1 clipbox
0 0 p3_a
stroke
grestore
gsave
453.4 352.8 73.12 44.1 clipbox
0 0 p3_b
stroke
grestore

end
showpage
