%!PS-Adobe-3.0 EPSF-3.0
%%Title: /home/aurelien/synchro/boulot/code/papers_code/schelling-2012/fig/phase_diagram_rhotol_3D.eps
%%Creator: matplotlib version 1.1.1rc2, http://matplotlib.sourceforge.net/
%%CreationDate: Wed Jun  5 15:49:18 2013
%%Orientation: portrait
%%BoundingBox: -307 171 919 620
%%EndComments
%%BeginProlog
/mpldict 8 dict def
mpldict begin
/m { moveto } bind def
/l { lineto } bind def
/r { rlineto } bind def
/c { curveto } bind def
/cl { closepath } bind def
/box {
m
1 index 0 r
0 exch r
neg 0 r
cl
} bind def
/clipbox {
box
clip
newpath
} bind def
%!PS-Adobe-3.0 Resource-Font
%%Title: DejaVu Sans
%%Copyright: Copyright (c) 2003 by Bitstream, Inc. All Rights Reserved. Copyright (c) 2006 by Tavmjong Bah. All Rights Reserved. DejaVu changes are in public domain 
%%Creator: Converted from TrueType to type 3 by PPR
25 dict begin
/_d{bind def}bind def
/_m{moveto}_d
/_l{lineto}_d
/_cl{closepath eofill}_d
/_c{curveto}_d
/_sc{7 -1 roll{setcachedevice}{pop pop pop pop pop pop}ifelse}_d
/_e{exec}_d
/FontName /DejaVuSans def
/PaintType 0 def
/FontMatrix[.001 0 0 .001 0 0]def
/FontBBox[-1021 -415 1681 1167]def
/FontType 3 def
/Encoding [ /period /zero /one /two /four /five /six /seven /eight /nine /equal /a /c /d /e /f /i /l /n /o /r /s /t /x /y ] def
/FontInfo 10 dict dup begin
/FamilyName (DejaVu Sans) def
/FullName (DejaVu Sans) def
/Notice (Copyright (c) 2003 by Bitstream, Inc. All Rights Reserved. Copyright (c) 2006 by Tavmjong Bah. All Rights Reserved. DejaVu changes are in public domain ) def
/Weight (Book) def
/Version (Version 2.33) def
/ItalicAngle 0.0 def
/isFixedPitch false def
/UnderlinePosition -130 def
/UnderlineThickness 90 def
end readonly def
/CharStrings 25 dict dup begin
/period{318 0 107 0 210 124 _sc
107 124 _m
210 124 _l
210 0 _l
107 0 _l
107 124 _l
_cl}_d
/zero{636 0 66 -13 570 742 _sc
318 664 _m
267 664 229 639 203 589 _c
177 539 165 464 165 364 _c
165 264 177 189 203 139 _c
229 89 267 64 318 64 _c
369 64 407 89 433 139 _c
458 189 471 264 471 364 _c
471 464 458 539 433 589 _c
407 639 369 664 318 664 _c
318 742 _m
399 742 461 709 505 645 _c
548 580 570 486 570 364 _c
570 241 548 147 505 83 _c
461 19 399 -13 318 -13 _c
236 -13 173 19 130 83 _c
87 147 66 241 66 364 _c
66 486 87 580 130 645 _c
173 709 236 742 318 742 _c
_cl}_d
/one{636 0 110 0 544 729 _sc
124 83 _m
285 83 _l
285 639 _l
110 604 _l
110 694 _l
284 729 _l
383 729 _l
383 83 _l
544 83 _l
544 0 _l
124 0 _l
124 83 _l
_cl}_d
/two{{636 0 73 0 536 742 _sc
192 83 _m
536 83 _l
536 0 _l
73 0 _l
73 83 _l
110 121 161 173 226 239 _c
290 304 331 346 348 365 _c
380 400 402 430 414 455 _c
426 479 433 504 433 528 _c
433 566 419 598 392 622 _c
365 646 330 659 286 659 _c
255 659 222 653 188 643 _c
154 632 117 616 78 594 _c
78 694 _l
118 710 155 722 189 730 _c
223 738 255 742 284 742 _c
}_e{359 742 419 723 464 685 _c
509 647 532 597 532 534 _c
532 504 526 475 515 449 _c
504 422 484 390 454 354 _c
446 344 420 317 376 272 _c
332 227 271 164 192 83 _c
_cl}_e}_d
/four{636 0 49 0 580 729 _sc
378 643 _m
129 254 _l
378 254 _l
378 643 _l
352 729 _m
476 729 _l
476 254 _l
580 254 _l
580 172 _l
476 172 _l
476 0 _l
378 0 _l
378 172 _l
49 172 _l
49 267 _l
352 729 _l
_cl}_d
/five{{636 0 77 -13 549 729 _sc
108 729 _m
495 729 _l
495 646 _l
198 646 _l
198 467 _l
212 472 227 476 241 478 _c
255 480 270 482 284 482 _c
365 482 429 459 477 415 _c
525 370 549 310 549 234 _c
549 155 524 94 475 51 _c
426 8 357 -13 269 -13 _c
238 -13 207 -10 175 -6 _c
143 -1 111 6 77 17 _c
77 116 _l
106 100 136 88 168 80 _c
199 72 232 69 267 69 _c
}_e{323 69 368 83 401 113 _c
433 143 450 183 450 234 _c
450 284 433 324 401 354 _c
368 384 323 399 267 399 _c
241 399 214 396 188 390 _c
162 384 135 375 108 363 _c
108 729 _l
_cl}_e}_d
/six{{636 0 70 -13 573 742 _sc
330 404 _m
286 404 251 388 225 358 _c
199 328 186 286 186 234 _c
186 181 199 139 225 109 _c
251 79 286 64 330 64 _c
374 64 409 79 435 109 _c
461 139 474 181 474 234 _c
474 286 461 328 435 358 _c
409 388 374 404 330 404 _c
526 713 _m
526 623 _l
501 635 476 644 451 650 _c
425 656 400 659 376 659 _c
310 659 260 637 226 593 _c
}_e{192 549 172 482 168 394 _c
187 422 211 444 240 459 _c
269 474 301 482 336 482 _c
409 482 467 459 509 415 _c
551 371 573 310 573 234 _c
573 159 550 99 506 54 _c
462 9 403 -13 330 -13 _c
246 -13 181 19 137 83 _c
92 147 70 241 70 364 _c
70 479 97 571 152 639 _c
206 707 280 742 372 742 _c
396 742 421 739 447 735 _c
472 730 498 723 526 713 _c
_cl}_e}_d
/seven{636 0 82 0 551 729 _sc
82 729 _m
551 729 _l
551 687 _l
286 0 _l
183 0 _l
432 646 _l
82 646 _l
82 729 _l
_cl}_d
/eight{{636 0 68 -13 568 742 _sc
318 346 _m
271 346 234 333 207 308 _c
180 283 167 249 167 205 _c
167 161 180 126 207 101 _c
234 76 271 64 318 64 _c
364 64 401 76 428 102 _c
455 127 469 161 469 205 _c
469 249 455 283 429 308 _c
402 333 365 346 318 346 _c
219 388 _m
177 398 144 418 120 447 _c
96 476 85 511 85 553 _c
85 611 105 657 147 691 _c
188 725 245 742 318 742 _c
}_e{390 742 447 725 489 691 _c
530 657 551 611 551 553 _c
551 511 539 476 515 447 _c
491 418 459 398 417 388 _c
464 377 501 355 528 323 _c
554 291 568 251 568 205 _c
568 134 546 80 503 43 _c
459 5 398 -13 318 -13 _c
237 -13 175 5 132 43 _c
89 80 68 134 68 205 _c
68 251 81 291 108 323 _c
134 355 171 377 219 388 _c
183 544 _m
183 506 194 476 218 455 _c
}_e{242 434 275 424 318 424 _c
360 424 393 434 417 455 _c
441 476 453 506 453 544 _c
453 582 441 611 417 632 _c
393 653 360 664 318 664 _c
275 664 242 653 218 632 _c
194 611 183 582 183 544 _c
_cl}_e}_d
/nine{{636 0 63 -13 566 742 _sc
110 15 _m
110 105 _l
134 93 159 84 185 78 _c
210 72 235 69 260 69 _c
324 69 374 90 408 134 _c
442 178 462 244 468 334 _c
448 306 424 284 396 269 _c
367 254 335 247 300 247 _c
226 247 168 269 126 313 _c
84 357 63 417 63 494 _c
63 568 85 628 129 674 _c
173 719 232 742 306 742 _c
390 742 455 709 499 645 _c
543 580 566 486 566 364 _c
}_e{566 248 538 157 484 89 _c
429 21 356 -13 264 -13 _c
239 -13 214 -10 189 -6 _c
163 -2 137 5 110 15 _c
306 324 _m
350 324 385 339 411 369 _c
437 399 450 441 450 494 _c
450 546 437 588 411 618 _c
385 648 350 664 306 664 _c
262 664 227 648 201 618 _c
175 588 162 546 162 494 _c
162 441 175 399 201 369 _c
227 339 262 324 306 324 _c
_cl}_e}_d
/equal{838 0 106 172 732 454 _sc
106 454 _m
732 454 _l
732 372 _l
106 372 _l
106 454 _l
106 255 _m
732 255 _l
732 172 _l
106 172 _l
106 255 _l
_cl}_d
/a{{613 0 60 -13 522 560 _sc
343 275 _m
270 275 220 266 192 250 _c
164 233 150 205 150 165 _c
150 133 160 107 181 89 _c
202 70 231 61 267 61 _c
317 61 357 78 387 114 _c
417 149 432 196 432 255 _c
432 275 _l
343 275 _l
522 312 _m
522 0 _l
432 0 _l
432 83 _l
411 49 385 25 355 10 _c
325 -5 287 -13 243 -13 _c
187 -13 142 2 109 33 _c
76 64 60 106 60 159 _c
}_e{60 220 80 266 122 298 _c
163 329 224 345 306 345 _c
432 345 _l
432 354 _l
432 395 418 427 391 450 _c
364 472 326 484 277 484 _c
245 484 215 480 185 472 _c
155 464 127 453 100 439 _c
100 522 _l
132 534 164 544 195 550 _c
226 556 256 560 286 560 _c
365 560 424 539 463 498 _c
502 457 522 395 522 312 _c
_cl}_e}_d
/c{{550 0 55 -13 488 560 _sc
488 526 _m
488 442 _l
462 456 437 466 411 473 _c
385 480 360 484 334 484 _c
276 484 230 465 198 428 _c
166 391 150 339 150 273 _c
150 206 166 154 198 117 _c
230 80 276 62 334 62 _c
360 62 385 65 411 72 _c
437 79 462 90 488 104 _c
488 21 _l
462 9 436 0 410 -5 _c
383 -10 354 -13 324 -13 _c
242 -13 176 12 128 64 _c
}_e{79 115 55 185 55 273 _c
55 362 79 432 128 483 _c
177 534 244 560 330 560 _c
358 560 385 557 411 551 _c
437 545 463 537 488 526 _c
_cl}_e}_d
/d{{635 0 55 -13 544 760 _sc
454 464 _m
454 760 _l
544 760 _l
544 0 _l
454 0 _l
454 82 _l
435 49 411 25 382 10 _c
353 -5 319 -13 279 -13 _c
213 -13 159 13 117 65 _c
75 117 55 187 55 273 _c
55 359 75 428 117 481 _c
159 533 213 560 279 560 _c
319 560 353 552 382 536 _c
411 520 435 496 454 464 _c
148 273 _m
148 207 161 155 188 117 _c
215 79 253 61 301 61 _c
}_e{348 61 385 79 413 117 _c
440 155 454 207 454 273 _c
454 339 440 390 413 428 _c
385 466 348 485 301 485 _c
253 485 215 466 188 428 _c
161 390 148 339 148 273 _c
_cl}_e}_d
/e{{615 0 55 -13 562 560 _sc
562 296 _m
562 252 _l
149 252 _l
153 190 171 142 205 110 _c
238 78 284 62 344 62 _c
378 62 412 66 444 74 _c
476 82 509 95 541 113 _c
541 28 _l
509 14 476 3 442 -3 _c
408 -9 373 -13 339 -13 _c
251 -13 182 12 131 62 _c
80 112 55 181 55 268 _c
55 357 79 428 127 481 _c
175 533 241 560 323 560 _c
397 560 455 536 498 489 _c
}_e{540 441 562 377 562 296 _c
472 322 _m
471 371 457 410 431 440 _c
404 469 368 484 324 484 _c
274 484 234 469 204 441 _c
174 413 156 373 152 322 _c
472 322 _l
_cl}_e}_d
/f{352 0 23 0 371 760 _sc
371 760 _m
371 685 _l
285 685 _l
253 685 230 678 218 665 _c
205 652 199 629 199 595 _c
199 547 _l
347 547 _l
347 477 _l
199 477 _l
199 0 _l
109 0 _l
109 477 _l
23 477 _l
23 547 _l
109 547 _l
109 585 _l
109 645 123 690 151 718 _c
179 746 224 760 286 760 _c
371 760 _l
_cl}_d
/i{278 0 94 0 184 760 _sc
94 547 _m
184 547 _l
184 0 _l
94 0 _l
94 547 _l
94 760 _m
184 760 _l
184 646 _l
94 646 _l
94 760 _l
_cl}_d
/l{278 0 94 0 184 760 _sc
94 760 _m
184 760 _l
184 0 _l
94 0 _l
94 760 _l
_cl}_d
/n{634 0 91 0 549 560 _sc
549 330 _m
549 0 _l
459 0 _l
459 327 _l
459 379 448 417 428 443 _c
408 469 378 482 338 482 _c
289 482 251 466 223 435 _c
195 404 181 362 181 309 _c
181 0 _l
91 0 _l
91 547 _l
181 547 _l
181 462 _l
202 494 227 519 257 535 _c
286 551 320 560 358 560 _c
420 560 468 540 500 501 _c
532 462 549 405 549 330 _c
_cl}_d
/o{612 0 55 -13 557 560 _sc
306 484 _m
258 484 220 465 192 427 _c
164 389 150 338 150 273 _c
150 207 163 156 191 118 _c
219 80 257 62 306 62 _c
354 62 392 80 420 118 _c
448 156 462 207 462 273 _c
462 337 448 389 420 427 _c
392 465 354 484 306 484 _c
306 560 _m
384 560 445 534 490 484 _c
534 433 557 363 557 273 _c
557 183 534 113 490 63 _c
445 12 384 -13 306 -13 _c
227 -13 165 12 121 63 _c
77 113 55 183 55 273 _c
55 363 77 433 121 484 _c
165 534 227 560 306 560 _c
_cl}_d
/r{411 0 91 0 411 560 _sc
411 463 _m
401 469 390 473 378 476 _c
366 478 353 480 339 480 _c
288 480 249 463 222 430 _c
194 397 181 350 181 288 _c
181 0 _l
91 0 _l
91 547 _l
181 547 _l
181 462 _l
199 495 224 520 254 536 _c
284 552 321 560 365 560 _c
371 560 378 559 386 559 _c
393 558 401 557 411 555 _c
411 463 _l
_cl}_d
/s{{521 0 54 -13 472 560 _sc
443 531 _m
443 446 _l
417 458 391 468 364 475 _c
336 481 308 485 279 485 _c
234 485 200 478 178 464 _c
156 450 145 430 145 403 _c
145 382 153 366 169 354 _c
185 342 217 330 265 320 _c
296 313 _l
360 299 405 279 432 255 _c
458 230 472 195 472 151 _c
472 100 452 60 412 31 _c
372 1 316 -13 246 -13 _c
216 -13 186 -10 154 -5 _c
}_e{122 0 89 8 54 20 _c
54 113 _l
87 95 120 82 152 74 _c
184 65 216 61 248 61 _c
290 61 323 68 346 82 _c
368 96 380 117 380 144 _c
380 168 371 187 355 200 _c
339 213 303 226 247 238 _c
216 245 _l
160 257 119 275 95 299 _c
70 323 58 356 58 399 _c
58 450 76 490 112 518 _c
148 546 200 560 268 560 _c
301 560 332 557 362 552 _c
391 547 418 540 443 531 _c
}_e{_cl}_e}_d
/t{392 0 27 0 368 702 _sc
183 702 _m
183 547 _l
368 547 _l
368 477 _l
183 477 _l
183 180 _l
183 135 189 106 201 94 _c
213 81 238 75 276 75 _c
368 75 _l
368 0 _l
276 0 _l
206 0 158 13 132 39 _c
106 65 93 112 93 180 _c
93 477 _l
27 477 _l
27 547 _l
93 547 _l
93 702 _l
183 702 _l
_cl}_d
/x{592 0 29 0 559 547 _sc
549 547 _m
351 281 _l
559 0 _l
453 0 _l
294 215 _l
135 0 _l
29 0 _l
241 286 _l
47 547 _l
153 547 _l
298 352 _l
443 547 _l
549 547 _l
_cl}_d
/y{592 0 30 -207 562 547 _sc
322 -50 _m
296 -114 271 -157 247 -177 _c
223 -197 191 -207 151 -207 _c
79 -207 _l
79 -132 _l
132 -132 _l
156 -132 175 -126 189 -114 _c
203 -102 218 -75 235 -31 _c
251 9 _l
30 547 _l
125 547 _l
296 119 _l
467 547 _l
562 547 _l
322 -50 _l
_cl}_d
end readonly def

/BuildGlyph
 {exch begin
 CharStrings exch
 2 copy known not{pop /.notdef}if
 true 3 1 roll get exec
 end}_d

/BuildChar {
 1 index /Encoding get exch get
 1 index /BuildGlyph get exec
}_d

FontName currentdict end definefont pop
end
%%EndProlog
mpldict begin
-307.8 171.45 translate
1227.6 449.1 0 0 clipbox
gsave
0 0 m
1227.6 0 l
1227.6 449.1 l
0 449.1 l
cl
1.000 setgray
fill
grestore
gsave
153.45 44.91 m
433.271 44.91 l
433.271 404.19 l
153.45 404.19 l
cl
1.000 setgray
fill
grestore
1.000 setlinewidth
1 setlinejoin
2 setlinecap
[] 0 setdash
0.950 setgray
gsave
187.926 132.924 m
286.909 199.311 l
286.484 374.099 l
183.054 317.943 l
gsave
fill
grestore
stroke
grestore
0.900 setgray
gsave
286.909 199.311 m
404.935 145.752 l
409.679 328.82 l
286.484 374.099 l
gsave
fill
grestore
stroke
grestore
0.925 setgray
gsave
187.926 132.924 m
308.803 71.0851 l
404.935 145.752 l
286.909 199.311 l
gsave
fill
grestore
stroke
grestore
0.750 setlinewidth
0.000 setgray
gsave
187.926 132.924 m
308.803 71.0851 l
stroke
grestore
/DejaVuSans findfont
12.000 scalefont
setfont
gsave
206.413301 78.493486 translate
332.906197 rotate
0.000000 0.171875 m /t glyphshow
4.705078 0.171875 m /o glyphshow
12.046875 0.171875 m /l glyphshow
15.380859 0.171875 m /e glyphshow
22.763672 0.171875 m /r glyphshow
27.697266 0.171875 m /a glyphshow
35.050781 0.171875 m /n glyphshow
42.656250 0.171875 m /c glyphshow
49.253906 0.171875 m /e glyphshow
grestore
/p0_0 {
newpath
translate
190.203 131.759 m
289.142 198.298 l
288.81 373.244 l
} bind def
/p0_1 {
newpath
translate
212.344 120.432 m
310.831 188.456 l
311.406 364.939 l
} bind def
/p0_2 {
newpath
translate
234.999 108.842 m
332.99 178.4 l
334.513 356.446 l
} bind def
/p0_3 {
newpath
translate
258.187 96.9796 m
355.634 168.125 l
358.146 347.76 l
} bind def
/p0_4 {
newpath
translate
281.926 84.8349 m
378.778 157.622 l
382.325 338.874 l
} bind def
/p0_5 {
newpath
translate
306.237 72.3978 m
402.44 146.884 l
407.068 329.78 l
} bind def
1.000 setlinewidth
0 setlinecap
0.900 setgray
gsave
0 0 p0_0
stroke
grestore
gsave
0 0 p0_1
stroke
grestore
gsave
0 0 p0_2
stroke
grestore
gsave
0 0 p0_3
stroke
grestore
gsave
0 0 p0_4
stroke
grestore
gsave
0 0 p0_5
stroke
grestore
2 setlinecap
0.000 setgray
gsave
191.052 132.33 m
188.504 130.616 l
stroke
grestore
gsave
175.758742 108.734671 translate
0.000000 rotate
0.000000 0.171875 m /zero glyphshow
7.634766 0.171875 m /period glyphshow
11.449219 0.171875 m /zero glyphshow
grestore
gsave
213.189 121.016 m
210.651 119.263 l
stroke
grestore
gsave
198.074149 97.228325 translate
0.000000 rotate
0.000000 0.171875 m /zero glyphshow
7.634766 0.171875 m /period glyphshow
11.449219 0.171875 m /two glyphshow
grestore
gsave
235.841 109.439 m
233.313 107.645 l
stroke
grestore
gsave
220.435442 85.454183 translate
0.000000 rotate
0.000000 0.171875 m /zero glyphshow
7.634766 0.171875 m /period glyphshow
11.449219 0.171875 m /four glyphshow
grestore
gsave
259.024 97.591 m
256.509 95.7546 l
stroke
grestore
gsave
243.642047 73.402787 translate
0.000000 rotate
0.000000 0.171875 m /zero glyphshow
7.634766 0.171875 m /period glyphshow
11.449219 0.171875 m /six glyphshow
grestore
gsave
282.759 85.461 m
280.257 83.5805 l
stroke
grestore
gsave
267.384885 61.064226 translate
0.000000 rotate
0.000000 0.171875 m /zero glyphshow
7.634766 0.171875 m /period glyphshow
11.449219 0.171875 m /eight glyphshow
grestore
gsave
307.065 73.039 m
304.577 71.1131 l
stroke
grestore
gsave
291.910480 48.428114 translate
0.000000 rotate
0.000000 0.171875 m /one glyphshow
7.634766 0.171875 m /period glyphshow
11.449219 0.171875 m /zero glyphshow
grestore
0.750 setlinewidth
gsave
404.935 145.752 m
308.803 71.0851 l
stroke
grestore
gsave
361.142839 61.078368 translate
37.836826 rotate
0.000000 2.500000 m /d glyphshow
7.617188 2.500000 m /e glyphshow
15.000000 2.500000 m /n glyphshow
22.605469 2.500000 m /s glyphshow
28.857422 2.500000 m /i glyphshow
32.191406 2.500000 m /t glyphshow
36.896484 2.500000 m /y glyphshow
grestore
/p1_0 {
newpath
translate
185.275 319.149 m
190.046 134.346 l
310.87 72.6906 l
} bind def
/p1_1 {
newpath
translate
200.329 327.322 m
204.417 143.985 l
324.875 83.5688 l
} bind def
/p1_2 {
newpath
translate
215.078 335.33 m
218.51 153.437 l
338.592 94.223 l
} bind def
/p1_3 {
newpath
translate
229.531 343.177 m
232.331 162.707 l
352.03 104.66 l
} bind def
/p1_4 {
newpath
translate
243.698 350.868 m
245.89 171.8 l
365.196 114.886 l
} bind def
/p1_5 {
newpath
translate
257.586 358.409 m
259.193 180.722 l
378.099 124.908 l
} bind def
/p1_6 {
newpath
translate
271.203 365.802 m
272.247 189.478 l
390.747 134.732 l
} bind def
1.000 setlinewidth
0 setlinecap
0.900 setgray
gsave
0 0 p1_0
stroke
grestore
gsave
0 0 p1_1
stroke
grestore
gsave
0 0 p1_2
stroke
grestore
gsave
0 0 p1_3
stroke
grestore
gsave
0 0 p1_4
stroke
grestore
gsave
0 0 p1_5
stroke
grestore
gsave
0 0 p1_6
stroke
grestore
2 setlinecap
0.000 setgray
gsave
309.843 73.2145 m
312.926 71.6413 l
stroke
grestore
gsave
305.461761 49.557626 translate
0.000000 rotate
0.000000 0.171875 m /zero glyphshow
7.634766 0.171875 m /period glyphshow
11.449219 0.171875 m /six glyphshow
19.083984 0.171875 m /zero glyphshow
grestore
gsave
323.852 84.0819 m
326.924 82.5412 l
stroke
grestore
gsave
319.531158 60.592705 translate
0.000000 rotate
0.000000 0.171875 m /zero glyphshow
7.634766 0.171875 m /period glyphshow
11.449219 0.171875 m /six glyphshow
19.083984 0.171875 m /five glyphshow
grestore
gsave
337.573 94.7255 m
340.634 93.2164 l
stroke
grestore
gsave
333.063069 71.400279 translate
0.000000 rotate
0.000000 0.171875 m /zero glyphshow
7.634766 0.171875 m /period glyphshow
11.449219 0.171875 m /seven glyphshow
19.083984 0.171875 m /zero glyphshow
grestore
gsave
351.014 105.152 m
354.063 103.674 l
stroke
grestore
gsave
346.566293 81.987310 translate
0.000000 rotate
0.000000 0.171875 m /zero glyphshow
7.634766 0.171875 m /period glyphshow
11.449219 0.171875 m /seven glyphshow
19.083984 0.171875 m /five glyphshow
grestore
gsave
364.185 115.369 m
367.222 113.92 l
stroke
grestore
gsave
359.549274 92.360481 translate
0.000000 rotate
0.000000 0.171875 m /zero glyphshow
7.634766 0.171875 m /period glyphshow
11.449219 0.171875 m /eight glyphshow
19.083984 0.171875 m /zero glyphshow
grestore
gsave
377.092 125.381 m
380.117 123.961 l
stroke
grestore
gsave
372.520119 102.526207 translate
0.000000 rotate
0.000000 0.171875 m /zero glyphshow
7.634766 0.171875 m /period glyphshow
11.449219 0.171875 m /eight glyphshow
19.083984 0.171875 m /five glyphshow
grestore
gsave
389.744 135.196 m
392.757 133.804 l
stroke
grestore
gsave
384.986614 112.490650 translate
0.000000 rotate
0.000000 0.171875 m /zero glyphshow
7.634766 0.171875 m /period glyphshow
11.449219 0.171875 m /nine glyphshow
19.083984 0.171875 m /zero glyphshow
grestore
0.750 setlinewidth
gsave
404.935 145.752 m
409.679 328.82 l
stroke
grestore
/DejaVuSans findfont
16.000 scalefont
setfont
gsave
430.967745 232.440942 translate
0.000000 rotate
0.000000 0.000000 m /x glyphshow
grestore
/p2_0 {
newpath
translate
405.999 186.811 m
286.813 238.587 l
186.834 174.402 l
} bind def
/p2_1 {
newpath
translate
406.996 225.297 m
286.724 275.362 l
185.81 213.29 l
} bind def
/p2_2 {
newpath
translate
408.012 264.494 m
286.633 312.779 l
184.767 252.907 l
} bind def
/p2_3 {
newpath
translate
409.046 304.423 m
286.541 350.854 l
183.704 293.273 l
} bind def
1.000 setlinewidth
0 setlinecap
0.900 setgray
gsave
0 0 p2_0
stroke
grestore
gsave
0 0 p2_1
stroke
grestore
gsave
0 0 p2_2
stroke
grestore
gsave
0 0 p2_3
stroke
grestore
2 setlinecap
0.000 setgray
gsave
404.99 187.25 m
408.02 185.933 l
stroke
grestore
/DejaVuSans findfont
12.000 scalefont
setfont
gsave
409.555112 178.418456 translate
0.000000 rotate
0.000000 0.171875 m /zero glyphshow
7.634766 0.171875 m /period glyphshow
11.449219 0.171875 m /two glyphshow
grestore
gsave
405.977 225.721 m
409.037 224.447 l
stroke
grestore
gsave
410.396700 216.881767 translate
0.000000 rotate
0.000000 0.171875 m /zero glyphshow
7.634766 0.171875 m /period glyphshow
11.449219 0.171875 m /four glyphshow
grestore
gsave
406.983 264.903 m
410.072 263.674 l
stroke
grestore
gsave
411.571245 256.055732 translate
0.000000 rotate
0.000000 0.171875 m /zero glyphshow
7.634766 0.171875 m /period glyphshow
11.449219 0.171875 m /six glyphshow
grestore
gsave
408.008 304.817 m
411.127 303.634 l
stroke
grestore
gsave
412.751195 295.960231 translate
0.000000 rotate
0.000000 0.171875 m /zero glyphshow
7.634766 0.171875 m /period glyphshow
11.449219 0.171875 m /eight glyphshow
grestore
/p3_0 {
newpath
translate
190.49 205.708 m
194.47 198.222 l
198.328 196.192 l
202.186 194.816 l
206.083 192.376 l
210.228 178.656 l
215.15 125.373 l
219.023 123.461 l
222.916 121.264 l
226.822 119.202 l
230.735 117.654 l
234.673 115.598 l
238.592 115.901 l
242.551 114.667 l
246.541 112.398 l
250.454 118.305 l
254.468 117.534 l
258.491 117.673 l
262.489 123.276 l
266.58 120.68 l
270.605 130.827 l
274.706 134.288 l
278.824 140.461 l
283.003 138.525 l
287.175 146.919 l
291.385 155.241 l
295.639 150.397 l
299.908 149.999 l
304.194 147.08 l
308.501 145.808 l
} bind def
/p3_1 {
newpath
translate
218.041 247.128 m
221.952 241.629 l
225.812 239.713 l
229.682 238.051 l
233.578 235.739 l
237.743 215.248 l
242.537 145.401 l
246.395 143.249 l
250.275 140.315 l
254.16 138.277 l
258.051 137.187 l
261.967 135.143 l
265.874 136.199 l
269.809 136.276 l
273.777 133.953 l
277.707 142.778 l
281.716 140.508 l
285.722 144.396 l
289.754 149.853 l
293.818 152.285 l
297.908 159.402 l
302.043 174.849 l
306.209 181.281 l
310.375 177.252 l
314.614 187.567 l
318.89 197.023 l
323.14 195.582 l
327.403 193.487 l
331.693 192.524 l
335.992 190.293 l
} bind def
/p3_2 {
newpath
translate
244.808 291.337 m
248.687 287.022 l
252.55 285.257 l
256.426 283.682 l
260.328 280.763 l
264.418 255.074 l
268.435 235.977 l
272.352 231.083 l
276.61 158.751 l
280.47 157.119 l
284.343 156.296 l
288.235 154.456 l
292.139 155.855 l
296.063 158.032 l
300.007 156.011 l
303.987 166.561 l
307.974 164.628 l
312.009 172.051 l
316.06 175.473 l
320.16 183.125 l
324.298 191.28 l
328.578 213.746 l
332.838 226.108 l
337.02 225.543 l
341.245 227.188 l
345.638 241.542 l
349.952 245.448 l
354.198 242.201 l
358.447 238.082 l
362.771 238.052 l
} bind def
/p3_3 {
newpath
translate
270.897 337.821 m
274.757 335.057 l
278.625 333.501 l
282.508 331.938 l
286.413 327.535 l
290.349 309.814 l
294.26 306.648 l
298.185 305.281 l
301.99 187.104 l
305.821 177.25 l
309.677 175.909 l
313.543 173.304 l
317.437 173.548 l
321.38 179.17 l
325.301 177.208 l
329.353 190.479 l
333.325 189.358 l
337.443 201.766 l
341.473 201.753 l
345.704 217.594 l
349.786 217.478 l
354.238 243.522 l
358.841 275.159 l
363.047 275.66 l
367.219 272.799 l
371.766 290.729 l
376.085 293.15 l
380.354 291.679 l
384.625 289.449 l
388.923 287.675 l
} bind def
/p3_4 {
newpath
translate
286.893 368.551 m
290.753 366.122 l
294.626 364.695 l
298.514 362.808 l
302.408 355.287 l
306.301 344.827 l
310.223 344.308 l
314.155 342.335 l
317.489 213.058 l
321.247 195.888 l
325.09 193.555 l
328.945 191.035 l
332.809 188.13 l
336.739 190.849 l
340.655 190 l
344.817 209.482 l
348.775 207.817 l
352.837 212.808 l
356.853 212.626 l
361.18 231.876 l
365.356 238.15 l
369.689 251.879 l
374.789 305.727 l
379.034 307.888 l
383.16 302.894 l
387.519 308.54 l
392.132 324.384 l
396.448 324.965 l
400.683 321.233 l
404.994 320.06 l
} bind def
/p3_5 {
newpath
translate
190.49 205.708 m
193.978 210.792 l
197.469 215.281 l
200.916 221.076 l
204.374 225.886 l
207.807 231.246 l
211.233 236.391 l
214.638 242.002 l
218.041 247.128 l
221.433 252.202 l
224.799 258.074 l
228.167 263.223 l
231.515 268.961 l
234.855 274.451 l
238.178 280.443 l
241.497 286.021 l
244.808 291.337 l
248.102 297.254 l
251.391 302.692 l
254.663 308.856 l
257.932 314.322 l
261.183 320.732 l
264.431 326.312 l
267.672 331.583 l
270.897 337.821 l
274.114 343.872 l
277.32 350.319 l
280.521 356.08 l
283.71 362.615 l
286.893 368.551 l
} bind def
/p3_6 {
newpath
translate
222.916 121.264 m
226.396 123.6 l
229.856 126.055 l
233.299 128.542 l
236.73 130.728 l
240.139 133.257 l
243.535 135.511 l
246.913 137.984 l
250.275 140.315 l
253.622 142.674 l
256.953 144.939 l
260.268 147.248 l
263.567 149.575 l
266.85 151.995 l
270.119 154.241 l
273.372 156.561 l
276.61 158.751 l
279.832 161.191 l
283.039 163.558 l
286.232 166.125 l
289.408 169.732 l
292.572 172.243 l
295.722 176.178 l
298.862 183.497 l
301.99 187.104 l
305.11 192.449 l
308.213 195.331 l
311.323 203.955 l
314.415 209.418 l
317.489 213.058 l
} bind def
/p3_7 {
newpath
translate
254.468 117.534 m
257.958 117.535 l
261.384 122.477 l
264.808 125.992 l
268.225 128.4 l
271.621 131.37 l
275.005 133.738 l
278.364 138.072 l
281.716 140.508 l
285.049 143.776 l
288.37 146.316 l
291.672 150.364 l
294.962 154.431 l
298.237 156.734 l
301.498 159.517 l
304.744 162.288 l
307.974 164.628 l
311.194 168.686 l
314.396 171.431 l
317.592 175.771 l
320.769 178.793 l
323.918 179.743 l
327.078 184.529 l
330.218 188.053 l
333.325 189.358 l
336.462 195.407 l
339.529 195.477 l
342.644 201.625 l
345.707 203.923 l
348.775 207.817 l
} bind def
/p3_8 {
newpath
translate
287.175 146.919 m
290.653 150.001 l
294.114 154.768 l
297.562 160.874 l
300.997 166.113 l
304.421 172.194 l
307.829 176.607 l
311.224 180.903 l
314.614 187.567 l
317.991 193.607 l
321.341 196.69 l
324.681 200.735 l
328.012 205.266 l
331.357 213.292 l
334.664 217.724 l
337.938 220.107 l
341.245 227.188 l
344.549 234.761 l
347.777 236.609 l
351.052 243.469 l
354.308 249.507 l
357.577 257.208 l
360.746 258.617 l
363.999 266.53 l
367.219 272.799 l
370.475 281.713 l
373.621 284.724 l
376.788 289.598 l
379.968 295.726 l
383.16 302.894 l
} bind def
/p3_9 {
newpath
translate
308.501 145.808 m
311.976 150.078 l
315.442 155.429 l
318.897 161.421 l
322.336 166.52 l
325.766 172.331 l
329.171 176.421 l
332.592 184.037 l
335.992 190.293 l
339.373 195.808 l
342.74 201.093 l
346.092 206.223 l
349.463 213.759 l
352.789 218.551 l
356.125 224.952 l
359.48 233.307 l
362.771 238.052 l
366.105 246.139 l
369.366 250.336 l
372.677 258.109 l
375.929 263.062 l
379.179 268.529 l
382.411 273.674 l
385.649 279.574 l
388.923 287.675 l
392.195 295.988 l
395.326 298.346 l
398.606 307.727 l
401.858 316.112 l
404.994 320.06 l
} bind def
0 setlinecap
gsave
279.8 359.3 153.5 44.91 clipbox
0 0 p3_0
stroke
grestore
gsave
279.8 359.3 153.5 44.91 clipbox
0 0 p3_1
stroke
grestore
gsave
279.8 359.3 153.5 44.91 clipbox
0 0 p3_2
stroke
grestore
gsave
279.8 359.3 153.5 44.91 clipbox
0 0 p3_3
stroke
grestore
gsave
279.8 359.3 153.5 44.91 clipbox
0 0 p3_4
stroke
grestore
gsave
279.8 359.3 153.5 44.91 clipbox
0 0 p3_5
stroke
grestore
gsave
279.8 359.3 153.5 44.91 clipbox
0 0 p3_6
stroke
grestore
gsave
279.8 359.3 153.5 44.91 clipbox
0 0 p3_7
stroke
grestore
gsave
279.8 359.3 153.5 44.91 clipbox
0 0 p3_8
stroke
grestore
gsave
279.8 359.3 153.5 44.91 clipbox
0 0 p3_9
stroke
grestore
/DejaVuSans findfont
19.200 scalefont
setfont
gsave
261.329044 380.181975 translate
0.000000 rotate
0.000000 0.265625 m /f glyphshow
6.776978 0.265625 m /equal glyphshow
22.906372 0.265625 m /zero glyphshow
35.153809 0.265625 m /period glyphshow
41.272827 0.265625 m /zero glyphshow
53.520264 0.265625 m /zero glyphshow
grestore
gsave
489.235 44.91 m
769.055 44.91 l
769.055 404.19 l
489.235 404.19 l
cl
1.000 setgray
fill
grestore
2 setlinecap
0.950 setgray
gsave
524.244 126.084 m
613.454 191.197 l
612.732 368.956 l
519.883 315.943 l
gsave
fill
grestore
stroke
grestore
0.900 setgray
gsave
613.454 191.197 m
738.876 148.298 l
743.016 334.064 l
612.732 368.956 l
gsave
fill
grestore
stroke
grestore
0.925 setgray
gsave
524.244 126.084 m
655.143 75.8764 l
738.876 148.298 l
613.454 191.197 l
gsave
fill
grestore
stroke
grestore
0.750 setlinewidth
0.000 setgray
gsave
524.244 126.084 m
655.143 75.8764 l
stroke
grestore
/DejaVuSans findfont
12.000 scalefont
setfont
gsave
548.385894 73.736444 translate
339.015155 rotate
0.000000 0.171875 m /t glyphshow
4.705078 0.171875 m /o glyphshow
12.046875 0.171875 m /l glyphshow
15.380859 0.171875 m /e glyphshow
22.763672 0.171875 m /r glyphshow
27.697266 0.171875 m /a glyphshow
35.050781 0.171875 m /n glyphshow
42.656250 0.171875 m /c glyphshow
49.253906 0.171875 m /e glyphshow
grestore
/p4_0 {
newpath
translate
526.723 125.133 m
615.839 190.381 l
615.206 368.294 l
} bind def
/p4_1 {
newpath
translate
550.805 115.897 m
638.988 182.463 l
639.215 361.863 l
} bind def
/p4_2 {
newpath
translate
575.394 106.465 m
662.589 174.391 l
663.712 355.303 l
} bind def
/p4_3 {
newpath
translate
600.509 96.8321 m
686.655 166.159 l
688.709 348.608 l
} bind def
/p4_4 {
newpath
translate
626.165 86.9915 m
711.2 157.764 l
714.224 341.775 l
} bind def
/p4_5 {
newpath
translate
652.38 76.9364 m
736.239 149.2 l
740.272 334.799 l
} bind def
1.000 setlinewidth
0 setlinecap
0.900 setgray
gsave
0 0 p4_0
stroke
grestore
gsave
0 0 p4_1
stroke
grestore
gsave
0 0 p4_2
stroke
grestore
gsave
0 0 p4_3
stroke
grestore
gsave
0 0 p4_4
stroke
grestore
gsave
0 0 p4_5
stroke
grestore
2 setlinecap
0.000 setgray
gsave
527.493 125.696 m
525.182 124.005 l
stroke
grestore
gsave
512.803179 101.846644 translate
0.000000 rotate
0.000000 0.171875 m /zero glyphshow
7.634766 0.171875 m /period glyphshow
11.449219 0.171875 m /zero glyphshow
grestore
gsave
551.567 116.472 m
549.278 114.744 l
stroke
grestore
gsave
537.089548 92.439750 translate
0.000000 rotate
0.000000 0.171875 m /zero glyphshow
7.634766 0.171875 m /period glyphshow
11.449219 0.171875 m /two glyphshow
grestore
gsave
576.148 107.052 m
573.884 105.288 l
stroke
grestore
gsave
561.416760 82.833810 translate
0.000000 rotate
0.000000 0.171875 m /zero glyphshow
7.634766 0.171875 m /period glyphshow
11.449219 0.171875 m /four glyphshow
grestore
gsave
601.254 97.4319 m
599.015 95.6301 l
stroke
grestore
gsave
586.582412 73.022437 translate
0.000000 rotate
0.000000 0.171875 m /zero glyphshow
7.634766 0.171875 m /period glyphshow
11.449219 0.171875 m /six glyphshow
grestore
gsave
626.901 87.6044 m
624.689 85.7634 l
stroke
grestore
gsave
612.275433 62.998972 translate
0.000000 rotate
0.000000 0.171875 m /zero glyphshow
7.634766 0.171875 m /period glyphshow
11.449219 0.171875 m /eight glyphshow
grestore
gsave
653.107 77.5627 m
650.923 75.6814 l
stroke
grestore
gsave
638.740185 52.756461 translate
0.000000 rotate
0.000000 0.171875 m /one glyphshow
7.634766 0.171875 m /period glyphshow
11.449219 0.171875 m /zero glyphshow
grestore
0.750 setlinewidth
gsave
738.876 148.298 m
655.143 75.8764 l
stroke
grestore
gsave
703.241365 65.140092 translate
40.856817 rotate
0.000000 2.500000 m /d glyphshow
7.617188 2.500000 m /e glyphshow
15.000000 2.500000 m /n glyphshow
22.605469 2.500000 m /s glyphshow
28.857422 2.500000 m /i glyphshow
32.191406 2.500000 m /t glyphshow
36.896484 2.500000 m /y glyphshow
grestore
/p5_0 {
newpath
translate
521.89 317.089 m
526.167 127.488 l
656.956 77.444 l
} bind def
/p5_1 {
newpath
translate
535.478 324.847 m
539.191 136.994 l
669.222 88.053 l
} bind def
/p5_2 {
newpath
translate
548.765 332.434 m
551.937 146.298 l
681.212 98.4232 l
} bind def
/p5_3 {
newpath
translate
561.761 339.854 m
564.415 155.405 l
692.935 108.563 l
} bind def
/p5_4 {
newpath
translate
574.474 347.113 m
576.632 164.322 l
704.4 118.479 l
} bind def
/p5_5 {
newpath
translate
586.916 354.216 m
588.596 173.054 l
715.615 128.179 l
} bind def
/p5_6 {
newpath
translate
599.093 361.169 m
600.316 181.608 l
726.589 137.67 l
} bind def
1.000 setlinewidth
0 setlinecap
0.900 setgray
gsave
0 0 p5_0
stroke
grestore
gsave
0 0 p5_1
stroke
grestore
gsave
0 0 p5_2
stroke
grestore
gsave
0 0 p5_3
stroke
grestore
gsave
0 0 p5_4
stroke
grestore
gsave
0 0 p5_5
stroke
grestore
gsave
0 0 p5_6
stroke
grestore
2 setlinecap
0.000 setgray
gsave
655.851 77.8669 m
659.169 76.5971 l
stroke
grestore
gsave
652.077506 54.718213 translate
0.000000 rotate
0.000000 0.171875 m /zero glyphshow
7.634766 0.171875 m /period glyphshow
11.449219 0.171875 m /six glyphshow
19.083984 0.171875 m /zero glyphshow
grestore
gsave
668.124 88.4663 m
671.421 87.2253 l
stroke
grestore
gsave
664.391839 65.492156 translate
0.000000 rotate
0.000000 0.171875 m /zero glyphshow
7.634766 0.171875 m /period glyphshow
11.449219 0.171875 m /six glyphshow
19.083984 0.171875 m /five glyphshow
grestore
gsave
680.121 98.8273 m
683.397 97.614 l
stroke
grestore
gsave
676.181557 76.023371 translate
0.000000 rotate
0.000000 0.171875 m /zero glyphshow
7.634766 0.171875 m /period glyphshow
11.449219 0.171875 m /seven glyphshow
19.083984 0.171875 m /zero glyphshow
grestore
gsave
691.851 108.958 m
695.106 107.771 l
stroke
grestore
gsave
687.955836 86.319970 translate
0.000000 rotate
0.000000 0.171875 m /zero glyphshow
7.634766 0.171875 m /period glyphshow
11.449219 0.171875 m /seven glyphshow
19.083984 0.171875 m /five glyphshow
grestore
gsave
703.323 118.865 m
706.557 117.705 l
stroke
grestore
gsave
699.223450 96.389706 translate
0.000000 rotate
0.000000 0.171875 m /zero glyphshow
7.634766 0.171875 m /period glyphshow
11.449219 0.171875 m /eight glyphshow
19.083984 0.171875 m /zero glyphshow
grestore
gsave
714.545 128.557 m
717.759 127.422 l
stroke
grestore
gsave
710.492787 106.239995 translate
0.000000 rotate
0.000000 0.171875 m /zero glyphshow
7.634766 0.171875 m /period glyphshow
11.449219 0.171875 m /eight glyphshow
19.083984 0.171875 m /five glyphshow
grestore
gsave
725.526 138.04 m
728.719 136.929 l
stroke
grestore
gsave
721.271877 115.877934 translate
0.000000 rotate
0.000000 0.171875 m /zero glyphshow
7.634766 0.171875 m /period glyphshow
11.449219 0.171875 m /nine glyphshow
19.083984 0.171875 m /zero glyphshow
grestore
0.750 setlinewidth
gsave
738.876 148.298 m
743.016 334.064 l
stroke
grestore
/DejaVuSans findfont
16.000 scalefont
setfont
gsave
763.864043 237.543460 translate
0.000000 rotate
0.000000 0.000000 m /x glyphshow
grestore
/p6_0 {
newpath
translate
739.808 190.115 m
613.291 231.272 l
523.263 168.79 l
} bind def
/p6_1 {
newpath
translate
740.68 229.231 m
613.139 268.727 l
522.345 208.754 l
} bind def
/p6_2 {
newpath
translate
741.566 268.99 m
612.984 306.766 l
521.411 249.392 l
} bind def
/p6_3 {
newpath
translate
742.467 309.408 m
612.828 345.403 l
520.462 290.723 l
} bind def
1.000 setlinewidth
0 setlinecap
0.900 setgray
gsave
0 0 p6_0
stroke
grestore
gsave
0 0 p6_1
stroke
grestore
gsave
0 0 p6_2
stroke
grestore
gsave
0 0 p6_3
stroke
grestore
2 setlinecap
0.000 setgray
gsave
738.743 190.462 m
741.941 189.421 l
stroke
grestore
/DejaVuSans findfont
12.000 scalefont
setfont
gsave
743.063565 182.199201 translate
0.000000 rotate
0.000000 0.171875 m /zero glyphshow
7.634766 0.171875 m /period glyphshow
11.449219 0.171875 m /two glyphshow
grestore
gsave
739.606 229.563 m
742.831 228.565 l
stroke
grestore
gsave
743.764598 221.268481 translate
0.000000 rotate
0.000000 0.171875 m /zero glyphshow
7.634766 0.171875 m /period glyphshow
11.449219 0.171875 m /four glyphshow
grestore
gsave
740.483 269.308 m
743.736 268.352 l
stroke
grestore
gsave
744.794006 260.979410 translate
0.000000 rotate
0.000000 0.171875 m /zero glyphshow
7.634766 0.171875 m /period glyphshow
11.449219 0.171875 m /six glyphshow
grestore
gsave
741.374 309.712 m
744.656 308.801 l
stroke
grestore
gsave
745.824059 301.347926 translate
0.000000 rotate
0.000000 0.171875 m /zero glyphshow
7.634766 0.171875 m /period glyphshow
11.449219 0.171875 m /eight glyphshow
grestore
/p7_0 {
newpath
translate
527.014 200.555 m
531.292 194.171 l
535.476 192.818 l
539.678 191.269 l
543.895 189.763 l
548.218 183.074 l
552.647 170.489 l
556.887 169.516 l
561.428 149.607 l
565.805 140.037 l
570.127 134.78 l
574.418 132.696 l
578.694 133.216 l
583.008 131.948 l
587.334 131.187 l
591.651 133.531 l
596.024 131.486 l
600.394 132.337 l
604.777 134.222 l
609.199 133.209 l
613.618 136.915 l
618.07 138.924 l
622.543 141.981 l
627.046 140.66 l
631.566 146.387 l
636.119 156.42 l
640.694 155.487 l
645.284 153.295 l
649.896 152.431 l
654.52 150.123 l
} bind def
/p7_1 {
newpath
translate
551.883 242.687 m
556.088 238.048 l
560.255 236.531 l
564.43 235.458 l
568.628 233.861 l
572.95 223.396 l
577.284 211.881 l
581.497 211.469 l
585.866 196.907 l
590.303 173.747 l
594.605 164.464 l
598.853 162.944 l
603.121 160.751 l
607.391 160.726 l
611.682 160.159 l
615.978 162.924 l
620.308 161.645 l
624.648 164.272 l
629.012 165.201 l
633.397 166.248 l
637.804 169.244 l
642.245 176.786 l
646.708 180.561 l
651.176 178.856 l
655.693 183.863 l
660.292 198.242 l
664.848 199.084 l
669.41 197.839 l
673.983 195.928 l
678.588 195.556 l
} bind def
/p7_2 {
newpath
translate
575.945 286.319 m
580.1 282.968 l
584.247 281.516 l
588.409 279.955 l
592.588 278.151 l
596.853 266.47 l
601.077 260.738 l
605.289 258.207 l
609.581 241.874 l
613.922 210.196 l
618.168 197.292 l
622.385 195 l
626.615 192.416 l
630.858 191.564 l
635.116 189.71 l
639.397 194.173 l
643.69 192.563 l
648.016 196.579 l
652.349 196.159 l
656.72 199.748 l
661.113 202.945 l
665.579 213.455 l
670.074 222.714 l
674.517 221.834 l
678.993 222.527 l
683.695 242.958 l
688.253 245.682 l
692.767 242.932 l
697.332 242.929 l
701.886 240.771 l
} bind def
/p7_3 {
newpath
translate
599.265 332.924 m
603.391 329.987 l
607.515 329.566 l
611.659 328.243 l
615.825 324.409 l
620.018 314.34 l
624.196 312.472 l
628.386 311.759 l
632.593 286.947 l
636.767 253.024 l
640.935 240.218 l
645.105 230.608 l
649.307 230.169 l
653.507 225.735 l
657.735 224.903 l
661.999 227.302 l
666.26 226.223 l
670.569 229.302 l
674.88 230.026 l
679.276 237.681 l
683.621 237.34 l
688.11 248.262 l
692.768 269.826 l
697.162 267.063 l
701.62 267.895 l
706.338 284.671 l
710.988 294.134 l
715.527 294.866 l
720.012 291.402 l
724.605 293.031 l
} bind def
/p7_4 {
newpath
translate
613.507 362.863 m
617.616 360.722 l
621.735 359.315 l
625.868 358.09 l
630.017 352.688 l
634.173 346.712 l
638.34 345.145 l
642.523 344.756 l
646.626 309.691 l
650.715 283.088 l
654.863 275.734 l
658.95 256.37 l
663.132 254.966 l
667.304 250.193 l
671.516 249.303 l
675.759 250.267 l
679.989 247.981 l
684.297 251.719 l
688.568 250.277 l
692.995 260.259 l
697.316 259.566 l
701.738 264.871 l
706.608 298.211 l
710.941 292.905 l
715.366 292.623 l
720.052 306.008 l
724.892 325.416 l
729.392 324.712 l
733.903 323.655 l
738.419 322.052 l
} bind def
/p7_5 {
newpath
translate
527.014 200.555 m
530.17 205.71 l
533.319 210.56 l
536.451 215.604 l
539.566 220.848 l
542.664 226.301 l
545.754 231.472 l
548.821 237.306 l
551.883 242.687 l
554.936 247.904 l
557.976 253.164 l
560.996 258.891 l
564.013 264.076 l
567.012 269.754 l
570.006 274.817 l
572.983 280.449 l
575.945 286.319 l
578.904 291.482 l
581.848 296.99 l
584.775 303.068 l
587.701 308.286 l
590.596 315.709 l
593.5 320.981 l
596.387 327.03 l
599.265 332.924 l
602.134 338.723 l
604.991 344.902 l
607.842 350.419 l
610.679 356.665 l
613.507 362.863 l
} bind def
/p7_6 {
newpath
translate
561.428 149.607 m
564.528 155.27 l
567.641 159.125 l
570.688 166.845 l
573.781 170.1 l
576.819 176.746 l
579.863 181.821 l
582.863 189.95 l
585.866 196.907 l
588.894 199.908 l
591.858 208.79 l
594.844 213.862 l
597.806 220.593 l
600.769 225.609 l
603.707 232.866 l
606.648 237.742 l
609.581 241.874 l
612.497 247.057 l
615.388 255.847 l
618.285 260.374 l
621.167 266.545 l
624.041 270.884 l
626.902 276.439 l
629.753 281.691 l
632.593 286.947 l
635.423 292.403 l
638.24 295.979 l
641.045 299.92 l
643.839 304.051 l
646.626 309.691 l
} bind def
/p7_7 {
newpath
translate
596.024 131.486 m
599.112 135.227 l
602.189 138.184 l
605.244 142.337 l
608.285 146.249 l
611.315 149.626 l
614.323 154.489 l
617.329 156.341 l
620.308 161.645 l
623.28 164.901 l
626.234 170.198 l
629.178 172.704 l
632.107 176.997 l
635.023 181.742 l
637.925 184.514 l
640.813 188.126 l
643.69 192.563 l
646.552 195.89 l
649.401 199.465 l
652.237 203.089 l
655.065 207.798 l
657.881 212.423 l
660.685 216.998 l
663.47 220.265 l
666.26 226.223 l
669.029 230.679 l
671.784 234.707 l
674.527 238.767 l
677.275 244.591 l
679.989 247.981 l
} bind def
/p7_8 {
newpath
translate
631.566 146.387 m
634.63 151.844 l
637.681 156.895 l
640.714 159.514 l
643.738 164.985 l
646.746 169.454 l
649.741 174.216 l
652.732 180.989 l
655.693 183.863 l
658.652 189.229 l
661.591 193.251 l
664.537 200.376 l
667.446 203.748 l
670.337 206.603 l
673.266 215.694 l
676.112 216.414 l
678.993 222.527 l
681.867 229.051 l
684.714 233.86 l
687.559 239.659 l
690.371 243.473 l
693.221 251.448 l
696.001 254.573 l
698.812 260.998 l
701.62 267.895 l
704.398 273.344 l
707.178 279.588 l
709.926 284.363 l
712.691 290.899 l
715.366 292.623 l
} bind def
/p7_9 {
newpath
translate
654.52 150.123 m
657.564 154.174 l
660.605 160.329 l
663.631 165.878 l
666.642 171.179 l
669.646 177.344 l
672.64 183.584 l
675.621 189.741 l
678.588 195.556 l
681.532 200.322 l
684.48 206.664 l
687.42 213.284 l
690.319 217.287 l
693.208 221.618 l
696.144 230.533 l
699.013 235.096 l
701.886 240.771 l
704.722 244.719 l
707.617 253.387 l
710.471 259.895 l
713.261 263.166 l
716.158 273.441 l
718.968 279.11 l
721.763 284.54 l
724.605 293.031 l
727.345 296.634 l
730.115 302.354 l
732.927 310.639 l
735.632 314.177 l
738.419 322.052 l
} bind def
0 setlinecap
gsave
279.8 359.3 489.2 44.91 clipbox
0 0 p7_0
stroke
grestore
gsave
279.8 359.3 489.2 44.91 clipbox
0 0 p7_1
stroke
grestore
gsave
279.8 359.3 489.2 44.91 clipbox
0 0 p7_2
stroke
grestore
gsave
279.8 359.3 489.2 44.91 clipbox
0 0 p7_3
stroke
grestore
gsave
279.8 359.3 489.2 44.91 clipbox
0 0 p7_4
stroke
grestore
gsave
279.8 359.3 489.2 44.91 clipbox
0 0 p7_5
stroke
grestore
gsave
279.8 359.3 489.2 44.91 clipbox
0 0 p7_6
stroke
grestore
gsave
279.8 359.3 489.2 44.91 clipbox
0 0 p7_7
stroke
grestore
gsave
279.8 359.3 489.2 44.91 clipbox
0 0 p7_8
stroke
grestore
gsave
279.8 359.3 489.2 44.91 clipbox
0 0 p7_9
stroke
grestore
/DejaVuSans findfont
19.200 scalefont
setfont
gsave
597.316875 380.181975 translate
0.000000 rotate
0.000000 0.265625 m /f glyphshow
6.776978 0.265625 m /equal glyphshow
22.906372 0.265625 m /zero glyphshow
35.153809 0.265625 m /period glyphshow
41.272827 0.265625 m /two glyphshow
53.520264 0.265625 m /five glyphshow
grestore
gsave
825.019 44.91 m
1104.84 44.91 l
1104.84 404.19 l
825.019 404.19 l
cl
1.000 setgray
fill
grestore
2 setlinecap
0.950 setgray
gsave
859.944 124.912 m
948.202 185.014 l
947.519 364.919 l
856.014 317.847 l
gsave
fill
grestore
stroke
grestore
0.900 setgray
gsave
948.202 185.014 m
1074.55 146.341 l
1078.27 334.66 l
947.519 364.919 l
gsave
fill
grestore
stroke
grestore
0.925 setgray
gsave
859.944 124.912 m
992.156 79.4817 l
1074.55 146.341 l
948.202 185.014 l
gsave
fill
grestore
stroke
grestore
0.750 setlinewidth
0.000 setgray
gsave
859.944 124.912 m
992.156 79.4817 l
stroke
grestore
/DejaVuSans findfont
12.000 scalefont
setfont
gsave
884.639942 74.092178 translate
341.036364 rotate
0.000000 0.171875 m /t glyphshow
4.705078 0.171875 m /o glyphshow
12.046875 0.171875 m /l glyphshow
15.380859 0.171875 m /e glyphshow
22.763672 0.171875 m /r glyphshow
27.697266 0.171875 m /a glyphshow
35.050781 0.171875 m /n glyphshow
42.656250 0.171875 m /c glyphshow
49.253906 0.171875 m /e glyphshow
grestore
/p8_0 {
newpath
translate
862.448 124.052 m
950.606 184.278 l
950.002 364.345 l
} bind def
/p8_1 {
newpath
translate
886.768 115.695 m
973.925 177.141 l
974.101 358.768 l
} bind def
/p8_2 {
newpath
translate
911.603 107.161 m
997.701 169.864 l
998.687 353.078 l
} bind def
/p8_3 {
newpath
translate
936.969 98.4451 m
1021.95 162.443 l
1023.77 347.272 l
} bind def
/p8_4 {
newpath
translate
962.883 89.5404 m
1046.67 154.875 l
1049.38 341.347 l
} bind def
/p8_5 {
newpath
translate
989.364 80.441 m
1071.9 147.155 l
1075.52 335.297 l
} bind def
1.000 setlinewidth
0 setlinecap
0.900 setgray
gsave
0 0 p8_0
stroke
grestore
gsave
0 0 p8_1
stroke
grestore
gsave
0 0 p8_2
stroke
grestore
gsave
0 0 p8_3
stroke
grestore
gsave
0 0 p8_4
stroke
grestore
gsave
0 0 p8_5
stroke
grestore
2 setlinecap
0.000 setgray
gsave
863.21 124.573 m
860.92 123.008 l
stroke
grestore
gsave
848.552518 100.851488 translate
0.000000 rotate
0.000000 0.171875 m /zero glyphshow
7.634766 0.171875 m /period glyphshow
11.449219 0.171875 m /zero glyphshow
grestore
gsave
887.522 116.227 m
885.257 114.629 l
stroke
grestore
gsave
873.086101 92.324263 translate
0.000000 rotate
0.000000 0.171875 m /zero glyphshow
7.634766 0.171875 m /period glyphshow
11.449219 0.171875 m /two glyphshow
grestore
gsave
912.349 107.704 m
910.108 106.073 l
stroke
grestore
gsave
897.667288 83.616068 translate
0.000000 rotate
0.000000 0.171875 m /zero glyphshow
7.634766 0.171875 m /period glyphshow
11.449219 0.171875 m /four glyphshow
grestore
gsave
937.706 98.9998 m
935.493 97.3333 l
stroke
grestore
gsave
923.093944 74.721081 translate
0.000000 rotate
0.000000 0.171875 m /zero glyphshow
7.634766 0.171875 m /period glyphshow
11.449219 0.171875 m /six glyphshow
grestore
gsave
963.61 90.1072 m
961.427 88.4045 l
stroke
grestore
gsave
949.055277 65.633227 translate
0.000000 rotate
0.000000 0.171875 m /zero glyphshow
7.634766 0.171875 m /period glyphshow
11.449219 0.171875 m /eight glyphshow
grestore
gsave
990.081 81.0203 m
987.928 79.2801 l
stroke
grestore
gsave
975.795945 56.346164 translate
0.000000 rotate
0.000000 0.171875 m /one glyphshow
7.634766 0.171875 m /period glyphshow
11.449219 0.171875 m /zero glyphshow
grestore
0.750 setlinewidth
gsave
1074.55 146.341 m
992.156 79.4817 l
stroke
grestore
gsave
1039.215761 66.405376 translate
39.056639 rotate
0.000000 2.500000 m /d glyphshow
7.617188 2.500000 m /e glyphshow
15.000000 2.500000 m /n glyphshow
22.605469 2.500000 m /s glyphshow
28.857422 2.500000 m /i glyphshow
32.191406 2.500000 m /t glyphshow
36.896484 2.500000 m /y glyphshow
grestore
/p9_0 {
newpath
translate
857.996 318.866 m
861.85 126.21 l
993.943 80.9317 l
} bind def
/p9_1 {
newpath
translate
871.404 325.764 m
874.754 134.998 l
1006.03 90.7413 l
} bind def
/p9_2 {
newpath
translate
884.51 332.506 m
887.377 143.593 l
1017.84 100.325 l
} bind def
/p9_3 {
newpath
translate
897.322 339.097 m
899.726 152.003 l
1029.38 109.69 l
} bind def
/p9_4 {
newpath
translate
909.851 345.542 m
911.812 160.233 l
1040.67 118.844 l
} bind def
/p9_5 {
newpath
translate
922.106 351.846 m
923.642 168.289 l
1051.7 127.794 l
} bind def
/p9_6 {
newpath
translate
934.096 358.014 m
935.225 176.176 l
1062.48 136.547 l
} bind def
1.000 setlinewidth
0 setlinecap
0.900 setgray
gsave
0 0 p9_0
stroke
grestore
gsave
0 0 p9_1
stroke
grestore
gsave
0 0 p9_2
stroke
grestore
gsave
0 0 p9_3
stroke
grestore
gsave
0 0 p9_4
stroke
grestore
gsave
0 0 p9_5
stroke
grestore
gsave
0 0 p9_6
stroke
grestore
2 setlinecap
0.000 setgray
gsave
992.827 81.3143 m
996.179 80.1653 l
stroke
grestore
gsave
989.147718 58.246032 translate
0.000000 rotate
0.000000 0.171875 m /zero glyphshow
7.634766 0.171875 m /period glyphshow
11.449219 0.171875 m /six glyphshow
19.083984 0.171875 m /zero glyphshow
grestore
gsave
1004.92 91.1151 m
1008.25 89.9927 l
stroke
grestore
gsave
1001.284857 68.225480 translate
0.000000 rotate
0.000000 0.171875 m /zero glyphshow
7.634766 0.171875 m /period glyphshow
11.449219 0.171875 m /six glyphshow
19.083984 0.171875 m /five glyphshow
grestore
gsave
1016.74 100.69 m
1020.05 99.5934 l
stroke
grestore
gsave
1012.894738 77.974587 translate
0.000000 rotate
0.000000 0.171875 m /zero glyphshow
7.634766 0.171875 m /period glyphshow
11.449219 0.171875 m /seven glyphshow
19.083984 0.171875 m /zero glyphshow
grestore
gsave
1028.29 110.047 m
1031.58 108.975 l
stroke
grestore
gsave
1024.486850 87.501237 translate
0.000000 rotate
0.000000 0.171875 m /zero glyphshow
7.634766 0.171875 m /period glyphshow
11.449219 0.171875 m /seven glyphshow
19.083984 0.171875 m /five glyphshow
grestore
gsave
1039.58 119.193 m
1042.84 118.145 l
stroke
grestore
gsave
1035.570255 96.812958 translate
0.000000 rotate
0.000000 0.171875 m /zero glyphshow
7.634766 0.171875 m /period glyphshow
11.449219 0.171875 m /eight glyphshow
19.083984 0.171875 m /zero glyphshow
grestore
gsave
1050.62 128.135 m
1053.86 127.11 l
stroke
grestore
gsave
1046.653609 105.916942 translate
0.000000 rotate
0.000000 0.171875 m /zero glyphshow
7.634766 0.171875 m /period glyphshow
11.449219 0.171875 m /eight glyphshow
19.083984 0.171875 m /five glyphshow
grestore
gsave
1061.41 136.88 m
1064.63 135.878 l
stroke
grestore
gsave
1057.245189 114.820065 translate
0.000000 rotate
0.000000 0.171875 m /zero glyphshow
7.634766 0.171875 m /period glyphshow
11.449219 0.171875 m /nine glyphshow
19.083984 0.171875 m /zero glyphshow
grestore
0.750 setlinewidth
gsave
1074.55 146.341 m
1078.27 334.66 l
stroke
grestore
/DejaVuSans findfont
16.000 scalefont
setfont
gsave
1099.230649 236.883889 translate
0.000000 rotate
0.000000 0.000000 m /x glyphshow
grestore
/pa_0 {
newpath
translate
1075.39 188.859 m
948.048 225.687 l
859.057 168.439 l
} bind def
/pa_1 {
newpath
translate
1076.18 228.563 m
947.904 263.64 l
858.229 209.104 l
} bind def
/pa_2 {
newpath
translate
1076.97 268.856 m
947.758 302.126 l
857.388 250.387 l
} bind def
/pa_3 {
newpath
translate
1077.78 309.749 m
947.609 341.157 l
856.535 292.303 l
} bind def
1.000 setlinewidth
0 setlinecap
0.900 setgray
gsave
0 0 pa_0
stroke
grestore
gsave
0 0 pa_1
stroke
grestore
gsave
0 0 pa_2
stroke
grestore
gsave
0 0 pa_3
stroke
grestore
2 setlinecap
0.000 setgray
gsave
1074.32 189.169 m
1077.54 188.238 l
stroke
grestore
/DejaVuSans findfont
12.000 scalefont
setfont
gsave
1078.615586 180.891655 translate
0.000000 rotate
0.000000 0.171875 m /zero glyphshow
7.634766 0.171875 m /period glyphshow
11.449219 0.171875 m /two glyphshow
grestore
gsave
1075.1 228.859 m
1078.34 227.972 l
stroke
grestore
gsave
1079.218831 220.543671 translate
0.000000 rotate
0.000000 0.171875 m /zero glyphshow
7.634766 0.171875 m /period glyphshow
11.449219 0.171875 m /four glyphshow
grestore
gsave
1075.88 269.136 m
1079.15 268.294 l
stroke
grestore
gsave
1080.147416 260.781701 translate
0.000000 rotate
0.000000 0.171875 m /zero glyphshow
7.634766 0.171875 m /period glyphshow
11.449219 0.171875 m /six glyphshow
grestore
gsave
1076.68 310.013 m
1079.98 309.218 l
stroke
grestore
gsave
1081.073505 301.618830 translate
0.000000 rotate
0.000000 0.171875 m /zero glyphshow
7.634766 0.171875 m /period glyphshow
11.449219 0.171875 m /eight glyphshow
grestore
/pb_0 {
newpath
translate
862.876 200.907 m
867.145 196.433 l
871.372 194.907 l
875.61 193.569 l
879.866 192.06 l
884.163 188.976 l
888.518 182.785 l
892.808 181.796 l
897.192 174.898 l
901.559 169.972 l
905.984 160.959 l
910.338 158.748 l
914.715 155.73 l
919.091 154.355 l
923.485 152.68 l
927.883 152.579 l
932.313 150.406 l
936.742 151.015 l
941.192 151.425 l
945.667 150.649 l
950.154 151.498 l
954.659 153.122 l
959.189 153.5 l
963.741 151.931 l
968.309 155.089 l
972.905 162.119 l
977.52 160.895 l
982.155 160.222 l
986.801 157.582 l
991.469 156.289 l
} bind def
/pb_1 {
newpath
translate
887.522 240.864 m
891.746 236.73 l
895.939 235.589 l
900.14 235.095 l
904.365 233.866 l
908.661 227.651 l
912.95 222.835 l
917.223 220.654 l
921.538 215.273 l
925.871 208.731 l
930.233 199.143 l
934.558 195.783 l
938.898 192.017 l
943.246 188.835 l
947.602 186.951 l
951.97 186.217 l
956.353 185.681 l
960.753 186.102 l
965.172 186.43 l
969.609 185.01 l
974.066 187.669 l
978.548 190.711 l
983.046 191.435 l
987.555 189.159 l
992.096 190.994 l
996.704 201.427 l
1001.29 202.26 l
1005.88 199.958 l
1010.49 199.624 l
1015.13 198.832 l
} bind def
/pb_2 {
newpath
translate
911.301 283.683 m
915.464 281.935 l
919.642 279.967 l
923.826 278.979 l
928.033 276.818 l
932.285 270.097 l
936.525 266.281 l
940.761 265.344 l
945.029 260.569 l
949.328 249.946 l
953.621 241.34 l
957.912 235.848 l
962.209 232.414 l
966.518 227.634 l
970.838 226.597 l
975.173 225.232 l
979.523 223.015 l
983.896 224.355 l
988.282 223.784 l
992.694 225.371 l
997.13 227.415 l
1001.59 230.408 l
1006.08 234.13 l
1010.55 232.112 l
1015.06 232.681 l
1019.69 243.986 l
1024.28 247.728 l
1028.84 247.1 l
1033.43 246.799 l
1038.01 244.275 l
} bind def
/pb_3 {
newpath
translate
934.305 329.452 m
938.443 327.727 l
942.591 326.622 l
946.755 325.398 l
950.936 322.921 l
955.138 317.228 l
959.34 315.332 l
963.555 314.336 l
967.787 305.015 l
972.019 293.698 l
976.259 288.303 l
980.496 277.949 l
984.761 277.108 l
989.021 270.734 l
993.309 269.024 l
997.612 267.424 l
1001.94 267.04 l
1006.28 266.492 l
1010.63 265.039 l
1015.02 266.78 l
1019.41 267.075 l
1023.87 271.36 l
1028.38 278.437 l
1032.84 278.216 l
1037.29 276.479 l
1041.91 286.333 l
1046.54 294 l
1051.08 293.804 l
1055.62 292.545 l
1060.2 292.954 l
} bind def
/pb_4 {
newpath
translate
948.334 358.125 m
952.457 356.045 l
956.591 355.062 l
960.74 353.889 l
964.903 350.671 l
969.078 346.418 l
973.265 345.659 l
977.466 344.347 l
981.653 331.093 l
985.848 321.936 l
990.07 319.043 l
994.248 303.997 l
998.499 303.791 l
1002.73 297.633 l
1007.01 297.45 l
1011.29 295.631 l
1015.6 295.343 l
1019.91 293.757 l
1024.24 292.575 l
1028.61 293.336 l
1033.01 294.836 l
1037.41 295.588 l
1041.95 304.93 l
1046.39 305.166 l
1050.85 305.471 l
1055.4 310.462 l
1060.13 324.158 l
1064.64 323.3 l
1069.14 320.896 l
1073.7 321.157 l
} bind def
/pb_5 {
newpath
translate
862.876 200.907 m
866.02 205.098 l
869.126 210.527 l
872.224 215.678 l
875.321 220.132 l
878.385 225.682 l
881.438 231.087 l
884.481 236.357 l
887.522 240.864 l
890.532 246.614 l
893.532 252.191 l
896.538 256.429 l
899.513 261.948 l
902.471 267.947 l
905.423 273.462 l
908.373 278.094 l
911.301 283.683 l
914.209 290 l
917.125 294.359 l
920.019 299.782 l
922.892 306.449 l
925.759 312.453 l
928.627 317.034 l
931.468 323.658 l
934.305 329.452 l
937.137 334.188 l
939.95 340.488 l
942.755 346.208 l
945.546 353.095 l
948.334 358.125 l
} bind def
/pb_6 {
newpath
translate
897.192 174.898 m
900.293 179.151 l
903.362 184.825 l
906.427 189.771 l
909.484 194.148 l
912.519 199.262 l
915.527 205.731 l
918.537 210.725 l
921.538 215.273 l
924.516 221.058 l
927.479 227.046 l
930.444 231.196 l
933.383 237.332 l
936.309 243.592 l
939.227 249.409 l
942.14 253.68 l
945.029 260.569 l
947.913 266.365 l
950.789 270.737 l
953.65 276.361 l
956.497 283.151 l
959.336 288.582 l
962.165 293.26 l
964.981 299.639 l
967.787 305.015 l
970.582 309.954 l
973.365 314.823 l
976.139 320.558 l
978.903 326.783 l
981.653 331.093 l
} bind def
/pb_7 {
newpath
translate
932.313 150.406 m
935.368 154.802 l
938.416 157.99 l
941.438 163.065 l
944.452 166.948 l
947.446 171.992 l
950.428 176.769 l
953.397 181.535 l
956.353 185.681 l
959.294 190.771 l
962.225 193.316 l
965.139 198.597 l
968.041 204.659 l
970.931 209.134 l
973.808 214.225 l
976.671 218.21 l
979.523 223.015 l
982.366 229.636 l
985.19 232.812 l
988.008 238.508 l
990.817 244.519 l
993.614 250.43 l
996.395 255.059 l
999.167 260.326 l
1001.94 267.04 l
1004.67 269.599 l
1007.42 277.18 l
1010.16 283.451 l
1012.88 288.2 l
1015.6 295.343 l
} bind def
/pb_8 {
newpath
translate
968.309 155.089 m
971.332 159.77 l
974.342 164.51 l
977.336 168.521 l
980.315 172.654 l
983.282 177.631 l
986.237 183.183 l
989.178 188.197 l
992.096 190.994 l
995.011 196.274 l
997.918 202.517 l
1000.79 205.48 l
1003.68 211.885 l
1006.54 216.192 l
1009.4 223.051 l
1012.23 227.29 l
1015.06 232.681 l
1017.88 238.076 l
1020.68 243.071 l
1023.47 248.408 l
1026.25 252.666 l
1029.02 258.485 l
1031.79 264.44 l
1034.55 270.696 l
1037.29 276.479 l
1040.01 281.105 l
1042.75 288.669 l
1045.45 293.545 l
1048.17 300.452 l
1050.85 305.471 l
} bind def
/pb_9 {
newpath
translate
991.469 156.289 m
994.471 161.069 l
997.462 166.505 l
1000.44 171.46 l
1003.4 176.982 l
1006.34 181.041 l
1009.29 187.346 l
1012.22 193.66 l
1015.13 198.832 l
1018.03 204.126 l
1020.9 208.437 l
1023.78 214.22 l
1026.66 221.031 l
1029.51 226.358 l
1032.34 231.822 l
1035.18 237.89 l
1038.01 244.275 l
1040.81 249.629 l
1043.59 254.436 l
1046.39 261.172 l
1049.18 267.684 l
1051.93 272.87 l
1054.69 279.225 l
1057.44 285.506 l
1060.2 292.954 l
1062.92 298.337 l
1065.6 302.249 l
1068.35 310.721 l
1071.05 317.205 l
1073.7 321.157 l
} bind def
0 setlinecap
gsave
279.8 359.3 825 44.91 clipbox
0 0 pb_0
stroke
grestore
gsave
279.8 359.3 825 44.91 clipbox
0 0 pb_1
stroke
grestore
gsave
279.8 359.3 825 44.91 clipbox
0 0 pb_2
stroke
grestore
gsave
279.8 359.3 825 44.91 clipbox
0 0 pb_3
stroke
grestore
gsave
279.8 359.3 825 44.91 clipbox
0 0 pb_4
stroke
grestore
gsave
279.8 359.3 825 44.91 clipbox
0 0 pb_5
stroke
grestore
gsave
279.8 359.3 825 44.91 clipbox
0 0 pb_6
stroke
grestore
gsave
279.8 359.3 825 44.91 clipbox
0 0 pb_7
stroke
grestore
gsave
279.8 359.3 825 44.91 clipbox
0 0 pb_8
stroke
grestore
gsave
279.8 359.3 825 44.91 clipbox
0 0 pb_9
stroke
grestore
/DejaVuSans findfont
19.200 scalefont
setfont
gsave
932.898456 380.181975 translate
0.000000 rotate
0.000000 0.265625 m /f glyphshow
6.776978 0.265625 m /equal glyphshow
22.906372 0.265625 m /zero glyphshow
35.153809 0.265625 m /period glyphshow
41.272827 0.265625 m /five glyphshow
53.520264 0.265625 m /zero glyphshow
grestore

end
showpage
