%!PS-Adobe-3.0 EPSF-3.0
%%Title: /home/aurelien/synchro/boulot/code/papers_code/schelling-2012/fig/phase_diagram_rhotol_suscep_3D.eps
%%Creator: matplotlib version 1.1.1rc2, http://matplotlib.sourceforge.net/
%%CreationDate: Wed Jun  5 15:50:22 2013
%%Orientation: portrait
%%BoundingBox: -307 157 919 634
%%EndComments
%%BeginProlog
/mpldict 8 dict def
mpldict begin
/m { moveto } bind def
/l { lineto } bind def
/r { rlineto } bind def
/c { curveto } bind def
/cl { closepath } bind def
/box {
m
1 index 0 r
0 exch r
neg 0 r
cl
} bind def
/clipbox {
box
clip
newpath
} bind def
%!PS-Adobe-3.0 Resource-Font
%%Title: DejaVu Sans
%%Copyright: Copyright (c) 2003 by Bitstream, Inc. All Rights Reserved. Copyright (c) 2006 by Tavmjong Bah. All Rights Reserved. DejaVu changes are in public domain 
%%Creator: Converted from TrueType to type 3 by PPR
25 dict begin
/_d{bind def}bind def
/_m{moveto}_d
/_l{lineto}_d
/_cl{closepath eofill}_d
/_c{curveto}_d
/_sc{7 -1 roll{setcachedevice}{pop pop pop pop pop pop}ifelse}_d
/_e{exec}_d
/FontName /DejaVuSans def
/PaintType 0 def
/FontMatrix[.001 0 0 .001 0 0]def
/FontBBox[-1021 -415 1681 1167]def
/FontType 3 def
/Encoding [ /period /zero /one /two /four /five /six /seven /eight /nine /equal /a /c /d /e /f /i /l /n /o /r /s /t /x /y /minus ] def
/FontInfo 10 dict dup begin
/FamilyName (DejaVu Sans) def
/FullName (DejaVu Sans) def
/Notice (Copyright (c) 2003 by Bitstream, Inc. All Rights Reserved. Copyright (c) 2006 by Tavmjong Bah. All Rights Reserved. DejaVu changes are in public domain ) def
/Weight (Book) def
/Version (Version 2.33) def
/ItalicAngle 0.0 def
/isFixedPitch false def
/UnderlinePosition -130 def
/UnderlineThickness 90 def
end readonly def
/CharStrings 26 dict dup begin
/period{318 0 107 0 210 124 _sc
107 124 _m
210 124 _l
210 0 _l
107 0 _l
107 124 _l
_cl}_d
/zero{636 0 66 -13 570 742 _sc
318 664 _m
267 664 229 639 203 589 _c
177 539 165 464 165 364 _c
165 264 177 189 203 139 _c
229 89 267 64 318 64 _c
369 64 407 89 433 139 _c
458 189 471 264 471 364 _c
471 464 458 539 433 589 _c
407 639 369 664 318 664 _c
318 742 _m
399 742 461 709 505 645 _c
548 580 570 486 570 364 _c
570 241 548 147 505 83 _c
461 19 399 -13 318 -13 _c
236 -13 173 19 130 83 _c
87 147 66 241 66 364 _c
66 486 87 580 130 645 _c
173 709 236 742 318 742 _c
_cl}_d
/one{636 0 110 0 544 729 _sc
124 83 _m
285 83 _l
285 639 _l
110 604 _l
110 694 _l
284 729 _l
383 729 _l
383 83 _l
544 83 _l
544 0 _l
124 0 _l
124 83 _l
_cl}_d
/two{{636 0 73 0 536 742 _sc
192 83 _m
536 83 _l
536 0 _l
73 0 _l
73 83 _l
110 121 161 173 226 239 _c
290 304 331 346 348 365 _c
380 400 402 430 414 455 _c
426 479 433 504 433 528 _c
433 566 419 598 392 622 _c
365 646 330 659 286 659 _c
255 659 222 653 188 643 _c
154 632 117 616 78 594 _c
78 694 _l
118 710 155 722 189 730 _c
223 738 255 742 284 742 _c
}_e{359 742 419 723 464 685 _c
509 647 532 597 532 534 _c
532 504 526 475 515 449 _c
504 422 484 390 454 354 _c
446 344 420 317 376 272 _c
332 227 271 164 192 83 _c
_cl}_e}_d
/four{636 0 49 0 580 729 _sc
378 643 _m
129 254 _l
378 254 _l
378 643 _l
352 729 _m
476 729 _l
476 254 _l
580 254 _l
580 172 _l
476 172 _l
476 0 _l
378 0 _l
378 172 _l
49 172 _l
49 267 _l
352 729 _l
_cl}_d
/five{{636 0 77 -13 549 729 _sc
108 729 _m
495 729 _l
495 646 _l
198 646 _l
198 467 _l
212 472 227 476 241 478 _c
255 480 270 482 284 482 _c
365 482 429 459 477 415 _c
525 370 549 310 549 234 _c
549 155 524 94 475 51 _c
426 8 357 -13 269 -13 _c
238 -13 207 -10 175 -6 _c
143 -1 111 6 77 17 _c
77 116 _l
106 100 136 88 168 80 _c
199 72 232 69 267 69 _c
}_e{323 69 368 83 401 113 _c
433 143 450 183 450 234 _c
450 284 433 324 401 354 _c
368 384 323 399 267 399 _c
241 399 214 396 188 390 _c
162 384 135 375 108 363 _c
108 729 _l
_cl}_e}_d
/six{{636 0 70 -13 573 742 _sc
330 404 _m
286 404 251 388 225 358 _c
199 328 186 286 186 234 _c
186 181 199 139 225 109 _c
251 79 286 64 330 64 _c
374 64 409 79 435 109 _c
461 139 474 181 474 234 _c
474 286 461 328 435 358 _c
409 388 374 404 330 404 _c
526 713 _m
526 623 _l
501 635 476 644 451 650 _c
425 656 400 659 376 659 _c
310 659 260 637 226 593 _c
}_e{192 549 172 482 168 394 _c
187 422 211 444 240 459 _c
269 474 301 482 336 482 _c
409 482 467 459 509 415 _c
551 371 573 310 573 234 _c
573 159 550 99 506 54 _c
462 9 403 -13 330 -13 _c
246 -13 181 19 137 83 _c
92 147 70 241 70 364 _c
70 479 97 571 152 639 _c
206 707 280 742 372 742 _c
396 742 421 739 447 735 _c
472 730 498 723 526 713 _c
_cl}_e}_d
/seven{636 0 82 0 551 729 _sc
82 729 _m
551 729 _l
551 687 _l
286 0 _l
183 0 _l
432 646 _l
82 646 _l
82 729 _l
_cl}_d
/eight{{636 0 68 -13 568 742 _sc
318 346 _m
271 346 234 333 207 308 _c
180 283 167 249 167 205 _c
167 161 180 126 207 101 _c
234 76 271 64 318 64 _c
364 64 401 76 428 102 _c
455 127 469 161 469 205 _c
469 249 455 283 429 308 _c
402 333 365 346 318 346 _c
219 388 _m
177 398 144 418 120 447 _c
96 476 85 511 85 553 _c
85 611 105 657 147 691 _c
188 725 245 742 318 742 _c
}_e{390 742 447 725 489 691 _c
530 657 551 611 551 553 _c
551 511 539 476 515 447 _c
491 418 459 398 417 388 _c
464 377 501 355 528 323 _c
554 291 568 251 568 205 _c
568 134 546 80 503 43 _c
459 5 398 -13 318 -13 _c
237 -13 175 5 132 43 _c
89 80 68 134 68 205 _c
68 251 81 291 108 323 _c
134 355 171 377 219 388 _c
183 544 _m
183 506 194 476 218 455 _c
}_e{242 434 275 424 318 424 _c
360 424 393 434 417 455 _c
441 476 453 506 453 544 _c
453 582 441 611 417 632 _c
393 653 360 664 318 664 _c
275 664 242 653 218 632 _c
194 611 183 582 183 544 _c
_cl}_e}_d
/nine{{636 0 63 -13 566 742 _sc
110 15 _m
110 105 _l
134 93 159 84 185 78 _c
210 72 235 69 260 69 _c
324 69 374 90 408 134 _c
442 178 462 244 468 334 _c
448 306 424 284 396 269 _c
367 254 335 247 300 247 _c
226 247 168 269 126 313 _c
84 357 63 417 63 494 _c
63 568 85 628 129 674 _c
173 719 232 742 306 742 _c
390 742 455 709 499 645 _c
543 580 566 486 566 364 _c
}_e{566 248 538 157 484 89 _c
429 21 356 -13 264 -13 _c
239 -13 214 -10 189 -6 _c
163 -2 137 5 110 15 _c
306 324 _m
350 324 385 339 411 369 _c
437 399 450 441 450 494 _c
450 546 437 588 411 618 _c
385 648 350 664 306 664 _c
262 664 227 648 201 618 _c
175 588 162 546 162 494 _c
162 441 175 399 201 369 _c
227 339 262 324 306 324 _c
_cl}_e}_d
/equal{838 0 106 172 732 454 _sc
106 454 _m
732 454 _l
732 372 _l
106 372 _l
106 454 _l
106 255 _m
732 255 _l
732 172 _l
106 172 _l
106 255 _l
_cl}_d
/a{{613 0 60 -13 522 560 _sc
343 275 _m
270 275 220 266 192 250 _c
164 233 150 205 150 165 _c
150 133 160 107 181 89 _c
202 70 231 61 267 61 _c
317 61 357 78 387 114 _c
417 149 432 196 432 255 _c
432 275 _l
343 275 _l
522 312 _m
522 0 _l
432 0 _l
432 83 _l
411 49 385 25 355 10 _c
325 -5 287 -13 243 -13 _c
187 -13 142 2 109 33 _c
76 64 60 106 60 159 _c
}_e{60 220 80 266 122 298 _c
163 329 224 345 306 345 _c
432 345 _l
432 354 _l
432 395 418 427 391 450 _c
364 472 326 484 277 484 _c
245 484 215 480 185 472 _c
155 464 127 453 100 439 _c
100 522 _l
132 534 164 544 195 550 _c
226 556 256 560 286 560 _c
365 560 424 539 463 498 _c
502 457 522 395 522 312 _c
_cl}_e}_d
/c{{550 0 55 -13 488 560 _sc
488 526 _m
488 442 _l
462 456 437 466 411 473 _c
385 480 360 484 334 484 _c
276 484 230 465 198 428 _c
166 391 150 339 150 273 _c
150 206 166 154 198 117 _c
230 80 276 62 334 62 _c
360 62 385 65 411 72 _c
437 79 462 90 488 104 _c
488 21 _l
462 9 436 0 410 -5 _c
383 -10 354 -13 324 -13 _c
242 -13 176 12 128 64 _c
}_e{79 115 55 185 55 273 _c
55 362 79 432 128 483 _c
177 534 244 560 330 560 _c
358 560 385 557 411 551 _c
437 545 463 537 488 526 _c
_cl}_e}_d
/d{{635 0 55 -13 544 760 _sc
454 464 _m
454 760 _l
544 760 _l
544 0 _l
454 0 _l
454 82 _l
435 49 411 25 382 10 _c
353 -5 319 -13 279 -13 _c
213 -13 159 13 117 65 _c
75 117 55 187 55 273 _c
55 359 75 428 117 481 _c
159 533 213 560 279 560 _c
319 560 353 552 382 536 _c
411 520 435 496 454 464 _c
148 273 _m
148 207 161 155 188 117 _c
215 79 253 61 301 61 _c
}_e{348 61 385 79 413 117 _c
440 155 454 207 454 273 _c
454 339 440 390 413 428 _c
385 466 348 485 301 485 _c
253 485 215 466 188 428 _c
161 390 148 339 148 273 _c
_cl}_e}_d
/e{{615 0 55 -13 562 560 _sc
562 296 _m
562 252 _l
149 252 _l
153 190 171 142 205 110 _c
238 78 284 62 344 62 _c
378 62 412 66 444 74 _c
476 82 509 95 541 113 _c
541 28 _l
509 14 476 3 442 -3 _c
408 -9 373 -13 339 -13 _c
251 -13 182 12 131 62 _c
80 112 55 181 55 268 _c
55 357 79 428 127 481 _c
175 533 241 560 323 560 _c
397 560 455 536 498 489 _c
}_e{540 441 562 377 562 296 _c
472 322 _m
471 371 457 410 431 440 _c
404 469 368 484 324 484 _c
274 484 234 469 204 441 _c
174 413 156 373 152 322 _c
472 322 _l
_cl}_e}_d
/f{352 0 23 0 371 760 _sc
371 760 _m
371 685 _l
285 685 _l
253 685 230 678 218 665 _c
205 652 199 629 199 595 _c
199 547 _l
347 547 _l
347 477 _l
199 477 _l
199 0 _l
109 0 _l
109 477 _l
23 477 _l
23 547 _l
109 547 _l
109 585 _l
109 645 123 690 151 718 _c
179 746 224 760 286 760 _c
371 760 _l
_cl}_d
/i{278 0 94 0 184 760 _sc
94 547 _m
184 547 _l
184 0 _l
94 0 _l
94 547 _l
94 760 _m
184 760 _l
184 646 _l
94 646 _l
94 760 _l
_cl}_d
/l{278 0 94 0 184 760 _sc
94 760 _m
184 760 _l
184 0 _l
94 0 _l
94 760 _l
_cl}_d
/n{634 0 91 0 549 560 _sc
549 330 _m
549 0 _l
459 0 _l
459 327 _l
459 379 448 417 428 443 _c
408 469 378 482 338 482 _c
289 482 251 466 223 435 _c
195 404 181 362 181 309 _c
181 0 _l
91 0 _l
91 547 _l
181 547 _l
181 462 _l
202 494 227 519 257 535 _c
286 551 320 560 358 560 _c
420 560 468 540 500 501 _c
532 462 549 405 549 330 _c
_cl}_d
/o{612 0 55 -13 557 560 _sc
306 484 _m
258 484 220 465 192 427 _c
164 389 150 338 150 273 _c
150 207 163 156 191 118 _c
219 80 257 62 306 62 _c
354 62 392 80 420 118 _c
448 156 462 207 462 273 _c
462 337 448 389 420 427 _c
392 465 354 484 306 484 _c
306 560 _m
384 560 445 534 490 484 _c
534 433 557 363 557 273 _c
557 183 534 113 490 63 _c
445 12 384 -13 306 -13 _c
227 -13 165 12 121 63 _c
77 113 55 183 55 273 _c
55 363 77 433 121 484 _c
165 534 227 560 306 560 _c
_cl}_d
/r{411 0 91 0 411 560 _sc
411 463 _m
401 469 390 473 378 476 _c
366 478 353 480 339 480 _c
288 480 249 463 222 430 _c
194 397 181 350 181 288 _c
181 0 _l
91 0 _l
91 547 _l
181 547 _l
181 462 _l
199 495 224 520 254 536 _c
284 552 321 560 365 560 _c
371 560 378 559 386 559 _c
393 558 401 557 411 555 _c
411 463 _l
_cl}_d
/s{{521 0 54 -13 472 560 _sc
443 531 _m
443 446 _l
417 458 391 468 364 475 _c
336 481 308 485 279 485 _c
234 485 200 478 178 464 _c
156 450 145 430 145 403 _c
145 382 153 366 169 354 _c
185 342 217 330 265 320 _c
296 313 _l
360 299 405 279 432 255 _c
458 230 472 195 472 151 _c
472 100 452 60 412 31 _c
372 1 316 -13 246 -13 _c
216 -13 186 -10 154 -5 _c
}_e{122 0 89 8 54 20 _c
54 113 _l
87 95 120 82 152 74 _c
184 65 216 61 248 61 _c
290 61 323 68 346 82 _c
368 96 380 117 380 144 _c
380 168 371 187 355 200 _c
339 213 303 226 247 238 _c
216 245 _l
160 257 119 275 95 299 _c
70 323 58 356 58 399 _c
58 450 76 490 112 518 _c
148 546 200 560 268 560 _c
301 560 332 557 362 552 _c
391 547 418 540 443 531 _c
}_e{_cl}_e}_d
/t{392 0 27 0 368 702 _sc
183 702 _m
183 547 _l
368 547 _l
368 477 _l
183 477 _l
183 180 _l
183 135 189 106 201 94 _c
213 81 238 75 276 75 _c
368 75 _l
368 0 _l
276 0 _l
206 0 158 13 132 39 _c
106 65 93 112 93 180 _c
93 477 _l
27 477 _l
27 547 _l
93 547 _l
93 702 _l
183 702 _l
_cl}_d
/x{592 0 29 0 559 547 _sc
549 547 _m
351 281 _l
559 0 _l
453 0 _l
294 215 _l
135 0 _l
29 0 _l
241 286 _l
47 547 _l
153 547 _l
298 352 _l
443 547 _l
549 547 _l
_cl}_d
/y{592 0 30 -207 562 547 _sc
322 -50 _m
296 -114 271 -157 247 -177 _c
223 -197 191 -207 151 -207 _c
79 -207 _l
79 -132 _l
132 -132 _l
156 -132 175 -126 189 -114 _c
203 -102 218 -75 235 -31 _c
251 9 _l
30 547 _l
125 547 _l
296 119 _l
467 547 _l
562 547 _l
322 -50 _l
_cl}_d
/minus{838 0 106 272 732 355 _sc
106 355 _m
732 355 _l
732 272 _l
106 272 _l
106 355 _l
_cl}_d
end readonly def

/BuildGlyph
 {exch begin
 CharStrings exch
 2 copy known not{pop /.notdef}if
 true 3 1 roll get exec
 end}_d

/BuildChar {
 1 index /Encoding get exch get
 1 index /BuildGlyph get exec
}_d

FontName currentdict end definefont pop
end
%%EndProlog
mpldict begin
-307.35 157.95 translate
1226.7 476.1 0 0 clipbox
gsave
0 0 m
1226.7 0 l
1226.7 476.1 l
0 476.1 l
cl
1.000 setgray
fill
grestore
gsave
153.338 47.61 m
432.953 47.61 l
432.953 428.49 l
153.338 428.49 l
cl
1.000 setgray
fill
grestore
1.000 setlinewidth
1 setlinejoin
2 setlinecap
[] 0 setdash
0.950 setgray
gsave
189.015 131.26 m
273.41 203.546 l
272.52 391.587 l
184.585 332.308 l
gsave
fill
grestore
stroke
grestore
0.900 setgray
gsave
273.41 203.546 m
401.575 160.185 l
405.737 356.072 l
272.52 391.587 l
gsave
fill
grestore
stroke
grestore
0.925 setgray
gsave
189.015 131.26 m
323.708 80.3302 l
401.575 160.185 l
273.41 203.546 l
gsave
fill
grestore
stroke
grestore
0.750 setlinewidth
0.000 setgray
gsave
189.015 131.26 m
323.708 80.3302 l
stroke
grestore
/DejaVuSans findfont
12.000 scalefont
setfont
gsave
215.804096 75.991903 translate
339.287492 rotate
0.000000 0.171875 m /t glyphshow
4.705078 0.171875 m /o glyphshow
12.046875 0.171875 m /l glyphshow
15.380859 0.171875 m /e glyphshow
22.763672 0.171875 m /r glyphshow
27.697266 0.171875 m /a glyphshow
35.050781 0.171875 m /n glyphshow
42.656250 0.171875 m /c glyphshow
49.253906 0.171875 m /e glyphshow
grestore
/p0_0 {
newpath
translate
191.576 130.292 m
275.856 202.718 l
275.058 390.911 l
} bind def
/p0_1 {
newpath
translate
216.422 120.897 m
299.572 194.695 l
299.673 384.348 l
} bind def
/p0_2 {
newpath
translate
241.76 111.316 m
323.721 186.525 l
324.755 377.662 l
} bind def
/p0_3 {
newpath
translate
267.605 101.544 m
348.315 178.204 l
350.317 370.847 l
} bind def
/p0_4 {
newpath
translate
293.971 91.5745 m
373.367 169.728 l
376.374 363.9 l
} bind def
/p0_5 {
newpath
translate
320.874 81.4018 m
398.889 161.093 l
402.939 356.818 l
} bind def
1.000 setlinewidth
0 setlinecap
0.900 setgray
gsave
0 0 p0_0
stroke
grestore
gsave
0 0 p0_1
stroke
grestore
gsave
0 0 p0_2
stroke
grestore
gsave
0 0 p0_3
stroke
grestore
gsave
0 0 p0_4
stroke
grestore
gsave
0 0 p0_5
stroke
grestore
2 setlinecap
0.000 setgray
gsave
192.305 130.918 m
190.115 129.037 l
stroke
grestore
gsave
177.941884 105.967175 translate
0.000000 rotate
0.000000 0.171875 m /zero glyphshow
7.634766 0.171875 m /period glyphshow
11.449219 0.171875 m /zero glyphshow
grestore
gsave
217.142 121.536 m
214.98 119.617 l
stroke
grestore
gsave
203.003018 96.400081 translate
0.000000 rotate
0.000000 0.171875 m /zero glyphshow
7.634766 0.171875 m /period glyphshow
11.449219 0.171875 m /two glyphshow
grestore
gsave
242.47 111.968 m
240.338 110.011 l
stroke
grestore
gsave
228.088387 86.643253 translate
0.000000 rotate
0.000000 0.171875 m /zero glyphshow
7.634766 0.171875 m /period glyphshow
11.449219 0.171875 m /four glyphshow
grestore
gsave
268.304 102.208 m
266.203 100.212 l
stroke
grestore
gsave
253.994051 76.690989 translate
0.000000 rotate
0.000000 0.171875 m /zero glyphshow
7.634766 0.171875 m /period glyphshow
11.449219 0.171875 m /six glyphshow
grestore
gsave
294.659 92.2524 m
292.591 90.216 l
stroke
grestore
gsave
280.407298 66.537358 translate
0.000000 rotate
0.000000 0.171875 m /zero glyphshow
7.634766 0.171875 m /period glyphshow
11.449219 0.171875 m /eight glyphshow
grestore
gsave
321.552 82.0936 m
319.517 80.0154 l
stroke
grestore
gsave
307.570732 56.176187 translate
0.000000 rotate
0.000000 0.171875 m /one glyphshow
7.634766 0.171875 m /period glyphshow
11.449219 0.171875 m /zero glyphshow
grestore
0.750 setlinewidth
gsave
401.575 160.185 m
323.708 80.3302 l
stroke
grestore
gsave
370.752285 71.182142 translate
45.722108 rotate
0.000000 2.500000 m /d glyphshow
7.617188 2.500000 m /e glyphshow
15.000000 2.500000 m /n glyphshow
22.605469 2.500000 m /s glyphshow
28.857422 2.500000 m /i glyphshow
32.191406 2.500000 m /t glyphshow
36.896484 2.500000 m /y glyphshow
grestore
/p1_0 {
newpath
translate
186.49 333.592 m
190.838 132.821 l
325.397 82.0616 l
} bind def
/p1_1 {
newpath
translate
199.38 342.281 m
203.178 143.391 l
336.819 93.7755 l
} bind def
/p1_2 {
newpath
translate
211.977 350.773 m
215.248 153.729 l
347.979 105.22 l
} bind def
/p1_3 {
newpath
translate
224.29 359.074 m
227.057 163.844 l
358.885 116.405 l
} bind def
/p1_4 {
newpath
translate
236.33 367.191 m
238.614 173.743 l
369.546 127.338 l
} bind def
/p1_5 {
newpath
translate
248.106 375.129 m
249.926 183.432 l
379.97 138.028 l
} bind def
/p1_6 {
newpath
translate
259.625 382.894 m
261.001 192.918 l
390.165 148.484 l
} bind def
1.000 setlinewidth
0 setlinecap
0.900 setgray
gsave
0 0 p1_0
stroke
grestore
gsave
0 0 p1_1
stroke
grestore
gsave
0 0 p1_2
stroke
grestore
gsave
0 0 p1_3
stroke
grestore
gsave
0 0 p1_4
stroke
grestore
gsave
0 0 p1_5
stroke
grestore
gsave
0 0 p1_6
stroke
grestore
2 setlinecap
0.000 setgray
gsave
324.264 82.489 m
327.666 81.2056 l
stroke
grestore
gsave
320.700480 58.725080 translate
0.000000 rotate
0.000000 0.171875 m /zero glyphshow
7.634766 0.171875 m /period glyphshow
11.449219 0.171875 m /six glyphshow
19.083984 0.171875 m /zero glyphshow
grestore
gsave
335.694 94.1931 m
339.071 92.9394 l
stroke
grestore
gsave
332.163573 70.612497 translate
0.000000 rotate
0.000000 0.171875 m /zero glyphshow
7.634766 0.171875 m /period glyphshow
11.449219 0.171875 m /six glyphshow
19.083984 0.171875 m /five glyphshow
grestore
gsave
346.862 105.628 m
350.214 104.403 l
stroke
grestore
gsave
343.115845 82.226457 translate
0.000000 rotate
0.000000 0.171875 m /zero glyphshow
7.634766 0.171875 m /period glyphshow
11.449219 0.171875 m /seven glyphshow
19.083984 0.171875 m /zero glyphshow
grestore
gsave
357.777 116.804 m
361.104 115.606 l
stroke
grestore
gsave
354.066194 93.576287 translate
0.000000 rotate
0.000000 0.171875 m /zero glyphshow
7.634766 0.171875 m /period glyphshow
11.449219 0.171875 m /seven glyphshow
19.083984 0.171875 m /five glyphshow
grestore
gsave
368.446 127.728 m
371.749 126.557 l
stroke
grestore
gsave
364.523117 104.670897 translate
0.000000 rotate
0.000000 0.171875 m /zero glyphshow
7.634766 0.171875 m /period glyphshow
11.449219 0.171875 m /eight glyphshow
19.083984 0.171875 m /zero glyphshow
grestore
gsave
378.878 138.41 m
382.157 137.265 l
stroke
grestore
gsave
374.994733 115.518801 translate
0.000000 rotate
0.000000 0.171875 m /zero glyphshow
7.634766 0.171875 m /period glyphshow
11.449219 0.171875 m /eight glyphshow
19.083984 0.171875 m /five glyphshow
grestore
gsave
389.081 148.857 m
392.336 147.737 l
stroke
grestore
gsave
384.988804 126.128135 translate
0.000000 rotate
0.000000 0.171875 m /zero glyphshow
7.634766 0.171875 m /period glyphshow
11.449219 0.171875 m /nine glyphshow
19.083984 0.171875 m /zero glyphshow
grestore
0.750 setlinewidth
gsave
401.575 160.185 m
405.737 356.072 l
stroke
grestore
/DejaVuSans findfont
16.000 scalefont
setfont
gsave
426.160135 255.113130 translate
0.000000 rotate
0.000000 0.000000 m /x glyphshow
grestore
/p2_0 {
newpath
translate
402 180.211 m
273.319 222.802 l
188.563 151.791 l
} bind def
/p2_1 {
newpath
translate
402.478 202.679 m
273.216 244.398 l
188.055 174.832 l
} bind def
/p2_2 {
newpath
translate
402.959 225.352 m
273.113 266.181 l
187.543 198.089 l
} bind def
/p2_3 {
newpath
translate
403.446 248.233 m
273.009 288.154 l
187.025 221.567 l
} bind def
/p2_4 {
newpath
translate
403.936 271.325 m
272.905 310.321 l
186.503 245.267 l
} bind def
/p2_5 {
newpath
translate
404.431 294.631 m
272.799 332.682 l
185.976 269.194 l
} bind def
/p2_6 {
newpath
translate
404.931 318.153 m
272.692 355.242 l
185.443 293.351 l
} bind def
/p2_7 {
newpath
translate
405.435 341.895 m
272.584 378.001 l
184.906 317.74 l
} bind def
1.000 setlinewidth
0 setlinecap
0.900 setgray
gsave
0 0 p2_0
stroke
grestore
gsave
0 0 p2_1
stroke
grestore
gsave
0 0 p2_2
stroke
grestore
gsave
0 0 p2_3
stroke
grestore
gsave
0 0 p2_4
stroke
grestore
gsave
0 0 p2_5
stroke
grestore
gsave
0 0 p2_6
stroke
grestore
gsave
0 0 p2_7
stroke
grestore
2 setlinecap
0.000 setgray
gsave
400.921 180.568 m
404.162 179.496 l
stroke
grestore
/DejaVuSans findfont
12.000 scalefont
setfont
gsave
402.133453 172.845549 translate
0.000000 rotate
0.000000 0.000000 m /minus glyphshow
10.054688 0.000000 m /one glyphshow
17.689453 0.000000 m /two glyphshow
grestore
gsave
401.393 203.029 m
404.65 201.978 l
stroke
grestore
gsave
402.615572 195.438618 translate
0.000000 rotate
0.000000 0.000000 m /minus glyphshow
10.054688 0.000000 m /one glyphshow
17.689453 0.000000 m /one glyphshow
grestore
gsave
401.87 225.695 m
405.142 224.666 l
stroke
grestore
gsave
402.993136 217.751741 translate
0.000000 rotate
0.000000 0.171875 m /minus glyphshow
10.054688 0.171875 m /one glyphshow
17.689453 0.171875 m /zero glyphshow
grestore
gsave
402.35 248.569 m
405.638 247.562 l
stroke
grestore
gsave
407.375587 240.600225 translate
0.000000 rotate
0.000000 0.171875 m /minus glyphshow
10.054688 0.171875 m /nine glyphshow
grestore
gsave
402.836 271.653 m
406.139 270.669 l
stroke
grestore
gsave
407.911428 263.658803 translate
0.000000 rotate
0.000000 0.171875 m /minus glyphshow
10.054688 0.171875 m /eight glyphshow
grestore
gsave
403.326 294.95 m
406.645 293.991 l
stroke
grestore
gsave
408.561666 287.258511 translate
0.000000 rotate
0.000000 0.000000 m /minus glyphshow
10.054688 0.000000 m /seven glyphshow
grestore
gsave
403.82 318.464 m
407.155 317.529 l
stroke
grestore
gsave
408.982621 310.417939 translate
0.000000 rotate
0.000000 0.171875 m /minus glyphshow
10.054688 0.171875 m /six glyphshow
grestore
gsave
404.319 342.198 m
407.671 341.287 l
stroke
grestore
gsave
409.682177 334.280733 translate
0.000000 rotate
0.000000 0.171875 m /minus glyphshow
10.054688 0.171875 m /five glyphshow
grestore
/p3_0 {
newpath
translate
191.219 234.825 m
195.461 237.776 l
199.76 238.966 l
204.18 234.636 l
208.501 236.466 l
212.651 249.699 l
218.237 175.369 l
222.714 167.187 l
227.5 137.453 l
231.983 127.889 l
236.384 124.987 l
240.579 141.14 l
244.816 157.786 l
249.359 147.753 l
253.69 161.86 l
258.006 183.499 l
262.467 192.744 l
267.067 184.712 l
271.527 204.992 l
276.189 190.271 l
280.735 209.05 l
285.342 224.486 l
290.017 225.887 l
294.717 222.677 l
299.426 212.065 l
304.125 195.065 l
308.868 201.076 l
313.518 170.186 l
318.442 211.889 l
323.176 198.505 l
} bind def
/p3_1 {
newpath
translate
215.214 258.947 m
219.452 260.424 l
223.727 260.75 l
228.059 258.077 l
232.382 257.176 l
236.465 277.519 l
241.393 226.529 l
245.68 231.127 l
250.71 159.321 l
255.096 150.401 l
259.305 164.774 l
263.67 162.447 l
267.912 183.26 l
272.222 201.435 l
276.678 196.128 l
281.045 221.254 l
285.521 226.451 l
290.045 216.329 l
294.558 229.582 l
299.102 216.337 l
303.678 231.041 l
308.295 243.969 l
312.901 239.873 l
317.58 250.876 l
322.218 245.96 l
326.769 224.942 l
331.553 240.37 l
336.123 222.514 l
340.861 225.434 l
345.635 229.414 l
} bind def
/p3_2 {
newpath
translate
238.264 280.575 m
242.463 282.394 l
246.709 281.35 l
250.972 280.181 l
255.219 282.519 l
259.31 308.765 l
263.519 326.361 l
267.787 341.76 l
272.947 182.016 l
277.162 194.519 l
281.436 200.163 l
285.775 189.438 l
290.075 204.56 l
294.421 215.238 l
298.799 216.995 l
303.225 240.162 l
307.664 242.373 l
312.113 240.907 l
316.583 241.018 l
321.11 249.266 l
325.617 248.244 l
330.424 290.178 l
334.752 256.049 l
339.209 242.324 l
344.149 281.066 l
348.446 248.457 l
353.191 259.515 l
357.692 247.36 l
362.409 251.936 l
366.824 233.05 l
} bind def
/p3_3 {
newpath
translate
260.392 301.633 m
264.557 303.347 l
268.764 300.821 l
272.978 299.197 l
277.194 300.556 l
281.387 315.264 l
285.659 312.782 l
289.942 310.155 l
294.236 310.278 l
298.534 270.016 l
302.787 237.223 l
307.045 225.871 l
311.305 216.483 l
315.769 261.795 l
320.096 256.538 l
324.584 279.44 l
328.901 266.502 l
333.424 282.835 l
337.771 271.909 l
342.263 277.333 l
347.061 311.048 l
351.361 291.306 l
355.681 274.755 l
360.153 271.322 l
364.838 282.96 l
369.276 274.621 l
373.825 273.416 l
378.377 271.386 l
382.999 272.642 l
386.905 233.027 l
} bind def
/p3_4 {
newpath
translate
273.774 315.781 m
277.927 314.979 l
282.097 313.393 l
286.282 310.865 l
290.466 317.493 l
294.677 322.361 l
298.908 317.639 l
303.156 320.18 l
307.431 326.379 l
311.606 289.142 l
315.819 274.266 l
320.061 267.877 l
324.453 288.215 l
328.557 254.727 l
332.942 266.175 l
337.621 309.868 l
341.683 273.802 l
346.384 307.966 l
350.52 281.767 l
355.305 314.516 l
359.331 279.996 l
364.093 304.319 l
368.359 289.312 l
372.983 298.768 l
377.729 313.716 l
382.106 304.112 l
386.534 297.399 l
390.665 274.408 l
395.299 278.458 l
399.854 277.428 l
} bind def
/p3_5 {
newpath
translate
191.219 234.825 m
194.284 237.378 l
197.347 239.177 l
200.325 244.467 l
203.353 246.363 l
206.328 250.237 l
209.319 252.378 l
212.271 255.802 l
215.214 258.947 l
218.179 259.699 l
221.078 263.647 l
223.965 267.398 l
226.86 269.635 l
229.735 272.218 l
232.591 275.126 l
235.445 277.017 l
238.264 280.575 l
241.079 283.254 l
243.873 286.537 l
246.675 287.631 l
249.437 291.404 l
252.189 294.836 l
254.944 296.262 l
257.672 299.286 l
260.392 301.633 l
263.093 304.683 l
265.784 307.311 l
268.461 309.855 l
271.125 312.589 l
273.774 315.781 l
} bind def
/p3_6 {
newpath
translate
227.5 137.453 m
230.507 136.45 l
233.55 131.101 l
236.335 144.622 l
239.408 133.27 l
242.138 149.871 l
245.108 143.75 l
247.893 153.592 l
250.71 159.321 l
253.551 160.896 l
256.366 163.811 l
259.146 169.34 l
261.947 170.21 l
264.643 184.602 l
267.428 183.958 l
270.183 185.542 l
272.947 182.016 l
275.565 207.527 l
278.285 208.816 l
280.934 227.4 l
283.537 264.522 l
286.224 273.293 l
288.911 277.834 l
291.543 322.244 l
294.236 310.278 l
296.9 335.665 l
299.557 326.118 l
302.197 326.206 l
304.821 325.722 l
307.431 326.379 l
} bind def
/p3_7 {
newpath
translate
262.467 192.744 m
265.465 186.451 l
268.297 204.495 l
271.257 197.917 l
274.162 197.661 l
277.028 202.139 l
279.89 204 l
282.722 210.38 l
285.521 226.451 l
288.387 203.186 l
291.143 236.843 l
293.949 219.843 l
296.716 245.104 l
299.474 232.327 l
302.22 237.847 l
304.93 228.296 l
307.664 242.373 l
310.415 263.743 l
313.052 248.056 l
315.756 258.814 l
318.307 235.289 l
321.054 260.964 l
323.697 265.248 l
326.333 270.49 l
328.901 266.502 l
331.536 275.332 l
334.055 269.208 l
336.783 292.527 l
339.211 278.962 l
341.683 273.802 l
} bind def
/p3_8 {
newpath
translate
299.426 212.065 m
302.335 226.024 l
305.207 219.326 l
308.034 204.618 l
310.912 220.928 l
313.763 229.194 l
316.597 235.686 l
319.362 229.288 l
322.218 245.96 l
324.899 231.478 l
327.757 251.271 l
330.298 223.083 l
333.226 255.062 l
335.835 243.932 l
338.411 232.251 l
341.185 246.358 l
344.149 281.066 l
346.688 270.76 l
349.291 269.193 l
352.086 286.936 l
354.586 278.729 l
357.145 277.608 l
359.53 263.826 l
362.536 300.272 l
364.838 282.96 l
367.189 271.425 l
369.597 265.797 l
372.732 310.191 l
375.145 305.951 l
377.729 313.716 l
} bind def
/p3_9 {
newpath
translate
323.176 198.505 m
326.023 200.441 l
328.898 209.364 l
331.537 185.797 l
334.323 187.748 l
337.201 202.947 l
340.058 216.07 l
342.746 211.177 l
345.635 229.414 l
348.442 239.42 l
350.998 226.914 l
353.672 227.556 l
356.534 245.467 l
358.982 229.878 l
361.872 251.01 l
364.13 224.871 l
366.824 233.05 l
369.312 227.589 l
372.291 256.336 l
374.909 260.981 l
377.472 262.95 l
379.868 255.624 l
382.576 268.007 l
384.989 263.795 l
386.905 233.027 l
389.974 267.118 l
392.354 263.946 l
395.185 284.891 l
397.698 289.673 l
399.854 277.428 l
} bind def
0 setlinecap
gsave
279.6 380.9 153.3 47.61 clipbox
0 0 p3_0
stroke
grestore
gsave
279.6 380.9 153.3 47.61 clipbox
0 0 p3_1
stroke
grestore
gsave
279.6 380.9 153.3 47.61 clipbox
0 0 p3_2
stroke
grestore
gsave
279.6 380.9 153.3 47.61 clipbox
0 0 p3_3
stroke
grestore
gsave
279.6 380.9 153.3 47.61 clipbox
0 0 p3_4
stroke
grestore
gsave
279.6 380.9 153.3 47.61 clipbox
0 0 p3_5
stroke
grestore
gsave
279.6 380.9 153.3 47.61 clipbox
0 0 p3_6
stroke
grestore
gsave
279.6 380.9 153.3 47.61 clipbox
0 0 p3_7
stroke
grestore
gsave
279.6 380.9 153.3 47.61 clipbox
0 0 p3_8
stroke
grestore
gsave
279.6 380.9 153.3 47.61 clipbox
0 0 p3_9
stroke
grestore
/DejaVuSans findfont
19.200 scalefont
setfont
gsave
261.113971 402.753975 translate
0.000000 rotate
0.000000 0.265625 m /f glyphshow
6.776978 0.265625 m /equal glyphshow
22.906372 0.265625 m /zero glyphshow
35.153809 0.265625 m /period glyphshow
41.272827 0.265625 m /zero glyphshow
53.520264 0.265625 m /zero glyphshow
grestore
gsave
488.876 47.61 m
768.491 47.61 l
768.491 428.49 l
488.876 428.49 l
cl
1.000 setgray
fill
grestore
2 setlinecap
0.950 setgray
gsave
524.629 128.836 m
605.866 188.739 l
605.086 381.746 l
521.184 337.137 l
gsave
fill
grestore
stroke
grestore
0.900 setgray
gsave
605.866 188.739 m
736.497 155.372 l
739.699 356.926 l
605.086 381.746 l
gsave
fill
grestore
stroke
grestore
0.925 setgray
gsave
524.629 128.836 m
662.873 89.2899 l
736.497 155.372 l
605.866 188.739 l
gsave
fill
grestore
stroke
grestore
0.750 setlinewidth
0.000 setgray
gsave
524.629 128.836 m
662.873 89.2899 l
stroke
grestore
/DejaVuSans findfont
12.000 scalefont
setfont
gsave
553.199246 77.317846 translate
344.036394 rotate
0.000000 0.171875 m /t glyphshow
4.705078 0.171875 m /o glyphshow
12.046875 0.171875 m /l glyphshow
15.380859 0.171875 m /e glyphshow
22.763672 0.171875 m /r glyphshow
27.697266 0.171875 m /a glyphshow
35.050781 0.171875 m /n glyphshow
42.656250 0.171875 m /c glyphshow
49.253906 0.171875 m /e glyphshow
grestore
/p4_0 {
newpath
translate
527.259 128.083 m
608.361 188.102 l
607.654 381.273 l
} bind def
/p4_1 {
newpath
translate
552.773 120.785 m
632.548 181.924 l
632.551 376.682 l
} bind def
/p4_2 {
newpath
translate
578.785 113.344 m
657.169 175.635 l
657.908 372.007 l
} bind def
/p4_3 {
newpath
translate
605.311 105.756 m
682.237 169.232 l
683.739 367.244 l
} bind def
/p4_4 {
newpath
translate
632.366 98.0166 m
707.763 162.711 l
710.058 362.392 l
} bind def
/p4_5 {
newpath
translate
659.966 90.1215 m
733.761 156.071 l
736.876 357.447 l
} bind def
1.000 setlinewidth
0 setlinecap
0.900 setgray
gsave
0 0 p4_0
stroke
grestore
gsave
0 0 p4_1
stroke
grestore
gsave
0 0 p4_2
stroke
grestore
gsave
0 0 p4_3
stroke
grestore
gsave
0 0 p4_4
stroke
grestore
gsave
0 0 p4_5
stroke
grestore
2 setlinecap
0.000 setgray
gsave
527.963 128.605 m
525.847 127.039 l
stroke
grestore
gsave
513.742051 103.993263 translate
0.000000 rotate
0.000000 0.171875 m /zero glyphshow
7.634766 0.171875 m /period glyphshow
11.449219 0.171875 m /zero glyphshow
grestore
gsave
553.466 121.316 m
551.383 119.72 l
stroke
grestore
gsave
539.493007 96.526090 translate
0.000000 rotate
0.000000 0.171875 m /zero glyphshow
7.634766 0.171875 m /period glyphshow
11.449219 0.171875 m /two glyphshow
grestore
gsave
579.467 113.886 m
577.419 112.258 l
stroke
grestore
gsave
565.276221 88.912482 translate
0.000000 rotate
0.000000 0.171875 m /zero glyphshow
7.634766 0.171875 m /period glyphshow
11.449219 0.171875 m /four glyphshow
grestore
gsave
605.981 106.309 m
603.969 104.648 l
stroke
grestore
gsave
591.887826 81.148088 translate
0.000000 rotate
0.000000 0.171875 m /zero glyphshow
7.634766 0.171875 m /period glyphshow
11.449219 0.171875 m /six glyphshow
grestore
gsave
633.023 98.5803 m
631.05 96.8868 l
stroke
grestore
gsave
619.015177 73.228384 translate
0.000000 rotate
0.000000 0.171875 m /zero glyphshow
7.634766 0.171875 m /period glyphshow
11.449219 0.171875 m /eight glyphshow
grestore
gsave
660.61 90.6966 m
658.676 88.9688 l
stroke
grestore
gsave
646.900939 65.148663 translate
0.000000 rotate
0.000000 0.171875 m /one glyphshow
7.634766 0.171875 m /period glyphshow
11.449219 0.171875 m /zero glyphshow
grestore
0.750 setlinewidth
gsave
736.497 155.372 m
662.873 89.2899 l
stroke
grestore
gsave
706.998212 74.140584 translate
41.910197 rotate
0.000000 2.500000 m /d glyphshow
7.617188 2.500000 m /e glyphshow
15.000000 2.500000 m /n glyphshow
22.605469 2.500000 m /s glyphshow
28.857422 2.500000 m /i glyphshow
32.191406 2.500000 m /t glyphshow
36.896484 2.500000 m /y glyphshow
grestore
/p5_0 {
newpath
translate
523.009 338.107 m
526.391 130.135 l
664.477 90.7291 l
} bind def
/p5_1 {
newpath
translate
535.346 344.667 m
538.312 138.925 l
675.317 100.459 l
} bind def
/p5_2 {
newpath
translate
547.389 351.07 m
549.958 147.513 l
685.894 109.952 l
} bind def
/p5_3 {
newpath
translate
559.149 357.322 m
561.337 155.904 l
696.217 119.218 l
} bind def
/p5_4 {
newpath
translate
570.635 363.429 m
572.459 164.105 l
706.295 128.264 l
} bind def
/p5_5 {
newpath
translate
581.857 369.395 m
583.333 172.123 l
716.137 137.098 l
} bind def
/p5_6 {
newpath
translate
592.823 375.226 m
593.967 179.964 l
725.751 145.727 l
} bind def
1.000 setlinewidth
0 setlinecap
0.900 setgray
gsave
0 0 p5_0
stroke
grestore
gsave
0 0 p5_1
stroke
grestore
gsave
0 0 p5_2
stroke
grestore
gsave
0 0 p5_3
stroke
grestore
gsave
0 0 p5_4
stroke
grestore
gsave
0 0 p5_5
stroke
grestore
gsave
0 0 p5_6
stroke
grestore
2 setlinecap
0.000 setgray
gsave
663.314 91.0608 m
666.804 90.065 l
stroke
grestore
gsave
659.994903 67.506674 translate
0.000000 rotate
0.000000 0.171875 m /zero glyphshow
7.634766 0.171875 m /period glyphshow
11.449219 0.171875 m /six glyphshow
19.083984 0.171875 m /zero glyphshow
grestore
gsave
674.164 100.782 m
677.624 99.8111 l
stroke
grestore
gsave
670.872459 77.421307 translate
0.000000 rotate
0.000000 0.171875 m /zero glyphshow
7.634766 0.171875 m /period glyphshow
11.449219 0.171875 m /six glyphshow
19.083984 0.171875 m /five glyphshow
grestore
gsave
684.751 110.268 m
688.182 109.32 l
stroke
grestore
gsave
681.238534 87.094836 translate
0.000000 rotate
0.000000 0.171875 m /zero glyphshow
7.634766 0.171875 m /period glyphshow
11.449219 0.171875 m /seven glyphshow
19.083984 0.171875 m /zero glyphshow
grestore
gsave
695.083 119.526 m
698.485 118.601 l
stroke
grestore
gsave
691.602551 96.535949 translate
0.000000 rotate
0.000000 0.171875 m /zero glyphshow
7.634766 0.171875 m /period glyphshow
11.449219 0.171875 m /seven glyphshow
19.083984 0.171875 m /five glyphshow
grestore
gsave
705.171 128.565 m
708.545 127.661 l
stroke
grestore
gsave
701.473487 105.752923 translate
0.000000 rotate
0.000000 0.171875 m /zero glyphshow
7.634766 0.171875 m /period glyphshow
11.449219 0.171875 m /eight glyphshow
19.083984 0.171875 m /zero glyphshow
grestore
gsave
715.022 137.392 m
718.368 136.509 l
stroke
grestore
gsave
711.359896 114.753647 translate
0.000000 rotate
0.000000 0.171875 m /zero glyphshow
7.634766 0.171875 m /period glyphshow
11.449219 0.171875 m /eight glyphshow
19.083984 0.171875 m /five glyphshow
grestore
gsave
724.645 146.014 m
727.964 145.152 l
stroke
grestore
gsave
720.769936 123.545642 translate
0.000000 rotate
0.000000 0.171875 m /zero glyphshow
7.634766 0.171875 m /period glyphshow
11.449219 0.171875 m /nine glyphshow
19.083984 0.171875 m /zero glyphshow
grestore
0.750 setlinewidth
gsave
736.497 155.372 m
739.699 356.926 l
stroke
grestore
/DejaVuSans findfont
16.000 scalefont
setfont
gsave
760.263597 253.105689 translate
0.000000 rotate
0.000000 0.000000 m /x glyphshow
grestore
/p6_0 {
newpath
translate
736.827 176.139 m
605.786 208.65 l
524.275 150.276 l
} bind def
/p6_1 {
newpath
translate
737.196 199.394 m
605.696 230.94 l
523.877 174.291 l
} bind def
/p6_2 {
newpath
translate
737.568 222.814 m
605.605 253.381 l
523.477 198.483 l
} bind def
/p6_3 {
newpath
translate
737.943 246.401 m
605.514 275.975 l
523.074 222.854 l
} bind def
/p6_4 {
newpath
translate
738.321 270.157 m
605.422 298.723 l
522.668 247.405 l
} bind def
/p6_5 {
newpath
translate
738.701 294.083 m
605.329 321.626 l
522.259 272.14 l
} bind def
/p6_6 {
newpath
translate
739.084 318.182 m
605.236 344.687 l
521.847 297.06 l
} bind def
/p6_7 {
newpath
translate
739.47 342.456 m
605.142 367.907 l
521.432 322.167 l
} bind def
1.000 setlinewidth
0 setlinecap
0.900 setgray
gsave
0 0 p6_0
stroke
grestore
gsave
0 0 p6_1
stroke
grestore
gsave
0 0 p6_2
stroke
grestore
gsave
0 0 p6_3
stroke
grestore
gsave
0 0 p6_4
stroke
grestore
gsave
0 0 p6_5
stroke
grestore
gsave
0 0 p6_6
stroke
grestore
gsave
0 0 p6_7
stroke
grestore
2 setlinecap
0.000 setgray
gsave
735.728 176.412 m
739.026 175.593 l
stroke
grestore
/DejaVuSans findfont
12.000 scalefont
setfont
gsave
736.848619 168.627178 translate
0.000000 rotate
0.000000 0.000000 m /minus glyphshow
10.054688 0.000000 m /one glyphshow
17.689453 0.000000 m /two glyphshow
grestore
gsave
736.094 199.658 m
739.404 198.864 l
stroke
grestore
gsave
737.211053 191.997023 translate
0.000000 rotate
0.000000 0.000000 m /minus glyphshow
10.054688 0.000000 m /one glyphshow
17.689453 0.000000 m /one glyphshow
grestore
gsave
736.462 223.07 m
739.784 222.301 l
stroke
grestore
gsave
737.467014 215.047143 translate
0.000000 rotate
0.000000 0.171875 m /minus glyphshow
10.054688 0.171875 m /one glyphshow
17.689453 0.171875 m /zero glyphshow
grestore
gsave
736.832 246.649 m
740.167 245.904 l
stroke
grestore
gsave
741.725910 238.591796 translate
0.000000 rotate
0.000000 0.171875 m /minus glyphshow
10.054688 0.171875 m /nine glyphshow
grestore
gsave
737.206 270.396 m
740.553 269.677 l
stroke
grestore
gsave
742.136209 262.304641 translate
0.000000 rotate
0.000000 0.171875 m /minus glyphshow
10.054688 0.171875 m /eight glyphshow
grestore
gsave
737.582 294.314 m
740.941 293.621 l
stroke
grestore
gsave
742.658881 286.515611 translate
0.000000 rotate
0.000000 0.000000 m /minus glyphshow
10.054688 0.000000 m /seven glyphshow
grestore
gsave
737.961 318.405 m
741.333 317.737 l
stroke
grestore
gsave
742.950207 310.242166 translate
0.000000 rotate
0.000000 0.171875 m /minus glyphshow
10.054688 0.171875 m /six glyphshow
grestore
gsave
738.342 342.669 m
741.727 342.028 l
stroke
grestore
gsave
743.518034 334.626792 translate
0.000000 rotate
0.000000 0.171875 m /minus glyphshow
10.054688 0.171875 m /five glyphshow
grestore
/p7_0 {
newpath
translate
527.335 235.477 m
531.689 239.231 l
536.159 236.445 l
540.58 238.172 l
545.076 235.587 l
549.481 241.298 l
553.899 248.057 l
558.35 254.112 l
563.016 242.099 l
567.707 227.457 l
572.373 215.365 l
576.926 216.741 l
581.566 209.167 l
586.148 211.03 l
590.771 209.385 l
595.401 209.351 l
600.058 207.21 l
604.715 208.695 l
609.377 214.284 l
614.084 213.249 l
618.82 205.782 l
623.546 211.59 l
628.297 220.041 l
633.076 202.441 l
637.875 218.689 l
642.679 211.042 l
647.509 210.908 l
652.35 208.582 l
657.246 216.848 l
662.053 198.498 l
} bind def
/p7_1 {
newpath
translate
550.382 257.29 m
554.705 260.239 l
559.105 257.956 l
563.503 257.155 l
567.921 255.738 l
572.264 264.279 l
576.649 270.957 l
581.149 266.059 l
585.597 269.885 l
590.18 255.869 l
594.752 243.347 l
599.285 238.393 l
603.819 235.618 l
608.345 238.554 l
612.908 235.885 l
617.482 234.519 l
622.075 230.438 l
626.666 241.186 l
631.292 232.493 l
635.931 237.918 l
640.595 243.481 l
645.264 238.517 l
649.979 247.157 l
654.635 229.337 l
659.376 234.11 l
664.127 235.852 l
668.851 229.093 l
673.622 228.524 l
678.502 241.227 l
683.273 234.846 l
} bind def
/p7_2 {
newpath
translate
572.487 274.237 m
576.767 276.903 l
581.096 275.503 l
585.408 278.423 l
589.772 276.202 l
594.089 284.301 l
598.483 282.358 l
602.868 285.489 l
607.257 292.826 l
611.699 291.151 l
616.206 268.393 l
620.662 266.622 l
625.134 262.072 l
629.615 259.148 l
634.108 255.877 l
638.617 256.746 l
643.141 255.918 l
647.683 256.499 l
652.244 257.79 l
656.827 259.941 l
661.422 260.437 l
666.042 262.301 l
670.595 249.278 l
675.4 275.558 l
679.963 260.299 l
684.624 258.177 l
689.19 243.305 l
693.939 248.544 l
698.805 263.157 l
703.425 251.042 l
} bind def
/p7_3 {
newpath
translate
593.636 292.974 m
597.875 294.593 l
602.151 291.725 l
606.416 294.788 l
610.712 293.599 l
615.006 298.743 l
619.342 293.207 l
623.669 299.967 l
628.021 306.031 l
632.396 310.862 l
636.78 296.342 l
641.163 283.907 l
645.576 287.426 l
649.997 286.323 l
654.426 283.535 l
658.875 282.487 l
663.332 280.235 l
667.777 273.462 l
672.248 269.69 l
676.835 281.914 l
681.312 274.622 l
685.872 276.881 l
690.572 293.059 l
695.043 280.818 l
699.612 278.291 l
704.143 271.017 l
708.852 278.702 l
713.301 262.815 l
718.018 268.135 l
722.737 271.907 l
} bind def
/p7_4 {
newpath
translate
606.397 307.401 m
610.626 303.525 l
614.854 303.883 l
619.096 304.022 l
623.351 305.855 l
627.622 307.732 l
631.91 308.885 l
636.213 305.726 l
640.542 316.05 l
644.871 311.427 l
649.225 313.091 l
653.543 297.931 l
657.924 300.56 l
662.278 292.936 l
666.667 291.33 l
671.098 294.45 l
675.525 294.092 l
679.936 289.481 l
684.366 286.026 l
688.861 288.95 l
693.388 293.229 l
697.849 288.679 l
702.506 301.83 l
706.986 296.096 l
711.538 295.783 l
716.168 300.505 l
720.5 280.896 l
725.11 282.024 l
729.617 274.929 l
734.429 287.387 l
} bind def
/p7_5 {
newpath
translate
527.335 235.477 m
530.252 239.506 l
533.171 242.434 l
536.085 244.529 l
538.982 246.728 l
541.842 250.353 l
544.723 251.288 l
547.547 255.308 l
550.382 257.29 l
553.216 257.989 l
556.001 261.519 l
558.791 263.239 l
561.567 264.869 l
564.321 267.073 l
567.05 270.222 l
569.753 274.707 l
572.487 274.237 l
575.179 276.736 l
577.849 280.17 l
580.5 284.364 l
583.179 282.958 l
585.81 286.004 l
588.433 288.245 l
591.045 289.978 l
593.636 292.974 l
596.215 295.625 l
598.778 298.91 l
601.335 300.826 l
603.881 302.185 l
606.397 307.401 l
} bind def
/p7_6 {
newpath
translate
563.016 242.099 m
565.81 253.779 l
568.769 247.399 l
571.508 262.345 l
574.368 262.87 l
577.241 259.718 l
580.003 267.983 l
582.756 275.888 l
585.597 269.885 l
588.368 270.99 l
591.088 277.591 l
593.812 281.468 l
596.532 283.496 l
599.215 289.895 l
601.928 287.184 l
604.598 290.417 l
607.257 292.826 l
609.917 290.544 l
612.549 291.552 l
615.163 293.849 l
617.747 302.979 l
620.342 301.821 l
622.921 299.283 l
625.47 310.248 l
628.021 306.031 l
630.551 310.054 l
633.07 315.048 l
635.573 311.455 l
638.069 319.694 l
640.542 316.05 l
} bind def
/p7_7 {
newpath
translate
600.058 207.21 m
602.849 213.76 l
605.631 219.099 l
608.437 214.28 l
611.166 226.403 l
613.924 225.474 l
616.667 222.667 l
619.374 228.524 l
622.075 230.438 l
624.747 243.141 l
627.418 248.453 l
630.08 240.697 l
632.721 239.909 l
635.349 251.397 l
637.961 252.133 l
640.561 256.198 l
643.141 255.918 l
645.718 262.15 l
648.277 265.85 l
650.819 267.579 l
653.332 264.972 l
655.835 264.449 l
658.359 273.299 l
660.856 277.807 l
663.332 280.235 l
665.803 284.494 l
668.241 284.698 l
670.678 287.257 l
673.103 290.045 l
675.525 294.092 l
} bind def
/p7_8 {
newpath
translate
637.875 218.689 m
640.607 210.49 l
643.324 208.375 l
646.06 225.182 l
648.765 230.88 l
651.414 221.44 l
654.121 237.629 l
656.749 233.574 l
659.376 234.11 l
661.986 234.602 l
664.615 242.473 l
667.186 241.194 l
669.821 254.457 l
672.335 248.648 l
674.956 262.757 l
677.541 272.365 l
679.963 260.299 l
682.51 268.267 l
684.976 267.119 l
687.624 290.121 l
689.907 270.49 l
692.441 282.163 l
694.834 279.449 l
697.195 275.174 l
699.612 278.291 l
702.119 291.143 l
704.467 289.784 l
706.715 280.815 l
709.2 294.376 l
711.538 295.783 l
} bind def
/p7_9 {
newpath
translate
662.053 198.498 m
664.772 206.665 l
667.438 206.938 l
670.107 210.846 l
672.791 219.525 l
675.459 227.462 l
678.065 227.981 l
680.656 228.656 l
683.273 234.846 l
685.653 213.224 l
688.494 250.104 l
690.948 241.838 l
693.291 223.901 l
695.849 231.506 l
698.572 256.798 l
701.018 254.979 l
703.425 251.042 l
705.831 248.698 l
708.273 251.038 l
710.623 246.71 l
713.163 259.524 l
715.579 262.917 l
717.876 257.972 l
720.435 274.324 l
722.737 271.907 l
725.098 274.859 l
727.305 267.886 l
729.679 273.717 l
732.042 279.392 l
734.429 287.387 l
} bind def
0 setlinecap
gsave
279.6 380.9 488.9 47.61 clipbox
0 0 p7_0
stroke
grestore
gsave
279.6 380.9 488.9 47.61 clipbox
0 0 p7_1
stroke
grestore
gsave
279.6 380.9 488.9 47.61 clipbox
0 0 p7_2
stroke
grestore
gsave
279.6 380.9 488.9 47.61 clipbox
0 0 p7_3
stroke
grestore
gsave
279.6 380.9 488.9 47.61 clipbox
0 0 p7_4
stroke
grestore
gsave
279.6 380.9 488.9 47.61 clipbox
0 0 p7_5
stroke
grestore
gsave
279.6 380.9 488.9 47.61 clipbox
0 0 p7_6
stroke
grestore
gsave
279.6 380.9 488.9 47.61 clipbox
0 0 p7_7
stroke
grestore
gsave
279.6 380.9 488.9 47.61 clipbox
0 0 p7_8
stroke
grestore
gsave
279.6 380.9 488.9 47.61 clipbox
0 0 p7_9
stroke
grestore
/DejaVuSans findfont
19.200 scalefont
setfont
gsave
596.855625 402.753975 translate
0.000000 rotate
0.000000 0.265625 m /f glyphshow
6.776978 0.265625 m /equal glyphshow
22.906372 0.265625 m /zero glyphshow
35.153809 0.265625 m /period glyphshow
41.272827 0.265625 m /two glyphshow
53.520264 0.265625 m /five glyphshow
grestore
gsave
824.415 47.61 m
1104.03 47.61 l
1104.03 428.49 l
824.415 428.49 l
cl
1.000 setgray
fill
grestore
2 setlinecap
0.950 setgray
gsave
859.432 130.965 m
945.459 190.371 l
944.782 382.908 l
855.89 338.234 l
gsave
fill
grestore
stroke
grestore
0.900 setgray
gsave
945.459 190.371 m
1073.32 153.914 l
1076.66 355.518 l
944.782 382.908 l
gsave
fill
grestore
stroke
grestore
0.925 setgray
gsave
859.432 130.965 m
993.802 87.9523 l
1073.32 153.914 l
945.459 190.371 l
gsave
fill
grestore
stroke
grestore
0.750 setlinewidth
0.000 setgray
gsave
859.432 130.965 m
993.802 87.9523 l
stroke
grestore
/DejaVuSans findfont
12.000 scalefont
setfont
gsave
885.412971 78.862172 translate
342.249674 rotate
0.000000 0.171875 m /t glyphshow
4.705078 0.171875 m /o glyphshow
12.046875 0.171875 m /l glyphshow
15.380859 0.171875 m /e glyphshow
22.763672 0.171875 m /r glyphshow
27.697266 0.171875 m /a glyphshow
35.050781 0.171875 m /n glyphshow
42.656250 0.171875 m /c glyphshow
49.253906 0.171875 m /e glyphshow
grestore
/p8_0 {
newpath
translate
861.98 130.15 m
947.893 189.677 l
947.289 382.387 l
} bind def
/p8_1 {
newpath
translate
886.715 122.232 m
971.51 182.943 l
971.617 377.334 l
} bind def
/p8_2 {
newpath
translate
911.964 114.149 m
995.58 176.081 l
996.425 372.182 l
} bind def
/p8_3 {
newpath
translate
937.744 105.897 m
1020.11 169.085 l
1021.73 366.926 l
} bind def
/p8_4 {
newpath
translate
964.073 97.4687 m
1045.13 161.953 l
1047.54 361.565 l
} bind def
/p8_5 {
newpath
translate
990.967 88.8597 m
1070.64 154.68 l
1073.88 356.094 l
} bind def
1.000 setlinewidth
0 setlinecap
0.900 setgray
gsave
0 0 p8_0
stroke
grestore
gsave
0 0 p8_1
stroke
grestore
gsave
0 0 p8_2
stroke
grestore
gsave
0 0 p8_3
stroke
grestore
gsave
0 0 p8_4
stroke
grestore
gsave
0 0 p8_5
stroke
grestore
2 setlinecap
0.000 setgray
gsave
862.724 130.665 m
860.488 129.116 l
stroke
grestore
gsave
848.188034 106.163605 translate
0.000000 rotate
0.000000 0.171875 m /zero glyphshow
7.634766 0.171875 m /period glyphshow
11.449219 0.171875 m /zero glyphshow
grestore
gsave
887.45 122.758 m
885.241 121.177 l
stroke
grestore
gsave
873.147024 98.068360 translate
0.000000 rotate
0.000000 0.171875 m /zero glyphshow
7.634766 0.171875 m /period glyphshow
11.449219 0.171875 m /two glyphshow
grestore
gsave
912.69 114.687 m
910.509 113.072 l
stroke
grestore
gsave
898.154076 89.804115 translate
0.000000 rotate
0.000000 0.171875 m /zero glyphshow
7.634766 0.171875 m /period glyphshow
11.449219 0.171875 m /four glyphshow
grestore
gsave
938.46 106.446 m
936.31 104.797 l
stroke
grestore
gsave
924.006796 81.365523 translate
0.000000 rotate
0.000000 0.171875 m /zero glyphshow
7.634766 0.171875 m /period glyphshow
11.449219 0.171875 m /six glyphshow
grestore
gsave
964.777 98.0293 m
962.66 96.3451 l
stroke
grestore
gsave
950.394109 72.747007 translate
0.000000 rotate
0.000000 0.171875 m /zero glyphshow
7.634766 0.171875 m /period glyphshow
11.449219 0.171875 m /eight glyphshow
grestore
gsave
991.66 89.4324 m
989.577 87.7118 l
stroke
grestore
gsave
977.560367 63.942752 translate
0.000000 rotate
0.000000 0.171875 m /one glyphshow
7.634766 0.171875 m /period glyphshow
11.449219 0.171875 m /zero glyphshow
grestore
0.750 setlinewidth
gsave
1073.32 153.914 m
993.802 87.9523 l
stroke
grestore
gsave
1039.862044 72.767153 translate
39.674442 rotate
0.000000 2.500000 m /d glyphshow
7.617188 2.500000 m /e glyphshow
15.000000 2.500000 m /n glyphshow
22.605469 2.500000 m /s glyphshow
28.857422 2.500000 m /i glyphshow
32.191406 2.500000 m /t glyphshow
36.896484 2.500000 m /y glyphshow
grestore
/p9_0 {
newpath
translate
857.818 339.203 m
861.294 132.251 l
995.53 89.3858 l
} bind def
/p9_1 {
newpath
translate
870.864 345.759 m
873.894 140.951 l
1007.22 99.0806 l
} bind def
/p9_2 {
newpath
translate
883.608 352.164 m
886.211 149.457 l
1018.63 108.546 l
} bind def
/p9_3 {
newpath
translate
896.06 358.422 m
898.254 157.774 l
1029.77 117.79 l
} bind def
/p9_4 {
newpath
translate
908.231 364.538 m
910.033 165.908 l
1040.66 126.82 l
} bind def
/p9_5 {
newpath
translate
920.129 370.518 m
921.557 173.865 l
1051.3 135.644 l
} bind def
/p9_6 {
newpath
translate
931.763 376.365 m
932.833 181.652 l
1061.7 144.268 l
} bind def
1.000 setlinewidth
0 setlinecap
0.900 setgray
gsave
0 0 p9_0
stroke
grestore
gsave
0 0 p9_1
stroke
grestore
gsave
0 0 p9_2
stroke
grestore
gsave
0 0 p9_3
stroke
grestore
gsave
0 0 p9_4
stroke
grestore
gsave
0 0 p9_5
stroke
grestore
gsave
0 0 p9_6
stroke
grestore
2 setlinecap
0.000 setgray
gsave
994.396 89.7477 m
997.8 88.6609 l
stroke
grestore
gsave
990.855620 65.983522 translate
0.000000 rotate
0.000000 0.171875 m /zero glyphshow
7.634766 0.171875 m /period glyphshow
11.449219 0.171875 m /six glyphshow
19.083984 0.171875 m /zero glyphshow
grestore
gsave
1006.09 99.4339 m
1009.47 98.373 l
stroke
grestore
gsave
1002.588655 75.862260 translate
0.000000 rotate
0.000000 0.171875 m /zero glyphshow
7.634766 0.171875 m /period glyphshow
11.449219 0.171875 m /six glyphshow
19.083984 0.171875 m /five glyphshow
grestore
gsave
1017.51 108.891 m
1020.87 107.855 l
stroke
grestore
gsave
1013.796595 85.506885 translate
0.000000 rotate
0.000000 0.171875 m /zero glyphshow
7.634766 0.171875 m /period glyphshow
11.449219 0.171875 m /seven glyphshow
19.083984 0.171875 m /zero glyphshow
grestore
gsave
1028.67 118.127 m
1031.99 117.115 l
stroke
grestore
gsave
1024.989105 94.925622 translate
0.000000 rotate
0.000000 0.171875 m /zero glyphshow
7.634766 0.171875 m /period glyphshow
11.449219 0.171875 m /seven glyphshow
19.083984 0.171875 m /five glyphshow
grestore
gsave
1039.56 127.149 m
1042.86 126.161 l
stroke
grestore
gsave
1035.675401 104.126314 translate
0.000000 rotate
0.000000 0.171875 m /zero glyphshow
7.634766 0.171875 m /period glyphshow
11.449219 0.171875 m /eight glyphshow
19.083984 0.171875 m /zero glyphshow
grestore
gsave
1050.21 135.966 m
1053.49 135 l
stroke
grestore
gsave
1046.364279 113.116447 translate
0.000000 rotate
0.000000 0.171875 m /zero glyphshow
7.634766 0.171875 m /period glyphshow
11.449219 0.171875 m /eight glyphshow
19.083984 0.171875 m /five glyphshow
grestore
gsave
1060.61 144.583 m
1063.87 143.638 l
stroke
grestore
gsave
1056.564135 121.903167 translate
0.000000 rotate
0.000000 0.171875 m /zero glyphshow
7.634766 0.171875 m /period glyphshow
11.449219 0.171875 m /nine glyphshow
19.083984 0.171875 m /zero glyphshow
grestore
0.750 setlinewidth
gsave
1073.32 153.914 m
1076.66 355.518 l
stroke
grestore
/DejaVuSans findfont
16.000 scalefont
setfont
gsave
1097.584692 251.270739 translate
0.000000 rotate
0.000000 0.000000 m /x glyphshow
grestore
/pa_0 {
newpath
translate
1073.67 174.671 m
945.389 210.222 l
859.068 152.287 l
} bind def
/pa_1 {
newpath
translate
1074.05 197.919 m
945.311 232.447 l
858.66 176.172 l
} bind def
/pa_2 {
newpath
translate
1074.44 221.336 m
945.232 254.827 l
858.249 200.236 l
} bind def
/pa_3 {
newpath
translate
1074.83 244.925 m
945.153 277.362 l
857.834 224.483 l
} bind def
/pa_4 {
newpath
translate
1075.22 268.687 m
945.073 300.055 l
857.417 248.913 l
} bind def
/pa_5 {
newpath
translate
1075.62 292.624 m
944.993 322.907 l
856.996 273.53 l
} bind def
/pa_6 {
newpath
translate
1076.01 316.739 m
944.912 345.919 l
856.572 298.334 l
} bind def
/pa_7 {
newpath
translate
1076.42 341.033 m
944.83 369.094 l
856.145 323.328 l
} bind def
1.000 setlinewidth
0 setlinecap
0.900 setgray
gsave
0 0 pa_0
stroke
grestore
gsave
0 0 pa_1
stroke
grestore
gsave
0 0 pa_2
stroke
grestore
gsave
0 0 pa_3
stroke
grestore
gsave
0 0 pa_4
stroke
grestore
gsave
0 0 pa_5
stroke
grestore
gsave
0 0 pa_6
stroke
grestore
gsave
0 0 pa_7
stroke
grestore
2 setlinecap
0.000 setgray
gsave
1072.59 174.97 m
1075.83 174.072 l
stroke
grestore
/DejaVuSans findfont
12.000 scalefont
setfont
gsave
1073.867916 166.978437 translate
0.000000 rotate
0.000000 0.000000 m /minus glyphshow
10.054688 0.000000 m /one glyphshow
17.689453 0.000000 m /two glyphshow
grestore
gsave
1072.97 198.209 m
1076.22 197.337 l
stroke
grestore
gsave
1074.246691 190.347734 translate
0.000000 rotate
0.000000 0.000000 m /minus glyphshow
10.054688 0.000000 m /one glyphshow
17.689453 0.000000 m /one glyphshow
grestore
gsave
1073.35 221.618 m
1076.62 220.772 l
stroke
grestore
gsave
1074.519191 213.401730 translate
0.000000 rotate
0.000000 0.171875 m /minus glyphshow
10.054688 0.171875 m /one glyphshow
17.689453 0.171875 m /zero glyphshow
grestore
gsave
1073.74 245.198 m
1077.01 244.378 l
stroke
grestore
gsave
1078.794825 236.954781 translate
0.000000 rotate
0.000000 0.171875 m /minus glyphshow
10.054688 0.171875 m /nine glyphshow
grestore
gsave
1074.13 268.951 m
1077.41 268.158 l
stroke
grestore
gsave
1079.222066 260.680641 translate
0.000000 rotate
0.000000 0.171875 m /minus glyphshow
10.054688 0.171875 m /eight glyphshow
grestore
gsave
1074.52 292.879 m
1077.82 292.114 l
stroke
grestore
gsave
1079.761885 284.909345 translate
0.000000 rotate
0.000000 0.000000 m /minus glyphshow
10.054688 0.000000 m /seven glyphshow
grestore
gsave
1074.91 316.985 m
1078.22 316.247 l
stroke
grestore
gsave
1080.070569 308.658454 translate
0.000000 rotate
0.000000 0.171875 m /minus glyphshow
10.054688 0.171875 m /six glyphshow
grestore
gsave
1075.31 341.269 m
1078.63 340.56 l
stroke
grestore
gsave
1080.655965 333.070560 translate
0.000000 rotate
0.000000 0.171875 m /minus glyphshow
10.054688 0.171875 m /five glyphshow
grestore
/pb_0 {
newpath
translate
862.123 236.138 m
866.36 238.388 l
870.678 236.616 l
874.997 235.773 l
879.32 235.762 l
883.659 235.938 l
888.004 236.938 l
892.396 235.651 l
896.751 239.022 l
901.153 240.047 l
905.681 229.999 l
910.143 227.771 l
914.643 222.689 l
919.097 225.182 l
923.634 218.675 l
928.151 217.028 l
932.661 219.312 l
937.227 214.658 l
941.772 217.861 l
946.345 219.825 l
950.959 214.59 l
955.568 217.276 l
960.204 217.568 l
964.855 224.317 l
969.53 205.834 l
974.222 212.738 l
978.925 208.948 l
983.662 213.674 l
988.411 213.514 l
993.177 212.587 l
} bind def
/pb_1 {
newpath
translate
886.498 258.4 m
890.738 257.61 l
894.959 259.895 l
899.247 257.622 l
903.539 256.381 l
907.795 260.672 l
912.128 258.557 l
916.465 257.685 l
920.795 259.888 l
925.182 256.57 l
929.553 258.022 l
933.981 252.275 l
938.433 243.448 l
942.844 246.366 l
947.302 241.494 l
951.761 240.142 l
956.238 238.164 l
960.726 238.955 l
965.234 237.751 l
969.759 238.535 l
974.302 237.66 l
978.867 240.32 l
983.43 232.59 l
988.029 234.345 l
992.637 232.646 l
997.279 235.008 l
1001.94 236.546 l
1006.56 228.887 l
1011.28 233.289 l
1015.92 224.362 l
} bind def
/pb_2 {
newpath
translate
909.909 275.915 m
914.071 278.813 l
918.29 276.748 l
922.524 274.467 l
926.745 276.256 l
930.981 278.651 l
935.248 278.632 l
939.524 280.433 l
943.826 280.176 l
948.147 278.796 l
952.484 277.22 l
956.839 273.356 l
961.205 269.316 l
965.583 266.739 l
969.973 263.025 l
974.376 260.224 l
978.8 261.586 l
983.234 259.512 l
987.696 262.108 l
992.163 260.019 l
996.641 257.409 l
1001.15 258.629 l
1005.67 256.693 l
1010.22 258.969 l
1014.73 251.608 l
1019.34 257.159 l
1023.84 245.855 l
1028.51 253.16 l
1033.09 248.043 l
1037.79 252.98 l
} bind def
/pb_3 {
newpath
translate
932.343 294.733 m
936.486 294.707 l
940.653 292.34 l
944.82 293.331 l
949.011 292.141 l
953.214 291.826 l
957.424 296.117 l
961.661 294.018 l
965.911 294.267 l
970.178 297.14 l
974.459 294.311 l
978.751 290.714 l
983.056 288.062 l
987.385 289.016 l
991.718 286.132 l
996.079 287.183 l
1000.44 284.98 l
1004.82 281.952 l
1009.23 283.992 l
1013.65 283.967 l
1018.07 280.839 l
1022.46 272.79 l
1026.95 276.562 l
1031.49 281.28 l
1035.92 274.453 l
1040.45 275.748 l
1044.98 275.256 l
1049.47 270.281 l
1054.05 271.093 l
1058.6 268.875 l
} bind def
/pb_4 {
newpath
translate
945.908 305.985 m
950.023 305.948 l
954.155 304.759 l
958.3 304.011 l
962.458 304.061 l
966.631 307.331 l
970.82 303.601 l
975.024 303.855 l
979.245 304.871 l
983.477 303.2 l
987.734 305.754 l
991.978 299.417 l
996.262 300.516 l
1000.54 297.147 l
1004.86 299.376 l
1009.21 302.39 l
1013.5 294.513 l
1017.86 294.944 l
1022.21 292.409 l
1026.59 292.137 l
1031 292.607 l
1035.4 290.444 l
1039.8 287.933 l
1044.28 290.642 l
1048.7 286.372 l
1053.29 294.808 l
1057.59 279.857 l
1062.13 281.694 l
1066.55 274.492 l
1071.25 284.642 l
} bind def
/pb_5 {
newpath
translate
862.123 236.138 m
865.166 242.749 l
868.298 242.801 l
871.37 245.584 l
874.439 247.349 l
877.49 249.288 l
880.486 253.944 l
883.495 256.555 l
886.498 258.4 l
889.483 260.265 l
892.425 264.522 l
895.409 263.705 l
898.325 267.49 l
901.241 269.96 l
904.138 272.736 l
907.026 274.87 l
909.909 275.915 l
912.755 279.375 l
915.605 280.613 l
918.42 284.37 l
921.233 286.572 l
924.038 287.841 l
926.833 288.158 l
929.599 290.783 l
932.343 294.733 l
935.083 297.117 l
937.819 297.387 l
940.518 302.705 l
943.226 302.815 l
945.908 305.985 l
} bind def
/pb_6 {
newpath
translate
896.751 239.022 m
899.85 238.272 l
902.871 243.322 l
905.87 249.064 l
908.911 248.807 l
911.888 253.624 l
914.903 252.087 l
917.861 255.453 l
920.795 259.888 l
923.753 258.769 l
926.644 265.255 l
929.54 268.727 l
932.419 272.609 l
935.321 269.256 l
938.142 278.888 l
941.006 276.206 l
943.826 280.176 l
946.648 279.352 l
949.449 279.743 l
952.222 284.743 l
954.981 290.782 l
957.742 288.281 l
960.481 289.091 l
963.201 294.625 l
965.911 294.267 l
968.606 299.9 l
971.288 301.228 l
973.954 302.06 l
976.613 308.237 l
979.245 304.871 l
} bind def
/pb_7 {
newpath
translate
932.661 219.312 m
935.69 216.991 l
938.655 224.145 l
941.627 226.422 l
944.587 227.414 l
947.51 234.511 l
950.443 233.133 l
953.342 238.292 l
956.238 238.164 l
959.111 240.434 l
961.965 246.744 l
964.811 246.398 l
967.638 253.206 l
970.452 256.921 l
973.251 259.889 l
976.03 257.802 l
978.8 261.586 l
981.56 267.674 l
984.298 269.056 l
987.023 271.523 l
989.737 274.832 l
992.428 275.528 l
995.112 278.549 l
997.794 283.85 l
1000.44 284.98 l
1003.07 285.031 l
1005.7 288.507 l
1008.33 292.732 l
1010.93 295.829 l
1013.5 294.513 l
} bind def
/pb_8 {
newpath
translate
969.53 205.834 m
972.476 213.475 l
975.408 219 l
978.324 223.214 l
981.211 220.757 l
984.087 222.005 l
986.939 221.169 l
989.822 235.024 l
992.637 232.646 l
995.458 236.56 l
998.266 240.398 l
1001.05 242.023 l
1003.85 250.985 l
1006.57 246.986 l
1009.34 253.594 l
1012.05 253.706 l
1014.73 251.608 l
1017.5 263.647 l
1020.13 259.912 l
1022.78 260.842 l
1025.45 264.84 l
1028.13 271.918 l
1030.74 272.139 l
1033.37 276.866 l
1035.92 274.453 l
1038.54 280.648 l
1041.01 273.515 l
1043.64 282.36 l
1046.16 283.55 l
1048.7 286.372 l
} bind def
/pb_9 {
newpath
translate
993.177 212.587 m
996.05 207.153 l
998.93 208.124 l
1001.84 218.599 l
1004.68 217.912 l
1007.56 226.915 l
1010.38 227.613 l
1013.18 229.109 l
1015.92 224.362 l
1018.7 227.735 l
1021.5 235.357 l
1024.29 241.96 l
1026.89 230.441 l
1029.66 238.562 l
1032.4 245.024 l
1035.06 245.305 l
1037.79 252.98 l
1040.47 257.745 l
1042.99 249.146 l
1045.65 254.389 l
1048.28 258.274 l
1050.87 260.33 l
1053.43 260.587 l
1055.98 261.708 l
1058.6 268.875 l
1061.24 277.677 l
1063.71 275.887 l
1066.24 279.098 l
1068.63 273.793 l
1071.25 284.642 l
} bind def
0 setlinecap
gsave
279.6 380.9 824.4 47.61 clipbox
0 0 pb_0
stroke
grestore
gsave
279.6 380.9 824.4 47.61 clipbox
0 0 pb_1
stroke
grestore
gsave
279.6 380.9 824.4 47.61 clipbox
0 0 pb_2
stroke
grestore
gsave
279.6 380.9 824.4 47.61 clipbox
0 0 pb_3
stroke
grestore
gsave
279.6 380.9 824.4 47.61 clipbox
0 0 pb_4
stroke
grestore
gsave
279.6 380.9 824.4 47.61 clipbox
0 0 pb_5
stroke
grestore
gsave
279.6 380.9 824.4 47.61 clipbox
0 0 pb_6
stroke
grestore
gsave
279.6 380.9 824.4 47.61 clipbox
0 0 pb_7
stroke
grestore
gsave
279.6 380.9 824.4 47.61 clipbox
0 0 pb_8
stroke
grestore
gsave
279.6 380.9 824.4 47.61 clipbox
0 0 pb_9
stroke
grestore
/DejaVuSans findfont
19.200 scalefont
setfont
gsave
932.191029 402.753975 translate
0.000000 rotate
0.000000 0.265625 m /f glyphshow
6.776978 0.265625 m /equal glyphshow
22.906372 0.265625 m /zero glyphshow
35.153809 0.265625 m /period glyphshow
41.272827 0.265625 m /five glyphshow
53.520264 0.265625 m /zero glyphshow
grestore

end
showpage
