%!PS-Adobe-3.0 EPSF-3.0
%%Title: /home/aurelien/synchro/boulot/code/papers_code/schelling-2012/fig/phase_diagram_rhotol_suscep_fixeddensity.eps
%%Creator: matplotlib version 1.1.1rc2, http://matplotlib.sourceforge.net/
%%CreationDate: Wed Jun  5 14:32:22 2013
%%Orientation: portrait
%%BoundingBox: -282 185 894 606
%%EndComments
%%BeginProlog
/mpldict 8 dict def
mpldict begin
/m { moveto } bind def
/l { lineto } bind def
/r { rlineto } bind def
/c { curveto } bind def
/cl { closepath } bind def
/box {
m
1 index 0 r
0 exch r
neg 0 r
cl
} bind def
/clipbox {
box
clip
newpath
} bind def
%!PS-Adobe-3.0 Resource-Font
%%Title: DejaVu Sans
%%Copyright: Copyright (c) 2003 by Bitstream, Inc. All Rights Reserved. Copyright (c) 2006 by Tavmjong Bah. All Rights Reserved. DejaVu changes are in public domain 
%%Creator: Converted from TrueType to type 3 by PPR
25 dict begin
/_d{bind def}bind def
/_m{moveto}_d
/_l{lineto}_d
/_cl{closepath eofill}_d
/_c{curveto}_d
/_sc{7 -1 roll{setcachedevice}{pop pop pop pop pop pop}ifelse}_d
/_e{exec}_d
/FontName /DejaVuSans def
/PaintType 0 def
/FontMatrix[.001 0 0 .001 0 0]def
/FontBBox[-1021 -415 1681 1167]def
/FontType 3 def
/Encoding [ /period /zero /one /two /four /five /six /seven /eight /nine /equal /a /b /c /e /f /i /l /n /o /p /r /s /t /u /y /minus ] def
/FontInfo 10 dict dup begin
/FamilyName (DejaVu Sans) def
/FullName (DejaVu Sans) def
/Notice (Copyright (c) 2003 by Bitstream, Inc. All Rights Reserved. Copyright (c) 2006 by Tavmjong Bah. All Rights Reserved. DejaVu changes are in public domain ) def
/Weight (Book) def
/Version (Version 2.33) def
/ItalicAngle 0.0 def
/isFixedPitch false def
/UnderlinePosition -130 def
/UnderlineThickness 90 def
end readonly def
/CharStrings 27 dict dup begin
/period{318 0 107 0 210 124 _sc
107 124 _m
210 124 _l
210 0 _l
107 0 _l
107 124 _l
_cl}_d
/zero{636 0 66 -13 570 742 _sc
318 664 _m
267 664 229 639 203 589 _c
177 539 165 464 165 364 _c
165 264 177 189 203 139 _c
229 89 267 64 318 64 _c
369 64 407 89 433 139 _c
458 189 471 264 471 364 _c
471 464 458 539 433 589 _c
407 639 369 664 318 664 _c
318 742 _m
399 742 461 709 505 645 _c
548 580 570 486 570 364 _c
570 241 548 147 505 83 _c
461 19 399 -13 318 -13 _c
236 -13 173 19 130 83 _c
87 147 66 241 66 364 _c
66 486 87 580 130 645 _c
173 709 236 742 318 742 _c
_cl}_d
/one{636 0 110 0 544 729 _sc
124 83 _m
285 83 _l
285 639 _l
110 604 _l
110 694 _l
284 729 _l
383 729 _l
383 83 _l
544 83 _l
544 0 _l
124 0 _l
124 83 _l
_cl}_d
/two{{636 0 73 0 536 742 _sc
192 83 _m
536 83 _l
536 0 _l
73 0 _l
73 83 _l
110 121 161 173 226 239 _c
290 304 331 346 348 365 _c
380 400 402 430 414 455 _c
426 479 433 504 433 528 _c
433 566 419 598 392 622 _c
365 646 330 659 286 659 _c
255 659 222 653 188 643 _c
154 632 117 616 78 594 _c
78 694 _l
118 710 155 722 189 730 _c
223 738 255 742 284 742 _c
}_e{359 742 419 723 464 685 _c
509 647 532 597 532 534 _c
532 504 526 475 515 449 _c
504 422 484 390 454 354 _c
446 344 420 317 376 272 _c
332 227 271 164 192 83 _c
_cl}_e}_d
/four{636 0 49 0 580 729 _sc
378 643 _m
129 254 _l
378 254 _l
378 643 _l
352 729 _m
476 729 _l
476 254 _l
580 254 _l
580 172 _l
476 172 _l
476 0 _l
378 0 _l
378 172 _l
49 172 _l
49 267 _l
352 729 _l
_cl}_d
/five{{636 0 77 -13 549 729 _sc
108 729 _m
495 729 _l
495 646 _l
198 646 _l
198 467 _l
212 472 227 476 241 478 _c
255 480 270 482 284 482 _c
365 482 429 459 477 415 _c
525 370 549 310 549 234 _c
549 155 524 94 475 51 _c
426 8 357 -13 269 -13 _c
238 -13 207 -10 175 -6 _c
143 -1 111 6 77 17 _c
77 116 _l
106 100 136 88 168 80 _c
199 72 232 69 267 69 _c
}_e{323 69 368 83 401 113 _c
433 143 450 183 450 234 _c
450 284 433 324 401 354 _c
368 384 323 399 267 399 _c
241 399 214 396 188 390 _c
162 384 135 375 108 363 _c
108 729 _l
_cl}_e}_d
/six{{636 0 70 -13 573 742 _sc
330 404 _m
286 404 251 388 225 358 _c
199 328 186 286 186 234 _c
186 181 199 139 225 109 _c
251 79 286 64 330 64 _c
374 64 409 79 435 109 _c
461 139 474 181 474 234 _c
474 286 461 328 435 358 _c
409 388 374 404 330 404 _c
526 713 _m
526 623 _l
501 635 476 644 451 650 _c
425 656 400 659 376 659 _c
310 659 260 637 226 593 _c
}_e{192 549 172 482 168 394 _c
187 422 211 444 240 459 _c
269 474 301 482 336 482 _c
409 482 467 459 509 415 _c
551 371 573 310 573 234 _c
573 159 550 99 506 54 _c
462 9 403 -13 330 -13 _c
246 -13 181 19 137 83 _c
92 147 70 241 70 364 _c
70 479 97 571 152 639 _c
206 707 280 742 372 742 _c
396 742 421 739 447 735 _c
472 730 498 723 526 713 _c
_cl}_e}_d
/seven{636 0 82 0 551 729 _sc
82 729 _m
551 729 _l
551 687 _l
286 0 _l
183 0 _l
432 646 _l
82 646 _l
82 729 _l
_cl}_d
/eight{{636 0 68 -13 568 742 _sc
318 346 _m
271 346 234 333 207 308 _c
180 283 167 249 167 205 _c
167 161 180 126 207 101 _c
234 76 271 64 318 64 _c
364 64 401 76 428 102 _c
455 127 469 161 469 205 _c
469 249 455 283 429 308 _c
402 333 365 346 318 346 _c
219 388 _m
177 398 144 418 120 447 _c
96 476 85 511 85 553 _c
85 611 105 657 147 691 _c
188 725 245 742 318 742 _c
}_e{390 742 447 725 489 691 _c
530 657 551 611 551 553 _c
551 511 539 476 515 447 _c
491 418 459 398 417 388 _c
464 377 501 355 528 323 _c
554 291 568 251 568 205 _c
568 134 546 80 503 43 _c
459 5 398 -13 318 -13 _c
237 -13 175 5 132 43 _c
89 80 68 134 68 205 _c
68 251 81 291 108 323 _c
134 355 171 377 219 388 _c
183 544 _m
183 506 194 476 218 455 _c
}_e{242 434 275 424 318 424 _c
360 424 393 434 417 455 _c
441 476 453 506 453 544 _c
453 582 441 611 417 632 _c
393 653 360 664 318 664 _c
275 664 242 653 218 632 _c
194 611 183 582 183 544 _c
_cl}_e}_d
/nine{{636 0 63 -13 566 742 _sc
110 15 _m
110 105 _l
134 93 159 84 185 78 _c
210 72 235 69 260 69 _c
324 69 374 90 408 134 _c
442 178 462 244 468 334 _c
448 306 424 284 396 269 _c
367 254 335 247 300 247 _c
226 247 168 269 126 313 _c
84 357 63 417 63 494 _c
63 568 85 628 129 674 _c
173 719 232 742 306 742 _c
390 742 455 709 499 645 _c
543 580 566 486 566 364 _c
}_e{566 248 538 157 484 89 _c
429 21 356 -13 264 -13 _c
239 -13 214 -10 189 -6 _c
163 -2 137 5 110 15 _c
306 324 _m
350 324 385 339 411 369 _c
437 399 450 441 450 494 _c
450 546 437 588 411 618 _c
385 648 350 664 306 664 _c
262 664 227 648 201 618 _c
175 588 162 546 162 494 _c
162 441 175 399 201 369 _c
227 339 262 324 306 324 _c
_cl}_e}_d
/equal{838 0 106 172 732 454 _sc
106 454 _m
732 454 _l
732 372 _l
106 372 _l
106 454 _l
106 255 _m
732 255 _l
732 172 _l
106 172 _l
106 255 _l
_cl}_d
/a{{613 0 60 -13 522 560 _sc
343 275 _m
270 275 220 266 192 250 _c
164 233 150 205 150 165 _c
150 133 160 107 181 89 _c
202 70 231 61 267 61 _c
317 61 357 78 387 114 _c
417 149 432 196 432 255 _c
432 275 _l
343 275 _l
522 312 _m
522 0 _l
432 0 _l
432 83 _l
411 49 385 25 355 10 _c
325 -5 287 -13 243 -13 _c
187 -13 142 2 109 33 _c
76 64 60 106 60 159 _c
}_e{60 220 80 266 122 298 _c
163 329 224 345 306 345 _c
432 345 _l
432 354 _l
432 395 418 427 391 450 _c
364 472 326 484 277 484 _c
245 484 215 480 185 472 _c
155 464 127 453 100 439 _c
100 522 _l
132 534 164 544 195 550 _c
226 556 256 560 286 560 _c
365 560 424 539 463 498 _c
502 457 522 395 522 312 _c
_cl}_e}_d
/b{{635 0 91 -13 580 760 _sc
487 273 _m
487 339 473 390 446 428 _c
418 466 381 485 334 485 _c
286 485 249 466 222 428 _c
194 390 181 339 181 273 _c
181 207 194 155 222 117 _c
249 79 286 61 334 61 _c
381 61 418 79 446 117 _c
473 155 487 207 487 273 _c
181 464 _m
199 496 223 520 252 536 _c
281 552 316 560 356 560 _c
422 560 476 533 518 481 _c
559 428 580 359 580 273 _c
}_e{580 187 559 117 518 65 _c
476 13 422 -13 356 -13 _c
316 -13 281 -5 252 10 _c
223 25 199 49 181 82 _c
181 0 _l
91 0 _l
91 760 _l
181 760 _l
181 464 _l
_cl}_e}_d
/c{{550 0 55 -13 488 560 _sc
488 526 _m
488 442 _l
462 456 437 466 411 473 _c
385 480 360 484 334 484 _c
276 484 230 465 198 428 _c
166 391 150 339 150 273 _c
150 206 166 154 198 117 _c
230 80 276 62 334 62 _c
360 62 385 65 411 72 _c
437 79 462 90 488 104 _c
488 21 _l
462 9 436 0 410 -5 _c
383 -10 354 -13 324 -13 _c
242 -13 176 12 128 64 _c
}_e{79 115 55 185 55 273 _c
55 362 79 432 128 483 _c
177 534 244 560 330 560 _c
358 560 385 557 411 551 _c
437 545 463 537 488 526 _c
_cl}_e}_d
/e{{615 0 55 -13 562 560 _sc
562 296 _m
562 252 _l
149 252 _l
153 190 171 142 205 110 _c
238 78 284 62 344 62 _c
378 62 412 66 444 74 _c
476 82 509 95 541 113 _c
541 28 _l
509 14 476 3 442 -3 _c
408 -9 373 -13 339 -13 _c
251 -13 182 12 131 62 _c
80 112 55 181 55 268 _c
55 357 79 428 127 481 _c
175 533 241 560 323 560 _c
397 560 455 536 498 489 _c
}_e{540 441 562 377 562 296 _c
472 322 _m
471 371 457 410 431 440 _c
404 469 368 484 324 484 _c
274 484 234 469 204 441 _c
174 413 156 373 152 322 _c
472 322 _l
_cl}_e}_d
/f{352 0 23 0 371 760 _sc
371 760 _m
371 685 _l
285 685 _l
253 685 230 678 218 665 _c
205 652 199 629 199 595 _c
199 547 _l
347 547 _l
347 477 _l
199 477 _l
199 0 _l
109 0 _l
109 477 _l
23 477 _l
23 547 _l
109 547 _l
109 585 _l
109 645 123 690 151 718 _c
179 746 224 760 286 760 _c
371 760 _l
_cl}_d
/i{278 0 94 0 184 760 _sc
94 547 _m
184 547 _l
184 0 _l
94 0 _l
94 547 _l
94 760 _m
184 760 _l
184 646 _l
94 646 _l
94 760 _l
_cl}_d
/l{278 0 94 0 184 760 _sc
94 760 _m
184 760 _l
184 0 _l
94 0 _l
94 760 _l
_cl}_d
/n{634 0 91 0 549 560 _sc
549 330 _m
549 0 _l
459 0 _l
459 327 _l
459 379 448 417 428 443 _c
408 469 378 482 338 482 _c
289 482 251 466 223 435 _c
195 404 181 362 181 309 _c
181 0 _l
91 0 _l
91 547 _l
181 547 _l
181 462 _l
202 494 227 519 257 535 _c
286 551 320 560 358 560 _c
420 560 468 540 500 501 _c
532 462 549 405 549 330 _c
_cl}_d
/o{612 0 55 -13 557 560 _sc
306 484 _m
258 484 220 465 192 427 _c
164 389 150 338 150 273 _c
150 207 163 156 191 118 _c
219 80 257 62 306 62 _c
354 62 392 80 420 118 _c
448 156 462 207 462 273 _c
462 337 448 389 420 427 _c
392 465 354 484 306 484 _c
306 560 _m
384 560 445 534 490 484 _c
534 433 557 363 557 273 _c
557 183 534 113 490 63 _c
445 12 384 -13 306 -13 _c
227 -13 165 12 121 63 _c
77 113 55 183 55 273 _c
55 363 77 433 121 484 _c
165 534 227 560 306 560 _c
_cl}_d
/p{{635 0 91 -207 580 560 _sc
181 82 _m
181 -207 _l
91 -207 _l
91 547 _l
181 547 _l
181 464 _l
199 496 223 520 252 536 _c
281 552 316 560 356 560 _c
422 560 476 533 518 481 _c
559 428 580 359 580 273 _c
580 187 559 117 518 65 _c
476 13 422 -13 356 -13 _c
316 -13 281 -5 252 10 _c
223 25 199 49 181 82 _c
487 273 _m
487 339 473 390 446 428 _c
418 466 381 485 334 485 _c
}_e{286 485 249 466 222 428 _c
194 390 181 339 181 273 _c
181 207 194 155 222 117 _c
249 79 286 61 334 61 _c
381 61 418 79 446 117 _c
473 155 487 207 487 273 _c
_cl}_e}_d
/r{411 0 91 0 411 560 _sc
411 463 _m
401 469 390 473 378 476 _c
366 478 353 480 339 480 _c
288 480 249 463 222 430 _c
194 397 181 350 181 288 _c
181 0 _l
91 0 _l
91 547 _l
181 547 _l
181 462 _l
199 495 224 520 254 536 _c
284 552 321 560 365 560 _c
371 560 378 559 386 559 _c
393 558 401 557 411 555 _c
411 463 _l
_cl}_d
/s{{521 0 54 -13 472 560 _sc
443 531 _m
443 446 _l
417 458 391 468 364 475 _c
336 481 308 485 279 485 _c
234 485 200 478 178 464 _c
156 450 145 430 145 403 _c
145 382 153 366 169 354 _c
185 342 217 330 265 320 _c
296 313 _l
360 299 405 279 432 255 _c
458 230 472 195 472 151 _c
472 100 452 60 412 31 _c
372 1 316 -13 246 -13 _c
216 -13 186 -10 154 -5 _c
}_e{122 0 89 8 54 20 _c
54 113 _l
87 95 120 82 152 74 _c
184 65 216 61 248 61 _c
290 61 323 68 346 82 _c
368 96 380 117 380 144 _c
380 168 371 187 355 200 _c
339 213 303 226 247 238 _c
216 245 _l
160 257 119 275 95 299 _c
70 323 58 356 58 399 _c
58 450 76 490 112 518 _c
148 546 200 560 268 560 _c
301 560 332 557 362 552 _c
391 547 418 540 443 531 _c
}_e{_cl}_e}_d
/t{392 0 27 0 368 702 _sc
183 702 _m
183 547 _l
368 547 _l
368 477 _l
183 477 _l
183 180 _l
183 135 189 106 201 94 _c
213 81 238 75 276 75 _c
368 75 _l
368 0 _l
276 0 _l
206 0 158 13 132 39 _c
106 65 93 112 93 180 _c
93 477 _l
27 477 _l
27 547 _l
93 547 _l
93 702 _l
183 702 _l
_cl}_d
/u{634 0 85 -13 543 560 _sc
85 216 _m
85 547 _l
175 547 _l
175 219 _l
175 167 185 129 205 103 _c
225 77 255 64 296 64 _c
344 64 383 79 411 110 _c
439 141 453 183 453 237 _c
453 547 _l
543 547 _l
543 0 _l
453 0 _l
453 84 _l
431 50 405 26 377 10 _c
348 -5 315 -13 277 -13 _c
214 -13 166 6 134 45 _c
101 83 85 140 85 216 _c
_cl}_d
/y{592 0 30 -207 562 547 _sc
322 -50 _m
296 -114 271 -157 247 -177 _c
223 -197 191 -207 151 -207 _c
79 -207 _l
79 -132 _l
132 -132 _l
156 -132 175 -126 189 -114 _c
203 -102 218 -75 235 -31 _c
251 9 _l
30 547 _l
125 547 _l
296 119 _l
467 547 _l
562 547 _l
322 -50 _l
_cl}_d
/minus{838 0 106 272 732 355 _sc
106 355 _m
732 355 _l
732 272 _l
106 272 _l
106 355 _l
_cl}_d
end readonly def

/BuildGlyph
 {exch begin
 CharStrings exch
 2 copy known not{pop /.notdef}if
 true 3 1 roll get exec
 end}_d

/BuildChar {
 1 index /Encoding get exch get
 1 index /BuildGlyph get exec
}_d

FontName currentdict end definefont pop
end
%%EndProlog
mpldict begin
-282.15 185.85 translate
1176.3 420.3 0 0 clipbox
gsave
0 0 m
1176.3 0 l
1176.3 420.3 l
0 420.3 l
cl
1.000 setgray
fill
grestore
gsave
147.037 42.03 m
393.833 42.03 l
393.833 378.27 l
147.037 378.27 l
cl
1.000 setgray
fill
grestore
1.000 setlinewidth
1 setlinejoin
2 setlinecap
[] 0 setdash
0.000 setgray
gsave
246.8 336.2 147 42.03 clipbox
147.037 247.144 m
155.548 252.83 l
164.058 249.427 l
172.568 251.963 l
181.078 265.795 l
189.588 292.751 l
198.099 308.281 l
206.609 310.16 l
215.119 333.608 l
223.629 183.043 l
232.139 176.834 l
240.65 68.3765 l
249.16 102.061 l
257.67 165.059 l
266.18 99.2534 l
274.69 257.965 l
283.201 257.052 l
291.711 264.509 l
300.221 287.929 l
308.731 264.063 l
317.241 253.881 l
325.752 356.741 l
334.262 308.869 l
342.772 306.402 l
351.282 347.304 l
359.792 218.01 l
368.302 161.334 l
376.813 285.333 l
385.323 321.033 l
393.833 287.849 l
stroke
grestore
0.500 setlinewidth
0 setlinecap
gsave
/o {
gsave
newpath
translate
0.5 setlinewidth
1 setlinejoin
0 setlinecap
0 0 m
0 4 l
gsave
0.000 setgray
fill
grestore
stroke
grestore
} bind def
147.037 42.03 o
grestore
gsave
/o {
gsave
newpath
translate
0.5 setlinewidth
1 setlinejoin
0 setlinecap
0 0 m
0 -4 l
gsave
0.000 setgray
fill
grestore
stroke
grestore
} bind def
147.037 378.27 o
grestore
/DejaVuSans findfont
16.000 scalefont
setfont
gsave
135.365625 25.920625 translate
0.000000 rotate
0.000000 0.234375 m /zero glyphshow
10.179688 0.234375 m /period glyphshow
15.265625 0.234375 m /zero glyphshow
grestore
gsave
/o {
gsave
newpath
translate
0.5 setlinewidth
1 setlinejoin
0 setlinecap
0 0 m
0 4 l
gsave
0.000 setgray
fill
grestore
stroke
grestore
} bind def
196.397 42.03 o
grestore
gsave
/o {
gsave
newpath
translate
0.5 setlinewidth
1 setlinejoin
0 setlinecap
0 0 m
0 -4 l
gsave
0.000 setgray
fill
grestore
stroke
grestore
} bind def
196.397 378.27 o
grestore
gsave
184.998170 25.920625 translate
0.000000 rotate
0.000000 0.234375 m /zero glyphshow
10.179688 0.234375 m /period glyphshow
15.265625 0.234375 m /two glyphshow
grestore
gsave
/o {
gsave
newpath
translate
0.5 setlinewidth
1 setlinejoin
0 setlinecap
0 0 m
0 4 l
gsave
0.000 setgray
fill
grestore
stroke
grestore
} bind def
245.756 42.03 o
grestore
gsave
/o {
gsave
newpath
translate
0.5 setlinewidth
1 setlinejoin
0 setlinecap
0 0 m
0 -4 l
gsave
0.000 setgray
fill
grestore
stroke
grestore
} bind def
245.756 378.27 o
grestore
gsave
234.005715 25.920625 translate
0.000000 rotate
0.000000 0.234375 m /zero glyphshow
10.179688 0.234375 m /period glyphshow
15.265625 0.234375 m /four glyphshow
grestore
gsave
/o {
gsave
newpath
translate
0.5 setlinewidth
1 setlinejoin
0 setlinecap
0 0 m
0 4 l
gsave
0.000 setgray
fill
grestore
stroke
grestore
} bind def
295.115 42.03 o
grestore
gsave
/o {
gsave
newpath
translate
0.5 setlinewidth
1 setlinejoin
0 setlinecap
0 0 m
0 -4 l
gsave
0.000 setgray
fill
grestore
stroke
grestore
} bind def
295.115 378.27 o
grestore
gsave
283.419511 25.920625 translate
0.000000 rotate
0.000000 0.234375 m /zero glyphshow
10.179688 0.234375 m /period glyphshow
15.265625 0.234375 m /six glyphshow
grestore
gsave
/o {
gsave
newpath
translate
0.5 setlinewidth
1 setlinejoin
0 setlinecap
0 0 m
0 4 l
gsave
0.000 setgray
fill
grestore
stroke
grestore
} bind def
344.474 42.03 o
grestore
gsave
/o {
gsave
newpath
translate
0.5 setlinewidth
1 setlinejoin
0 setlinecap
0 0 m
0 -4 l
gsave
0.000 setgray
fill
grestore
stroke
grestore
} bind def
344.474 378.27 o
grestore
gsave
332.817681 25.920625 translate
0.000000 rotate
0.000000 0.234375 m /zero glyphshow
10.179688 0.234375 m /period glyphshow
15.265625 0.234375 m /eight glyphshow
grestore
gsave
/o {
gsave
newpath
translate
0.5 setlinewidth
1 setlinejoin
0 setlinecap
0 0 m
0 4 l
gsave
0.000 setgray
fill
grestore
stroke
grestore
} bind def
393.833 42.03 o
grestore
gsave
/o {
gsave
newpath
translate
0.5 setlinewidth
1 setlinejoin
0 setlinecap
0 0 m
0 -4 l
gsave
0.000 setgray
fill
grestore
stroke
grestore
} bind def
393.833 378.27 o
grestore
gsave
382.512726 25.920625 translate
0.000000 rotate
0.000000 0.234375 m /one glyphshow
10.179688 0.234375 m /period glyphshow
15.265625 0.234375 m /zero glyphshow
grestore
gsave
233.302457 8.530000 translate
0.000000 rotate
0.000000 0.234375 m /t glyphshow
6.273438 0.234375 m /o glyphshow
16.062500 0.234375 m /l glyphshow
20.507812 0.234375 m /e glyphshow
30.351562 0.234375 m /r glyphshow
36.929688 0.234375 m /a glyphshow
46.734375 0.234375 m /n glyphshow
56.875000 0.234375 m /c glyphshow
65.671875 0.234375 m /e glyphshow
grestore
gsave
/o {
gsave
newpath
translate
0.5 setlinewidth
1 setlinejoin
0 setlinecap
0 0 m
4 0 l
gsave
0.000 setgray
fill
grestore
stroke
grestore
} bind def
147.037 42.03 o
grestore
gsave
/o {
gsave
newpath
translate
0.5 setlinewidth
1 setlinejoin
0 setlinecap
0 0 m
-4 0 l
gsave
0.000 setgray
fill
grestore
stroke
grestore
} bind def
393.833 42.03 o
grestore
gsave
97.084375 35.975312 translate
0.000000 rotate
0.000000 0.234375 m /minus glyphshow
13.406250 0.234375 m /one glyphshow
23.585938 0.234375 m /zero glyphshow
33.765625 0.234375 m /period glyphshow
38.851562 0.234375 m /five glyphshow
grestore
gsave
/o {
gsave
newpath
translate
0.5 setlinewidth
1 setlinejoin
0 setlinecap
0 0 m
4 0 l
gsave
0.000 setgray
fill
grestore
stroke
grestore
} bind def
147.037 79.39 o
grestore
gsave
/o {
gsave
newpath
translate
0.5 setlinewidth
1 setlinejoin
0 setlinecap
0 0 m
-4 0 l
gsave
0.000 setgray
fill
grestore
stroke
grestore
} bind def
393.833 79.39 o
grestore
gsave
96.740625 73.335312 translate
0.000000 rotate
0.000000 0.234375 m /minus glyphshow
13.406250 0.234375 m /one glyphshow
23.585938 0.234375 m /zero glyphshow
33.765625 0.234375 m /period glyphshow
38.851562 0.234375 m /zero glyphshow
grestore
gsave
/o {
gsave
newpath
translate
0.5 setlinewidth
1 setlinejoin
0 setlinecap
0 0 m
4 0 l
gsave
0.000 setgray
fill
grestore
stroke
grestore
} bind def
147.037 116.75 o
grestore
gsave
/o {
gsave
newpath
translate
0.5 setlinewidth
1 setlinejoin
0 setlinecap
0 0 m
-4 0 l
gsave
0.000 setgray
fill
grestore
stroke
grestore
} bind def
393.833 116.75 o
grestore
gsave
107.271875 110.695312 translate
0.000000 rotate
0.000000 0.234375 m /minus glyphshow
13.406250 0.234375 m /nine glyphshow
23.585938 0.234375 m /period glyphshow
28.671875 0.234375 m /five glyphshow
grestore
gsave
/o {
gsave
newpath
translate
0.5 setlinewidth
1 setlinejoin
0 setlinecap
0 0 m
4 0 l
gsave
0.000 setgray
fill
grestore
stroke
grestore
} bind def
147.037 154.11 o
grestore
gsave
/o {
gsave
newpath
translate
0.5 setlinewidth
1 setlinejoin
0 setlinecap
0 0 m
-4 0 l
gsave
0.000 setgray
fill
grestore
stroke
grestore
} bind def
393.833 154.11 o
grestore
gsave
106.928125 148.055312 translate
0.000000 rotate
0.000000 0.234375 m /minus glyphshow
13.406250 0.234375 m /nine glyphshow
23.585938 0.234375 m /period glyphshow
28.671875 0.234375 m /zero glyphshow
grestore
gsave
/o {
gsave
newpath
translate
0.5 setlinewidth
1 setlinejoin
0 setlinecap
0 0 m
4 0 l
gsave
0.000 setgray
fill
grestore
stroke
grestore
} bind def
147.037 191.47 o
grestore
gsave
/o {
gsave
newpath
translate
0.5 setlinewidth
1 setlinejoin
0 setlinecap
0 0 m
-4 0 l
gsave
0.000 setgray
fill
grestore
stroke
grestore
} bind def
393.833 191.47 o
grestore
gsave
107.271875 185.415312 translate
0.000000 rotate
0.000000 0.234375 m /minus glyphshow
13.406250 0.234375 m /eight glyphshow
23.585938 0.234375 m /period glyphshow
28.671875 0.234375 m /five glyphshow
grestore
gsave
/o {
gsave
newpath
translate
0.5 setlinewidth
1 setlinejoin
0 setlinecap
0 0 m
4 0 l
gsave
0.000 setgray
fill
grestore
stroke
grestore
} bind def
147.037 228.83 o
grestore
gsave
/o {
gsave
newpath
translate
0.5 setlinewidth
1 setlinejoin
0 setlinecap
0 0 m
-4 0 l
gsave
0.000 setgray
fill
grestore
stroke
grestore
} bind def
393.833 228.83 o
grestore
gsave
106.928125 222.775312 translate
0.000000 rotate
0.000000 0.234375 m /minus glyphshow
13.406250 0.234375 m /eight glyphshow
23.585938 0.234375 m /period glyphshow
28.671875 0.234375 m /zero glyphshow
grestore
gsave
/o {
gsave
newpath
translate
0.5 setlinewidth
1 setlinejoin
0 setlinecap
0 0 m
4 0 l
gsave
0.000 setgray
fill
grestore
stroke
grestore
} bind def
147.037 266.19 o
grestore
gsave
/o {
gsave
newpath
translate
0.5 setlinewidth
1 setlinejoin
0 setlinecap
0 0 m
-4 0 l
gsave
0.000 setgray
fill
grestore
stroke
grestore
} bind def
393.833 266.19 o
grestore
gsave
107.271875 260.236875 translate
0.000000 rotate
0.000000 0.234375 m /minus glyphshow
13.406250 0.234375 m /seven glyphshow
23.585938 0.234375 m /period glyphshow
28.671875 0.234375 m /five glyphshow
grestore
gsave
/o {
gsave
newpath
translate
0.5 setlinewidth
1 setlinejoin
0 setlinecap
0 0 m
4 0 l
gsave
0.000 setgray
fill
grestore
stroke
grestore
} bind def
147.037 303.55 o
grestore
gsave
/o {
gsave
newpath
translate
0.5 setlinewidth
1 setlinejoin
0 setlinecap
0 0 m
-4 0 l
gsave
0.000 setgray
fill
grestore
stroke
grestore
} bind def
393.833 303.55 o
grestore
gsave
106.928125 297.495312 translate
0.000000 rotate
0.000000 0.234375 m /minus glyphshow
13.406250 0.234375 m /seven glyphshow
23.585938 0.234375 m /period glyphshow
28.671875 0.234375 m /zero glyphshow
grestore
gsave
/o {
gsave
newpath
translate
0.5 setlinewidth
1 setlinejoin
0 setlinecap
0 0 m
4 0 l
gsave
0.000 setgray
fill
grestore
stroke
grestore
} bind def
147.037 340.91 o
grestore
gsave
/o {
gsave
newpath
translate
0.5 setlinewidth
1 setlinejoin
0 setlinecap
0 0 m
-4 0 l
gsave
0.000 setgray
fill
grestore
stroke
grestore
} bind def
393.833 340.91 o
grestore
gsave
107.271875 334.855312 translate
0.000000 rotate
0.000000 0.234375 m /minus glyphshow
13.406250 0.234375 m /six glyphshow
23.585938 0.234375 m /period glyphshow
28.671875 0.234375 m /five glyphshow
grestore
gsave
/o {
gsave
newpath
translate
0.5 setlinewidth
1 setlinejoin
0 setlinecap
0 0 m
4 0 l
gsave
0.000 setgray
fill
grestore
stroke
grestore
} bind def
147.037 378.27 o
grestore
gsave
/o {
gsave
newpath
translate
0.5 setlinewidth
1 setlinejoin
0 setlinecap
0 0 m
-4 0 l
gsave
0.000 setgray
fill
grestore
stroke
grestore
} bind def
393.833 378.27 o
grestore
gsave
106.928125 372.215312 translate
0.000000 rotate
0.000000 0.234375 m /minus glyphshow
13.406250 0.234375 m /six glyphshow
23.585938 0.234375 m /period glyphshow
28.671875 0.234375 m /zero glyphshow
grestore
gsave
91.740625 158.009375 translate
90.000000 rotate
0.000000 3.328125 m /s glyphshow
8.335938 3.328125 m /u glyphshow
18.476562 3.328125 m /s glyphshow
26.812500 3.328125 m /c glyphshow
35.609375 3.328125 m /e glyphshow
45.453125 3.328125 m /p glyphshow
55.609375 3.328125 m /t glyphshow
61.882812 3.328125 m /i glyphshow
66.328125 3.328125 m /b glyphshow
76.484375 3.328125 m /i glyphshow
80.929688 3.328125 m /l glyphshow
85.375000 3.328125 m /i glyphshow
89.820312 3.328125 m /t glyphshow
96.093750 3.328125 m /y glyphshow
grestore
1.000 setlinewidth
2 setlinecap
gsave
147.037 378.27 m
393.833 378.27 l
stroke
grestore
gsave
393.833 42.03 m
393.833 378.27 l
stroke
grestore
gsave
147.037 42.03 m
393.833 42.03 l
stroke
grestore
gsave
147.037 42.03 m
147.037 378.27 l
stroke
grestore
/DejaVuSans findfont
19.200 scalefont
setfont
gsave
238.404019 383.004375 translate
0.000000 rotate
0.000000 0.265625 m /f glyphshow
6.776978 0.265625 m /equal glyphshow
22.906372 0.265625 m /zero glyphshow
35.153809 0.265625 m /period glyphshow
41.272827 0.265625 m /zero glyphshow
53.520264 0.265625 m /zero glyphshow
grestore
gsave
479.456 42.03 m
726.252 42.03 l
726.252 378.27 l
479.456 378.27 l
cl
1.000 setgray
fill
grestore
gsave
246.8 336.2 479.5 42.03 clipbox
479.456 254.678 m
487.966 253.673 l
496.476 248.25 l
504.987 256.851 l
513.497 273.575 l
522.007 275.697 l
530.517 277.151 l
539.027 283.362 l
547.538 321.687 l
556.048 322.807 l
564.558 303.131 l
573.068 273.623 l
581.578 263.548 l
590.088 255.181 l
598.599 254.993 l
607.109 255.016 l
615.619 259.491 l
624.129 272.799 l
632.639 256.034 l
641.15 268.235 l
649.66 262.556 l
658.17 274.613 l
666.68 340.145 l
675.19 334.251 l
683.701 264.121 l
692.211 276.187 l
700.721 252.142 l
709.231 284.516 l
717.741 220.136 l
726.252 256.198 l
stroke
grestore
0.500 setlinewidth
0 setlinecap
gsave
/o {
gsave
newpath
translate
0.5 setlinewidth
1 setlinejoin
0 setlinecap
0 0 m
0 4 l
gsave
0.000 setgray
fill
grestore
stroke
grestore
} bind def
479.456 42.03 o
grestore
gsave
/o {
gsave
newpath
translate
0.5 setlinewidth
1 setlinejoin
0 setlinecap
0 0 m
0 -4 l
gsave
0.000 setgray
fill
grestore
stroke
grestore
} bind def
479.456 378.27 o
grestore
/DejaVuSans findfont
16.000 scalefont
setfont
gsave
467.784106 25.920625 translate
0.000000 rotate
0.000000 0.234375 m /zero glyphshow
10.179688 0.234375 m /period glyphshow
15.265625 0.234375 m /zero glyphshow
grestore
gsave
/o {
gsave
newpath
translate
0.5 setlinewidth
1 setlinejoin
0 setlinecap
0 0 m
0 4 l
gsave
0.000 setgray
fill
grestore
stroke
grestore
} bind def
528.815 42.03 o
grestore
gsave
/o {
gsave
newpath
translate
0.5 setlinewidth
1 setlinejoin
0 setlinecap
0 0 m
0 -4 l
gsave
0.000 setgray
fill
grestore
stroke
grestore
} bind def
528.815 378.27 o
grestore
gsave
517.416651 25.920625 translate
0.000000 rotate
0.000000 0.234375 m /zero glyphshow
10.179688 0.234375 m /period glyphshow
15.265625 0.234375 m /two glyphshow
grestore
gsave
/o {
gsave
newpath
translate
0.5 setlinewidth
1 setlinejoin
0 setlinecap
0 0 m
0 4 l
gsave
0.000 setgray
fill
grestore
stroke
grestore
} bind def
578.174 42.03 o
grestore
gsave
/o {
gsave
newpath
translate
0.5 setlinewidth
1 setlinejoin
0 setlinecap
0 0 m
0 -4 l
gsave
0.000 setgray
fill
grestore
stroke
grestore
} bind def
578.174 378.27 o
grestore
gsave
566.424196 25.920625 translate
0.000000 rotate
0.000000 0.234375 m /zero glyphshow
10.179688 0.234375 m /period glyphshow
15.265625 0.234375 m /four glyphshow
grestore
gsave
/o {
gsave
newpath
translate
0.5 setlinewidth
1 setlinejoin
0 setlinecap
0 0 m
0 4 l
gsave
0.000 setgray
fill
grestore
stroke
grestore
} bind def
627.533 42.03 o
grestore
gsave
/o {
gsave
newpath
translate
0.5 setlinewidth
1 setlinejoin
0 setlinecap
0 0 m
0 -4 l
gsave
0.000 setgray
fill
grestore
stroke
grestore
} bind def
627.533 378.27 o
grestore
gsave
615.837991 25.920625 translate
0.000000 rotate
0.000000 0.234375 m /zero glyphshow
10.179688 0.234375 m /period glyphshow
15.265625 0.234375 m /six glyphshow
grestore
gsave
/o {
gsave
newpath
translate
0.5 setlinewidth
1 setlinejoin
0 setlinecap
0 0 m
0 4 l
gsave
0.000 setgray
fill
grestore
stroke
grestore
} bind def
676.892 42.03 o
grestore
gsave
/o {
gsave
newpath
translate
0.5 setlinewidth
1 setlinejoin
0 setlinecap
0 0 m
0 -4 l
gsave
0.000 setgray
fill
grestore
stroke
grestore
} bind def
676.892 378.27 o
grestore
gsave
665.236162 25.920625 translate
0.000000 rotate
0.000000 0.234375 m /zero glyphshow
10.179688 0.234375 m /period glyphshow
15.265625 0.234375 m /eight glyphshow
grestore
gsave
/o {
gsave
newpath
translate
0.5 setlinewidth
1 setlinejoin
0 setlinecap
0 0 m
0 4 l
gsave
0.000 setgray
fill
grestore
stroke
grestore
} bind def
726.252 42.03 o
grestore
gsave
/o {
gsave
newpath
translate
0.5 setlinewidth
1 setlinejoin
0 setlinecap
0 0 m
0 -4 l
gsave
0.000 setgray
fill
grestore
stroke
grestore
} bind def
726.252 378.27 o
grestore
gsave
714.931207 25.920625 translate
0.000000 rotate
0.000000 0.234375 m /one glyphshow
10.179688 0.234375 m /period glyphshow
15.265625 0.234375 m /zero glyphshow
grestore
gsave
565.720937 8.530000 translate
0.000000 rotate
0.000000 0.234375 m /t glyphshow
6.273438 0.234375 m /o glyphshow
16.062500 0.234375 m /l glyphshow
20.507812 0.234375 m /e glyphshow
30.351562 0.234375 m /r glyphshow
36.929688 0.234375 m /a glyphshow
46.734375 0.234375 m /n glyphshow
56.875000 0.234375 m /c glyphshow
65.671875 0.234375 m /e glyphshow
grestore
gsave
/o {
gsave
newpath
translate
0.5 setlinewidth
1 setlinejoin
0 setlinecap
0 0 m
4 0 l
gsave
0.000 setgray
fill
grestore
stroke
grestore
} bind def
479.456 54.872 o
grestore
gsave
/o {
gsave
newpath
translate
0.5 setlinewidth
1 setlinejoin
0 setlinecap
0 0 m
-4 0 l
gsave
0.000 setgray
fill
grestore
stroke
grestore
} bind def
726.252 54.872 o
grestore
gsave
429.159106 48.817331 translate
0.000000 rotate
0.000000 0.234375 m /minus glyphshow
13.406250 0.234375 m /one glyphshow
23.585938 0.234375 m /zero glyphshow
33.765625 0.234375 m /period glyphshow
38.851562 0.234375 m /zero glyphshow
grestore
gsave
/o {
gsave
newpath
translate
0.5 setlinewidth
1 setlinejoin
0 setlinecap
0 0 m
4 0 l
gsave
0.000 setgray
fill
grestore
stroke
grestore
} bind def
479.456 98.4347 o
grestore
gsave
/o {
gsave
newpath
translate
0.5 setlinewidth
1 setlinejoin
0 setlinecap
0 0 m
-4 0 l
gsave
0.000 setgray
fill
grestore
stroke
grestore
} bind def
726.252 98.4347 o
grestore
gsave
439.690356 92.379992 translate
0.000000 rotate
0.000000 0.234375 m /minus glyphshow
13.406250 0.234375 m /nine glyphshow
23.585938 0.234375 m /period glyphshow
28.671875 0.234375 m /five glyphshow
grestore
gsave
/o {
gsave
newpath
translate
0.5 setlinewidth
1 setlinejoin
0 setlinecap
0 0 m
4 0 l
gsave
0.000 setgray
fill
grestore
stroke
grestore
} bind def
479.456 141.997 o
grestore
gsave
/o {
gsave
newpath
translate
0.5 setlinewidth
1 setlinejoin
0 setlinecap
0 0 m
-4 0 l
gsave
0.000 setgray
fill
grestore
stroke
grestore
} bind def
726.252 141.997 o
grestore
gsave
439.346606 135.942652 translate
0.000000 rotate
0.000000 0.234375 m /minus glyphshow
13.406250 0.234375 m /nine glyphshow
23.585938 0.234375 m /period glyphshow
28.671875 0.234375 m /zero glyphshow
grestore
gsave
/o {
gsave
newpath
translate
0.5 setlinewidth
1 setlinejoin
0 setlinecap
0 0 m
4 0 l
gsave
0.000 setgray
fill
grestore
stroke
grestore
} bind def
479.456 185.56 o
grestore
gsave
/o {
gsave
newpath
translate
0.5 setlinewidth
1 setlinejoin
0 setlinecap
0 0 m
-4 0 l
gsave
0.000 setgray
fill
grestore
stroke
grestore
} bind def
726.252 185.56 o
grestore
gsave
439.690356 179.505313 translate
0.000000 rotate
0.000000 0.234375 m /minus glyphshow
13.406250 0.234375 m /eight glyphshow
23.585938 0.234375 m /period glyphshow
28.671875 0.234375 m /five glyphshow
grestore
gsave
/o {
gsave
newpath
translate
0.5 setlinewidth
1 setlinejoin
0 setlinecap
0 0 m
4 0 l
gsave
0.000 setgray
fill
grestore
stroke
grestore
} bind def
479.456 229.123 o
grestore
gsave
/o {
gsave
newpath
translate
0.5 setlinewidth
1 setlinejoin
0 setlinecap
0 0 m
-4 0 l
gsave
0.000 setgray
fill
grestore
stroke
grestore
} bind def
726.252 229.123 o
grestore
gsave
439.346606 223.067974 translate
0.000000 rotate
0.000000 0.234375 m /minus glyphshow
13.406250 0.234375 m /eight glyphshow
23.585938 0.234375 m /period glyphshow
28.671875 0.234375 m /zero glyphshow
grestore
gsave
/o {
gsave
newpath
translate
0.5 setlinewidth
1 setlinejoin
0 setlinecap
0 0 m
4 0 l
gsave
0.000 setgray
fill
grestore
stroke
grestore
} bind def
479.456 272.685 o
grestore
gsave
/o {
gsave
newpath
translate
0.5 setlinewidth
1 setlinejoin
0 setlinecap
0 0 m
-4 0 l
gsave
0.000 setgray
fill
grestore
stroke
grestore
} bind def
726.252 272.685 o
grestore
gsave
439.690356 266.732197 translate
0.000000 rotate
0.000000 0.234375 m /minus glyphshow
13.406250 0.234375 m /seven glyphshow
23.585938 0.234375 m /period glyphshow
28.671875 0.234375 m /five glyphshow
grestore
gsave
/o {
gsave
newpath
translate
0.5 setlinewidth
1 setlinejoin
0 setlinecap
0 0 m
4 0 l
gsave
0.000 setgray
fill
grestore
stroke
grestore
} bind def
479.456 316.248 o
grestore
gsave
/o {
gsave
newpath
translate
0.5 setlinewidth
1 setlinejoin
0 setlinecap
0 0 m
-4 0 l
gsave
0.000 setgray
fill
grestore
stroke
grestore
} bind def
726.252 316.248 o
grestore
gsave
439.346606 310.193296 translate
0.000000 rotate
0.000000 0.234375 m /minus glyphshow
13.406250 0.234375 m /seven glyphshow
23.585938 0.234375 m /period glyphshow
28.671875 0.234375 m /zero glyphshow
grestore
gsave
/o {
gsave
newpath
translate
0.5 setlinewidth
1 setlinejoin
0 setlinecap
0 0 m
4 0 l
gsave
0.000 setgray
fill
grestore
stroke
grestore
} bind def
479.456 359.811 o
grestore
gsave
/o {
gsave
newpath
translate
0.5 setlinewidth
1 setlinejoin
0 setlinecap
0 0 m
-4 0 l
gsave
0.000 setgray
fill
grestore
stroke
grestore
} bind def
726.252 359.811 o
grestore
gsave
439.690356 353.755957 translate
0.000000 rotate
0.000000 0.234375 m /minus glyphshow
13.406250 0.234375 m /six glyphshow
23.585938 0.234375 m /period glyphshow
28.671875 0.234375 m /five glyphshow
grestore
1.000 setlinewidth
2 setlinecap
gsave
479.456 378.27 m
726.252 378.27 l
stroke
grestore
gsave
726.252 42.03 m
726.252 378.27 l
stroke
grestore
gsave
479.456 42.03 m
726.252 42.03 l
stroke
grestore
gsave
479.456 42.03 m
479.456 378.27 l
stroke
grestore
/DejaVuSans findfont
19.200 scalefont
setfont
gsave
571.025625 383.004375 translate
0.000000 rotate
0.000000 0.265625 m /f glyphshow
6.776978 0.265625 m /equal glyphshow
22.906372 0.265625 m /zero glyphshow
35.153809 0.265625 m /period glyphshow
41.272827 0.265625 m /two glyphshow
53.520264 0.265625 m /five glyphshow
grestore
gsave
811.874 42.03 m
1058.67 42.03 l
1058.67 378.27 l
811.874 378.27 l
cl
1.000 setgray
fill
grestore
gsave
246.8 336.2 811.9 42.03 clipbox
811.874 256.992 m
820.385 255.835 l
828.895 258.161 l
837.405 247.213 l
845.915 272.267 l
854.425 287.669 l
862.936 276.613 l
871.446 268.933 l
879.956 284.639 l
888.466 290.537 l
896.976 302.658 l
905.487 277.272 l
913.997 275.364 l
922.507 283.902 l
931.017 272.551 l
939.527 283.623 l
948.038 280.343 l
956.548 284.287 l
965.058 264.527 l
973.568 275.17 l
982.078 274.76 l
990.588 263.002 l
999.099 257.409 l
1007.61 266.303 l
1016.12 273.17 l
1024.63 274.791 l
1033.14 284.006 l
1041.65 256.959 l
1050.16 280.077 l
1058.67 280.861 l
stroke
grestore
0.500 setlinewidth
0 setlinecap
gsave
/o {
gsave
newpath
translate
0.5 setlinewidth
1 setlinejoin
0 setlinecap
0 0 m
0 4 l
gsave
0.000 setgray
fill
grestore
stroke
grestore
} bind def
811.874 42.03 o
grestore
gsave
/o {
gsave
newpath
translate
0.5 setlinewidth
1 setlinejoin
0 setlinecap
0 0 m
0 -4 l
gsave
0.000 setgray
fill
grestore
stroke
grestore
} bind def
811.874 378.27 o
grestore
/DejaVuSans findfont
16.000 scalefont
setfont
gsave
800.202586 25.920625 translate
0.000000 rotate
0.000000 0.234375 m /zero glyphshow
10.179688 0.234375 m /period glyphshow
15.265625 0.234375 m /zero glyphshow
grestore
gsave
/o {
gsave
newpath
translate
0.5 setlinewidth
1 setlinejoin
0 setlinecap
0 0 m
0 4 l
gsave
0.000 setgray
fill
grestore
stroke
grestore
} bind def
861.234 42.03 o
grestore
gsave
/o {
gsave
newpath
translate
0.5 setlinewidth
1 setlinejoin
0 setlinecap
0 0 m
0 -4 l
gsave
0.000 setgray
fill
grestore
stroke
grestore
} bind def
861.234 378.27 o
grestore
gsave
849.835132 25.920625 translate
0.000000 rotate
0.000000 0.234375 m /zero glyphshow
10.179688 0.234375 m /period glyphshow
15.265625 0.234375 m /two glyphshow
grestore
gsave
/o {
gsave
newpath
translate
0.5 setlinewidth
1 setlinejoin
0 setlinecap
0 0 m
0 4 l
gsave
0.000 setgray
fill
grestore
stroke
grestore
} bind def
910.593 42.03 o
grestore
gsave
/o {
gsave
newpath
translate
0.5 setlinewidth
1 setlinejoin
0 setlinecap
0 0 m
0 -4 l
gsave
0.000 setgray
fill
grestore
stroke
grestore
} bind def
910.593 378.27 o
grestore
gsave
898.842677 25.920625 translate
0.000000 rotate
0.000000 0.234375 m /zero glyphshow
10.179688 0.234375 m /period glyphshow
15.265625 0.234375 m /four glyphshow
grestore
gsave
/o {
gsave
newpath
translate
0.5 setlinewidth
1 setlinejoin
0 setlinecap
0 0 m
0 4 l
gsave
0.000 setgray
fill
grestore
stroke
grestore
} bind def
959.952 42.03 o
grestore
gsave
/o {
gsave
newpath
translate
0.5 setlinewidth
1 setlinejoin
0 setlinecap
0 0 m
0 -4 l
gsave
0.000 setgray
fill
grestore
stroke
grestore
} bind def
959.952 378.27 o
grestore
gsave
948.256472 25.920625 translate
0.000000 rotate
0.000000 0.234375 m /zero glyphshow
10.179688 0.234375 m /period glyphshow
15.265625 0.234375 m /six glyphshow
grestore
gsave
/o {
gsave
newpath
translate
0.5 setlinewidth
1 setlinejoin
0 setlinecap
0 0 m
0 4 l
gsave
0.000 setgray
fill
grestore
stroke
grestore
} bind def
1009.31 42.03 o
grestore
gsave
/o {
gsave
newpath
translate
0.5 setlinewidth
1 setlinejoin
0 setlinecap
0 0 m
0 -4 l
gsave
0.000 setgray
fill
grestore
stroke
grestore
} bind def
1009.31 378.27 o
grestore
gsave
997.654642 25.920625 translate
0.000000 rotate
0.000000 0.234375 m /zero glyphshow
10.179688 0.234375 m /period glyphshow
15.265625 0.234375 m /eight glyphshow
grestore
gsave
/o {
gsave
newpath
translate
0.5 setlinewidth
1 setlinejoin
0 setlinecap
0 0 m
0 4 l
gsave
0.000 setgray
fill
grestore
stroke
grestore
} bind def
1058.67 42.03 o
grestore
gsave
/o {
gsave
newpath
translate
0.5 setlinewidth
1 setlinejoin
0 setlinecap
0 0 m
0 -4 l
gsave
0.000 setgray
fill
grestore
stroke
grestore
} bind def
1058.67 378.27 o
grestore
gsave
1047.349688 25.920625 translate
0.000000 rotate
0.000000 0.234375 m /one glyphshow
10.179688 0.234375 m /period glyphshow
15.265625 0.234375 m /zero glyphshow
grestore
gsave
898.139418 8.530000 translate
0.000000 rotate
0.000000 0.234375 m /t glyphshow
6.273438 0.234375 m /o glyphshow
16.062500 0.234375 m /l glyphshow
20.507812 0.234375 m /e glyphshow
30.351562 0.234375 m /r glyphshow
36.929688 0.234375 m /a glyphshow
46.734375 0.234375 m /n glyphshow
56.875000 0.234375 m /c glyphshow
65.671875 0.234375 m /e glyphshow
grestore
gsave
/o {
gsave
newpath
translate
0.5 setlinewidth
1 setlinejoin
0 setlinecap
0 0 m
4 0 l
gsave
0.000 setgray
fill
grestore
stroke
grestore
} bind def
811.874 54.872 o
grestore
gsave
/o {
gsave
newpath
translate
0.5 setlinewidth
1 setlinejoin
0 setlinecap
0 0 m
-4 0 l
gsave
0.000 setgray
fill
grestore
stroke
grestore
} bind def
1058.67 54.872 o
grestore
gsave
761.577586 48.817331 translate
0.000000 rotate
0.000000 0.234375 m /minus glyphshow
13.406250 0.234375 m /one glyphshow
23.585938 0.234375 m /zero glyphshow
33.765625 0.234375 m /period glyphshow
38.851562 0.234375 m /zero glyphshow
grestore
gsave
/o {
gsave
newpath
translate
0.5 setlinewidth
1 setlinejoin
0 setlinecap
0 0 m
4 0 l
gsave
0.000 setgray
fill
grestore
stroke
grestore
} bind def
811.874 98.4347 o
grestore
gsave
/o {
gsave
newpath
translate
0.5 setlinewidth
1 setlinejoin
0 setlinecap
0 0 m
-4 0 l
gsave
0.000 setgray
fill
grestore
stroke
grestore
} bind def
1058.67 98.4347 o
grestore
gsave
772.108836 92.379992 translate
0.000000 rotate
0.000000 0.234375 m /minus glyphshow
13.406250 0.234375 m /nine glyphshow
23.585938 0.234375 m /period glyphshow
28.671875 0.234375 m /five glyphshow
grestore
gsave
/o {
gsave
newpath
translate
0.5 setlinewidth
1 setlinejoin
0 setlinecap
0 0 m
4 0 l
gsave
0.000 setgray
fill
grestore
stroke
grestore
} bind def
811.874 141.997 o
grestore
gsave
/o {
gsave
newpath
translate
0.5 setlinewidth
1 setlinejoin
0 setlinecap
0 0 m
-4 0 l
gsave
0.000 setgray
fill
grestore
stroke
grestore
} bind def
1058.67 141.997 o
grestore
gsave
771.765086 135.942652 translate
0.000000 rotate
0.000000 0.234375 m /minus glyphshow
13.406250 0.234375 m /nine glyphshow
23.585938 0.234375 m /period glyphshow
28.671875 0.234375 m /zero glyphshow
grestore
gsave
/o {
gsave
newpath
translate
0.5 setlinewidth
1 setlinejoin
0 setlinecap
0 0 m
4 0 l
gsave
0.000 setgray
fill
grestore
stroke
grestore
} bind def
811.874 185.56 o
grestore
gsave
/o {
gsave
newpath
translate
0.5 setlinewidth
1 setlinejoin
0 setlinecap
0 0 m
-4 0 l
gsave
0.000 setgray
fill
grestore
stroke
grestore
} bind def
1058.67 185.56 o
grestore
gsave
772.108836 179.505313 translate
0.000000 rotate
0.000000 0.234375 m /minus glyphshow
13.406250 0.234375 m /eight glyphshow
23.585938 0.234375 m /period glyphshow
28.671875 0.234375 m /five glyphshow
grestore
gsave
/o {
gsave
newpath
translate
0.5 setlinewidth
1 setlinejoin
0 setlinecap
0 0 m
4 0 l
gsave
0.000 setgray
fill
grestore
stroke
grestore
} bind def
811.874 229.123 o
grestore
gsave
/o {
gsave
newpath
translate
0.5 setlinewidth
1 setlinejoin
0 setlinecap
0 0 m
-4 0 l
gsave
0.000 setgray
fill
grestore
stroke
grestore
} bind def
1058.67 229.123 o
grestore
gsave
771.765086 223.067974 translate
0.000000 rotate
0.000000 0.234375 m /minus glyphshow
13.406250 0.234375 m /eight glyphshow
23.585938 0.234375 m /period glyphshow
28.671875 0.234375 m /zero glyphshow
grestore
gsave
/o {
gsave
newpath
translate
0.5 setlinewidth
1 setlinejoin
0 setlinecap
0 0 m
4 0 l
gsave
0.000 setgray
fill
grestore
stroke
grestore
} bind def
811.874 272.685 o
grestore
gsave
/o {
gsave
newpath
translate
0.5 setlinewidth
1 setlinejoin
0 setlinecap
0 0 m
-4 0 l
gsave
0.000 setgray
fill
grestore
stroke
grestore
} bind def
1058.67 272.685 o
grestore
gsave
772.108836 266.732197 translate
0.000000 rotate
0.000000 0.234375 m /minus glyphshow
13.406250 0.234375 m /seven glyphshow
23.585938 0.234375 m /period glyphshow
28.671875 0.234375 m /five glyphshow
grestore
gsave
/o {
gsave
newpath
translate
0.5 setlinewidth
1 setlinejoin
0 setlinecap
0 0 m
4 0 l
gsave
0.000 setgray
fill
grestore
stroke
grestore
} bind def
811.874 316.248 o
grestore
gsave
/o {
gsave
newpath
translate
0.5 setlinewidth
1 setlinejoin
0 setlinecap
0 0 m
-4 0 l
gsave
0.000 setgray
fill
grestore
stroke
grestore
} bind def
1058.67 316.248 o
grestore
gsave
771.765086 310.193296 translate
0.000000 rotate
0.000000 0.234375 m /minus glyphshow
13.406250 0.234375 m /seven glyphshow
23.585938 0.234375 m /period glyphshow
28.671875 0.234375 m /zero glyphshow
grestore
gsave
/o {
gsave
newpath
translate
0.5 setlinewidth
1 setlinejoin
0 setlinecap
0 0 m
4 0 l
gsave
0.000 setgray
fill
grestore
stroke
grestore
} bind def
811.874 359.811 o
grestore
gsave
/o {
gsave
newpath
translate
0.5 setlinewidth
1 setlinejoin
0 setlinecap
0 0 m
-4 0 l
gsave
0.000 setgray
fill
grestore
stroke
grestore
} bind def
1058.67 359.811 o
grestore
gsave
772.108836 353.755957 translate
0.000000 rotate
0.000000 0.234375 m /minus glyphshow
13.406250 0.234375 m /six glyphshow
23.585938 0.234375 m /period glyphshow
28.671875 0.234375 m /five glyphshow
grestore
1.000 setlinewidth
2 setlinecap
gsave
811.874 378.27 m
1058.67 378.27 l
stroke
grestore
gsave
1058.67 42.03 m
1058.67 378.27 l
stroke
grestore
gsave
811.874 42.03 m
1058.67 42.03 l
stroke
grestore
gsave
811.874 42.03 m
811.874 378.27 l
stroke
grestore
/DejaVuSans findfont
19.200 scalefont
setfont
gsave
903.240981 383.004375 translate
0.000000 rotate
0.000000 0.265625 m /f glyphshow
6.776978 0.265625 m /equal glyphshow
22.906372 0.265625 m /zero glyphshow
35.153809 0.265625 m /period glyphshow
41.272827 0.265625 m /five glyphshow
53.520264 0.265625 m /zero glyphshow
grestore

end
showpage
