%!PS-Adobe-3.0 EPSF-3.0
%%Title: /home/aurelien/synchro/boulot/code/papers_code/schelling-2012/fig/phase_diagram_rhotol_suscep_contour.eps
%%Creator: matplotlib version 1.1.1rc2, http://matplotlib.sourceforge.net/
%%CreationDate: Wed May  1 10:59:22 2013
%%Orientation: portrait
%%BoundingBox: -305 157 917 634
%%EndComments
%%BeginProlog
/mpldict 8 dict def
mpldict begin
/m { moveto } bind def
/l { lineto } bind def
/r { rlineto } bind def
/c { curveto } bind def
/cl { closepath } bind def
/box {
m
1 index 0 r
0 exch r
neg 0 r
cl
} bind def
/clipbox {
box
clip
newpath
} bind def
%!PS-Adobe-3.0 Resource-Font
%%Title: DejaVu Sans
%%Copyright: Copyright (c) 2003 by Bitstream, Inc. All Rights Reserved. Copyright (c) 2006 by Tavmjong Bah. All Rights Reserved. DejaVu changes are in public domain 
%%Creator: Converted from TrueType to type 3 by PPR
25 dict begin
/_d{bind def}bind def
/_m{moveto}_d
/_l{lineto}_d
/_cl{closepath eofill}_d
/_c{curveto}_d
/_sc{7 -1 roll{setcachedevice}{pop pop pop pop pop pop}ifelse}_d
/_e{exec}_d
/FontName /DejaVuSans def
/PaintType 0 def
/FontMatrix[.001 0 0 .001 0 0]def
/FontBBox[-1021 -415 1681 1167]def
/FontType 3 def
/Encoding [ /period /zero /one /two /four /five /six /seven /eight /nine /equal /a /c /d /e /f /i /l /n /o /r /s /t /y ] def
/FontInfo 10 dict dup begin
/FamilyName (DejaVu Sans) def
/FullName (DejaVu Sans) def
/Notice (Copyright (c) 2003 by Bitstream, Inc. All Rights Reserved. Copyright (c) 2006 by Tavmjong Bah. All Rights Reserved. DejaVu changes are in public domain ) def
/Weight (Book) def
/Version (Version 2.33) def
/ItalicAngle 0.0 def
/isFixedPitch false def
/UnderlinePosition -130 def
/UnderlineThickness 90 def
end readonly def
/CharStrings 24 dict dup begin
/period{318 0 107 0 210 124 _sc
107 124 _m
210 124 _l
210 0 _l
107 0 _l
107 124 _l
_cl}_d
/zero{636 0 66 -13 570 742 _sc
318 664 _m
267 664 229 639 203 589 _c
177 539 165 464 165 364 _c
165 264 177 189 203 139 _c
229 89 267 64 318 64 _c
369 64 407 89 433 139 _c
458 189 471 264 471 364 _c
471 464 458 539 433 589 _c
407 639 369 664 318 664 _c
318 742 _m
399 742 461 709 505 645 _c
548 580 570 486 570 364 _c
570 241 548 147 505 83 _c
461 19 399 -13 318 -13 _c
236 -13 173 19 130 83 _c
87 147 66 241 66 364 _c
66 486 87 580 130 645 _c
173 709 236 742 318 742 _c
_cl}_d
/one{636 0 110 0 544 729 _sc
124 83 _m
285 83 _l
285 639 _l
110 604 _l
110 694 _l
284 729 _l
383 729 _l
383 83 _l
544 83 _l
544 0 _l
124 0 _l
124 83 _l
_cl}_d
/two{{636 0 73 0 536 742 _sc
192 83 _m
536 83 _l
536 0 _l
73 0 _l
73 83 _l
110 121 161 173 226 239 _c
290 304 331 346 348 365 _c
380 400 402 430 414 455 _c
426 479 433 504 433 528 _c
433 566 419 598 392 622 _c
365 646 330 659 286 659 _c
255 659 222 653 188 643 _c
154 632 117 616 78 594 _c
78 694 _l
118 710 155 722 189 730 _c
223 738 255 742 284 742 _c
}_e{359 742 419 723 464 685 _c
509 647 532 597 532 534 _c
532 504 526 475 515 449 _c
504 422 484 390 454 354 _c
446 344 420 317 376 272 _c
332 227 271 164 192 83 _c
_cl}_e}_d
/four{636 0 49 0 580 729 _sc
378 643 _m
129 254 _l
378 254 _l
378 643 _l
352 729 _m
476 729 _l
476 254 _l
580 254 _l
580 172 _l
476 172 _l
476 0 _l
378 0 _l
378 172 _l
49 172 _l
49 267 _l
352 729 _l
_cl}_d
/five{{636 0 77 -13 549 729 _sc
108 729 _m
495 729 _l
495 646 _l
198 646 _l
198 467 _l
212 472 227 476 241 478 _c
255 480 270 482 284 482 _c
365 482 429 459 477 415 _c
525 370 549 310 549 234 _c
549 155 524 94 475 51 _c
426 8 357 -13 269 -13 _c
238 -13 207 -10 175 -6 _c
143 -1 111 6 77 17 _c
77 116 _l
106 100 136 88 168 80 _c
199 72 232 69 267 69 _c
}_e{323 69 368 83 401 113 _c
433 143 450 183 450 234 _c
450 284 433 324 401 354 _c
368 384 323 399 267 399 _c
241 399 214 396 188 390 _c
162 384 135 375 108 363 _c
108 729 _l
_cl}_e}_d
/six{{636 0 70 -13 573 742 _sc
330 404 _m
286 404 251 388 225 358 _c
199 328 186 286 186 234 _c
186 181 199 139 225 109 _c
251 79 286 64 330 64 _c
374 64 409 79 435 109 _c
461 139 474 181 474 234 _c
474 286 461 328 435 358 _c
409 388 374 404 330 404 _c
526 713 _m
526 623 _l
501 635 476 644 451 650 _c
425 656 400 659 376 659 _c
310 659 260 637 226 593 _c
}_e{192 549 172 482 168 394 _c
187 422 211 444 240 459 _c
269 474 301 482 336 482 _c
409 482 467 459 509 415 _c
551 371 573 310 573 234 _c
573 159 550 99 506 54 _c
462 9 403 -13 330 -13 _c
246 -13 181 19 137 83 _c
92 147 70 241 70 364 _c
70 479 97 571 152 639 _c
206 707 280 742 372 742 _c
396 742 421 739 447 735 _c
472 730 498 723 526 713 _c
_cl}_e}_d
/seven{636 0 82 0 551 729 _sc
82 729 _m
551 729 _l
551 687 _l
286 0 _l
183 0 _l
432 646 _l
82 646 _l
82 729 _l
_cl}_d
/eight{{636 0 68 -13 568 742 _sc
318 346 _m
271 346 234 333 207 308 _c
180 283 167 249 167 205 _c
167 161 180 126 207 101 _c
234 76 271 64 318 64 _c
364 64 401 76 428 102 _c
455 127 469 161 469 205 _c
469 249 455 283 429 308 _c
402 333 365 346 318 346 _c
219 388 _m
177 398 144 418 120 447 _c
96 476 85 511 85 553 _c
85 611 105 657 147 691 _c
188 725 245 742 318 742 _c
}_e{390 742 447 725 489 691 _c
530 657 551 611 551 553 _c
551 511 539 476 515 447 _c
491 418 459 398 417 388 _c
464 377 501 355 528 323 _c
554 291 568 251 568 205 _c
568 134 546 80 503 43 _c
459 5 398 -13 318 -13 _c
237 -13 175 5 132 43 _c
89 80 68 134 68 205 _c
68 251 81 291 108 323 _c
134 355 171 377 219 388 _c
183 544 _m
183 506 194 476 218 455 _c
}_e{242 434 275 424 318 424 _c
360 424 393 434 417 455 _c
441 476 453 506 453 544 _c
453 582 441 611 417 632 _c
393 653 360 664 318 664 _c
275 664 242 653 218 632 _c
194 611 183 582 183 544 _c
_cl}_e}_d
/nine{{636 0 63 -13 566 742 _sc
110 15 _m
110 105 _l
134 93 159 84 185 78 _c
210 72 235 69 260 69 _c
324 69 374 90 408 134 _c
442 178 462 244 468 334 _c
448 306 424 284 396 269 _c
367 254 335 247 300 247 _c
226 247 168 269 126 313 _c
84 357 63 417 63 494 _c
63 568 85 628 129 674 _c
173 719 232 742 306 742 _c
390 742 455 709 499 645 _c
543 580 566 486 566 364 _c
}_e{566 248 538 157 484 89 _c
429 21 356 -13 264 -13 _c
239 -13 214 -10 189 -6 _c
163 -2 137 5 110 15 _c
306 324 _m
350 324 385 339 411 369 _c
437 399 450 441 450 494 _c
450 546 437 588 411 618 _c
385 648 350 664 306 664 _c
262 664 227 648 201 618 _c
175 588 162 546 162 494 _c
162 441 175 399 201 369 _c
227 339 262 324 306 324 _c
_cl}_e}_d
/equal{838 0 106 172 732 454 _sc
106 454 _m
732 454 _l
732 372 _l
106 372 _l
106 454 _l
106 255 _m
732 255 _l
732 172 _l
106 172 _l
106 255 _l
_cl}_d
/a{{613 0 60 -13 522 560 _sc
343 275 _m
270 275 220 266 192 250 _c
164 233 150 205 150 165 _c
150 133 160 107 181 89 _c
202 70 231 61 267 61 _c
317 61 357 78 387 114 _c
417 149 432 196 432 255 _c
432 275 _l
343 275 _l
522 312 _m
522 0 _l
432 0 _l
432 83 _l
411 49 385 25 355 10 _c
325 -5 287 -13 243 -13 _c
187 -13 142 2 109 33 _c
76 64 60 106 60 159 _c
}_e{60 220 80 266 122 298 _c
163 329 224 345 306 345 _c
432 345 _l
432 354 _l
432 395 418 427 391 450 _c
364 472 326 484 277 484 _c
245 484 215 480 185 472 _c
155 464 127 453 100 439 _c
100 522 _l
132 534 164 544 195 550 _c
226 556 256 560 286 560 _c
365 560 424 539 463 498 _c
502 457 522 395 522 312 _c
_cl}_e}_d
/c{{550 0 55 -13 488 560 _sc
488 526 _m
488 442 _l
462 456 437 466 411 473 _c
385 480 360 484 334 484 _c
276 484 230 465 198 428 _c
166 391 150 339 150 273 _c
150 206 166 154 198 117 _c
230 80 276 62 334 62 _c
360 62 385 65 411 72 _c
437 79 462 90 488 104 _c
488 21 _l
462 9 436 0 410 -5 _c
383 -10 354 -13 324 -13 _c
242 -13 176 12 128 64 _c
}_e{79 115 55 185 55 273 _c
55 362 79 432 128 483 _c
177 534 244 560 330 560 _c
358 560 385 557 411 551 _c
437 545 463 537 488 526 _c
_cl}_e}_d
/d{{635 0 55 -13 544 760 _sc
454 464 _m
454 760 _l
544 760 _l
544 0 _l
454 0 _l
454 82 _l
435 49 411 25 382 10 _c
353 -5 319 -13 279 -13 _c
213 -13 159 13 117 65 _c
75 117 55 187 55 273 _c
55 359 75 428 117 481 _c
159 533 213 560 279 560 _c
319 560 353 552 382 536 _c
411 520 435 496 454 464 _c
148 273 _m
148 207 161 155 188 117 _c
215 79 253 61 301 61 _c
}_e{348 61 385 79 413 117 _c
440 155 454 207 454 273 _c
454 339 440 390 413 428 _c
385 466 348 485 301 485 _c
253 485 215 466 188 428 _c
161 390 148 339 148 273 _c
_cl}_e}_d
/e{{615 0 55 -13 562 560 _sc
562 296 _m
562 252 _l
149 252 _l
153 190 171 142 205 110 _c
238 78 284 62 344 62 _c
378 62 412 66 444 74 _c
476 82 509 95 541 113 _c
541 28 _l
509 14 476 3 442 -3 _c
408 -9 373 -13 339 -13 _c
251 -13 182 12 131 62 _c
80 112 55 181 55 268 _c
55 357 79 428 127 481 _c
175 533 241 560 323 560 _c
397 560 455 536 498 489 _c
}_e{540 441 562 377 562 296 _c
472 322 _m
471 371 457 410 431 440 _c
404 469 368 484 324 484 _c
274 484 234 469 204 441 _c
174 413 156 373 152 322 _c
472 322 _l
_cl}_e}_d
/f{352 0 23 0 371 760 _sc
371 760 _m
371 685 _l
285 685 _l
253 685 230 678 218 665 _c
205 652 199 629 199 595 _c
199 547 _l
347 547 _l
347 477 _l
199 477 _l
199 0 _l
109 0 _l
109 477 _l
23 477 _l
23 547 _l
109 547 _l
109 585 _l
109 645 123 690 151 718 _c
179 746 224 760 286 760 _c
371 760 _l
_cl}_d
/i{278 0 94 0 184 760 _sc
94 547 _m
184 547 _l
184 0 _l
94 0 _l
94 547 _l
94 760 _m
184 760 _l
184 646 _l
94 646 _l
94 760 _l
_cl}_d
/l{278 0 94 0 184 760 _sc
94 760 _m
184 760 _l
184 0 _l
94 0 _l
94 760 _l
_cl}_d
/n{634 0 91 0 549 560 _sc
549 330 _m
549 0 _l
459 0 _l
459 327 _l
459 379 448 417 428 443 _c
408 469 378 482 338 482 _c
289 482 251 466 223 435 _c
195 404 181 362 181 309 _c
181 0 _l
91 0 _l
91 547 _l
181 547 _l
181 462 _l
202 494 227 519 257 535 _c
286 551 320 560 358 560 _c
420 560 468 540 500 501 _c
532 462 549 405 549 330 _c
_cl}_d
/o{612 0 55 -13 557 560 _sc
306 484 _m
258 484 220 465 192 427 _c
164 389 150 338 150 273 _c
150 207 163 156 191 118 _c
219 80 257 62 306 62 _c
354 62 392 80 420 118 _c
448 156 462 207 462 273 _c
462 337 448 389 420 427 _c
392 465 354 484 306 484 _c
306 560 _m
384 560 445 534 490 484 _c
534 433 557 363 557 273 _c
557 183 534 113 490 63 _c
445 12 384 -13 306 -13 _c
227 -13 165 12 121 63 _c
77 113 55 183 55 273 _c
55 363 77 433 121 484 _c
165 534 227 560 306 560 _c
_cl}_d
/r{411 0 91 0 411 560 _sc
411 463 _m
401 469 390 473 378 476 _c
366 478 353 480 339 480 _c
288 480 249 463 222 430 _c
194 397 181 350 181 288 _c
181 0 _l
91 0 _l
91 547 _l
181 547 _l
181 462 _l
199 495 224 520 254 536 _c
284 552 321 560 365 560 _c
371 560 378 559 386 559 _c
393 558 401 557 411 555 _c
411 463 _l
_cl}_d
/s{{521 0 54 -13 472 560 _sc
443 531 _m
443 446 _l
417 458 391 468 364 475 _c
336 481 308 485 279 485 _c
234 485 200 478 178 464 _c
156 450 145 430 145 403 _c
145 382 153 366 169 354 _c
185 342 217 330 265 320 _c
296 313 _l
360 299 405 279 432 255 _c
458 230 472 195 472 151 _c
472 100 452 60 412 31 _c
372 1 316 -13 246 -13 _c
216 -13 186 -10 154 -5 _c
}_e{122 0 89 8 54 20 _c
54 113 _l
87 95 120 82 152 74 _c
184 65 216 61 248 61 _c
290 61 323 68 346 82 _c
368 96 380 117 380 144 _c
380 168 371 187 355 200 _c
339 213 303 226 247 238 _c
216 245 _l
160 257 119 275 95 299 _c
70 323 58 356 58 399 _c
58 450 76 490 112 518 _c
148 546 200 560 268 560 _c
301 560 332 557 362 552 _c
391 547 418 540 443 531 _c
}_e{_cl}_e}_d
/t{392 0 27 0 368 702 _sc
183 702 _m
183 547 _l
368 547 _l
368 477 _l
183 477 _l
183 180 _l
183 135 189 106 201 94 _c
213 81 238 75 276 75 _c
368 75 _l
368 0 _l
276 0 _l
206 0 158 13 132 39 _c
106 65 93 112 93 180 _c
93 477 _l
27 477 _l
27 547 _l
93 547 _l
93 702 _l
183 702 _l
_cl}_d
/y{592 0 30 -207 562 547 _sc
322 -50 _m
296 -114 271 -157 247 -177 _c
223 -197 191 -207 151 -207 _c
79 -207 _l
79 -132 _l
132 -132 _l
156 -132 175 -126 189 -114 _c
203 -102 218 -75 235 -31 _c
251 9 _l
30 547 _l
125 547 _l
296 119 _l
467 547 _l
562 547 _l
322 -50 _l
_cl}_d
end readonly def

/BuildGlyph
 {exch begin
 CharStrings exch
 2 copy known not{pop /.notdef}if
 true 3 1 roll get exec
 end}_d

/BuildChar {
 1 index /Encoding get exch get
 1 index /BuildGlyph get exec
}_d

FontName currentdict end definefont pop
end
%%EndProlog
mpldict begin
-305.1 157.95 translate
1222.2 476.1 0 0 clipbox
gsave
0 0 m
1222.2 0 l
1222.2 476.1 l
0 476.1 l
cl
1.000 setgray
fill
grestore
gsave
152.775 47.61 m
431.365 47.61 l
431.365 428.49 l
152.775 428.49 l
cl
1.000 setgray
fill
grestore
/p0_0 {
newpath
translate
255.273 47.61 m
258.447 55.8607 l
262.324 47.61 l
} bind def
/p0_1 {
newpath
translate
401.479 47.61 m
402.545 48.7569 l
405.881 47.61 l
} bind def
/p0_2 {
newpath
translate
229.627 60.681 m
229.537 60.7438 l
229.627 60.8672 l
229.678 60.7438 l
229.627 60.681 l
} bind def
/p0_3 {
newpath
translate
239.234 72.6435 m
237.722 73.8776 l
239.234 78.9518 l
241.003 73.8776 l
239.234 72.6435 l
} bind def
/p0_4 {
newpath
translate
248.84 85.5055 m
246.292 87.0114 l
248.84 88.7602 l
258.447 87.2034 l
258.525 87.0114 l
258.447 86.8242 l
248.84 85.5055 l
} bind def
/p0_5 {
newpath
translate
229.627 94.6133 m
227.509 100.145 l
229.627 105.437 l
232.312 100.145 l
229.627 94.6133 l
} bind def
/p0_6 {
newpath
translate
402.545 112.426 m
401.857 113.279 l
402.545 114.341 l
403.102 113.279 l
402.545 112.426 l
} bind def
/p0_7 {
newpath
translate
239.234 119.052 m
235.087 126.413 l
239.234 133.649 l
246.624 126.413 l
239.234 119.052 l
} bind def
/p0_8 {
newpath
translate
335.299 164.693 m
334.482 165.814 l
335.299 166.879 l
335.893 165.814 l
335.299 164.693 l
} bind def
/p0_9 {
newpath
translate
229.627 182.336 m
229.005 192.082 l
229.351 205.216 l
229.627 207.982 l
231.565 205.216 l
232.269 192.082 l
229.627 182.336 l
} bind def
/p0_a {
newpath
translate
248.84 188.554 m
247.307 192.082 l
248.84 193.772 l
249.999 192.082 l
248.84 188.554 l
} bind def
/p0_b {
newpath
translate
258.447 204.983 m
258.264 205.216 l
258.447 205.599 l
258.654 205.216 l
258.447 204.983 l
} bind def
/p0_c {
newpath
translate
277.66 216.024 m
275.947 218.349 l
277.66 223.107 l
279.835 218.349 l
277.66 216.024 l
} bind def
/p0_d {
newpath
translate
239.234 219.986 m
234.111 231.483 l
239.234 238.338 l
246.829 231.483 l
239.234 219.986 l
} bind def
/p0_e {
newpath
translate
268.053 231.339 m
267.806 231.483 l
268.053 231.825 l
268.325 231.483 l
268.053 231.339 l
} bind def
/p0_f {
newpath
translate
229.627 240.119 m
229.277 244.617 l
229.627 251.667 l
232.819 244.617 l
229.627 240.119 l
} bind def
/p0_10 {
newpath
translate
248.84 265.924 m
246.188 270.884 l
243.575 284.018 l
248.84 292.699 l
251.048 284.018 l
258.447 274.78 l
260.773 270.884 l
258.447 258.134 l
248.84 265.924 l
} bind def
/p0_11 {
newpath
translate
261.047 317.411 m
258.592 310.286 l
259.207 297.152 l
258.447 295.66 l
254.069 297.152 l
258.279 310.286 l
256.415 318.158 l
} bind def
/p0_12 {
newpath
translate
239.234 305.22 m
238.271 310.286 l
238.642 323.42 l
239.234 325.623 l
242.907 323.42 l
242.541 310.286 l
239.234 305.22 l
} bind def
/p0_13 {
newpath
translate
248.84 342.643 m
248.084 349.687 l
247.829 362.821 l
248.84 365.353 l
253.071 362.821 l
249.694 349.687 l
248.84 342.643 l
} bind def
/p0_14 {
newpath
translate
268.053 358.463 m
262.437 362.821 l
268.053 373.546 l
270.001 362.821 l
268.053 358.463 l
} bind def
1.000 setlinewidth
1 setlinejoin
0 setlinecap
[] 0 setdash
0.000 setgray
gsave
278.6 380.9 152.8 47.61 clipbox
0 0 p0_0
stroke
grestore
gsave
278.6 380.9 152.8 47.61 clipbox
0 0 p0_1
stroke
grestore
gsave
278.6 380.9 152.8 47.61 clipbox
0 0 p0_2
stroke
grestore
gsave
278.6 380.9 152.8 47.61 clipbox
0 0 p0_3
stroke
grestore
gsave
278.6 380.9 152.8 47.61 clipbox
0 0 p0_4
stroke
grestore
gsave
278.6 380.9 152.8 47.61 clipbox
0 0 p0_5
stroke
grestore
gsave
278.6 380.9 152.8 47.61 clipbox
0 0 p0_6
stroke
grestore
gsave
278.6 380.9 152.8 47.61 clipbox
0 0 p0_7
stroke
grestore
gsave
278.6 380.9 152.8 47.61 clipbox
0 0 p0_8
stroke
grestore
gsave
278.6 380.9 152.8 47.61 clipbox
0 0 p0_9
stroke
grestore
gsave
278.6 380.9 152.8 47.61 clipbox
0 0 p0_a
stroke
grestore
gsave
278.6 380.9 152.8 47.61 clipbox
0 0 p0_b
stroke
grestore
gsave
278.6 380.9 152.8 47.61 clipbox
0 0 p0_c
stroke
grestore
gsave
278.6 380.9 152.8 47.61 clipbox
0 0 p0_d
stroke
grestore
gsave
278.6 380.9 152.8 47.61 clipbox
0 0 p0_e
stroke
grestore
gsave
278.6 380.9 152.8 47.61 clipbox
0 0 p0_f
stroke
grestore
gsave
278.6 380.9 152.8 47.61 clipbox
0 0 p0_10
stroke
grestore
gsave
278.6 380.9 152.8 47.61 clipbox
0 0 p0_11
stroke
grestore
gsave
278.6 380.9 152.8 47.61 clipbox
0 0 p0_12
stroke
grestore
gsave
278.6 380.9 152.8 47.61 clipbox
0 0 p0_13
stroke
grestore
gsave
278.6 380.9 152.8 47.61 clipbox
0 0 p0_14
stroke
grestore
/p1_0 {
newpath
translate
195.893 47.61 m
195.35 60.7438 l
194.89 73.8776 l
193.862 87.0114 l
195.353 100.145 l
195.164 113.279 l
194.015 126.413 l
193.727 139.547 l
194.476 152.68 l
194.68 165.814 l
193.62 178.948 l
193.079 192.082 l
193.238 205.216 l
194.078 218.349 l
193.701 225.187 l
} bind def
/p1_1 {
newpath
translate
192.182 264.035 m
192.264 270.884 l
192.461 284.018 l
192.556 297.152 l
192.451 310.286 l
191.995 323.42 l
191.855 336.553 l
191.201 347.908 l
190.808 349.687 l
191.201 351.088 l
192.154 362.821 l
191.201 366.768 l
185.744 375.955 l
181.595 386.314 l
179.24 389.089 l
181.595 392.849 l
185.804 402.222 l
186.848 415.356 l
184.808 428.49 l
} bind def
/p1_2 {
newpath
translate
203.687 47.61 m
204.376 60.7438 l
204.052 73.8776 l
205.653 87.0114 l
204.582 100.145 l
203.759 113.279 l
210.414 126.025 l
210.92 126.413 l
220.021 137.758 l
220.658 139.547 l
220.021 144.726 l
210.414 150.113 l
207.41 152.68 l
208.73 153.674 l
} bind def
/p1_3 {
newpath
translate
223.918 185.146 m
223.903 192.082 l
225.83 205.216 l
226.948 218.349 l
226.626 231.483 l
225.926 244.617 l
225.89 257.751 l
226.309 270.884 l
224.518 284.018 l
224.218 297.152 l
227.343 310.286 l
227.671 323.42 l
228.507 336.553 l
229.627 337.425 l
235.599 349.687 l
236.225 362.821 l
237.073 375.955 l
237.985 389.089 l
236.217 402.222 l
234.83 415.356 l
236.565 428.49 l
} bind def
/p1_4 {
newpath
translate
348.989 47.61 m
354.512 58.2815 l
364.119 49.2344 l
366.743 47.61 l
} bind def
/p1_5 {
newpath
translate
373.725 55.9302 m
383.332 52.264 l
391.121 60.7438 l
385.238 73.8776 l
383.332 78.1183 l
381.797 73.8776 l
373.725 62.0815 l
372.011 60.7438 l
373.725 55.9302 l
} bind def
/p1_6 {
newpath
translate
431.365 57.4102 m
429.5 60.7438 l
431.365 64.4419 l
} bind def
/p1_7 {
newpath
translate
364.119 85.3376 m
373.725 83.226 l
378.565 87.0114 l
373.725 92.8536 l
364.119 91.036 l
361.306 87.0114 l
364.119 85.3376 l
} bind def
/p1_8 {
newpath
translate
373.725 105.886 m
378.826 113.279 l
373.725 119.573 l
365.445 113.279 l
373.725 105.886 l
} bind def
/p1_9 {
newpath
translate
335.299 125.735 m
336.212 126.413 l
335.299 127.038 l
334.269 126.413 l
335.299 125.735 l
} bind def
/p1_a {
newpath
translate
383.332 125.845 m
383.623 126.413 l
383.332 126.97 l
382.992 126.413 l
383.332 125.845 l
} bind def
/p1_b {
newpath
translate
402.545 137.97 m
406.469 139.547 l
412.152 149.298 l
417.988 152.68 l
419.34 165.814 l
412.152 168.288 l
409.67 165.814 l
402.545 158.957 l
398.024 152.68 l
395.291 139.547 l
402.545 137.97 l
} bind def
/p1_c {
newpath
translate
325.693 149.769 m
329.169 152.68 l
325.693 157.49 l
324.126 152.68 l
325.693 149.769 l
} bind def
/p1_d {
newpath
translate
373.725 146.308 m
383.332 152.055 l
384.134 152.68 l
383.332 156.944 l
373.725 165.314 l
364.932 152.68 l
373.725 146.308 l
} bind def
/p1_e {
newpath
translate
344.906 158.472 m
346.956 165.814 l
344.906 178.219 l
343.649 165.814 l
344.906 158.472 l
} bind def
/p1_f {
newpath
translate
306.48 176.929 m
308.442 178.948 l
306.48 180.647 l
305.65 178.948 l
306.48 176.929 l
} bind def
/p1_10 {
newpath
translate
421.758 186.294 m
423.925 192.082 l
427.337 205.216 l
421.758 208.194 l
418.305 205.216 l
418.81 192.082 l
421.758 186.294 l
} bind def
/p1_11 {
newpath
translate
306.48 201.923 m
308.479 205.216 l
306.48 208.362 l
303.861 205.216 l
306.48 201.923 l
} bind def
/p1_12 {
newpath
translate
325.693 201.032 m
329.157 205.216 l
325.693 208.263 l
324.846 205.216 l
325.693 201.032 l
} bind def
/p1_13 {
newpath
translate
412.152 215.438 m
413.396 218.349 l
412.152 226.99 l
410.515 218.349 l
412.152 215.438 l
} bind def
/p1_14 {
newpath
translate
344.906 229.826 m
344.334 231.483 l
344.906 237.807 l
346.228 231.483 l
344.906 229.826 l
} bind def
/p1_15 {
newpath
translate
431.365 229.342 m
430.663 231.483 l
431.365 237.005 l
} bind def
/p1_16 {
newpath
translate
316.086 243.472 m
316.705 244.617 l
316.086 245.22 l
315.522 244.617 l
316.086 243.472 l
} bind def
/p1_17 {
newpath
translate
412.152 233.136 m
415.119 244.617 l
412.152 250.51 l
407.346 244.617 l
412.152 233.136 l
} bind def
/p1_18 {
newpath
translate
364.119 255.495 m
362.783 257.751 l
364.119 269.611 l
364.333 270.884 l
373.725 279.183 l
378.62 270.884 l
373.725 257.953 l
373.066 257.751 l
364.119 255.495 l
} bind def
/p1_19 {
newpath
translate
421.758 257.643 m
421.869 257.751 l
421.758 258.987 l
421.616 257.751 l
421.758 257.643 l
} bind def
/p1_1a {
newpath
translate
354.512 270.731 m
354.37 270.884 l
352.152 284.018 l
354.512 287.968 l
357.134 284.018 l
358.4 270.884 l
354.512 270.731 l
} bind def
/p1_1b {
newpath
translate
325.693 283.588 m
327.501 284.018 l
325.693 284.658 l
324.95 284.018 l
325.693 283.588 l
} bind def
/p1_1c {
newpath
translate
431.365 282.289 m
427.158 284.018 l
421.758 289.772 l
421.223 291.012 l
} bind def
/p1_1d {
newpath
translate
429.653 327.849 m
427.89 336.553 l
431.365 341.891 l
} bind def
/p1_1e {
newpath
translate
316.086 292.587 m
318.444 297.152 l
316.086 301.328 l
314.246 297.152 l
316.086 292.587 l
} bind def
/p1_1f {
newpath
translate
364.119 296.937 m
363.939 297.152 l
364.119 297.57 l
364.229 297.152 l
364.119 296.937 l
} bind def
/p1_20 {
newpath
translate
325.693 309.906 m
326.076 310.286 l
330.054 323.42 l
325.693 331.494 l
321.159 323.42 l
325.299 310.286 l
325.693 309.906 l
} bind def
/p1_21 {
newpath
translate
364.119 320.545 m
362.9 323.42 l
363.393 336.553 l
364.119 339.292 l
364.815 336.553 l
368.615 323.42 l
364.119 320.545 l
} bind def
/p1_22 {
newpath
translate
316.086 362.581 m
317.354 362.821 l
316.086 363.301 l
315.638 362.821 l
316.086 362.581 l
} bind def
/p1_23 {
newpath
translate
364.119 357.928 m
361.686 362.821 l
364.119 368.247 l
373.725 370.503 l
375.799 362.821 l
373.725 361.808 l
364.119 357.928 l
} bind def
/p1_24 {
newpath
translate
392.939 351.486 m
388.841 362.821 l
392.939 369.22 l
398.221 362.821 l
392.939 351.486 l
} bind def
/p1_25 {
newpath
translate
383.332 372.171 m
376.853 375.955 l
380.412 389.089 l
383.332 394.233 l
387.558 389.089 l
386.606 375.955 l
383.332 372.171 l
} bind def
/p1_26 {
newpath
translate
344.906 382.484 m
338.324 389.089 l
344.906 398.068 l
350.338 389.089 l
344.906 382.484 l
} bind def
/p1_27 {
newpath
translate
248.84 409.266 m
251.03 415.356 l
248.84 418.964 l
245.447 415.356 l
248.84 409.266 l
} bind def
/p1_28 {
newpath
translate
364.119 415.192 m
364.042 415.356 l
364.119 415.617 l
373.725 418.109 l
375.001 415.356 l
373.725 411.843 l
364.119 415.192 l
} bind def
/p1_29 {
newpath
translate
294.356 428.49 m
296.873 423.328 l
298.757 428.49 l
} bind def
/p1_2a {
newpath
translate
312.67 428.49 m
311.652 415.356 l
306.48 409.702 l
297.312 402.222 l
296.873 401.085 l
291.72 389.089 l
296.873 383.477 l
299.386 389.089 l
306.48 396.81 l
312.962 389.089 l
316.086 385.564 l
321.623 375.955 l
325.693 366.146 l
328.226 367.648 l
} bind def
/p1_2b {
newpath
translate
328.04 341.206 m
329.857 336.553 l
335.299 331.233 l
341.335 323.42 l
344.906 317.473 l
351.028 310.286 l
349.703 297.152 l
344.906 291.501 l
336.71 284.018 l
338.279 270.884 l
344.906 265.351 l
349.889 257.751 l
344.906 245.169 l
343.611 244.617 l
335.299 240.619 l
329.598 231.483 l
334.713 218.349 l
335.299 216.929 l
338.331 205.216 l
344.906 197.659 l
353.51 205.216 l
354.512 206.062 l
357.49 205.216 l
363.834 192.082 l
364.119 191.148 l
367.144 178.948 l
373.725 166.591 l
383.332 170.147 l
384.104 178.948 l
383.332 181.969 l
380.043 192.082 l
383.332 203.899 l
384.08 205.216 l
387.331 218.349 l
383.332 221.839 l
380.862 218.349 l
373.725 209.883 l
364.886 218.349 l
373.725 228.675 l
375.852 231.483 l
373.725 239.061 l
372.523 244.617 l
373.725 256.482 l
383.332 248.475 l
389.861 257.751 l
392.939 263.606 l
400.825 270.884 l
396.89 284.018 l
395.65 297.152 l
392.939 304.285 l
389.63 310.286 l
387.558 323.42 l
383.332 332.434 l
381.822 336.553 l
383.332 338.26 l
392.939 348.989 l
402.545 340.226 l
412.152 349.393 l
412.397 349.687 l
421.758 362.091 l
422.334 362.821 l
421.758 364.445 l
412.152 363.824 l
404.813 375.955 l
402.545 379.821 l
397.694 389.089 l
392.939 397.429 l
389.862 402.222 l
392.939 410.275 l
402.545 414.482 l
410.136 402.222 l
407.703 389.089 l
412.152 383.968 l
418.456 389.089 l
421.758 394.311 l
431.331 389.089 l
431.365 388.911 l
} bind def
/p1_2c {
newpath
translate
328.358 428.49 m
330.46 415.356 l
325.693 410.065 l
320.91 415.356 l
321.883 428.49 l
} bind def
/p1_2d {
newpath
translate
346.493 428.49 m
344.906 423.665 l
343.515 428.49 l
} bind def
/p1_2e {
newpath
translate
426.184 428.49 m
421.758 423.608 l
412.152 418.615 l
410.487 428.49 l
} bind def
gsave
278.6 380.9 152.8 47.61 clipbox
0 0 p1_0
stroke
grestore
gsave
278.6 380.9 152.8 47.61 clipbox
0 0 p1_1
stroke
grestore
gsave
278.6 380.9 152.8 47.61 clipbox
0 0 p1_2
stroke
grestore
gsave
278.6 380.9 152.8 47.61 clipbox
0 0 p1_3
stroke
grestore
gsave
278.6 380.9 152.8 47.61 clipbox
0 0 p1_4
stroke
grestore
gsave
278.6 380.9 152.8 47.61 clipbox
0 0 p1_5
stroke
grestore
gsave
278.6 380.9 152.8 47.61 clipbox
0 0 p1_6
stroke
grestore
gsave
278.6 380.9 152.8 47.61 clipbox
0 0 p1_7
stroke
grestore
gsave
278.6 380.9 152.8 47.61 clipbox
0 0 p1_8
stroke
grestore
gsave
278.6 380.9 152.8 47.61 clipbox
0 0 p1_9
stroke
grestore
gsave
278.6 380.9 152.8 47.61 clipbox
0 0 p1_a
stroke
grestore
gsave
278.6 380.9 152.8 47.61 clipbox
0 0 p1_b
stroke
grestore
gsave
278.6 380.9 152.8 47.61 clipbox
0 0 p1_c
stroke
grestore
gsave
278.6 380.9 152.8 47.61 clipbox
0 0 p1_d
stroke
grestore
gsave
278.6 380.9 152.8 47.61 clipbox
0 0 p1_e
stroke
grestore
gsave
278.6 380.9 152.8 47.61 clipbox
0 0 p1_f
stroke
grestore
gsave
278.6 380.9 152.8 47.61 clipbox
0 0 p1_10
stroke
grestore
gsave
278.6 380.9 152.8 47.61 clipbox
0 0 p1_11
stroke
grestore
gsave
278.6 380.9 152.8 47.61 clipbox
0 0 p1_12
stroke
grestore
gsave
278.6 380.9 152.8 47.61 clipbox
0 0 p1_13
stroke
grestore
gsave
278.6 380.9 152.8 47.61 clipbox
0 0 p1_14
stroke
grestore
gsave
278.6 380.9 152.8 47.61 clipbox
0 0 p1_15
stroke
grestore
gsave
278.6 380.9 152.8 47.61 clipbox
0 0 p1_16
stroke
grestore
gsave
278.6 380.9 152.8 47.61 clipbox
0 0 p1_17
stroke
grestore
gsave
278.6 380.9 152.8 47.61 clipbox
0 0 p1_18
stroke
grestore
gsave
278.6 380.9 152.8 47.61 clipbox
0 0 p1_19
stroke
grestore
gsave
278.6 380.9 152.8 47.61 clipbox
0 0 p1_1a
stroke
grestore
gsave
278.6 380.9 152.8 47.61 clipbox
0 0 p1_1b
stroke
grestore
gsave
278.6 380.9 152.8 47.61 clipbox
0 0 p1_1c
stroke
grestore
gsave
278.6 380.9 152.8 47.61 clipbox
0 0 p1_1d
stroke
grestore
gsave
278.6 380.9 152.8 47.61 clipbox
0 0 p1_1e
stroke
grestore
gsave
278.6 380.9 152.8 47.61 clipbox
0 0 p1_1f
stroke
grestore
gsave
278.6 380.9 152.8 47.61 clipbox
0 0 p1_20
stroke
grestore
gsave
278.6 380.9 152.8 47.61 clipbox
0 0 p1_21
stroke
grestore
gsave
278.6 380.9 152.8 47.61 clipbox
0 0 p1_22
stroke
grestore
gsave
278.6 380.9 152.8 47.61 clipbox
0 0 p1_23
stroke
grestore
gsave
278.6 380.9 152.8 47.61 clipbox
0 0 p1_24
stroke
grestore
gsave
278.6 380.9 152.8 47.61 clipbox
0 0 p1_25
stroke
grestore
gsave
278.6 380.9 152.8 47.61 clipbox
0 0 p1_26
stroke
grestore
gsave
278.6 380.9 152.8 47.61 clipbox
0 0 p1_27
stroke
grestore
gsave
278.6 380.9 152.8 47.61 clipbox
0 0 p1_28
stroke
grestore
gsave
278.6 380.9 152.8 47.61 clipbox
0 0 p1_29
stroke
grestore
gsave
278.6 380.9 152.8 47.61 clipbox
0 0 p1_2a
stroke
grestore
gsave
278.6 380.9 152.8 47.61 clipbox
0 0 p1_2b
stroke
grestore
gsave
278.6 380.9 152.8 47.61 clipbox
0 0 p1_2c
stroke
grestore
gsave
278.6 380.9 152.8 47.61 clipbox
0 0 p1_2d
stroke
grestore
gsave
278.6 380.9 152.8 47.61 clipbox
0 0 p1_2e
stroke
grestore
/p2_0 {
newpath
translate
220.021 162.826 m
221.746 165.814 l
220.021 172.192 l
213.759 165.814 l
220.021 162.826 l
} bind def
/p2_1 {
newpath
translate
210.414 178.001 m
210.777 178.948 l
210.414 183.107 l
210.187 178.948 l
210.414 178.001 l
} bind def
/p2_2 {
newpath
translate
207.285 251.855 m
204.918 244.617 l
205.213 231.483 l
206.083 218.349 l
205.316 205.216 l
210.414 192.651 l
220.021 195.61 l
222.31 205.216 l
223.15 218.349 l
222.869 231.483 l
222.575 244.617 l
221.781 257.751 l
221.712 267.19 l
} bind def
gsave
278.6 380.9 152.8 47.61 clipbox
0 0 p2_0
stroke
grestore
gsave
278.6 380.9 152.8 47.61 clipbox
0 0 p2_1
stroke
grestore
gsave
278.6 380.9 152.8 47.61 clipbox
0 0 p2_2
stroke
grestore
0.500 setlinewidth
gsave
/o {
gsave
newpath
translate
0.5 setlinewidth
1 setlinejoin
0 setlinecap
0 0 m
0 4 l
gsave
0.000 setgray
fill
grestore
stroke
grestore
} bind def
152.775 47.61 o
grestore
gsave
/o {
gsave
newpath
translate
0.5 setlinewidth
1 setlinejoin
0 setlinecap
0 0 m
0 -4 l
gsave
0.000 setgray
fill
grestore
stroke
grestore
} bind def
152.775 428.49 o
grestore
/DejaVuSans findfont
16.000 scalefont
setfont
gsave
141.103125 31.500625 translate
0.000000 rotate
0.000000 0.234375 m /zero glyphshow
10.179688 0.234375 m /period glyphshow
15.265625 0.234375 m /zero glyphshow
grestore
gsave
/o {
gsave
newpath
translate
0.5 setlinewidth
1 setlinejoin
0 setlinecap
0 0 m
0 4 l
gsave
0.000 setgray
fill
grestore
stroke
grestore
} bind def
208.493 47.61 o
grestore
gsave
/o {
gsave
newpath
translate
0.5 setlinewidth
1 setlinejoin
0 setlinecap
0 0 m
0 -4 l
gsave
0.000 setgray
fill
grestore
stroke
grestore
} bind def
208.493 428.49 o
grestore
gsave
197.094504 31.500625 translate
0.000000 rotate
0.000000 0.234375 m /zero glyphshow
10.179688 0.234375 m /period glyphshow
15.265625 0.234375 m /two glyphshow
grestore
gsave
/o {
gsave
newpath
translate
0.5 setlinewidth
1 setlinejoin
0 setlinecap
0 0 m
0 4 l
gsave
0.000 setgray
fill
grestore
stroke
grestore
} bind def
264.211 47.61 o
grestore
gsave
/o {
gsave
newpath
translate
0.5 setlinewidth
1 setlinejoin
0 setlinecap
0 0 m
0 -4 l
gsave
0.000 setgray
fill
grestore
stroke
grestore
} bind def
264.211 428.49 o
grestore
gsave
252.460882 31.500625 translate
0.000000 rotate
0.000000 0.234375 m /zero glyphshow
10.179688 0.234375 m /period glyphshow
15.265625 0.234375 m /four glyphshow
grestore
gsave
/o {
gsave
newpath
translate
0.5 setlinewidth
1 setlinejoin
0 setlinecap
0 0 m
0 4 l
gsave
0.000 setgray
fill
grestore
stroke
grestore
} bind def
319.929 47.61 o
grestore
gsave
/o {
gsave
newpath
translate
0.5 setlinewidth
1 setlinejoin
0 setlinecap
0 0 m
0 -4 l
gsave
0.000 setgray
fill
grestore
stroke
grestore
} bind def
319.929 428.49 o
grestore
gsave
308.233511 31.500625 translate
0.000000 rotate
0.000000 0.234375 m /zero glyphshow
10.179688 0.234375 m /period glyphshow
15.265625 0.234375 m /six glyphshow
grestore
gsave
/o {
gsave
newpath
translate
0.5 setlinewidth
1 setlinejoin
0 setlinecap
0 0 m
0 4 l
gsave
0.000 setgray
fill
grestore
stroke
grestore
} bind def
375.647 47.61 o
grestore
gsave
/o {
gsave
newpath
translate
0.5 setlinewidth
1 setlinejoin
0 setlinecap
0 0 m
0 -4 l
gsave
0.000 setgray
fill
grestore
stroke
grestore
} bind def
375.647 428.49 o
grestore
gsave
363.990515 31.500625 translate
0.000000 rotate
0.000000 0.234375 m /zero glyphshow
10.179688 0.234375 m /period glyphshow
15.265625 0.234375 m /eight glyphshow
grestore
gsave
/o {
gsave
newpath
translate
0.5 setlinewidth
1 setlinejoin
0 setlinecap
0 0 m
0 4 l
gsave
0.000 setgray
fill
grestore
stroke
grestore
} bind def
431.365 47.61 o
grestore
gsave
/o {
gsave
newpath
translate
0.5 setlinewidth
1 setlinejoin
0 setlinecap
0 0 m
0 -4 l
gsave
0.000 setgray
fill
grestore
stroke
grestore
} bind def
431.365 428.49 o
grestore
gsave
420.044393 31.500625 translate
0.000000 rotate
0.000000 0.234375 m /one glyphshow
10.179688 0.234375 m /period glyphshow
15.265625 0.234375 m /zero glyphshow
grestore
gsave
254.937040 14.110000 translate
0.000000 rotate
0.000000 0.234375 m /t glyphshow
6.273438 0.234375 m /o glyphshow
16.062500 0.234375 m /l glyphshow
20.507812 0.234375 m /e glyphshow
30.351562 0.234375 m /r glyphshow
36.929688 0.234375 m /a glyphshow
46.734375 0.234375 m /n glyphshow
56.875000 0.234375 m /c glyphshow
65.671875 0.234375 m /e glyphshow
grestore
gsave
/o {
gsave
newpath
translate
0.5 setlinewidth
1 setlinejoin
0 setlinecap
0 0 m
4 0 l
gsave
0.000 setgray
fill
grestore
stroke
grestore
} bind def
152.775 47.61 o
grestore
gsave
/o {
gsave
newpath
translate
0.5 setlinewidth
1 setlinejoin
0 setlinecap
0 0 m
-4 0 l
gsave
0.000 setgray
fill
grestore
stroke
grestore
} bind def
431.365 47.61 o
grestore
gsave
115.243750 41.555313 translate
0.000000 rotate
0.000000 0.234375 m /zero glyphshow
10.179688 0.234375 m /period glyphshow
15.265625 0.234375 m /six glyphshow
25.445312 0.234375 m /zero glyphshow
grestore
gsave
/o {
gsave
newpath
translate
0.5 setlinewidth
1 setlinejoin
0 setlinecap
0 0 m
4 0 l
gsave
0.000 setgray
fill
grestore
stroke
grestore
} bind def
152.775 102.021 o
grestore
gsave
/o {
gsave
newpath
translate
0.5 setlinewidth
1 setlinejoin
0 setlinecap
0 0 m
-4 0 l
gsave
0.000 setgray
fill
grestore
stroke
grestore
} bind def
431.365 102.021 o
grestore
gsave
115.587500 95.966741 translate
0.000000 rotate
0.000000 0.234375 m /zero glyphshow
10.179688 0.234375 m /period glyphshow
15.265625 0.234375 m /six glyphshow
25.445312 0.234375 m /five glyphshow
grestore
gsave
/o {
gsave
newpath
translate
0.5 setlinewidth
1 setlinejoin
0 setlinecap
0 0 m
4 0 l
gsave
0.000 setgray
fill
grestore
stroke
grestore
} bind def
152.775 156.433 o
grestore
gsave
/o {
gsave
newpath
translate
0.5 setlinewidth
1 setlinejoin
0 setlinecap
0 0 m
-4 0 l
gsave
0.000 setgray
fill
grestore
stroke
grestore
} bind def
431.365 156.433 o
grestore
gsave
115.243750 150.378170 translate
0.000000 rotate
0.000000 0.234375 m /zero glyphshow
10.179688 0.234375 m /period glyphshow
15.265625 0.234375 m /seven glyphshow
25.445312 0.234375 m /zero glyphshow
grestore
gsave
/o {
gsave
newpath
translate
0.5 setlinewidth
1 setlinejoin
0 setlinecap
0 0 m
4 0 l
gsave
0.000 setgray
fill
grestore
stroke
grestore
} bind def
152.775 210.844 o
grestore
gsave
/o {
gsave
newpath
translate
0.5 setlinewidth
1 setlinejoin
0 setlinecap
0 0 m
-4 0 l
gsave
0.000 setgray
fill
grestore
stroke
grestore
} bind def
431.365 210.844 o
grestore
gsave
115.587500 204.789598 translate
0.000000 rotate
0.000000 0.234375 m /zero glyphshow
10.179688 0.234375 m /period glyphshow
15.265625 0.234375 m /seven glyphshow
25.445312 0.234375 m /five glyphshow
grestore
gsave
/o {
gsave
newpath
translate
0.5 setlinewidth
1 setlinejoin
0 setlinecap
0 0 m
4 0 l
gsave
0.000 setgray
fill
grestore
stroke
grestore
} bind def
152.775 265.256 o
grestore
gsave
/o {
gsave
newpath
translate
0.5 setlinewidth
1 setlinejoin
0 setlinecap
0 0 m
-4 0 l
gsave
0.000 setgray
fill
grestore
stroke
grestore
} bind def
431.365 265.256 o
grestore
gsave
115.243750 259.201027 translate
0.000000 rotate
0.000000 0.234375 m /zero glyphshow
10.179688 0.234375 m /period glyphshow
15.265625 0.234375 m /eight glyphshow
25.445312 0.234375 m /zero glyphshow
grestore
gsave
/o {
gsave
newpath
translate
0.5 setlinewidth
1 setlinejoin
0 setlinecap
0 0 m
4 0 l
gsave
0.000 setgray
fill
grestore
stroke
grestore
} bind def
152.775 319.667 o
grestore
gsave
/o {
gsave
newpath
translate
0.5 setlinewidth
1 setlinejoin
0 setlinecap
0 0 m
-4 0 l
gsave
0.000 setgray
fill
grestore
stroke
grestore
} bind def
431.365 319.667 o
grestore
gsave
115.587500 313.612455 translate
0.000000 rotate
0.000000 0.234375 m /zero glyphshow
10.179688 0.234375 m /period glyphshow
15.265625 0.234375 m /eight glyphshow
25.445312 0.234375 m /five glyphshow
grestore
gsave
/o {
gsave
newpath
translate
0.5 setlinewidth
1 setlinejoin
0 setlinecap
0 0 m
4 0 l
gsave
0.000 setgray
fill
grestore
stroke
grestore
} bind def
152.775 374.079 o
grestore
gsave
/o {
gsave
newpath
translate
0.5 setlinewidth
1 setlinejoin
0 setlinecap
0 0 m
-4 0 l
gsave
0.000 setgray
fill
grestore
stroke
grestore
} bind def
431.365 374.079 o
grestore
gsave
115.243750 368.023884 translate
0.000000 rotate
0.000000 0.234375 m /zero glyphshow
10.179688 0.234375 m /period glyphshow
15.265625 0.234375 m /nine glyphshow
25.445312 0.234375 m /zero glyphshow
grestore
gsave
110.243750 209.385937 translate
90.000000 rotate
0.000000 3.328125 m /d glyphshow
10.156250 3.328125 m /e glyphshow
20.000000 3.328125 m /n glyphshow
30.140625 3.328125 m /s glyphshow
38.476562 3.328125 m /i glyphshow
42.921875 3.328125 m /t glyphshow
49.195312 3.328125 m /y glyphshow
grestore
1.000 setlinewidth
2 setlinecap
gsave
152.775 428.49 m
431.365 428.49 l
stroke
grestore
gsave
431.365 47.61 m
431.365 428.49 l
stroke
grestore
gsave
152.775 47.61 m
431.365 47.61 l
stroke
grestore
gsave
152.775 47.61 m
152.775 428.49 l
stroke
grestore
/DejaVuSans findfont
9.000 scalefont
setfont
gsave
245.908026 335.703780 translate
348.405949 rotate
0.000000 0.125000 m /four glyphshow
5.726074 0.125000 m /period glyphshow
8.586914 0.125000 m /zero glyphshow
14.312988 0.125000 m /zero glyphshow
20.039062 0.125000 m /zero glyphshow
grestore
gsave
189.627327 256.815814 translate
271.329418 rotate
0.000000 0.125000 m /six glyphshow
5.726074 0.125000 m /period glyphshow
8.586914 0.125000 m /zero glyphshow
14.312988 0.125000 m /zero glyphshow
20.039062 0.125000 m /zero glyphshow
grestore
gsave
228.697576 153.172587 translate
81.798866 rotate
0.000000 0.125000 m /six glyphshow
5.726074 0.125000 m /period glyphshow
8.586914 0.125000 m /zero glyphshow
14.312988 0.125000 m /zero glyphshow
20.039062 0.125000 m /zero glyphshow
grestore
gsave
418.464274 297.566902 translate
78.152356 rotate
0.000000 0.125000 m /six glyphshow
5.726074 0.125000 m /period glyphshow
8.586914 0.125000 m /zero glyphshow
14.312988 0.125000 m /zero glyphshow
20.039062 0.125000 m /zero glyphshow
grestore
gsave
336.628272 345.443368 translate
80.483896 rotate
0.000000 0.125000 m /six glyphshow
5.726074 0.125000 m /period glyphshow
8.586914 0.125000 m /zero glyphshow
14.312988 0.125000 m /zero glyphshow
20.039062 0.125000 m /zero glyphshow
grestore
gsave
213.145926 258.238310 translate
67.107458 rotate
0.000000 0.125000 m /eight glyphshow
5.726074 0.125000 m /period glyphshow
8.586914 0.125000 m /zero glyphshow
14.312988 0.125000 m /zero glyphshow
20.039062 0.125000 m /zero glyphshow
grestore
/DejaVuSans findfont
19.200 scalefont
setfont
gsave
260.038603 433.224375 translate
0.000000 rotate
0.000000 0.265625 m /f glyphshow
6.776978 0.265625 m /equal glyphshow
22.906372 0.265625 m /zero glyphshow
35.153809 0.265625 m /period glyphshow
41.272827 0.265625 m /zero glyphshow
53.520264 0.265625 m /zero glyphshow
grestore
gsave
487.083 47.61 m
765.672 47.61 l
765.672 428.49 l
487.083 428.49 l
cl
1.000 setgray
fill
grestore
/p3_0 {
newpath
translate
688.426 47.61 m
688.82 48.1848 l
689 47.61 l
} bind def
0 setlinecap
gsave
278.6 380.9 487.1 47.61 clipbox
0 0 p3_0
stroke
grestore
/p4_0 {
newpath
translate
531.631 47.61 m
532.198 60.7438 l
530.157 73.8776 l
530.051 87.0114 l
529.129 100.145 l
527.501 113.279 l
527.109 126.413 l
525.509 135.312 l
523.617 139.547 l
524.687 152.68 l
525.509 153.86 l
526.487 165.814 l
525.509 172.902 l
524.829 173.588 l
} bind def
/p4_1 {
newpath
translate
502.258 187.82 m
499.746 192.082 l
506.296 202.022 l
508.809 205.216 l
515.902 212.112 l
517.547 218.349 l
518.069 231.483 l
515.902 237.971 l
506.296 233.558 l
505.801 231.483 l
506.296 223.863 l
508.021 218.349 l
506.296 213.64 l
496.689 207.166 l
491.278 218.349 l
492.226 231.483 l
490.132 244.617 l
490.589 257.751 l
493.418 270.884 l
487.083 276.314 l
} bind def
/p4_2 {
newpath
translate
578.371 47.61 m
579.006 60.7438 l
581.526 73.8776 l
576.645 87.0114 l
581.044 100.145 l
580.702 113.279 l
582.096 126.413 l
581.598 139.547 l
583.148 146.5 l
586.291 152.68 l
591.247 165.814 l
589.249 178.948 l
592.755 184.554 l
596.094 187.423 l
} bind def
/p4_3 {
newpath
translate
598.719 222.934 m
599.467 231.483 l
602.361 237.516 l
607.944 244.617 l
608.812 257.751 l
611.968 265.504 l
621.574 265.038 l
625.757 257.751 l
631.181 245.748 l
632.701 244.617 l
631.181 241.769 l
628.314 231.483 l
621.574 226.297 l
617.338 218.349 l
612.919 205.216 l
618.869 192.082 l
621.574 190.865 l
623.912 192.082 l
630.997 205.216 l
629.077 218.349 l
631.181 224.949 l
635.27 231.483 l
640.787 237.762 l
645.158 244.617 l
650.394 254.87 l
652.234 244.617 l
660 232.526 l
661.365 231.483 l
660 230.535 l
653.356 218.349 l
660 206.573 l
661.873 205.216 l
660 203.018 l
653.284 192.082 l
660 187.001 l
665.163 192.082 l
669.607 198.768 l
675.528 205.216 l
675.227 218.349 l
675.373 231.483 l
679.213 236.092 l
682.012 231.483 l
688.82 222.613 l
694.499 218.349 l
688.82 215.635 l
680.887 205.216 l
686.111 192.082 l
679.213 187.823 l
675.791 178.948 l
679.213 169.721 l
681.448 165.814 l
679.213 159.825 l
673.273 152.68 l
679.213 147.377 l
684.133 139.547 l
679.213 128.366 l
678.095 126.413 l
679.213 122.992 l
680.879 113.279 l
685.947 100.145 l
688.82 94.7908 l
695.61 87.0114 l
698.427 84.91 l
707.999 87.0114 l
703.38 100.145 l
698.427 102.179 l
694.998 113.279 l
698.427 119.14 l
705.185 113.279 l
708.033 103.954 l
710.525 113.279 l
717.64 123.811 l
727.246 118.49 l
733.046 126.413 l
727.246 133.09 l
721.613 139.547 l
717.64 146.59 l
709.221 139.547 l
708.033 133.327 l
705.703 139.547 l
702.494 152.68 l
702.958 165.814 l
698.427 169.687 l
693.262 178.948 l
698.427 188.066 l
708.033 185.706 l
716.478 178.948 l
717.64 174.146 l
719.136 178.948 l
727.246 189.86 l
730.116 192.082 l
727.246 194.21 l
723.403 205.216 l
727.246 215.393 l
736.853 206.65 l
746.459 214.632 l
756.066 211.424 l
765.672 209.955 l
} bind def
/p4_4 {
newpath
translate
591.345 47.61 m
592.755 48.28 l
593.05 47.61 l
} bind def
/p4_5 {
newpath
translate
610.16 47.61 m
609.589 60.7438 l
611.968 61.0158 l
612.207 60.7438 l
613.48 47.61 l
} bind def
/p4_6 {
newpath
translate
713.17 47.61 m
717.64 57.4711 l
723.029 47.61 l
} bind def
/p4_7 {
newpath
translate
732.257 47.61 m
736.853 53.8399 l
740.13 47.61 l
} bind def
/p4_8 {
newpath
translate
650.394 69.0775 m
660 73.0388 l
660.497 73.8776 l
660 75.1816 l
650.394 77.5262 l
648.603 73.8776 l
650.394 69.0775 l
} bind def
/p4_9 {
newpath
translate
621.574 83.362 m
628.936 87.0114 l
621.574 93.1382 l
617.712 87.0114 l
621.574 83.362 l
} bind def
/p4_a {
newpath
translate
650.394 95.49 m
652.831 100.145 l
650.394 106.723 l
647.783 100.145 l
650.394 95.49 l
} bind def
/p4_b {
newpath
translate
727.246 91.9855 m
731.179 100.145 l
727.246 107.26 l
719.931 100.145 l
727.246 91.9855 l
} bind def
/p4_c {
newpath
translate
602.361 111.578 m
602.865 113.279 l
602.361 114.382 l
601.356 113.279 l
602.361 111.578 l
} bind def
/p4_d {
newpath
translate
631.181 111.941 m
632.479 113.279 l
631.181 116.078 l
629.928 113.279 l
631.181 111.941 l
} bind def
/p4_e {
newpath
translate
660 109.159 m
669.607 112.043 l
670.52 113.279 l
669.607 113.775 l
660 118.246 l
654.484 113.279 l
660 109.159 l
} bind def
/p4_f {
newpath
translate
650.394 151.386 m
653.473 152.68 l
650.394 155.89 l
649.126 152.68 l
650.394 151.386 l
} bind def
/p4_10 {
newpath
translate
631.181 156.304 m
640.787 160.608 l
646.386 165.814 l
643.266 178.948 l
640.787 181.899 l
635.234 178.948 l
631.181 175.156 l
622.143 165.814 l
631.181 156.304 l
} bind def
/p4_11 {
newpath
translate
765.672 159.074 m
756.066 162.934 l
754.15 152.68 l
751.564 139.547 l
756.066 135.597 l
757.85 139.547 l
765.672 149.792 l
} bind def
/p4_12 {
newpath
translate
583.148 187.507 m
581.823 192.082 l
583.148 197.803 l
587.08 192.082 l
583.148 187.507 l
} bind def
/p4_13 {
newpath
translate
765.672 191.254 m
764.703 192.082 l
756.066 201.653 l
746.75 192.082 l
746.459 186.296 l
745.603 178.948 l
738.484 169.086 l
} bind def
/p4_14 {
newpath
translate
734.907 141.496 m
735.324 139.547 l
736.853 136.683 l
739.985 139.547 l
739.238 152.68 l
746.459 163.497 l
753.701 165.814 l
756.066 168.312 l
765.672 168.438 l
} bind def
/p4_15 {
newpath
translate
640.787 217.394 m
642.243 218.349 l
640.787 222.655 l
636.997 218.349 l
640.787 217.394 l
} bind def
/p4_16 {
newpath
translate
688.82 238.56 m
683.733 244.617 l
688.82 249.537 l
696.348 244.617 l
688.82 238.56 l
} bind def
/p4_17 {
newpath
translate
746.459 242.126 m
741.446 244.617 l
746.459 251.839 l
753.393 244.617 l
746.459 242.126 l
} bind def
/p4_18 {
newpath
translate
679.213 255.365 m
674.294 257.751 l
679.213 258.887 l
680.228 257.751 l
679.213 255.365 l
} bind def
/p4_19 {
newpath
translate
765.672 257.213 m
765.544 257.751 l
763.811 264.749 l
} bind def
/p4_1a {
newpath
translate
515.902 270.345 m
515.34 270.884 l
515.902 272.173 l
516.242 270.884 l
515.902 270.345 l
} bind def
/p4_1b {
newpath
translate
650.394 270.612 m
650.383 270.884 l
650.394 270.901 l
650.408 270.884 l
650.394 270.612 l
} bind def
/p4_1c {
newpath
translate
746.459 264.141 m
744.382 270.884 l
746.459 275.204 l
749.052 270.884 l
746.459 264.141 l
} bind def
/p4_1d {
newpath
translate
736.853 278.812 m
734.804 284.018 l
736.853 289.675 l
742.025 284.018 l
736.853 278.812 l
} bind def
/p4_1e {
newpath
translate
688.82 296.44 m
687.814 297.152 l
688.82 297.749 l
689.491 297.152 l
688.82 296.44 l
} bind def
/p4_1f {
newpath
translate
746.459 291.343 m
743.197 297.152 l
746.459 299.107 l
749.03 297.152 l
746.459 291.343 l
} bind def
/p4_20 {
newpath
translate
487.083 307.32 m
489.023 310.286 l
487.083 315.449 l
} bind def
/p4_21 {
newpath
translate
727.246 306.691 m
724.354 310.286 l
727.246 312.295 l
729.132 310.286 l
727.246 306.691 l
} bind def
/p4_22 {
newpath
translate
631.181 322.649 m
630.809 323.42 l
628.263 336.553 l
631.181 339.109 l
634.271 336.553 l
640.787 328.582 l
650.394 328.785 l
656.553 323.42 l
650.394 314.739 l
640.787 315.174 l
631.181 322.649 l
} bind def
/p4_23 {
newpath
translate
669.607 333.273 m
668.858 336.553 l
669.607 337.222 l
670.141 336.553 l
669.607 333.273 l
} bind def
/p4_24 {
newpath
translate
660 362.543 m
658.85 362.821 l
660 363.059 l
660.233 362.821 l
660 362.543 l
} bind def
/p4_25 {
newpath
translate
756.066 371.943 m
751.189 375.955 l
756.066 381.549 l
762.348 375.955 l
756.066 371.943 l
} bind def
/p4_26 {
newpath
translate
756.066 398.939 m
754.842 402.222 l
756.066 404.32 l
758.49 402.222 l
756.066 398.939 l
} bind def
gsave
278.6 380.9 487.1 47.61 clipbox
0 0 p4_0
stroke
grestore
gsave
278.6 380.9 487.1 47.61 clipbox
0 0 p4_1
stroke
grestore
gsave
278.6 380.9 487.1 47.61 clipbox
0 0 p4_2
stroke
grestore
gsave
278.6 380.9 487.1 47.61 clipbox
0 0 p4_3
stroke
grestore
gsave
278.6 380.9 487.1 47.61 clipbox
0 0 p4_4
stroke
grestore
gsave
278.6 380.9 487.1 47.61 clipbox
0 0 p4_5
stroke
grestore
gsave
278.6 380.9 487.1 47.61 clipbox
0 0 p4_6
stroke
grestore
gsave
278.6 380.9 487.1 47.61 clipbox
0 0 p4_7
stroke
grestore
gsave
278.6 380.9 487.1 47.61 clipbox
0 0 p4_8
stroke
grestore
gsave
278.6 380.9 487.1 47.61 clipbox
0 0 p4_9
stroke
grestore
gsave
278.6 380.9 487.1 47.61 clipbox
0 0 p4_a
stroke
grestore
gsave
278.6 380.9 487.1 47.61 clipbox
0 0 p4_b
stroke
grestore
gsave
278.6 380.9 487.1 47.61 clipbox
0 0 p4_c
stroke
grestore
gsave
278.6 380.9 487.1 47.61 clipbox
0 0 p4_d
stroke
grestore
gsave
278.6 380.9 487.1 47.61 clipbox
0 0 p4_e
stroke
grestore
gsave
278.6 380.9 487.1 47.61 clipbox
0 0 p4_f
stroke
grestore
gsave
278.6 380.9 487.1 47.61 clipbox
0 0 p4_10
stroke
grestore
gsave
278.6 380.9 487.1 47.61 clipbox
0 0 p4_11
stroke
grestore
gsave
278.6 380.9 487.1 47.61 clipbox
0 0 p4_12
stroke
grestore
gsave
278.6 380.9 487.1 47.61 clipbox
0 0 p4_13
stroke
grestore
gsave
278.6 380.9 487.1 47.61 clipbox
0 0 p4_14
stroke
grestore
gsave
278.6 380.9 487.1 47.61 clipbox
0 0 p4_15
stroke
grestore
gsave
278.6 380.9 487.1 47.61 clipbox
0 0 p4_16
stroke
grestore
gsave
278.6 380.9 487.1 47.61 clipbox
0 0 p4_17
stroke
grestore
gsave
278.6 380.9 487.1 47.61 clipbox
0 0 p4_18
stroke
grestore
gsave
278.6 380.9 487.1 47.61 clipbox
0 0 p4_19
stroke
grestore
gsave
278.6 380.9 487.1 47.61 clipbox
0 0 p4_1a
stroke
grestore
gsave
278.6 380.9 487.1 47.61 clipbox
0 0 p4_1b
stroke
grestore
gsave
278.6 380.9 487.1 47.61 clipbox
0 0 p4_1c
stroke
grestore
gsave
278.6 380.9 487.1 47.61 clipbox
0 0 p4_1d
stroke
grestore
gsave
278.6 380.9 487.1 47.61 clipbox
0 0 p4_1e
stroke
grestore
gsave
278.6 380.9 487.1 47.61 clipbox
0 0 p4_1f
stroke
grestore
gsave
278.6 380.9 487.1 47.61 clipbox
0 0 p4_20
stroke
grestore
gsave
278.6 380.9 487.1 47.61 clipbox
0 0 p4_21
stroke
grestore
gsave
278.6 380.9 487.1 47.61 clipbox
0 0 p4_22
stroke
grestore
gsave
278.6 380.9 487.1 47.61 clipbox
0 0 p4_23
stroke
grestore
gsave
278.6 380.9 487.1 47.61 clipbox
0 0 p4_24
stroke
grestore
gsave
278.6 380.9 487.1 47.61 clipbox
0 0 p4_25
stroke
grestore
gsave
278.6 380.9 487.1 47.61 clipbox
0 0 p4_26
stroke
grestore
/p5_0 {
newpath
translate
549.487 47.61 m
544.722 56.098 l
543.589 60.7438 l
544.718 73.8776 l
544.722 73.8978 l
544.729 73.8776 l
554.328 65.1201 l
563.935 72.5786 l
571.213 60.7438 l
563.935 48.4466 l
562.322 47.61 l
} bind def
/p5_1 {
newpath
translate
544.722 152.463 m
544.878 152.68 l
550.839 165.814 l
544.722 171.31 l
540.572 165.814 l
544.644 152.68 l
544.722 152.463 l
} bind def
/p5_2 {
newpath
translate
765.672 178.402 m
765.067 178.948 l
765.672 179.587 l
} bind def
/p5_3 {
newpath
translate
544.722 203.88 m
545.929 205.216 l
544.722 206.14 l
544.312 205.216 l
544.722 203.88 l
} bind def
/p5_4 {
newpath
translate
708.033 256.966 m
708.434 257.751 l
711.748 270.884 l
708.033 274.083 l
706.635 270.884 l
707.588 257.751 l
708.033 256.966 l
} bind def
/p5_5 {
newpath
translate
717.64 288.124 m
721.067 297.152 l
717.64 301.708 l
714.777 297.152 l
717.64 288.124 l
} bind def
/p5_6 {
newpath
translate
688.82 309.638 m
689.617 310.286 l
688.82 311.168 l
686.781 310.286 l
688.82 309.638 l
} bind def
/p5_7 {
newpath
translate
717.64 322.905 m
718.259 323.42 l
717.64 327.465 l
716.842 323.42 l
717.64 322.905 l
} bind def
/p5_8 {
newpath
translate
544.722 347.346 m
547.929 349.687 l
544.722 350.757 l
542.912 349.687 l
544.722 347.346 l
} bind def
/p5_9 {
newpath
translate
698.427 346.646 m
708.016 349.687 l
704.494 362.821 l
698.427 370.833 l
694.014 362.821 l
690.302 349.687 l
698.427 346.646 l
} bind def
/p5_a {
newpath
translate
736.853 345.292 m
739.772 349.687 l
736.853 357.157 l
730.661 349.687 l
736.853 345.292 l
} bind def
/p5_b {
newpath
translate
679.213 374.407 m
682.585 375.955 l
679.213 377.447 l
678.449 375.955 l
679.213 374.407 l
} bind def
/p5_c {
newpath
translate
717.64 369.754 m
724.823 375.955 l
727.246 380.833 l
728.779 389.089 l
727.246 392.748 l
720.242 389.089 l
717.64 386.791 l
713.153 375.955 l
717.64 369.754 l
} bind def
/p5_d {
newpath
translate
669.607 414.905 m
669.917 415.356 l
669.607 415.712 l
669.362 415.356 l
669.607 414.905 l
} bind def
/p5_e {
newpath
translate
708.033 411.256 m
703.544 415.356 l
708.033 425.291 l
714.114 415.356 l
708.033 411.256 l
} bind def
/p5_f {
newpath
translate
557.503 428.49 m
554.838 415.356 l
558.23 402.222 l
555.421 389.089 l
555.822 375.955 l
554.547 362.821 l
555.491 349.687 l
561.41 336.553 l
557.17 323.42 l
555.854 310.286 l
558.934 297.152 l
560.305 284.018 l
558.404 270.884 l
556.996 263.39 l
} bind def
/p5_10 {
newpath
translate
555.327 225.807 m
554.328 218.509 l
554.292 218.349 l
554.328 218.256 l
556.689 205.216 l
556.859 192.082 l
554.328 180.701 l
553.524 178.948 l
554.328 176.555 l
557.817 165.814 l
560.385 152.68 l
556.775 139.547 l
557.68 126.413 l
560.202 113.279 l
558.086 100.145 l
555.487 87.0114 l
563.935 75.4138 l
568.154 87.0114 l
573.542 96.9345 l
574.882 100.145 l
573.542 108.539 l
569.626 113.279 l
573.542 124.142 l
573.756 126.413 l
573.542 127.362 l
570.522 139.547 l
567.963 152.68 l
566.573 165.814 l
573.542 177.942 l
574.045 178.948 l
573.542 182.925 l
571.818 192.082 l
570.344 205.216 l
573.542 213.376 l
575.218 218.349 l
573.542 223.896 l
570.352 231.483 l
573.542 241.599 l
574.533 244.617 l
579.085 257.751 l
574.009 270.884 l
579.755 284.018 l
580.041 297.152 l
573.542 307.329 l
571.177 310.286 l
573.542 321.659 l
574.596 323.42 l
583.148 334.067 l
583.818 336.553 l
587.141 349.687 l
585.013 362.821 l
589.726 375.955 l
586.513 389.089 l
586.858 402.222 l
587.103 415.356 l
587.895 428.49 l
} bind def
/p5_11 {
newpath
translate
691.303 428.49 m
691.613 415.356 l
689.1 402.222 l
691.714 389.089 l
693.887 387.046 l
} bind def
/p5_12 {
newpath
translate
722.614 409.107 m
727.246 406.953 l
735.824 415.356 l
733.336 428.49 l
} bind def
gsave
278.6 380.9 487.1 47.61 clipbox
0 0 p5_0
stroke
grestore
gsave
278.6 380.9 487.1 47.61 clipbox
0 0 p5_1
stroke
grestore
gsave
278.6 380.9 487.1 47.61 clipbox
0 0 p5_2
stroke
grestore
gsave
278.6 380.9 487.1 47.61 clipbox
0 0 p5_3
stroke
grestore
gsave
278.6 380.9 487.1 47.61 clipbox
0 0 p5_4
stroke
grestore
gsave
278.6 380.9 487.1 47.61 clipbox
0 0 p5_5
stroke
grestore
gsave
278.6 380.9 487.1 47.61 clipbox
0 0 p5_6
stroke
grestore
gsave
278.6 380.9 487.1 47.61 clipbox
0 0 p5_7
stroke
grestore
gsave
278.6 380.9 487.1 47.61 clipbox
0 0 p5_8
stroke
grestore
gsave
278.6 380.9 487.1 47.61 clipbox
0 0 p5_9
stroke
grestore
gsave
278.6 380.9 487.1 47.61 clipbox
0 0 p5_a
stroke
grestore
gsave
278.6 380.9 487.1 47.61 clipbox
0 0 p5_b
stroke
grestore
gsave
278.6 380.9 487.1 47.61 clipbox
0 0 p5_c
stroke
grestore
gsave
278.6 380.9 487.1 47.61 clipbox
0 0 p5_d
stroke
grestore
gsave
278.6 380.9 487.1 47.61 clipbox
0 0 p5_e
stroke
grestore
gsave
278.6 380.9 487.1 47.61 clipbox
0 0 p5_f
stroke
grestore
gsave
278.6 380.9 487.1 47.61 clipbox
0 0 p5_10
stroke
grestore
gsave
278.6 380.9 487.1 47.61 clipbox
0 0 p5_11
stroke
grestore
gsave
278.6 380.9 487.1 47.61 clipbox
0 0 p5_12
stroke
grestore
0.500 setlinewidth
gsave
/o {
gsave
newpath
translate
0.5 setlinewidth
1 setlinejoin
0 setlinecap
0 0 m
0 4 l
gsave
0.000 setgray
fill
grestore
stroke
grestore
} bind def
487.083 47.61 o
grestore
gsave
/o {
gsave
newpath
translate
0.5 setlinewidth
1 setlinejoin
0 setlinecap
0 0 m
0 -4 l
gsave
0.000 setgray
fill
grestore
stroke
grestore
} bind def
487.083 428.49 o
grestore
/DejaVuSans findfont
16.000 scalefont
setfont
gsave
475.410772 31.500625 translate
0.000000 rotate
0.000000 0.234375 m /zero glyphshow
10.179688 0.234375 m /period glyphshow
15.265625 0.234375 m /zero glyphshow
grestore
gsave
/o {
gsave
newpath
translate
0.5 setlinewidth
1 setlinejoin
0 setlinecap
0 0 m
0 4 l
gsave
0.000 setgray
fill
grestore
stroke
grestore
} bind def
542.801 47.61 o
grestore
gsave
/o {
gsave
newpath
translate
0.5 setlinewidth
1 setlinejoin
0 setlinecap
0 0 m
0 -4 l
gsave
0.000 setgray
fill
grestore
stroke
grestore
} bind def
542.801 428.49 o
grestore
gsave
531.402151 31.500625 translate
0.000000 rotate
0.000000 0.234375 m /zero glyphshow
10.179688 0.234375 m /period glyphshow
15.265625 0.234375 m /two glyphshow
grestore
gsave
/o {
gsave
newpath
translate
0.5 setlinewidth
1 setlinejoin
0 setlinecap
0 0 m
0 4 l
gsave
0.000 setgray
fill
grestore
stroke
grestore
} bind def
598.519 47.61 o
grestore
gsave
/o {
gsave
newpath
translate
0.5 setlinewidth
1 setlinejoin
0 setlinecap
0 0 m
0 -4 l
gsave
0.000 setgray
fill
grestore
stroke
grestore
} bind def
598.519 428.49 o
grestore
gsave
586.768529 31.500625 translate
0.000000 rotate
0.000000 0.234375 m /zero glyphshow
10.179688 0.234375 m /period glyphshow
15.265625 0.234375 m /four glyphshow
grestore
gsave
/o {
gsave
newpath
translate
0.5 setlinewidth
1 setlinejoin
0 setlinecap
0 0 m
0 4 l
gsave
0.000 setgray
fill
grestore
stroke
grestore
} bind def
654.236 47.61 o
grestore
gsave
/o {
gsave
newpath
translate
0.5 setlinewidth
1 setlinejoin
0 setlinecap
0 0 m
0 -4 l
gsave
0.000 setgray
fill
grestore
stroke
grestore
} bind def
654.236 428.49 o
grestore
gsave
642.541158 31.500625 translate
0.000000 rotate
0.000000 0.234375 m /zero glyphshow
10.179688 0.234375 m /period glyphshow
15.265625 0.234375 m /six glyphshow
grestore
gsave
/o {
gsave
newpath
translate
0.5 setlinewidth
1 setlinejoin
0 setlinecap
0 0 m
0 4 l
gsave
0.000 setgray
fill
grestore
stroke
grestore
} bind def
709.954 47.61 o
grestore
gsave
/o {
gsave
newpath
translate
0.5 setlinewidth
1 setlinejoin
0 setlinecap
0 0 m
0 -4 l
gsave
0.000 setgray
fill
grestore
stroke
grestore
} bind def
709.954 428.49 o
grestore
gsave
698.298162 31.500625 translate
0.000000 rotate
0.000000 0.234375 m /zero glyphshow
10.179688 0.234375 m /period glyphshow
15.265625 0.234375 m /eight glyphshow
grestore
gsave
/o {
gsave
newpath
translate
0.5 setlinewidth
1 setlinejoin
0 setlinecap
0 0 m
0 4 l
gsave
0.000 setgray
fill
grestore
stroke
grestore
} bind def
765.672 47.61 o
grestore
gsave
/o {
gsave
newpath
translate
0.5 setlinewidth
1 setlinejoin
0 setlinecap
0 0 m
0 -4 l
gsave
0.000 setgray
fill
grestore
stroke
grestore
} bind def
765.672 428.49 o
grestore
gsave
754.352040 31.500625 translate
0.000000 rotate
0.000000 0.234375 m /one glyphshow
10.179688 0.234375 m /period glyphshow
15.265625 0.234375 m /zero glyphshow
grestore
gsave
589.244688 14.110000 translate
0.000000 rotate
0.000000 0.234375 m /t glyphshow
6.273438 0.234375 m /o glyphshow
16.062500 0.234375 m /l glyphshow
20.507812 0.234375 m /e glyphshow
30.351562 0.234375 m /r glyphshow
36.929688 0.234375 m /a glyphshow
46.734375 0.234375 m /n glyphshow
56.875000 0.234375 m /c glyphshow
65.671875 0.234375 m /e glyphshow
grestore
gsave
/o {
gsave
newpath
translate
0.5 setlinewidth
1 setlinejoin
0 setlinecap
0 0 m
4 0 l
gsave
0.000 setgray
fill
grestore
stroke
grestore
} bind def
487.083 47.61 o
grestore
gsave
/o {
gsave
newpath
translate
0.5 setlinewidth
1 setlinejoin
0 setlinecap
0 0 m
-4 0 l
gsave
0.000 setgray
fill
grestore
stroke
grestore
} bind def
765.672 47.61 o
grestore
gsave
449.551397 41.555313 translate
0.000000 rotate
0.000000 0.234375 m /zero glyphshow
10.179688 0.234375 m /period glyphshow
15.265625 0.234375 m /six glyphshow
25.445312 0.234375 m /zero glyphshow
grestore
gsave
/o {
gsave
newpath
translate
0.5 setlinewidth
1 setlinejoin
0 setlinecap
0 0 m
4 0 l
gsave
0.000 setgray
fill
grestore
stroke
grestore
} bind def
487.083 102.021 o
grestore
gsave
/o {
gsave
newpath
translate
0.5 setlinewidth
1 setlinejoin
0 setlinecap
0 0 m
-4 0 l
gsave
0.000 setgray
fill
grestore
stroke
grestore
} bind def
765.672 102.021 o
grestore
gsave
449.895147 95.966741 translate
0.000000 rotate
0.000000 0.234375 m /zero glyphshow
10.179688 0.234375 m /period glyphshow
15.265625 0.234375 m /six glyphshow
25.445312 0.234375 m /five glyphshow
grestore
gsave
/o {
gsave
newpath
translate
0.5 setlinewidth
1 setlinejoin
0 setlinecap
0 0 m
4 0 l
gsave
0.000 setgray
fill
grestore
stroke
grestore
} bind def
487.083 156.433 o
grestore
gsave
/o {
gsave
newpath
translate
0.5 setlinewidth
1 setlinejoin
0 setlinecap
0 0 m
-4 0 l
gsave
0.000 setgray
fill
grestore
stroke
grestore
} bind def
765.672 156.433 o
grestore
gsave
449.551397 150.378170 translate
0.000000 rotate
0.000000 0.234375 m /zero glyphshow
10.179688 0.234375 m /period glyphshow
15.265625 0.234375 m /seven glyphshow
25.445312 0.234375 m /zero glyphshow
grestore
gsave
/o {
gsave
newpath
translate
0.5 setlinewidth
1 setlinejoin
0 setlinecap
0 0 m
4 0 l
gsave
0.000 setgray
fill
grestore
stroke
grestore
} bind def
487.083 210.844 o
grestore
gsave
/o {
gsave
newpath
translate
0.5 setlinewidth
1 setlinejoin
0 setlinecap
0 0 m
-4 0 l
gsave
0.000 setgray
fill
grestore
stroke
grestore
} bind def
765.672 210.844 o
grestore
gsave
449.895147 204.789598 translate
0.000000 rotate
0.000000 0.234375 m /zero glyphshow
10.179688 0.234375 m /period glyphshow
15.265625 0.234375 m /seven glyphshow
25.445312 0.234375 m /five glyphshow
grestore
gsave
/o {
gsave
newpath
translate
0.5 setlinewidth
1 setlinejoin
0 setlinecap
0 0 m
4 0 l
gsave
0.000 setgray
fill
grestore
stroke
grestore
} bind def
487.083 265.256 o
grestore
gsave
/o {
gsave
newpath
translate
0.5 setlinewidth
1 setlinejoin
0 setlinecap
0 0 m
-4 0 l
gsave
0.000 setgray
fill
grestore
stroke
grestore
} bind def
765.672 265.256 o
grestore
gsave
449.551397 259.201027 translate
0.000000 rotate
0.000000 0.234375 m /zero glyphshow
10.179688 0.234375 m /period glyphshow
15.265625 0.234375 m /eight glyphshow
25.445312 0.234375 m /zero glyphshow
grestore
gsave
/o {
gsave
newpath
translate
0.5 setlinewidth
1 setlinejoin
0 setlinecap
0 0 m
4 0 l
gsave
0.000 setgray
fill
grestore
stroke
grestore
} bind def
487.083 319.667 o
grestore
gsave
/o {
gsave
newpath
translate
0.5 setlinewidth
1 setlinejoin
0 setlinecap
0 0 m
-4 0 l
gsave
0.000 setgray
fill
grestore
stroke
grestore
} bind def
765.672 319.667 o
grestore
gsave
449.895147 313.612455 translate
0.000000 rotate
0.000000 0.234375 m /zero glyphshow
10.179688 0.234375 m /period glyphshow
15.265625 0.234375 m /eight glyphshow
25.445312 0.234375 m /five glyphshow
grestore
gsave
/o {
gsave
newpath
translate
0.5 setlinewidth
1 setlinejoin
0 setlinecap
0 0 m
4 0 l
gsave
0.000 setgray
fill
grestore
stroke
grestore
} bind def
487.083 374.079 o
grestore
gsave
/o {
gsave
newpath
translate
0.5 setlinewidth
1 setlinejoin
0 setlinecap
0 0 m
-4 0 l
gsave
0.000 setgray
fill
grestore
stroke
grestore
} bind def
765.672 374.079 o
grestore
gsave
449.551397 368.023884 translate
0.000000 rotate
0.000000 0.234375 m /zero glyphshow
10.179688 0.234375 m /period glyphshow
15.265625 0.234375 m /nine glyphshow
25.445312 0.234375 m /zero glyphshow
grestore
1.000 setlinewidth
2 setlinecap
gsave
487.083 428.49 m
765.672 428.49 l
stroke
grestore
gsave
765.672 47.61 m
765.672 428.49 l
stroke
grestore
gsave
487.083 47.61 m
765.672 47.61 l
stroke
grestore
gsave
487.083 47.61 m
487.083 428.49 l
stroke
grestore
/DejaVuSans findfont
9.000 scalefont
setfont
gsave
503.794946 196.053537 translate
326.775679 rotate
0.000000 0.125000 m /five glyphshow
5.726074 0.125000 m /period glyphshow
8.586914 0.125000 m /six glyphshow
14.312988 0.125000 m /zero glyphshow
20.039062 0.125000 m /zero glyphshow
grestore
gsave
606.886110 217.279631 translate
272.757899 rotate
0.000000 0.125000 m /five glyphshow
5.726074 0.125000 m /period glyphshow
8.586914 0.125000 m /six glyphshow
14.312988 0.125000 m /zero glyphshow
20.039062 0.125000 m /zero glyphshow
grestore
gsave
723.538872 172.548982 translate
271.414038 rotate
0.000000 0.125000 m /five glyphshow
5.726074 0.125000 m /period glyphshow
8.586914 0.125000 m /six glyphshow
14.312988 0.125000 m /zero glyphshow
20.039062 0.125000 m /zero glyphshow
grestore
gsave
768.359739 271.604490 translate
86.788512 rotate
0.000000 0.125000 m /five glyphshow
5.726074 0.125000 m /period glyphshow
8.586914 0.125000 m /six glyphshow
14.312988 0.125000 m /zero glyphshow
20.039062 0.125000 m /zero glyphshow
grestore
gsave
552.714643 232.329496 translate
89.896211 rotate
0.000000 0.125000 m /six glyphshow
5.726074 0.125000 m /period glyphshow
8.586914 0.125000 m /four glyphshow
14.312988 0.125000 m /zero glyphshow
20.039062 0.125000 m /zero glyphshow
grestore
gsave
707.145034 383.686159 translate
70.502808 rotate
0.000000 0.125000 m /six glyphshow
5.726074 0.125000 m /period glyphshow
8.586914 0.125000 m /four glyphshow
14.312988 0.125000 m /zero glyphshow
20.039062 0.125000 m /zero glyphshow
grestore
/DejaVuSans findfont
19.200 scalefont
setfont
gsave
594.549375 433.224375 translate
0.000000 rotate
0.000000 0.265625 m /f glyphshow
6.776978 0.265625 m /equal glyphshow
22.906372 0.265625 m /zero glyphshow
35.153809 0.265625 m /period glyphshow
41.272827 0.265625 m /two glyphshow
53.520264 0.265625 m /five glyphshow
grestore
gsave
821.39 47.61 m
1099.98 47.61 l
1099.98 428.49 l
821.39 428.49 l
cl
1.000 setgray
fill
grestore
/p6_0 {
newpath
translate
1041.99 47.61 m
1042.34 49.3837 l
1044.78 47.61 l
} bind def
0 setlinecap
gsave
278.6 380.9 821.4 47.61 clipbox
0 0 p6_0
stroke
grestore
/p7_0 {
newpath
translate
873.956 47.61 m
869.423 58.2024 l
868.87 60.7438 l
866.036 73.8776 l
868.732 87.0114 l
864.683 100.145 l
863.367 113.279 l
859.816 122.125 l
856.315 126.413 l
854.103 139.547 l
850.21 147.569 l
840.603 151.971 l
839.712 152.68 l
840.603 153.063 l
842.134 155.156 l
} bind def
/p7_1 {
newpath
translate
856.314 154.799 m
857.393 152.68 l
859.816 151.003 l
860.239 152.68 l
861.741 165.814 l
859.816 173.425 l
850.645 178.948 l
850.21 190.37 l
847.28 178.948 l
840.603 178.391 l
832.231 165.814 l
830.997 161.421 l
829.843 165.814 l
828.303 178.948 l
825.614 192.082 l
825.061 205.216 l
824.421 218.349 l
821.39 222.294 l
} bind def
/p7_2 {
newpath
translate
882.835 47.61 m
888.636 50.5508 l
891.014 47.61 l
} bind def
/p7_3 {
newpath
translate
948.012 47.61 m
952.625 60.7438 l
955.882 66.5892 l
959.909 73.8776 l
963.086 87.0114 l
955.882 93.7529 l
950.055 100.145 l
946.275 112.745 l
945.914 113.279 l
946.275 113.785 l
947.448 113.279 l
953.179 111.807 l
} bind def
/p7_4 {
newpath
translate
963.513 147.134 m
965.346 152.68 l
965.488 154.04 l
975.095 156.864 l
980.545 165.814 l
984.702 177.678 l
992.915 165.814 l
992.109 152.68 l
984.702 147.931 l
975.095 148.433 l
968.861 139.547 l
975.095 133.497 l
983.457 126.413 l
975.095 120.525 l
968.476 113.279 l
975.095 102.5 l
981.775 100.145 l
984.702 98.4015 l
985.747 100.145 l
984.702 104.008 l
982.907 113.279 l
984.702 121.883 l
994.308 120.118 l
1001.97 126.413 l
1003.91 132.355 l
1006.06 139.547 l
1013.52 142.233 l
1023.13 143.333 l
1028.22 139.547 l
1023.13 136.045 l
1015.53 126.413 l
1013.52 122.994 l
1006.43 113.279 l
1013.52 104.083 l
1015.73 100.145 l
1023.13 94.3295 l
1032.73 90.2474 l
1041.75 100.145 l
1037.28 113.279 l
1032.73 117.606 l
1029.44 126.413 l
1032.73 134.521 l
1036.64 139.547 l
1042.34 145.49 l
1047.01 139.547 l
1051.95 134.988 l
1061.55 137.389 l
1064.32 139.547 l
1071.16 143.694 l
1072.9 139.547 l
1080.77 127.301 l
1085.4 139.547 l
1080.77 151.634 l
1079.29 152.68 l
1078.08 165.814 l
1080.77 170.097 l
1086.13 165.814 l
1089.56 152.68 l
1090.37 152.583 l
1090.46 152.68 l
1099.98 158.052 l
} bind def
/p7_5 {
newpath
translate
1029.92 47.61 m
1032.73 55.173 l
1034.54 47.61 l
} bind def
/p7_6 {
newpath
translate
936.669 50.3794 m
933.668 60.7438 l
936.669 65.7566 l
939.738 60.7438 l
936.669 50.3794 l
} bind def
/p7_7 {
newpath
translate
1023.13 55.5307 m
1029.69 60.7438 l
1023.13 73.6959 l
1017.34 60.7438 l
1023.13 55.5307 l
} bind def
/p7_8 {
newpath
translate
1051.95 58.2684 m
1054.7 60.7438 l
1051.95 67.3851 l
1049.81 60.7438 l
1051.95 58.2684 l
} bind def
/p7_9 {
newpath
translate
917.456 69.1926 m
914.955 73.8776 l
917.456 78.3241 l
921.305 73.8776 l
917.456 69.1926 l
} bind def
/p7_a {
newpath
translate
946.275 70.3768 m
943.169 73.8776 l
942.697 87.0114 l
946.275 88.1433 l
946.802 87.0114 l
949.757 73.8776 l
946.275 70.3768 l
} bind def
/p7_b {
newpath
translate
975.095 72.5674 m
977.882 73.8776 l
979.787 87.0114 l
975.095 96.6257 l
968.124 87.0114 l
973.569 73.8776 l
975.095 72.5674 l
} bind def
/p7_c {
newpath
translate
1042.34 72.484 m
1045.2 73.8776 l
1042.34 75.0751 l
1038.22 73.8776 l
1042.34 72.484 l
} bind def
/p7_d {
newpath
translate
1061.55 69.3997 m
1065.39 73.8776 l
1065.39 87.0114 l
1061.55 89.8678 l
1054.37 87.0114 l
1056.1 73.8776 l
1061.55 69.3997 l
} bind def
/p7_e {
newpath
translate
1099.98 66.6907 m
1090.37 63.0987 l
1080.77 61.4628 l
1080.11 60.7438 l
1080.77 59.9358 l
1090.37 56.9763 l
1099.98 47.8126 l
} bind def
/p7_f {
newpath
translate
927.062 84.2597 m
925.442 87.0114 l
927.062 88.8629 l
933.941 87.0114 l
927.062 84.2597 l
} bind def
/p7_10 {
newpath
translate
1076.02 105.703 m
1076.01 100.145 l
1078.71 87.0114 l
1080.77 84.6809 l
1082.18 87.0114 l
1086 100.145 l
1090.37 107.443 l
1091.41 108.632 l
} bind def
/p7_11 {
newpath
translate
1099.98 84.4078 m
1098.98 87.0114 l
1099.98 92.7614 l
} bind def
/p7_12 {
newpath
translate
1023.13 110.278 m
1020.27 113.279 l
1023.13 116.451 l
1028.45 113.279 l
1023.13 110.278 l
} bind def
/p7_13 {
newpath
translate
1099.98 125.223 m
1099 126.413 l
1095.28 139.547 l
1099.98 146.767 l
} bind def
/p7_14 {
newpath
translate
994.308 138.024 m
993.674 139.547 l
994.308 143.43 l
997.184 139.547 l
994.308 138.024 l
} bind def
/p7_15 {
newpath
translate
1051.95 151.917 m
1051.45 152.68 l
1051.95 153.351 l
1052.81 152.68 l
1051.95 151.917 l
} bind def
/p7_16 {
newpath
translate
1013.52 163.474 m
1011.65 165.814 l
1012.79 178.948 l
1013.52 180.397 l
1014.66 178.948 l
1015.85 165.814 l
1013.52 163.474 l
} bind def
/p7_17 {
newpath
translate
1042.34 161.123 m
1034.18 165.814 l
1042.34 168.284 l
1045.76 165.814 l
1042.34 161.123 l
} bind def
/p7_18 {
newpath
translate
1061.55 156.246 m
1055.84 165.814 l
1061.55 171.622 l
1066.02 165.814 l
1061.55 156.246 l
} bind def
/p7_19 {
newpath
translate
1071.16 177.621 m
1070.27 178.948 l
1066.78 192.082 l
1071.16 202.421 l
1074.12 192.082 l
1072.34 178.948 l
1071.16 177.621 l
} bind def
/p7_1a {
newpath
translate
1090.37 174.97 m
1089 178.948 l
1090.37 181.947 l
1093.26 178.948 l
1090.37 174.97 l
} bind def
/p7_1b {
newpath
translate
859.816 189.707 m
850.51 192.082 l
859.816 195.165 l
860.385 192.082 l
859.816 189.707 l
} bind def
/p7_1c {
newpath
translate
984.702 202.3 m
984.432 205.216 l
984.702 205.652 l
985.014 205.216 l
984.702 202.3 l
} bind def
/p7_1d {
newpath
translate
1023.13 198.319 m
1014.28 205.216 l
1023.13 209.661 l
1030.86 205.216 l
1023.13 198.319 l
} bind def
/p7_1e {
newpath
translate
1099.98 202.903 m
1090.37 200.437 l
1088.54 205.216 l
1090.37 207.47 l
1099.98 212.621 l
} bind def
/p7_1f {
newpath
translate
1061.55 268.898 m
1060.95 270.884 l
1061.55 274.92 l
1062.13 270.884 l
1061.55 268.898 l
} bind def
gsave
278.6 380.9 821.4 47.61 clipbox
0 0 p7_0
stroke
grestore
gsave
278.6 380.9 821.4 47.61 clipbox
0 0 p7_1
stroke
grestore
gsave
278.6 380.9 821.4 47.61 clipbox
0 0 p7_2
stroke
grestore
gsave
278.6 380.9 821.4 47.61 clipbox
0 0 p7_3
stroke
grestore
gsave
278.6 380.9 821.4 47.61 clipbox
0 0 p7_4
stroke
grestore
gsave
278.6 380.9 821.4 47.61 clipbox
0 0 p7_5
stroke
grestore
gsave
278.6 380.9 821.4 47.61 clipbox
0 0 p7_6
stroke
grestore
gsave
278.6 380.9 821.4 47.61 clipbox
0 0 p7_7
stroke
grestore
gsave
278.6 380.9 821.4 47.61 clipbox
0 0 p7_8
stroke
grestore
gsave
278.6 380.9 821.4 47.61 clipbox
0 0 p7_9
stroke
grestore
gsave
278.6 380.9 821.4 47.61 clipbox
0 0 p7_a
stroke
grestore
gsave
278.6 380.9 821.4 47.61 clipbox
0 0 p7_b
stroke
grestore
gsave
278.6 380.9 821.4 47.61 clipbox
0 0 p7_c
stroke
grestore
gsave
278.6 380.9 821.4 47.61 clipbox
0 0 p7_d
stroke
grestore
gsave
278.6 380.9 821.4 47.61 clipbox
0 0 p7_e
stroke
grestore
gsave
278.6 380.9 821.4 47.61 clipbox
0 0 p7_f
stroke
grestore
gsave
278.6 380.9 821.4 47.61 clipbox
0 0 p7_10
stroke
grestore
gsave
278.6 380.9 821.4 47.61 clipbox
0 0 p7_11
stroke
grestore
gsave
278.6 380.9 821.4 47.61 clipbox
0 0 p7_12
stroke
grestore
gsave
278.6 380.9 821.4 47.61 clipbox
0 0 p7_13
stroke
grestore
gsave
278.6 380.9 821.4 47.61 clipbox
0 0 p7_14
stroke
grestore
gsave
278.6 380.9 821.4 47.61 clipbox
0 0 p7_15
stroke
grestore
gsave
278.6 380.9 821.4 47.61 clipbox
0 0 p7_16
stroke
grestore
gsave
278.6 380.9 821.4 47.61 clipbox
0 0 p7_17
stroke
grestore
gsave
278.6 380.9 821.4 47.61 clipbox
0 0 p7_18
stroke
grestore
gsave
278.6 380.9 821.4 47.61 clipbox
0 0 p7_19
stroke
grestore
gsave
278.6 380.9 821.4 47.61 clipbox
0 0 p7_1a
stroke
grestore
gsave
278.6 380.9 821.4 47.61 clipbox
0 0 p7_1b
stroke
grestore
gsave
278.6 380.9 821.4 47.61 clipbox
0 0 p7_1c
stroke
grestore
gsave
278.6 380.9 821.4 47.61 clipbox
0 0 p7_1d
stroke
grestore
gsave
278.6 380.9 821.4 47.61 clipbox
0 0 p7_1e
stroke
grestore
gsave
278.6 380.9 821.4 47.61 clipbox
0 0 p7_1f
stroke
grestore
/p8_0 {
newpath
translate
907.185 47.61 m
907.609 60.7438 l
907.849 61.8609 l
908.222 60.7438 l
908.206 47.61 l
} bind def
/p8_1 {
newpath
translate
1042.34 185.675 m
1045.6 192.082 l
1042.34 197.847 l
1039.06 192.082 l
1042.34 185.675 l
} bind def
/p8_2 {
newpath
translate
1032.73 266.561 m
1033.76 270.884 l
1032.73 272.239 l
1031.29 270.884 l
1032.73 266.561 l
} bind def
/p8_3 {
newpath
translate
1051.95 265.768 m
1054.06 270.884 l
1051.95 276.805 l
1049.42 270.884 l
1051.95 265.768 l
} bind def
/p8_4 {
newpath
translate
1071.16 265.289 m
1074.49 270.884 l
1075.5 284.018 l
1071.16 290.871 l
1068.48 284.018 l
1068.73 270.884 l
1071.16 265.289 l
} bind def
/p8_5 {
newpath
translate
994.308 283.819 m
994.572 284.018 l
994.308 284.394 l
994.115 284.018 l
994.308 283.819 l
} bind def
/p8_6 {
newpath
translate
1013.52 279.474 m
1016.78 284.018 l
1013.52 289.085 l
1009.37 284.018 l
1013.52 279.474 l
} bind def
/p8_7 {
newpath
translate
975.095 296.097 m
981.547 297.152 l
975.095 298.856 l
974.63 297.152 l
975.095 296.097 l
} bind def
/p8_8 {
newpath
translate
888.636 299.628 m
883.426 310.286 l
888.636 321.647 l
890.63 310.286 l
888.636 299.628 l
} bind def
/p8_9 {
newpath
translate
1023.13 316.501 m
1027.56 323.42 l
1023.13 329.98 l
1018.2 323.42 l
1023.13 316.501 l
} bind def
/p8_a {
newpath
translate
946.275 325.738 m
944.077 336.553 l
946.275 340.337 l
947.332 336.553 l
946.275 325.738 l
} bind def
/p8_b {
newpath
translate
879.03 342.911 m
875.99 349.687 l
879.03 353.923 l
883.21 349.687 l
879.03 342.911 l
} bind def
/p8_c {
newpath
translate
1061.55 346.088 m
1058.18 349.687 l
1061.55 357.832 l
1063.68 349.687 l
1061.55 346.088 l
} bind def
/p8_d {
newpath
translate
975.095 373.469 m
966.448 375.955 l
975.095 377.511 l
976.435 375.955 l
975.095 373.469 l
} bind def
/p8_e {
newpath
translate
1003.91 386.607 m
1001.16 389.089 l
1003.91 392.291 l
1013.52 389.635 l
1015.12 389.089 l
1013.52 388.506 l
1003.91 386.607 l
} bind def
/p8_f {
newpath
translate
994.308 399.17 m
990.26 402.222 l
994.308 403.569 l
996.188 402.222 l
994.308 399.17 l
} bind def
/p8_10 {
newpath
translate
1023.13 395.025 m
1021.12 402.222 l
1023.13 403.859 l
1032.73 404.47 l
1036.36 402.222 l
1032.73 399.429 l
1023.13 395.025 l
} bind def
/p8_11 {
newpath
translate
1099.98 409.102 m
1090.37 406.315 l
1082.27 402.222 l
1090.37 396.824 l
1097.07 389.089 l
1093.24 375.955 l
1090.37 365.772 l
1088.06 375.955 l
1080.77 382.803 l
1071.16 380.402 l
1070.15 375.955 l
1068.97 374.617 l
} bind def
/p8_12 {
newpath
translate
1047.76 393.386 m
1051.95 397.716 l
1057.24 389.089 l
1061.55 382.308 l
1069.46 389.089 l
1071.16 391.188 l
1079.52 402.222 l
1080.77 407.046 l
1081.98 415.356 l
1085.39 428.49 l
} bind def
/p8_13 {
newpath
translate
860.178 428.49 m
859.816 427.658 l
853.899 415.356 l
858.484 402.222 l
858.298 389.089 l
859.816 384.797 l
865.47 375.955 l
869.423 371.708 l
874.06 362.821 l
869.423 356.574 l
866.107 349.687 l
868.056 336.553 l
869.423 331.552 l
873.003 323.42 l
873.548 319.597 l
} bind def
/p8_14 {
newpath
translate
885.417 284.863 m
886.385 284.018 l
888.636 281.1 l
894.656 284.018 l
898.243 285.572 l
898.791 284.018 l
898.963 270.884 l
898.243 269.166 l
888.636 262.193 l
881.332 257.751 l
888.636 254.016 l
895.903 244.617 l
891.605 231.483 l
898.243 223.454 l
902.775 218.349 l
898.243 210.886 l
894.309 205.216 l
896.378 192.082 l
898.243 183.241 l
900.515 178.948 l
905.492 165.814 l
907.849 161.449 l
915.85 152.68 l
917.456 150.682 l
918.474 152.68 l
919.028 165.814 l
917.456 168.021 l
910.771 178.948 l
907.849 185.276 l
901.82 192.082 l
907.849 197.479 l
917.456 205.18 l
917.459 205.216 l
926.737 218.349 l
924.603 231.483 l
917.456 244.303 l
917.302 244.617 l
917.456 244.88 l
927.062 248.587 l
929.896 257.751 l
933.972 270.884 l
936.669 278.128 l
938.407 284.018 l
936.669 288.248 l
929.834 284.018 l
927.062 282.521 l
926.186 284.018 l
927.051 297.152 l
927.062 297.17 l
936.669 304.514 l
940.982 310.286 l
946.275 322.305 l
946.81 323.42 l
955.882 327.493 l
964.562 336.553 l
965.488 341.512 l
969.13 336.553 l
975.095 333.357 l
978.332 336.553 l
984.435 349.687 l
984.702 350.484 l
984.926 349.687 l
991.223 336.553 l
994.308 330.979 l
996.469 336.553 l
997.227 349.687 l
1001.19 362.821 l
1003.91 367.734 l
1007.37 362.821 l
1013.52 352.819 l
1016.77 362.821 l
1018.76 375.955 l
1023.13 386.219 l
1029.3 375.955 l
1031.86 362.821 l
1023.13 353.596 l
1016.15 349.687 l
1023.13 345.553 l
1032.73 347.76 l
1035.27 336.553 l
1037.43 323.42 l
1034.41 310.286 l
1042.34 303.47 l
1048.09 310.286 l
1051.95 315.633 l
1061.55 317.678 l
1068.03 323.42 l
1066.41 336.553 l
1071.16 342.116 l
1080.77 349.521 l
1080.91 349.687 l
1080.77 357.45 l
1080.48 362.821 l
1080.77 363.087 l
1082.53 362.821 l
1090.37 362.235 l
1099.98 361.223 l
} bind def
/p8_15 {
newpath
translate
1075.19 428.49 m
1071.16 419.492 l
1069.01 428.49 l
} bind def
/p8_16 {
newpath
translate
1099.98 418.368 m
1093.11 428.49 l
} bind def
gsave
278.6 380.9 821.4 47.61 clipbox
0 0 p8_0
stroke
grestore
gsave
278.6 380.9 821.4 47.61 clipbox
0 0 p8_1
stroke
grestore
gsave
278.6 380.9 821.4 47.61 clipbox
0 0 p8_2
stroke
grestore
gsave
278.6 380.9 821.4 47.61 clipbox
0 0 p8_3
stroke
grestore
gsave
278.6 380.9 821.4 47.61 clipbox
0 0 p8_4
stroke
grestore
gsave
278.6 380.9 821.4 47.61 clipbox
0 0 p8_5
stroke
grestore
gsave
278.6 380.9 821.4 47.61 clipbox
0 0 p8_6
stroke
grestore
gsave
278.6 380.9 821.4 47.61 clipbox
0 0 p8_7
stroke
grestore
gsave
278.6 380.9 821.4 47.61 clipbox
0 0 p8_8
stroke
grestore
gsave
278.6 380.9 821.4 47.61 clipbox
0 0 p8_9
stroke
grestore
gsave
278.6 380.9 821.4 47.61 clipbox
0 0 p8_a
stroke
grestore
gsave
278.6 380.9 821.4 47.61 clipbox
0 0 p8_b
stroke
grestore
gsave
278.6 380.9 821.4 47.61 clipbox
0 0 p8_c
stroke
grestore
gsave
278.6 380.9 821.4 47.61 clipbox
0 0 p8_d
stroke
grestore
gsave
278.6 380.9 821.4 47.61 clipbox
0 0 p8_e
stroke
grestore
gsave
278.6 380.9 821.4 47.61 clipbox
0 0 p8_f
stroke
grestore
gsave
278.6 380.9 821.4 47.61 clipbox
0 0 p8_10
stroke
grestore
gsave
278.6 380.9 821.4 47.61 clipbox
0 0 p8_11
stroke
grestore
gsave
278.6 380.9 821.4 47.61 clipbox
0 0 p8_12
stroke
grestore
gsave
278.6 380.9 821.4 47.61 clipbox
0 0 p8_13
stroke
grestore
gsave
278.6 380.9 821.4 47.61 clipbox
0 0 p8_14
stroke
grestore
gsave
278.6 380.9 821.4 47.61 clipbox
0 0 p8_15
stroke
grestore
gsave
278.6 380.9 821.4 47.61 clipbox
0 0 p8_16
stroke
grestore
0.500 setlinewidth
gsave
/o {
gsave
newpath
translate
0.5 setlinewidth
1 setlinejoin
0 setlinecap
0 0 m
0 4 l
gsave
0.000 setgray
fill
grestore
stroke
grestore
} bind def
821.39 47.61 o
grestore
gsave
/o {
gsave
newpath
translate
0.5 setlinewidth
1 setlinejoin
0 setlinecap
0 0 m
0 -4 l
gsave
0.000 setgray
fill
grestore
stroke
grestore
} bind def
821.39 428.49 o
grestore
/DejaVuSans findfont
16.000 scalefont
setfont
gsave
809.718419 31.500625 translate
0.000000 rotate
0.000000 0.234375 m /zero glyphshow
10.179688 0.234375 m /period glyphshow
15.265625 0.234375 m /zero glyphshow
grestore
gsave
/o {
gsave
newpath
translate
0.5 setlinewidth
1 setlinejoin
0 setlinecap
0 0 m
0 4 l
gsave
0.000 setgray
fill
grestore
stroke
grestore
} bind def
877.108 47.61 o
grestore
gsave
/o {
gsave
newpath
translate
0.5 setlinewidth
1 setlinejoin
0 setlinecap
0 0 m
0 -4 l
gsave
0.000 setgray
fill
grestore
stroke
grestore
} bind def
877.108 428.49 o
grestore
gsave
865.709798 31.500625 translate
0.000000 rotate
0.000000 0.234375 m /zero glyphshow
10.179688 0.234375 m /period glyphshow
15.265625 0.234375 m /two glyphshow
grestore
gsave
/o {
gsave
newpath
translate
0.5 setlinewidth
1 setlinejoin
0 setlinecap
0 0 m
0 4 l
gsave
0.000 setgray
fill
grestore
stroke
grestore
} bind def
932.826 47.61 o
grestore
gsave
/o {
gsave
newpath
translate
0.5 setlinewidth
1 setlinejoin
0 setlinecap
0 0 m
0 -4 l
gsave
0.000 setgray
fill
grestore
stroke
grestore
} bind def
932.826 428.49 o
grestore
gsave
921.076176 31.500625 translate
0.000000 rotate
0.000000 0.234375 m /zero glyphshow
10.179688 0.234375 m /period glyphshow
15.265625 0.234375 m /four glyphshow
grestore
gsave
/o {
gsave
newpath
translate
0.5 setlinewidth
1 setlinejoin
0 setlinecap
0 0 m
0 4 l
gsave
0.000 setgray
fill
grestore
stroke
grestore
} bind def
988.544 47.61 o
grestore
gsave
/o {
gsave
newpath
translate
0.5 setlinewidth
1 setlinejoin
0 setlinecap
0 0 m
0 -4 l
gsave
0.000 setgray
fill
grestore
stroke
grestore
} bind def
988.544 428.49 o
grestore
gsave
976.848805 31.500625 translate
0.000000 rotate
0.000000 0.234375 m /zero glyphshow
10.179688 0.234375 m /period glyphshow
15.265625 0.234375 m /six glyphshow
grestore
gsave
/o {
gsave
newpath
translate
0.5 setlinewidth
1 setlinejoin
0 setlinecap
0 0 m
0 4 l
gsave
0.000 setgray
fill
grestore
stroke
grestore
} bind def
1044.26 47.61 o
grestore
gsave
/o {
gsave
newpath
translate
0.5 setlinewidth
1 setlinejoin
0 setlinecap
0 0 m
0 -4 l
gsave
0.000 setgray
fill
grestore
stroke
grestore
} bind def
1044.26 428.49 o
grestore
gsave
1032.605809 31.500625 translate
0.000000 rotate
0.000000 0.234375 m /zero glyphshow
10.179688 0.234375 m /period glyphshow
15.265625 0.234375 m /eight glyphshow
grestore
gsave
/o {
gsave
newpath
translate
0.5 setlinewidth
1 setlinejoin
0 setlinecap
0 0 m
0 4 l
gsave
0.000 setgray
fill
grestore
stroke
grestore
} bind def
1099.98 47.61 o
grestore
gsave
/o {
gsave
newpath
translate
0.5 setlinewidth
1 setlinejoin
0 setlinecap
0 0 m
0 -4 l
gsave
0.000 setgray
fill
grestore
stroke
grestore
} bind def
1099.98 428.49 o
grestore
gsave
1088.659688 31.500625 translate
0.000000 rotate
0.000000 0.234375 m /one glyphshow
10.179688 0.234375 m /period glyphshow
15.265625 0.234375 m /zero glyphshow
grestore
gsave
923.552335 14.110000 translate
0.000000 rotate
0.000000 0.234375 m /t glyphshow
6.273438 0.234375 m /o glyphshow
16.062500 0.234375 m /l glyphshow
20.507812 0.234375 m /e glyphshow
30.351562 0.234375 m /r glyphshow
36.929688 0.234375 m /a glyphshow
46.734375 0.234375 m /n glyphshow
56.875000 0.234375 m /c glyphshow
65.671875 0.234375 m /e glyphshow
grestore
gsave
/o {
gsave
newpath
translate
0.5 setlinewidth
1 setlinejoin
0 setlinecap
0 0 m
4 0 l
gsave
0.000 setgray
fill
grestore
stroke
grestore
} bind def
821.39 47.61 o
grestore
gsave
/o {
gsave
newpath
translate
0.5 setlinewidth
1 setlinejoin
0 setlinecap
0 0 m
-4 0 l
gsave
0.000 setgray
fill
grestore
stroke
grestore
} bind def
1099.98 47.61 o
grestore
gsave
783.859044 41.555313 translate
0.000000 rotate
0.000000 0.234375 m /zero glyphshow
10.179688 0.234375 m /period glyphshow
15.265625 0.234375 m /six glyphshow
25.445312 0.234375 m /zero glyphshow
grestore
gsave
/o {
gsave
newpath
translate
0.5 setlinewidth
1 setlinejoin
0 setlinecap
0 0 m
4 0 l
gsave
0.000 setgray
fill
grestore
stroke
grestore
} bind def
821.39 102.021 o
grestore
gsave
/o {
gsave
newpath
translate
0.5 setlinewidth
1 setlinejoin
0 setlinecap
0 0 m
-4 0 l
gsave
0.000 setgray
fill
grestore
stroke
grestore
} bind def
1099.98 102.021 o
grestore
gsave
784.202794 95.966741 translate
0.000000 rotate
0.000000 0.234375 m /zero glyphshow
10.179688 0.234375 m /period glyphshow
15.265625 0.234375 m /six glyphshow
25.445312 0.234375 m /five glyphshow
grestore
gsave
/o {
gsave
newpath
translate
0.5 setlinewidth
1 setlinejoin
0 setlinecap
0 0 m
4 0 l
gsave
0.000 setgray
fill
grestore
stroke
grestore
} bind def
821.39 156.433 o
grestore
gsave
/o {
gsave
newpath
translate
0.5 setlinewidth
1 setlinejoin
0 setlinecap
0 0 m
-4 0 l
gsave
0.000 setgray
fill
grestore
stroke
grestore
} bind def
1099.98 156.433 o
grestore
gsave
783.859044 150.378170 translate
0.000000 rotate
0.000000 0.234375 m /zero glyphshow
10.179688 0.234375 m /period glyphshow
15.265625 0.234375 m /seven glyphshow
25.445312 0.234375 m /zero glyphshow
grestore
gsave
/o {
gsave
newpath
translate
0.5 setlinewidth
1 setlinejoin
0 setlinecap
0 0 m
4 0 l
gsave
0.000 setgray
fill
grestore
stroke
grestore
} bind def
821.39 210.844 o
grestore
gsave
/o {
gsave
newpath
translate
0.5 setlinewidth
1 setlinejoin
0 setlinecap
0 0 m
-4 0 l
gsave
0.000 setgray
fill
grestore
stroke
grestore
} bind def
1099.98 210.844 o
grestore
gsave
784.202794 204.789598 translate
0.000000 rotate
0.000000 0.234375 m /zero glyphshow
10.179688 0.234375 m /period glyphshow
15.265625 0.234375 m /seven glyphshow
25.445312 0.234375 m /five glyphshow
grestore
gsave
/o {
gsave
newpath
translate
0.5 setlinewidth
1 setlinejoin
0 setlinecap
0 0 m
4 0 l
gsave
0.000 setgray
fill
grestore
stroke
grestore
} bind def
821.39 265.256 o
grestore
gsave
/o {
gsave
newpath
translate
0.5 setlinewidth
1 setlinejoin
0 setlinecap
0 0 m
-4 0 l
gsave
0.000 setgray
fill
grestore
stroke
grestore
} bind def
1099.98 265.256 o
grestore
gsave
783.859044 259.201027 translate
0.000000 rotate
0.000000 0.234375 m /zero glyphshow
10.179688 0.234375 m /period glyphshow
15.265625 0.234375 m /eight glyphshow
25.445312 0.234375 m /zero glyphshow
grestore
gsave
/o {
gsave
newpath
translate
0.5 setlinewidth
1 setlinejoin
0 setlinecap
0 0 m
4 0 l
gsave
0.000 setgray
fill
grestore
stroke
grestore
} bind def
821.39 319.667 o
grestore
gsave
/o {
gsave
newpath
translate
0.5 setlinewidth
1 setlinejoin
0 setlinecap
0 0 m
-4 0 l
gsave
0.000 setgray
fill
grestore
stroke
grestore
} bind def
1099.98 319.667 o
grestore
gsave
784.202794 313.612455 translate
0.000000 rotate
0.000000 0.234375 m /zero glyphshow
10.179688 0.234375 m /period glyphshow
15.265625 0.234375 m /eight glyphshow
25.445312 0.234375 m /five glyphshow
grestore
gsave
/o {
gsave
newpath
translate
0.5 setlinewidth
1 setlinejoin
0 setlinecap
0 0 m
4 0 l
gsave
0.000 setgray
fill
grestore
stroke
grestore
} bind def
821.39 374.079 o
grestore
gsave
/o {
gsave
newpath
translate
0.5 setlinewidth
1 setlinejoin
0 setlinecap
0 0 m
-4 0 l
gsave
0.000 setgray
fill
grestore
stroke
grestore
} bind def
1099.98 374.079 o
grestore
gsave
783.859044 368.023884 translate
0.000000 rotate
0.000000 0.234375 m /zero glyphshow
10.179688 0.234375 m /period glyphshow
15.265625 0.234375 m /nine glyphshow
25.445312 0.234375 m /zero glyphshow
grestore
1.000 setlinewidth
2 setlinecap
gsave
821.39 428.49 m
1099.98 428.49 l
stroke
grestore
gsave
1099.98 47.61 m
1099.98 428.49 l
stroke
grestore
gsave
821.39 47.61 m
1099.98 47.61 l
stroke
grestore
gsave
821.39 47.61 m
821.39 428.49 l
stroke
grestore
/DejaVuSans findfont
9.000 scalefont
setfont
gsave
837.822482 171.019893 translate
357.332731 rotate
0.000000 0.125000 m /five glyphshow
5.726074 0.125000 m /period glyphshow
8.586914 0.125000 m /five glyphshow
14.312988 0.125000 m /zero glyphshow
20.039062 0.125000 m /zero glyphshow
grestore
gsave
968.125284 115.612241 translate
86.427799 rotate
0.000000 0.125000 m /five glyphshow
5.726074 0.125000 m /period glyphshow
8.586914 0.125000 m /five glyphshow
14.312988 0.125000 m /zero glyphshow
20.039062 0.125000 m /zero glyphshow
grestore
gsave
1069.728057 118.585265 translate
14.142647 rotate
0.000000 0.125000 m /five glyphshow
5.726074 0.125000 m /period glyphshow
8.586914 0.125000 m /five glyphshow
14.312988 0.125000 m /zero glyphshow
20.039062 0.125000 m /zero glyphshow
grestore
gsave
1046.886365 384.817889 translate
300.437594 rotate
0.000000 0.125000 m /six glyphshow
5.726074 0.125000 m /period glyphshow
8.586914 0.125000 m /zero glyphshow
14.312988 0.125000 m /zero glyphshow
20.039062 0.125000 m /zero glyphshow
grestore
gsave
864.480089 312.338214 translate
277.318342 rotate
0.000000 0.125000 m /six glyphshow
5.726074 0.125000 m /period glyphshow
8.586914 0.125000 m /zero glyphshow
14.312988 0.125000 m /zero glyphshow
20.039062 0.125000 m /zero glyphshow
grestore
/DejaVuSans findfont
19.200 scalefont
setfont
gsave
928.653897 433.224375 translate
0.000000 rotate
0.000000 0.265625 m /f glyphshow
6.776978 0.265625 m /equal glyphshow
22.906372 0.265625 m /zero glyphshow
35.153809 0.265625 m /period glyphshow
41.272827 0.265625 m /five glyphshow
53.520264 0.265625 m /zero glyphshow
grestore

end
showpage
