%!PS-Adobe-3.0 EPSF-3.0
%%Title: /home/aurelien/synchro/boulot/code/papers_code/schelling-2012/fig/phase_diagram_noisetol_3D_suscep.eps
%%Creator: matplotlib version 1.1.1rc2, http://matplotlib.sourceforge.net/
%%CreationDate: Tue Jun 11 17:24:08 2013
%%Orientation: portrait
%%BoundingBox: 13 175 598 616
%%EndComments
%%BeginProlog
/mpldict 8 dict def
mpldict begin
/m { moveto } bind def
/l { lineto } bind def
/r { rlineto } bind def
/c { curveto } bind def
/cl { closepath } bind def
/box {
m
1 index 0 r
0 exch r
neg 0 r
cl
} bind def
/clipbox {
box
clip
newpath
} bind def
%!PS-Adobe-3.0 Resource-Font
%%Title: DejaVu Sans
%%Copyright: Copyright (c) 2003 by Bitstream, Inc. All Rights Reserved. Copyright (c) 2006 by Tavmjong Bah. All Rights Reserved. DejaVu changes are in public domain 
%%Creator: Converted from TrueType to type 3 by PPR
25 dict begin
/_d{bind def}bind def
/_m{moveto}_d
/_l{lineto}_d
/_cl{closepath eofill}_d
/_c{curveto}_d
/_sc{7 -1 roll{setcachedevice}{pop pop pop pop pop pop}ifelse}_d
/_e{exec}_d
/FontName /DejaVuSans def
/PaintType 0 def
/FontMatrix[.001 0 0 .001 0 0]def
/FontBBox[-1021 -415 1681 1167]def
/FontType 3 def
/Encoding [ /period /zero /one /two /three /four /five /six /seven /eight /nine /a /c /e /f /l /n /o /r /t ] def
/FontInfo 10 dict dup begin
/FamilyName (DejaVu Sans) def
/FullName (DejaVu Sans) def
/Notice (Copyright (c) 2003 by Bitstream, Inc. All Rights Reserved. Copyright (c) 2006 by Tavmjong Bah. All Rights Reserved. DejaVu changes are in public domain ) def
/Weight (Book) def
/Version (Version 2.33) def
/ItalicAngle 0.0 def
/isFixedPitch false def
/UnderlinePosition -130 def
/UnderlineThickness 90 def
end readonly def
/CharStrings 20 dict dup begin
/period{318 0 107 0 210 124 _sc
107 124 _m
210 124 _l
210 0 _l
107 0 _l
107 124 _l
_cl}_d
/zero{636 0 66 -13 570 742 _sc
318 664 _m
267 664 229 639 203 589 _c
177 539 165 464 165 364 _c
165 264 177 189 203 139 _c
229 89 267 64 318 64 _c
369 64 407 89 433 139 _c
458 189 471 264 471 364 _c
471 464 458 539 433 589 _c
407 639 369 664 318 664 _c
318 742 _m
399 742 461 709 505 645 _c
548 580 570 486 570 364 _c
570 241 548 147 505 83 _c
461 19 399 -13 318 -13 _c
236 -13 173 19 130 83 _c
87 147 66 241 66 364 _c
66 486 87 580 130 645 _c
173 709 236 742 318 742 _c
_cl}_d
/one{636 0 110 0 544 729 _sc
124 83 _m
285 83 _l
285 639 _l
110 604 _l
110 694 _l
284 729 _l
383 729 _l
383 83 _l
544 83 _l
544 0 _l
124 0 _l
124 83 _l
_cl}_d
/two{{636 0 73 0 536 742 _sc
192 83 _m
536 83 _l
536 0 _l
73 0 _l
73 83 _l
110 121 161 173 226 239 _c
290 304 331 346 348 365 _c
380 400 402 430 414 455 _c
426 479 433 504 433 528 _c
433 566 419 598 392 622 _c
365 646 330 659 286 659 _c
255 659 222 653 188 643 _c
154 632 117 616 78 594 _c
78 694 _l
118 710 155 722 189 730 _c
223 738 255 742 284 742 _c
}_e{359 742 419 723 464 685 _c
509 647 532 597 532 534 _c
532 504 526 475 515 449 _c
504 422 484 390 454 354 _c
446 344 420 317 376 272 _c
332 227 271 164 192 83 _c
_cl}_e}_d
/three{{636 0 76 -13 556 742 _sc
406 393 _m
453 383 490 362 516 330 _c
542 298 556 258 556 212 _c
556 140 531 84 482 45 _c
432 6 362 -13 271 -13 _c
240 -13 208 -10 176 -4 _c
144 1 110 10 76 22 _c
76 117 _l
103 101 133 89 166 81 _c
198 73 232 69 268 69 _c
330 69 377 81 409 105 _c
441 129 458 165 458 212 _c
458 254 443 288 413 312 _c
383 336 341 349 287 349 _c
}_e{202 349 _l
202 430 _l
291 430 _l
339 430 376 439 402 459 _c
428 478 441 506 441 543 _c
441 580 427 609 401 629 _c
374 649 336 659 287 659 _c
260 659 231 656 200 650 _c
169 644 135 635 98 623 _c
98 711 _l
135 721 170 729 203 734 _c
235 739 266 742 296 742 _c
370 742 429 725 473 691 _c
517 657 539 611 539 553 _c
539 513 527 479 504 451 _c
481 423 448 403 406 393 _c
_cl}_e}_d
/four{636 0 49 0 580 729 _sc
378 643 _m
129 254 _l
378 254 _l
378 643 _l
352 729 _m
476 729 _l
476 254 _l
580 254 _l
580 172 _l
476 172 _l
476 0 _l
378 0 _l
378 172 _l
49 172 _l
49 267 _l
352 729 _l
_cl}_d
/five{{636 0 77 -13 549 729 _sc
108 729 _m
495 729 _l
495 646 _l
198 646 _l
198 467 _l
212 472 227 476 241 478 _c
255 480 270 482 284 482 _c
365 482 429 459 477 415 _c
525 370 549 310 549 234 _c
549 155 524 94 475 51 _c
426 8 357 -13 269 -13 _c
238 -13 207 -10 175 -6 _c
143 -1 111 6 77 17 _c
77 116 _l
106 100 136 88 168 80 _c
199 72 232 69 267 69 _c
}_e{323 69 368 83 401 113 _c
433 143 450 183 450 234 _c
450 284 433 324 401 354 _c
368 384 323 399 267 399 _c
241 399 214 396 188 390 _c
162 384 135 375 108 363 _c
108 729 _l
_cl}_e}_d
/six{{636 0 70 -13 573 742 _sc
330 404 _m
286 404 251 388 225 358 _c
199 328 186 286 186 234 _c
186 181 199 139 225 109 _c
251 79 286 64 330 64 _c
374 64 409 79 435 109 _c
461 139 474 181 474 234 _c
474 286 461 328 435 358 _c
409 388 374 404 330 404 _c
526 713 _m
526 623 _l
501 635 476 644 451 650 _c
425 656 400 659 376 659 _c
310 659 260 637 226 593 _c
}_e{192 549 172 482 168 394 _c
187 422 211 444 240 459 _c
269 474 301 482 336 482 _c
409 482 467 459 509 415 _c
551 371 573 310 573 234 _c
573 159 550 99 506 54 _c
462 9 403 -13 330 -13 _c
246 -13 181 19 137 83 _c
92 147 70 241 70 364 _c
70 479 97 571 152 639 _c
206 707 280 742 372 742 _c
396 742 421 739 447 735 _c
472 730 498 723 526 713 _c
_cl}_e}_d
/seven{636 0 82 0 551 729 _sc
82 729 _m
551 729 _l
551 687 _l
286 0 _l
183 0 _l
432 646 _l
82 646 _l
82 729 _l
_cl}_d
/eight{{636 0 68 -13 568 742 _sc
318 346 _m
271 346 234 333 207 308 _c
180 283 167 249 167 205 _c
167 161 180 126 207 101 _c
234 76 271 64 318 64 _c
364 64 401 76 428 102 _c
455 127 469 161 469 205 _c
469 249 455 283 429 308 _c
402 333 365 346 318 346 _c
219 388 _m
177 398 144 418 120 447 _c
96 476 85 511 85 553 _c
85 611 105 657 147 691 _c
188 725 245 742 318 742 _c
}_e{390 742 447 725 489 691 _c
530 657 551 611 551 553 _c
551 511 539 476 515 447 _c
491 418 459 398 417 388 _c
464 377 501 355 528 323 _c
554 291 568 251 568 205 _c
568 134 546 80 503 43 _c
459 5 398 -13 318 -13 _c
237 -13 175 5 132 43 _c
89 80 68 134 68 205 _c
68 251 81 291 108 323 _c
134 355 171 377 219 388 _c
183 544 _m
183 506 194 476 218 455 _c
}_e{242 434 275 424 318 424 _c
360 424 393 434 417 455 _c
441 476 453 506 453 544 _c
453 582 441 611 417 632 _c
393 653 360 664 318 664 _c
275 664 242 653 218 632 _c
194 611 183 582 183 544 _c
_cl}_e}_d
/nine{{636 0 63 -13 566 742 _sc
110 15 _m
110 105 _l
134 93 159 84 185 78 _c
210 72 235 69 260 69 _c
324 69 374 90 408 134 _c
442 178 462 244 468 334 _c
448 306 424 284 396 269 _c
367 254 335 247 300 247 _c
226 247 168 269 126 313 _c
84 357 63 417 63 494 _c
63 568 85 628 129 674 _c
173 719 232 742 306 742 _c
390 742 455 709 499 645 _c
543 580 566 486 566 364 _c
}_e{566 248 538 157 484 89 _c
429 21 356 -13 264 -13 _c
239 -13 214 -10 189 -6 _c
163 -2 137 5 110 15 _c
306 324 _m
350 324 385 339 411 369 _c
437 399 450 441 450 494 _c
450 546 437 588 411 618 _c
385 648 350 664 306 664 _c
262 664 227 648 201 618 _c
175 588 162 546 162 494 _c
162 441 175 399 201 369 _c
227 339 262 324 306 324 _c
_cl}_e}_d
/a{{613 0 60 -13 522 560 _sc
343 275 _m
270 275 220 266 192 250 _c
164 233 150 205 150 165 _c
150 133 160 107 181 89 _c
202 70 231 61 267 61 _c
317 61 357 78 387 114 _c
417 149 432 196 432 255 _c
432 275 _l
343 275 _l
522 312 _m
522 0 _l
432 0 _l
432 83 _l
411 49 385 25 355 10 _c
325 -5 287 -13 243 -13 _c
187 -13 142 2 109 33 _c
76 64 60 106 60 159 _c
}_e{60 220 80 266 122 298 _c
163 329 224 345 306 345 _c
432 345 _l
432 354 _l
432 395 418 427 391 450 _c
364 472 326 484 277 484 _c
245 484 215 480 185 472 _c
155 464 127 453 100 439 _c
100 522 _l
132 534 164 544 195 550 _c
226 556 256 560 286 560 _c
365 560 424 539 463 498 _c
502 457 522 395 522 312 _c
_cl}_e}_d
/c{{550 0 55 -13 488 560 _sc
488 526 _m
488 442 _l
462 456 437 466 411 473 _c
385 480 360 484 334 484 _c
276 484 230 465 198 428 _c
166 391 150 339 150 273 _c
150 206 166 154 198 117 _c
230 80 276 62 334 62 _c
360 62 385 65 411 72 _c
437 79 462 90 488 104 _c
488 21 _l
462 9 436 0 410 -5 _c
383 -10 354 -13 324 -13 _c
242 -13 176 12 128 64 _c
}_e{79 115 55 185 55 273 _c
55 362 79 432 128 483 _c
177 534 244 560 330 560 _c
358 560 385 557 411 551 _c
437 545 463 537 488 526 _c
_cl}_e}_d
/e{{615 0 55 -13 562 560 _sc
562 296 _m
562 252 _l
149 252 _l
153 190 171 142 205 110 _c
238 78 284 62 344 62 _c
378 62 412 66 444 74 _c
476 82 509 95 541 113 _c
541 28 _l
509 14 476 3 442 -3 _c
408 -9 373 -13 339 -13 _c
251 -13 182 12 131 62 _c
80 112 55 181 55 268 _c
55 357 79 428 127 481 _c
175 533 241 560 323 560 _c
397 560 455 536 498 489 _c
}_e{540 441 562 377 562 296 _c
472 322 _m
471 371 457 410 431 440 _c
404 469 368 484 324 484 _c
274 484 234 469 204 441 _c
174 413 156 373 152 322 _c
472 322 _l
_cl}_e}_d
/f{352 0 23 0 371 760 _sc
371 760 _m
371 685 _l
285 685 _l
253 685 230 678 218 665 _c
205 652 199 629 199 595 _c
199 547 _l
347 547 _l
347 477 _l
199 477 _l
199 0 _l
109 0 _l
109 477 _l
23 477 _l
23 547 _l
109 547 _l
109 585 _l
109 645 123 690 151 718 _c
179 746 224 760 286 760 _c
371 760 _l
_cl}_d
/l{278 0 94 0 184 760 _sc
94 760 _m
184 760 _l
184 0 _l
94 0 _l
94 760 _l
_cl}_d
/n{634 0 91 0 549 560 _sc
549 330 _m
549 0 _l
459 0 _l
459 327 _l
459 379 448 417 428 443 _c
408 469 378 482 338 482 _c
289 482 251 466 223 435 _c
195 404 181 362 181 309 _c
181 0 _l
91 0 _l
91 547 _l
181 547 _l
181 462 _l
202 494 227 519 257 535 _c
286 551 320 560 358 560 _c
420 560 468 540 500 501 _c
532 462 549 405 549 330 _c
_cl}_d
/o{612 0 55 -13 557 560 _sc
306 484 _m
258 484 220 465 192 427 _c
164 389 150 338 150 273 _c
150 207 163 156 191 118 _c
219 80 257 62 306 62 _c
354 62 392 80 420 118 _c
448 156 462 207 462 273 _c
462 337 448 389 420 427 _c
392 465 354 484 306 484 _c
306 560 _m
384 560 445 534 490 484 _c
534 433 557 363 557 273 _c
557 183 534 113 490 63 _c
445 12 384 -13 306 -13 _c
227 -13 165 12 121 63 _c
77 113 55 183 55 273 _c
55 363 77 433 121 484 _c
165 534 227 560 306 560 _c
_cl}_d
/r{411 0 91 0 411 560 _sc
411 463 _m
401 469 390 473 378 476 _c
366 478 353 480 339 480 _c
288 480 249 463 222 430 _c
194 397 181 350 181 288 _c
181 0 _l
91 0 _l
91 547 _l
181 547 _l
181 462 _l
199 495 224 520 254 536 _c
284 552 321 560 365 560 _c
371 560 378 559 386 559 _c
393 558 401 557 411 555 _c
411 463 _l
_cl}_d
/t{392 0 27 0 368 702 _sc
183 702 _m
183 547 _l
368 547 _l
368 477 _l
183 477 _l
183 180 _l
183 135 189 106 201 94 _c
213 81 238 75 276 75 _c
368 75 _l
368 0 _l
276 0 _l
206 0 158 13 132 39 _c
106 65 93 112 93 180 _c
93 477 _l
27 477 _l
27 547 _l
93 547 _l
93 702 _l
183 702 _l
_cl}_d
end readonly def

/BuildGlyph
 {exch begin
 CharStrings exch
 2 copy known not{pop /.notdef}if
 true 3 1 roll get exec
 end}_d

/BuildChar {
 1 index /Encoding get exch get
 1 index /BuildGlyph get exec
}_d

FontName currentdict end definefont pop
end
%%EndProlog
mpldict begin
13.5 175.5 translate
585 441 0 0 clipbox
gsave
0 0 m
585 0 l
585 441 l
0 441 l
cl
1.000 setgray
fill
grestore
gsave
73.125 44.1 m
526.5 44.1 l
526.5 396.9 l
73.125 396.9 l
cl
1.000 setgray
fill
grestore
1.000 setlinewidth
1 setlinejoin
2 setlinecap
[] 0 setdash
0.950 setgray
gsave
474.561 173.597 m
270.93 241.696 l
268.537 387.866 l
486.58 321.197 l
gsave
fill
grestore
stroke
grestore
0.900 setgray
gsave
133.505 133.696 m
270.93 241.696 l
268.537 387.866 l
120.917 281.964 l
gsave
fill
grestore
stroke
grestore
0.925 setgray
gsave
344.77 56.4566 m
474.561 173.597 l
270.93 241.696 l
133.505 133.696 l
gsave
fill
grestore
stroke
grestore
0.750 setlinewidth
0.000 setgray
gsave
474.561 173.597 m
344.77 56.4566 l
stroke
grestore
/DejaVuSans findfont
16.000 scalefont
setfont
gsave
435.594503 83.562789 translate
0.000000 rotate
0.000000 0.000000 m /f glyphshow
grestore
/p0_0 {
newpath
translate
347.535 58.9515 m
136.425 135.991 l
124.067 284.223 l
} bind def
/p0_1 {
newpath
translate
373.705 82.571 m
164.081 157.725 l
153.872 305.606 l
} bind def
/p0_2 {
newpath
translate
399.226 105.604 m
191.078 178.941 l
182.918 326.443 l
} bind def
/p0_3 {
newpath
translate
424.121 128.073 m
217.439 199.658 l
211.231 346.754 l
} bind def
/p0_4 {
newpath
translate
448.413 149.997 m
243.187 219.893 l
238.84 366.561 l
} bind def
/p0_5 {
newpath
translate
472.124 171.397 m
268.342 239.662 l
265.77 385.881 l
} bind def
1.000 setlinewidth
0 setlinecap
0.900 setgray
gsave
0 0 p0_0
stroke
grestore
gsave
0 0 p0_1
stroke
grestore
gsave
0 0 p0_2
stroke
grestore
gsave
0 0 p0_3
stroke
grestore
gsave
0 0 p0_4
stroke
grestore
gsave
0 0 p0_5
stroke
grestore
2 setlinecap
0.000 setgray
gsave
345.774 59.594 m
351.059 57.6654 l
stroke
grestore
gsave
348.006212 34.600959 translate
0.000000 rotate
0.000000 0.234375 m /zero glyphshow
10.179688 0.234375 m /period glyphshow
15.265625 0.234375 m /zero glyphshow
grestore
gsave
371.958 83.1974 m
377.203 81.317 l
stroke
grestore
gsave
374.194409 58.337354 translate
0.000000 rotate
0.000000 0.234375 m /zero glyphshow
10.179688 0.234375 m /period glyphshow
15.265625 0.234375 m /one glyphshow
grestore
gsave
397.492 106.215 m
402.697 104.381 l
stroke
grestore
gsave
399.590429 81.485540 translate
0.000000 rotate
0.000000 0.234375 m /zero glyphshow
10.179688 0.234375 m /period glyphshow
15.265625 0.234375 m /two glyphshow
grestore
gsave
422.4 128.669 m
427.566 126.88 l
stroke
grestore
gsave
424.139784 104.067114 translate
0.000000 rotate
0.000000 0.234375 m /zero glyphshow
10.179688 0.234375 m /period glyphshow
15.265625 0.234375 m /three glyphshow
grestore
gsave
446.705 150.579 m
451.832 148.833 l
stroke
grestore
gsave
448.068090 126.102628 translate
0.000000 rotate
0.000000 0.234375 m /zero glyphshow
10.179688 0.234375 m /period glyphshow
15.265625 0.234375 m /four glyphshow
grestore
gsave
470.429 171.965 m
475.518 170.26 l
stroke
grestore
gsave
471.857702 147.611653 translate
0.000000 rotate
0.000000 0.234375 m /zero glyphshow
10.179688 0.234375 m /period glyphshow
15.265625 0.234375 m /five glyphshow
grestore
0.750 setlinewidth
gsave
133.505 133.696 m
344.77 56.4566 l
stroke
grestore
gsave
182.304804 69.788637 translate
339.917352 rotate
0.000000 0.234375 m /t glyphshow
6.273438 0.234375 m /o glyphshow
16.062500 0.234375 m /l glyphshow
20.507812 0.234375 m /e glyphshow
30.351562 0.234375 m /r glyphshow
36.929688 0.234375 m /a glyphshow
46.734375 0.234375 m /n glyphshow
56.875000 0.234375 m /c glyphshow
65.671875 0.234375 m /e glyphshow
grestore
/p1_0 {
newpath
translate
482.035 322.587 m
470.329 175.013 l
340.368 58.0661 l
} bind def
/p1_1 {
newpath
translate
454.932 330.874 m
445.074 183.458 l
314.111 67.6657 l
} bind def
/p1_2 {
newpath
translate
428.105 339.076 m
420.061 191.823 l
288.121 77.1678 l
} bind def
/p1_3 {
newpath
translate
401.551 347.196 m
395.285 200.109 l
262.394 86.5739 l
} bind def
/p1_4 {
newpath
translate
375.264 355.233 m
370.743 208.316 l
236.925 95.8853 l
} bind def
/p1_5 {
newpath
translate
349.242 363.189 m
346.431 216.446 l
211.711 105.104 l
} bind def
/p1_6 {
newpath
translate
323.48 371.066 m
322.347 224.501 l
186.748 114.23 l
} bind def
/p1_7 {
newpath
translate
297.975 378.865 m
298.487 232.48 l
162.033 123.266 l
} bind def
/p1_8 {
newpath
translate
272.722 386.586 m
274.848 240.385 l
137.56 132.213 l
} bind def
1.000 setlinewidth
0 setlinecap
0.900 setgray
gsave
0 0 p1_0
stroke
grestore
gsave
0 0 p1_1
stroke
grestore
gsave
0 0 p1_2
stroke
grestore
gsave
0 0 p1_3
stroke
grestore
gsave
0 0 p1_4
stroke
grestore
gsave
0 0 p1_5
stroke
grestore
gsave
0 0 p1_6
stroke
grestore
gsave
0 0 p1_7
stroke
grestore
gsave
0 0 p1_8
stroke
grestore
2 setlinecap
0.000 setgray
gsave
341.476 59.0632 m
338.148 56.0688 l
stroke
grestore
gsave
321.012144 31.215166 translate
0.000000 rotate
0.000000 0.234375 m /zero glyphshow
10.179688 0.234375 m /period glyphshow
15.265625 0.234375 m /one glyphshow
grestore
gsave
315.228 68.6526 m
311.875 65.6887 l
stroke
grestore
gsave
294.864850 40.887548 translate
0.000000 rotate
0.000000 0.234375 m /zero glyphshow
10.179688 0.234375 m /period glyphshow
15.265625 0.234375 m /two glyphshow
grestore
gsave
289.245 78.1447 m
285.869 75.2108 l
stroke
grestore
gsave
268.757144 50.461711 translate
0.000000 rotate
0.000000 0.234375 m /zero glyphshow
10.179688 0.234375 m /period glyphshow
15.265625 0.234375 m /three glyphshow
grestore
gsave
263.526 87.5409 m
260.126 84.6366 l
stroke
grestore
gsave
242.888117 59.939144 translate
0.000000 rotate
0.000000 0.234375 m /zero glyphshow
10.179688 0.234375 m /period glyphshow
15.265625 0.234375 m /four glyphshow
grestore
gsave
238.065 96.8427 m
234.642 93.9676 l
stroke
grestore
gsave
217.714753 69.321304 translate
0.000000 rotate
0.000000 0.234375 m /zero glyphshow
10.179688 0.234375 m /period glyphshow
15.265625 0.234375 m /five glyphshow
grestore
gsave
212.858 106.052 m
209.414 103.205 l
stroke
grestore
gsave
192.350369 78.609622 translate
0.000000 rotate
0.000000 0.234375 m /zero glyphshow
10.179688 0.234375 m /period glyphshow
15.265625 0.234375 m /six glyphshow
grestore
gsave
187.902 115.169 m
184.437 112.35 l
stroke
grestore
gsave
167.611479 87.805498 translate
0.000000 rotate
0.000000 0.234375 m /zero glyphshow
10.179688 0.234375 m /period glyphshow
15.265625 0.234375 m /seven glyphshow
grestore
gsave
163.193 124.196 m
159.707 121.405 l
stroke
grestore
gsave
142.799050 96.910305 translate
0.000000 rotate
0.000000 0.234375 m /zero glyphshow
10.179688 0.234375 m /period glyphshow
15.265625 0.234375 m /eight glyphshow
grestore
gsave
138.728 133.134 m
135.222 130.371 l
stroke
grestore
gsave
118.385996 105.925390 translate
0.000000 rotate
0.000000 0.234375 m /zero glyphshow
10.179688 0.234375 m /period glyphshow
15.265625 0.234375 m /nine glyphshow
grestore
0.750 setlinewidth
gsave
133.505 133.696 m
120.917 281.964 l
stroke
grestore
/p2_0 {
newpath
translate
131.491 157.422 m
270.545 265.171 l
476.487 197.248 l
} bind def
/p2_1 {
newpath
translate
129.305 183.169 m
270.129 290.611 l
478.576 222.9 l
} bind def
/p2_2 {
newpath
translate
127.063 209.57 m
269.703 316.656 l
480.716 249.189 l
} bind def
/p2_3 {
newpath
translate
124.764 236.65 m
269.266 343.328 l
482.911 276.138 l
} bind def
/p2_4 {
newpath
translate
122.405 264.435 m
268.819 370.652 l
485.161 303.773 l
} bind def
1.000 setlinewidth
0 setlinecap
0.900 setgray
gsave
0 0 p2_0
stroke
grestore
gsave
0 0 p2_1
stroke
grestore
gsave
0 0 p2_2
stroke
grestore
gsave
0 0 p2_3
stroke
grestore
gsave
0 0 p2_4
stroke
grestore
2 setlinecap
0.000 setgray
gsave
132.674 158.339 m
129.12 155.585 l
stroke
grestore
gsave
84.922680 143.027968 translate
0.000000 rotate
0.000000 0.234375 m /zero glyphshow
10.179688 0.234375 m /period glyphshow
15.265625 0.234375 m /zero glyphshow
25.445312 0.234375 m /zero glyphshow
35.625000 0.234375 m /zero glyphshow
45.804688 0.234375 m /five glyphshow
grestore
gsave
130.504 184.084 m
126.902 181.336 l
stroke
grestore
gsave
82.313635 168.780414 translate
0.000000 rotate
0.000000 0.234375 m /zero glyphshow
10.179688 0.234375 m /period glyphshow
15.265625 0.234375 m /zero glyphshow
25.445312 0.234375 m /zero glyphshow
35.625000 0.234375 m /one glyphshow
45.804688 0.234375 m /zero glyphshow
grestore
gsave
128.279 210.483 m
124.628 207.742 l
stroke
grestore
gsave
79.986403 195.187329 translate
0.000000 rotate
0.000000 0.234375 m /zero glyphshow
10.179688 0.234375 m /period glyphshow
15.265625 0.234375 m /zero glyphshow
25.445312 0.234375 m /zero glyphshow
35.625000 0.234375 m /one glyphshow
45.804688 0.234375 m /five glyphshow
grestore
gsave
125.997 237.56 m
122.295 234.827 l
stroke
grestore
gsave
77.251091 222.273985 translate
0.000000 rotate
0.000000 0.234375 m /zero glyphshow
10.179688 0.234375 m /period glyphshow
15.265625 0.234375 m /zero glyphshow
25.445312 0.234375 m /zero glyphshow
35.625000 0.234375 m /two glyphshow
45.804688 0.234375 m /zero glyphshow
grestore
gsave
123.655 265.342 m
119.901 262.619 l
stroke
grestore
gsave
74.792684 250.066969 translate
0.000000 rotate
0.000000 0.234375 m /zero glyphshow
10.179688 0.234375 m /period glyphshow
15.265625 0.234375 m /zero glyphshow
25.445312 0.234375 m /zero glyphshow
35.625000 0.234375 m /two glyphshow
45.804688 0.234375 m /five glyphshow
grestore
/p3_0 {
newpath
translate
343.537 81.6523 m
338.126 86.8058 l
332.778 97.0125 l
327.334 101.53 l
321.961 115.142 l
316.432 108.889 l
310.985 112.894 l
305.538 120.185 l
300.06 132.145 l
294.673 120.158 l
289.544 87.4947 l
283.942 115.955 l
278.837 98.284 l
273.621 94.5484 l
268.437 91.2884 l
263.195 92.4809 l
257.859 98.2108 l
252.649 98.8567 l
247.359 102.805 l
242.182 103.229 l
236.495 118.977 l
231.466 115.344 l
225.468 137.169 l
220.683 128.019 l
215.342 132.828 l
210.132 134.776 l
202.681 182.055 l
199.38 145.606 l
193.055 168.191 l
187.288 179.396 l
181.408 191.899 l
177.636 169.778 l
171.928 179.639 l
163.636 227.658 l
160.825 193.627 l
155.353 199.212 l
151.451 183.545 l
145.72 192.974 l
144.381 146.52 l
137.195 174.815 l
} bind def
/p3_1 {
newpath
translate
370.724 107.054 m
365.294 108.728 l
359.937 112.657 l
354.752 123.718 l
349.402 128.816 l
344.042 133.68 l
338.527 129.199 l
333.241 138.418 l
328.561 206.524 l
322.701 170.996 l
317.087 142.008 l
311.765 155.031 l
306.39 140.157 l
301.079 140.101 l
295.847 128.36 l
290.558 134.817 l
285.367 130.374 l
280.135 132.562 l
274.97 130.97 l
269.803 131.016 l
264.449 141.271 l
258.973 155.449 l
253.984 148.412 l
248.897 146.865 l
243.774 147.381 l
238.603 149.9 l
231.838 197.681 l
227.406 178.073 l
222.316 177.658 l
216.729 189.402 l
213.163 155.57 l
207.974 159.673 l
200.32 213.006 l
195.624 205.408 l
188.514 242.815 l
184.058 231.085 l
181.073 195.966 l
176.424 190.646 l
171.093 196.621 l
166.024 198.513 l
} bind def
/p3_2 {
newpath
translate
397.239 131.688 m
391.806 132.389 l
386.639 139.377 l
381.274 141.446 l
376.018 146.387 l
370.765 151.569 l
365.462 155.248 l
360.138 158.092 l
355.992 210.312 l
349.785 176.899 l
344.398 177.219 l
339.118 183.076 l
333.596 171.56 l
328.283 171.986 l
322.875 158.68 l
317.674 166.183 l
312.421 163.419 l
307.201 157.774 l
302.015 159.639 l
296.819 165.992 l
291.645 167.451 l
286.544 162.492 l
281.346 169.274 l
276.22 170.082 l
271.137 169.271 l
265.906 177.296 l
260.515 191.749 l
255.647 182.444 l
250.222 196.444 l
245.461 185.939 l
239.875 203.835 l
234.993 198.978 l
229.883 201.543 l
224.566 209.622 l
219.491 211.315 l
212.946 247.147 l
208.975 223.395 l
204.971 203.03 l
199.667 210.713 l
194.829 209.216 l
} bind def
/p3_3 {
newpath
translate
423.042 154.556 m
417.661 155.653 l
412.612 162.88 l
407.422 167.597 l
402.09 169.334 l
396.655 168.483 l
391.572 175.541 l
386.216 175.979 l
381.442 192.019 l
375.933 188.024 l
370.9 198.07 l
365.51 196.676 l
360.361 203.49 l
355.171 209.22 l
349.446 189.717 l
344.197 189.775 l
338.958 189.209 l
333.746 188.998 l
328.602 193.267 l
323.412 192.246 l
318.265 194.305 l
313.122 195.149 l
307.993 194.968 l
302.878 199.029 l
297.789 195.95 l
292.666 203.656 l
287.6 202.607 l
282.503 206.472 l
277.467 205.843 l
272.419 207.308 l
267.39 208.326 l
262.433 206.521 l
257.365 210.685 l
252.132 221.236 l
247.085 223.971 l
242.49 211.866 l
236.651 240.401 l
231.935 233.309 l
227.321 224.838 l
222.518 222.588 l
} bind def
/p3_4 {
newpath
translate
448.217 177.149 m
442.819 177.446 l
437.882 184.745 l
432.754 189.172 l
427.352 188.948 l
422.371 195.913 l
416.813 192.311 l
411.432 191.446 l
406.904 207.874 l
401.526 206.981 l
396.461 212.842 l
391.413 219.357 l
385.975 215.929 l
380.709 216.344 l
375.201 208.869 l
370.044 211.064 l
364.755 208.298 l
359.626 210.482 l
354.544 214.407 l
349.405 215.561 l
344.252 215.199 l
339.162 217.614 l
334.059 218.483 l
328.997 221.866 l
323.904 221.361 l
318.841 222.412 l
313.793 224.061 l
308.766 233.776 l
303.728 227.301 l
298.703 231.367 l
293.709 229.689 l
288.671 236.691 l
283.712 234.606 l
278.669 241.266 l
273.622 247.266 l
268.769 241.519 l
263.565 255.824 l
258.996 239.053 l
253.859 249.577 l
248.993 248.684 l
} bind def
/p3_5 {
newpath
translate
469.582 194.473 m
464.374 196.905 l
459.22 199.971 l
454.27 205.88 l
448.903 205.815 l
443.586 206.199 l
438.537 210.572 l
433.238 210.861 l
428.247 216.168 l
423.303 222.438 l
418.037 222.863 l
412.948 226.471 l
408.086 234.781 l
402.558 228.935 l
397.391 230.384 l
391.984 225.622 l
387.28 238.218 l
381.825 230.95 l
376.849 236.493 l
371.672 235.782 l
366.476 233.646 l
361.33 232.306 l
356.298 234.823 l
351.307 238.935 l
346.314 243.09 l
341.286 245.183 l
336.253 246.39 l
331.188 243.9 l
326.173 243.523 l
321.177 243.195 l
316.229 248.906 l
311.258 249.024 l
306.306 265.368 l
301.353 255.097 l
296.395 260.349 l
291.464 260.644 l
286.567 258.815 l
281.566 268.528 l
276.71 265.435 l
271.901 261.348 l
} bind def
/p3_6 {
newpath
translate
343.537 81.6523 m
346.958 84.1566 l
350.438 89.8562 l
353.803 90.8804 l
357.264 96.3419 l
360.644 98.9207 l
364.041 102.484 l
367.373 104.265 l
370.724 107.054 l
374.132 111.847 l
377.412 113.194 l
380.709 115.419 l
383.918 115.686 l
387.424 123.797 l
390.73 126.985 l
393.905 127.371 l
397.239 131.688 l
400.422 132.897 l
403.676 135.876 l
407.024 140.962 l
410.214 143.023 l
413.469 146.538 l
416.67 149.199 l
419.807 150.912 l
423.042 154.556 l
426.363 159.796 l
429.442 161.039 l
432.495 162.088 l
435.492 162.482 l
438.724 166.776 l
441.931 170.772 l
445.001 172.805 l
448.217 177.149 l
451.204 178.273 l
454.315 181.332 l
457.401 184.154 l
460.325 184.912 l
463.441 188.392 l
466.58 192.271 l
469.582 194.473 l
} bind def
/p3_7 {
newpath
translate
300.06 132.145 m
303.576 151.907 l
307.13 158.855 l
310.628 140.361 l
314.161 151.83 l
318.034 219.666 l
321.29 176.273 l
324.684 166.396 l
328.561 206.524 l
331.943 197.761 l
335.138 179.257 l
338.621 184.306 l
342.135 191.426 l
345.395 184.953 l
349.301 211.896 l
352.038 183.131 l
355.992 210.312 l
358.628 182.82 l
361.802 179.302 l
365.517 195.832 l
368.289 179.903 l
371.64 184.449 l
374.911 186.749 l
378.419 196.239 l
381.442 192.019 l
384.507 189.746 l
387.981 198.573 l
391.01 196.214 l
394.128 196.587 l
397.023 192.232 l
400.328 197.642 l
403.93 209.492 l
406.904 207.874 l
409.701 203.127 l
413.177 212.347 l
416.259 213.853 l
419.202 213.002 l
422.316 215.596 l
425.562 220.705 l
428.247 216.168 l
} bind def
/p3_8 {
newpath
translate
257.859 98.2108 m
261.228 106.495 l
264.855 102.606 l
268.231 110.222 l
271.701 112.585 l
275.024 123.721 l
278.516 123.702 l
281.964 125.56 l
285.367 130.374 l
288.745 137.749 l
292.152 141.364 l
295.573 140.545 l
298.945 147.479 l
302.324 151.749 l
305.697 157.072 l
309.061 158.132 l
312.421 163.419 l
315.767 166.008 l
319.124 172.081 l
322.506 181.388 l
325.793 179.623 l
329.075 179.702 l
332.372 182.369 l
335.723 189.6 l
338.958 189.209 l
342.246 193.023 l
345.451 192.846 l
348.898 205.399 l
351.942 198.703 l
355.24 204.455 l
358.426 205.743 l
361.582 206.437 l
364.755 208.298 l
368.003 213.1 l
371.564 228.168 l
374.449 221.483 l
377.621 224.372 l
380.678 224.271 l
383.796 226.281 l
387.28 238.218 l
} bind def
/p3_9 {
newpath
translate
215.342 132.828 m
218.826 137.56 l
223.026 124.669 l
226.605 125.905 l
229.56 143.336 l
233.307 139.677 l
236.933 138.556 l
240.204 147.708 l
243.774 147.381 l
247.097 154.895 l
250.659 153.73 l
254.13 155.185 l
257.552 158.03 l
261.012 158.68 l
264.363 163.808 l
267.675 170.85 l
271.137 169.271 l
274.345 182.679 l
277.747 183.638 l
281.107 186.682 l
284.491 186.466 l
287.756 197.765 l
291.142 194.213 l
294.473 195.131 l
297.789 195.95 l
301.087 197.618 l
304.367 205.226 l
307.65 210.403 l
310.912 207.956 l
314.175 212.065 l
317.42 213.963 l
320.68 219.747 l
323.904 221.361 l
327.159 227.425 l
330.341 227.015 l
333.551 230.195 l
336.734 232.071 l
340.054 243.305 l
343.077 236.527 l
346.314 243.09 l
} bind def
/p3_a {
newpath
translate
171.928 179.639 m
175.926 177.066 l
173.924 272.564 l
181.647 208.808 l
187.641 170.821 l
189.846 198.353 l
193.778 195.108 l
198.231 181.148 l
200.32 213.006 l
205.549 181.708 l
207.637 215.078 l
212.824 181.402 l
215.985 191.566 l
218.476 218.282 l
222.266 214.017 l
225.415 225.711 l
229.883 201.543 l
233.222 207.09 l
235.71 238.463 l
240.513 198.401 l
243.47 215.586 l
247.018 212.954 l
249.255 259.147 l
253.579 225.963 l
257.365 210.685 l
260.31 231.385 l
263.765 228.834 l
266.977 238.05 l
270.295 241.614 l
273.806 231.844 l
277.184 228.283 l
280.37 238.276 l
283.712 234.606 l
286.858 249.633 l
290.13 251.425 l
293.379 254.923 l
296.652 251.274 l
299.899 247.093 l
303.102 252.613 l
306.306 265.368 l
} bind def
/p3_b {
newpath
translate
137.195 174.815 m
142.247 160.08 l
146.327 156.868 l
149.06 170.938 l
151.902 183.955 l
156.101 178.512 l
159.445 184.638 l
164.412 167.085 l
166.024 198.513 l
171.136 177.482 l
175.052 173.847 l
177.937 186.44 l
180.081 211.835 l
185.151 187.897 l
188.045 200.847 l
192.036 194.08 l
194.829 209.216 l
198.752 202.809 l
200.944 230.642 l
205.038 220.113 l
208.859 214.32 l
212.624 208.911 l
215.263 229.018 l
219.472 211.993 l
222.518 222.588 l
225.678 230.576 l
229.321 225.381 l
232.652 228.203 l
236.058 228.422 l
239.381 230.771 l
242.194 249.876 l
245.778 243.073 l
248.993 248.684 l
252.469 243.811 l
255.565 253.754 l
258.76 259.783 l
262.196 253.949 l
265.467 255.055 l
268.661 259.756 l
271.901 261.348 l
} bind def
0 setlinecap
gsave
453.4 352.8 73.12 44.1 clipbox
0 0 p3_0
stroke
grestore
gsave
453.4 352.8 73.12 44.1 clipbox
0 0 p3_1
stroke
grestore
gsave
453.4 352.8 73.12 44.1 clipbox
0 0 p3_2
stroke
grestore
gsave
453.4 352.8 73.12 44.1 clipbox
0 0 p3_3
stroke
grestore
gsave
453.4 352.8 73.12 44.1 clipbox
0 0 p3_4
stroke
grestore
gsave
453.4 352.8 73.12 44.1 clipbox
0 0 p3_5
stroke
grestore
gsave
453.4 352.8 73.12 44.1 clipbox
0 0 p3_6
stroke
grestore
gsave
453.4 352.8 73.12 44.1 clipbox
0 0 p3_7
stroke
grestore
gsave
453.4 352.8 73.12 44.1 clipbox
0 0 p3_8
stroke
grestore
gsave
453.4 352.8 73.12 44.1 clipbox
0 0 p3_9
stroke
grestore
gsave
453.4 352.8 73.12 44.1 clipbox
0 0 p3_a
stroke
grestore
gsave
453.4 352.8 73.12 44.1 clipbox
0 0 p3_b
stroke
grestore

end
showpage
