%!PS-Adobe-3.0 EPSF-3.0
%%Title: /home/aurelien/synchro/boulot/code/papers_code/schelling-2012/fig/phase_diagram_rhotol_contour.eps
%%Creator: matplotlib version 1.1.1rc2, http://matplotlib.sourceforge.net/
%%CreationDate: Wed May  1 10:58:41 2013
%%Orientation: portrait
%%BoundingBox: -289 132 901 659
%%EndComments
%%BeginProlog
/mpldict 8 dict def
mpldict begin
/m { moveto } bind def
/l { lineto } bind def
/r { rlineto } bind def
/c { curveto } bind def
/cl { closepath } bind def
/box {
m
1 index 0 r
0 exch r
neg 0 r
cl
} bind def
/clipbox {
box
clip
newpath
} bind def
%!PS-Adobe-3.0 Resource-Font
%%Title: DejaVu Sans
%%Copyright: Copyright (c) 2003 by Bitstream, Inc. All Rights Reserved. Copyright (c) 2006 by Tavmjong Bah. All Rights Reserved. DejaVu changes are in public domain 
%%Creator: Converted from TrueType to type 3 by PPR
25 dict begin
/_d{bind def}bind def
/_m{moveto}_d
/_l{lineto}_d
/_cl{closepath eofill}_d
/_c{curveto}_d
/_sc{7 -1 roll{setcachedevice}{pop pop pop pop pop pop}ifelse}_d
/_e{exec}_d
/FontName /DejaVuSans def
/PaintType 0 def
/FontMatrix[.001 0 0 .001 0 0]def
/FontBBox[-1021 -415 1681 1167]def
/FontType 3 def
/Encoding [ /period /zero /one /two /four /five /six /seven /eight /nine /equal /a /c /d /e /f /i /l /n /o /r /s /t /y ] def
/FontInfo 10 dict dup begin
/FamilyName (DejaVu Sans) def
/FullName (DejaVu Sans) def
/Notice (Copyright (c) 2003 by Bitstream, Inc. All Rights Reserved. Copyright (c) 2006 by Tavmjong Bah. All Rights Reserved. DejaVu changes are in public domain ) def
/Weight (Book) def
/Version (Version 2.33) def
/ItalicAngle 0.0 def
/isFixedPitch false def
/UnderlinePosition -130 def
/UnderlineThickness 90 def
end readonly def
/CharStrings 24 dict dup begin
/period{318 0 107 0 210 124 _sc
107 124 _m
210 124 _l
210 0 _l
107 0 _l
107 124 _l
_cl}_d
/zero{636 0 66 -13 570 742 _sc
318 664 _m
267 664 229 639 203 589 _c
177 539 165 464 165 364 _c
165 264 177 189 203 139 _c
229 89 267 64 318 64 _c
369 64 407 89 433 139 _c
458 189 471 264 471 364 _c
471 464 458 539 433 589 _c
407 639 369 664 318 664 _c
318 742 _m
399 742 461 709 505 645 _c
548 580 570 486 570 364 _c
570 241 548 147 505 83 _c
461 19 399 -13 318 -13 _c
236 -13 173 19 130 83 _c
87 147 66 241 66 364 _c
66 486 87 580 130 645 _c
173 709 236 742 318 742 _c
_cl}_d
/one{636 0 110 0 544 729 _sc
124 83 _m
285 83 _l
285 639 _l
110 604 _l
110 694 _l
284 729 _l
383 729 _l
383 83 _l
544 83 _l
544 0 _l
124 0 _l
124 83 _l
_cl}_d
/two{{636 0 73 0 536 742 _sc
192 83 _m
536 83 _l
536 0 _l
73 0 _l
73 83 _l
110 121 161 173 226 239 _c
290 304 331 346 348 365 _c
380 400 402 430 414 455 _c
426 479 433 504 433 528 _c
433 566 419 598 392 622 _c
365 646 330 659 286 659 _c
255 659 222 653 188 643 _c
154 632 117 616 78 594 _c
78 694 _l
118 710 155 722 189 730 _c
223 738 255 742 284 742 _c
}_e{359 742 419 723 464 685 _c
509 647 532 597 532 534 _c
532 504 526 475 515 449 _c
504 422 484 390 454 354 _c
446 344 420 317 376 272 _c
332 227 271 164 192 83 _c
_cl}_e}_d
/four{636 0 49 0 580 729 _sc
378 643 _m
129 254 _l
378 254 _l
378 643 _l
352 729 _m
476 729 _l
476 254 _l
580 254 _l
580 172 _l
476 172 _l
476 0 _l
378 0 _l
378 172 _l
49 172 _l
49 267 _l
352 729 _l
_cl}_d
/five{{636 0 77 -13 549 729 _sc
108 729 _m
495 729 _l
495 646 _l
198 646 _l
198 467 _l
212 472 227 476 241 478 _c
255 480 270 482 284 482 _c
365 482 429 459 477 415 _c
525 370 549 310 549 234 _c
549 155 524 94 475 51 _c
426 8 357 -13 269 -13 _c
238 -13 207 -10 175 -6 _c
143 -1 111 6 77 17 _c
77 116 _l
106 100 136 88 168 80 _c
199 72 232 69 267 69 _c
}_e{323 69 368 83 401 113 _c
433 143 450 183 450 234 _c
450 284 433 324 401 354 _c
368 384 323 399 267 399 _c
241 399 214 396 188 390 _c
162 384 135 375 108 363 _c
108 729 _l
_cl}_e}_d
/six{{636 0 70 -13 573 742 _sc
330 404 _m
286 404 251 388 225 358 _c
199 328 186 286 186 234 _c
186 181 199 139 225 109 _c
251 79 286 64 330 64 _c
374 64 409 79 435 109 _c
461 139 474 181 474 234 _c
474 286 461 328 435 358 _c
409 388 374 404 330 404 _c
526 713 _m
526 623 _l
501 635 476 644 451 650 _c
425 656 400 659 376 659 _c
310 659 260 637 226 593 _c
}_e{192 549 172 482 168 394 _c
187 422 211 444 240 459 _c
269 474 301 482 336 482 _c
409 482 467 459 509 415 _c
551 371 573 310 573 234 _c
573 159 550 99 506 54 _c
462 9 403 -13 330 -13 _c
246 -13 181 19 137 83 _c
92 147 70 241 70 364 _c
70 479 97 571 152 639 _c
206 707 280 742 372 742 _c
396 742 421 739 447 735 _c
472 730 498 723 526 713 _c
_cl}_e}_d
/seven{636 0 82 0 551 729 _sc
82 729 _m
551 729 _l
551 687 _l
286 0 _l
183 0 _l
432 646 _l
82 646 _l
82 729 _l
_cl}_d
/eight{{636 0 68 -13 568 742 _sc
318 346 _m
271 346 234 333 207 308 _c
180 283 167 249 167 205 _c
167 161 180 126 207 101 _c
234 76 271 64 318 64 _c
364 64 401 76 428 102 _c
455 127 469 161 469 205 _c
469 249 455 283 429 308 _c
402 333 365 346 318 346 _c
219 388 _m
177 398 144 418 120 447 _c
96 476 85 511 85 553 _c
85 611 105 657 147 691 _c
188 725 245 742 318 742 _c
}_e{390 742 447 725 489 691 _c
530 657 551 611 551 553 _c
551 511 539 476 515 447 _c
491 418 459 398 417 388 _c
464 377 501 355 528 323 _c
554 291 568 251 568 205 _c
568 134 546 80 503 43 _c
459 5 398 -13 318 -13 _c
237 -13 175 5 132 43 _c
89 80 68 134 68 205 _c
68 251 81 291 108 323 _c
134 355 171 377 219 388 _c
183 544 _m
183 506 194 476 218 455 _c
}_e{242 434 275 424 318 424 _c
360 424 393 434 417 455 _c
441 476 453 506 453 544 _c
453 582 441 611 417 632 _c
393 653 360 664 318 664 _c
275 664 242 653 218 632 _c
194 611 183 582 183 544 _c
_cl}_e}_d
/nine{{636 0 63 -13 566 742 _sc
110 15 _m
110 105 _l
134 93 159 84 185 78 _c
210 72 235 69 260 69 _c
324 69 374 90 408 134 _c
442 178 462 244 468 334 _c
448 306 424 284 396 269 _c
367 254 335 247 300 247 _c
226 247 168 269 126 313 _c
84 357 63 417 63 494 _c
63 568 85 628 129 674 _c
173 719 232 742 306 742 _c
390 742 455 709 499 645 _c
543 580 566 486 566 364 _c
}_e{566 248 538 157 484 89 _c
429 21 356 -13 264 -13 _c
239 -13 214 -10 189 -6 _c
163 -2 137 5 110 15 _c
306 324 _m
350 324 385 339 411 369 _c
437 399 450 441 450 494 _c
450 546 437 588 411 618 _c
385 648 350 664 306 664 _c
262 664 227 648 201 618 _c
175 588 162 546 162 494 _c
162 441 175 399 201 369 _c
227 339 262 324 306 324 _c
_cl}_e}_d
/equal{838 0 106 172 732 454 _sc
106 454 _m
732 454 _l
732 372 _l
106 372 _l
106 454 _l
106 255 _m
732 255 _l
732 172 _l
106 172 _l
106 255 _l
_cl}_d
/a{{613 0 60 -13 522 560 _sc
343 275 _m
270 275 220 266 192 250 _c
164 233 150 205 150 165 _c
150 133 160 107 181 89 _c
202 70 231 61 267 61 _c
317 61 357 78 387 114 _c
417 149 432 196 432 255 _c
432 275 _l
343 275 _l
522 312 _m
522 0 _l
432 0 _l
432 83 _l
411 49 385 25 355 10 _c
325 -5 287 -13 243 -13 _c
187 -13 142 2 109 33 _c
76 64 60 106 60 159 _c
}_e{60 220 80 266 122 298 _c
163 329 224 345 306 345 _c
432 345 _l
432 354 _l
432 395 418 427 391 450 _c
364 472 326 484 277 484 _c
245 484 215 480 185 472 _c
155 464 127 453 100 439 _c
100 522 _l
132 534 164 544 195 550 _c
226 556 256 560 286 560 _c
365 560 424 539 463 498 _c
502 457 522 395 522 312 _c
_cl}_e}_d
/c{{550 0 55 -13 488 560 _sc
488 526 _m
488 442 _l
462 456 437 466 411 473 _c
385 480 360 484 334 484 _c
276 484 230 465 198 428 _c
166 391 150 339 150 273 _c
150 206 166 154 198 117 _c
230 80 276 62 334 62 _c
360 62 385 65 411 72 _c
437 79 462 90 488 104 _c
488 21 _l
462 9 436 0 410 -5 _c
383 -10 354 -13 324 -13 _c
242 -13 176 12 128 64 _c
}_e{79 115 55 185 55 273 _c
55 362 79 432 128 483 _c
177 534 244 560 330 560 _c
358 560 385 557 411 551 _c
437 545 463 537 488 526 _c
_cl}_e}_d
/d{{635 0 55 -13 544 760 _sc
454 464 _m
454 760 _l
544 760 _l
544 0 _l
454 0 _l
454 82 _l
435 49 411 25 382 10 _c
353 -5 319 -13 279 -13 _c
213 -13 159 13 117 65 _c
75 117 55 187 55 273 _c
55 359 75 428 117 481 _c
159 533 213 560 279 560 _c
319 560 353 552 382 536 _c
411 520 435 496 454 464 _c
148 273 _m
148 207 161 155 188 117 _c
215 79 253 61 301 61 _c
}_e{348 61 385 79 413 117 _c
440 155 454 207 454 273 _c
454 339 440 390 413 428 _c
385 466 348 485 301 485 _c
253 485 215 466 188 428 _c
161 390 148 339 148 273 _c
_cl}_e}_d
/e{{615 0 55 -13 562 560 _sc
562 296 _m
562 252 _l
149 252 _l
153 190 171 142 205 110 _c
238 78 284 62 344 62 _c
378 62 412 66 444 74 _c
476 82 509 95 541 113 _c
541 28 _l
509 14 476 3 442 -3 _c
408 -9 373 -13 339 -13 _c
251 -13 182 12 131 62 _c
80 112 55 181 55 268 _c
55 357 79 428 127 481 _c
175 533 241 560 323 560 _c
397 560 455 536 498 489 _c
}_e{540 441 562 377 562 296 _c
472 322 _m
471 371 457 410 431 440 _c
404 469 368 484 324 484 _c
274 484 234 469 204 441 _c
174 413 156 373 152 322 _c
472 322 _l
_cl}_e}_d
/f{352 0 23 0 371 760 _sc
371 760 _m
371 685 _l
285 685 _l
253 685 230 678 218 665 _c
205 652 199 629 199 595 _c
199 547 _l
347 547 _l
347 477 _l
199 477 _l
199 0 _l
109 0 _l
109 477 _l
23 477 _l
23 547 _l
109 547 _l
109 585 _l
109 645 123 690 151 718 _c
179 746 224 760 286 760 _c
371 760 _l
_cl}_d
/i{278 0 94 0 184 760 _sc
94 547 _m
184 547 _l
184 0 _l
94 0 _l
94 547 _l
94 760 _m
184 760 _l
184 646 _l
94 646 _l
94 760 _l
_cl}_d
/l{278 0 94 0 184 760 _sc
94 760 _m
184 760 _l
184 0 _l
94 0 _l
94 760 _l
_cl}_d
/n{634 0 91 0 549 560 _sc
549 330 _m
549 0 _l
459 0 _l
459 327 _l
459 379 448 417 428 443 _c
408 469 378 482 338 482 _c
289 482 251 466 223 435 _c
195 404 181 362 181 309 _c
181 0 _l
91 0 _l
91 547 _l
181 547 _l
181 462 _l
202 494 227 519 257 535 _c
286 551 320 560 358 560 _c
420 560 468 540 500 501 _c
532 462 549 405 549 330 _c
_cl}_d
/o{612 0 55 -13 557 560 _sc
306 484 _m
258 484 220 465 192 427 _c
164 389 150 338 150 273 _c
150 207 163 156 191 118 _c
219 80 257 62 306 62 _c
354 62 392 80 420 118 _c
448 156 462 207 462 273 _c
462 337 448 389 420 427 _c
392 465 354 484 306 484 _c
306 560 _m
384 560 445 534 490 484 _c
534 433 557 363 557 273 _c
557 183 534 113 490 63 _c
445 12 384 -13 306 -13 _c
227 -13 165 12 121 63 _c
77 113 55 183 55 273 _c
55 363 77 433 121 484 _c
165 534 227 560 306 560 _c
_cl}_d
/r{411 0 91 0 411 560 _sc
411 463 _m
401 469 390 473 378 476 _c
366 478 353 480 339 480 _c
288 480 249 463 222 430 _c
194 397 181 350 181 288 _c
181 0 _l
91 0 _l
91 547 _l
181 547 _l
181 462 _l
199 495 224 520 254 536 _c
284 552 321 560 365 560 _c
371 560 378 559 386 559 _c
393 558 401 557 411 555 _c
411 463 _l
_cl}_d
/s{{521 0 54 -13 472 560 _sc
443 531 _m
443 446 _l
417 458 391 468 364 475 _c
336 481 308 485 279 485 _c
234 485 200 478 178 464 _c
156 450 145 430 145 403 _c
145 382 153 366 169 354 _c
185 342 217 330 265 320 _c
296 313 _l
360 299 405 279 432 255 _c
458 230 472 195 472 151 _c
472 100 452 60 412 31 _c
372 1 316 -13 246 -13 _c
216 -13 186 -10 154 -5 _c
}_e{122 0 89 8 54 20 _c
54 113 _l
87 95 120 82 152 74 _c
184 65 216 61 248 61 _c
290 61 323 68 346 82 _c
368 96 380 117 380 144 _c
380 168 371 187 355 200 _c
339 213 303 226 247 238 _c
216 245 _l
160 257 119 275 95 299 _c
70 323 58 356 58 399 _c
58 450 76 490 112 518 _c
148 546 200 560 268 560 _c
301 560 332 557 362 552 _c
391 547 418 540 443 531 _c
}_e{_cl}_e}_d
/t{392 0 27 0 368 702 _sc
183 702 _m
183 547 _l
368 547 _l
368 477 _l
183 477 _l
183 180 _l
183 135 189 106 201 94 _c
213 81 238 75 276 75 _c
368 75 _l
368 0 _l
276 0 _l
206 0 158 13 132 39 _c
106 65 93 112 93 180 _c
93 477 _l
27 477 _l
27 547 _l
93 547 _l
93 702 _l
183 702 _l
_cl}_d
/y{592 0 30 -207 562 547 _sc
322 -50 _m
296 -114 271 -157 247 -177 _c
223 -197 191 -207 151 -207 _c
79 -207 _l
79 -132 _l
132 -132 _l
156 -132 175 -126 189 -114 _c
203 -102 218 -75 235 -31 _c
251 9 _l
30 547 _l
125 547 _l
296 119 _l
467 547 _l
562 547 _l
322 -50 _l
_cl}_d
end readonly def

/BuildGlyph
 {exch begin
 CharStrings exch
 2 copy known not{pop /.notdef}if
 true 3 1 roll get exec
 end}_d

/BuildChar {
 1 index /Encoding get exch get
 1 index /BuildGlyph get exec
}_d

FontName currentdict end definefont pop
end
%%EndProlog
mpldict begin
-289.35 132.75 translate
1190.7 526.5 0 0 clipbox
gsave
0 0 m
1190.7 0 l
1190.7 526.5 l
0 526.5 l
cl
1.000 setgray
fill
grestore
gsave
148.838 52.65 m
420.247 52.65 l
420.247 473.85 l
148.838 473.85 l
cl
1.000 setgray
fill
grestore
/p0_0 {
newpath
translate
196.296 52.65 m
196.227 67.1741 l
196.807 81.6983 l
196.968 96.2224 l
197.517 110.747 l
197.803 125.271 l
197.966 139.795 l
198.341 154.319 l
198.653 168.843 l
199.056 183.367 l
199.461 197.891 l
199.524 212.416 l
201.045 226.94 l
201.219 237.741 l
} bind def
/p0_1 {
newpath
translate
216.114 279.266 m
217.515 285.036 l
218.042 299.56 l
218.766 314.084 l
219.204 328.609 l
219.473 343.133 l
219.84 357.657 l
220.101 372.181 l
220.582 386.705 l
220.84 401.229 l
221.154 415.753 l
221.314 430.278 l
221.787 444.802 l
222.09 459.326 l
222.252 473.85 l
} bind def
/p0_2 {
newpath
translate
365.226 52.65 m
364.093 61.676 l
354.734 63.4728 l
354.191 67.1741 l
351.535 81.6983 l
346.744 96.2224 l
345.375 107.302 l
344.923 110.747 l
342.287 125.271 l
340.2 132.918 l
} bind def
/p0_3 {
newpath
translate
338.016 175.78 m
336.865 183.367 l
336.476 197.891 l
336.017 201.517 l
333.939 212.416 l
333.657 226.94 l
332.564 241.464 l
332.088 255.988 l
330.669 270.512 l
328.76 285.036 l
327.322 299.56 l
326.976 314.084 l
326.658 316.9 l
325.29 328.609 l
323.093 343.133 l
322.457 357.657 l
320.631 372.181 l
320.294 386.705 l
318.945 401.229 l
319.941 415.753 l
320.03 430.278 l
319.114 444.802 l
319.419 459.326 l
318.597 473.85 l
} bind def
1.000 setlinewidth
1 setlinejoin
0 setlinecap
[] 0 setdash
0.000 setgray
gsave
271.4 421.2 148.8 52.65 clipbox
0 0 p0_0
stroke
grestore
gsave
271.4 421.2 148.8 52.65 clipbox
0 0 p0_1
stroke
grestore
gsave
271.4 421.2 148.8 52.65 clipbox
0 0 p0_2
stroke
grestore
gsave
271.4 421.2 148.8 52.65 clipbox
0 0 p0_3
stroke
grestore
/p1_0 {
newpath
translate
148.838 183.846 m
158.196 196.118 l
167.555 197.238 l
176.914 196.492 l
184.364 197.891 l
186.273 198.397 l
187.503 212.416 l
189.074 226.94 l
190.794 241.464 l
192.251 255.988 l
193.302 270.512 l
194.36 285.036 l
195.632 291.806 l
195.955 292.828 l
} bind def
/p1_1 {
newpath
translate
214.581 328.752 m
214.983 343.133 l
215.709 357.657 l
216.085 372.181 l
216.608 386.705 l
217.041 401.229 l
217.426 415.753 l
217.734 430.278 l
218.141 444.802 l
218.525 459.326 l
218.782 473.85 l
} bind def
/p1_2 {
newpath
translate
346.449 473.85 m
347.452 459.326 l
346.956 444.802 l
346.911 430.278 l
347.614 415.753 l
346.589 401.229 l
347.799 386.705 l
347.379 372.181 l
348.69 357.657 l
350.103 343.133 l
351.306 328.609 l
352.86 314.883 l
} bind def
/p1_3 {
newpath
translate
374.021 275.983 m
374.904 270.512 l
375.185 255.988 l
377.333 241.464 l
380.067 226.94 l
381.553 212.416 l
382.811 201.95 l
392.17 204.408 l
401.529 206.563 l
410.888 197.966 l
420.247 205.225 l
} bind def
gsave
271.4 421.2 148.8 52.65 clipbox
0 0 p1_0
stroke
grestore
gsave
271.4 421.2 148.8 52.65 clipbox
0 0 p1_1
stroke
grestore
gsave
271.4 421.2 148.8 52.65 clipbox
0 0 p1_2
stroke
grestore
gsave
271.4 421.2 148.8 52.65 clipbox
0 0 p1_3
stroke
grestore
/p2_0 {
newpath
translate
148.838 372.942 m
158.196 380.593 l
167.555 380.892 l
176.914 381.099 l
181.65 386.705 l
186.273 390.55 l
186.973 394.342 l
} bind def
/p2_1 {
newpath
translate
195.875 436.876 m
204.991 438.23 l
214.35 438.673 l
214.496 444.802 l
214.959 459.326 l
215.313 473.85 l
} bind def
/p2_2 {
newpath
translate
354.7 473.85 m
354.734 473.227 l
364.093 464.623 l
373.452 472.195 l
375.68 459.326 l
377.937 444.802 l
379.468 430.278 l
380.713 422.677 l
} bind def
/p2_3 {
newpath
translate
400.437 382.893 m
401.529 382.311 l
410.888 386.569 l
411.077 386.705 l
420.247 392.252 l
} bind def
gsave
271.4 421.2 148.8 52.65 clipbox
0 0 p2_0
stroke
grestore
gsave
271.4 421.2 148.8 52.65 clipbox
0 0 p2_1
stroke
grestore
gsave
271.4 421.2 148.8 52.65 clipbox
0 0 p2_2
stroke
grestore
gsave
271.4 421.2 148.8 52.65 clipbox
0 0 p2_3
stroke
grestore
0.500 setlinewidth
gsave
/o {
gsave
newpath
translate
0.5 setlinewidth
1 setlinejoin
0 setlinecap
0 0 m
0 4 l
gsave
0.000 setgray
fill
grestore
stroke
grestore
} bind def
148.838 52.65 o
grestore
gsave
/o {
gsave
newpath
translate
0.5 setlinewidth
1 setlinejoin
0 setlinecap
0 0 m
0 -4 l
gsave
0.000 setgray
fill
grestore
stroke
grestore
} bind def
148.838 473.85 o
grestore
/DejaVuSans findfont
16.000 scalefont
setfont
gsave
137.165625 36.540625 translate
0.000000 rotate
0.000000 0.234375 m /zero glyphshow
10.179688 0.234375 m /period glyphshow
15.265625 0.234375 m /zero glyphshow
grestore
gsave
/o {
gsave
newpath
translate
0.5 setlinewidth
1 setlinejoin
0 setlinecap
0 0 m
0 4 l
gsave
0.000 setgray
fill
grestore
stroke
grestore
} bind def
203.119 52.65 o
grestore
gsave
/o {
gsave
newpath
translate
0.5 setlinewidth
1 setlinejoin
0 setlinecap
0 0 m
0 -4 l
gsave
0.000 setgray
fill
grestore
stroke
grestore
} bind def
203.119 473.85 o
grestore
gsave
191.720974 36.540625 translate
0.000000 rotate
0.000000 0.234375 m /zero glyphshow
10.179688 0.234375 m /period glyphshow
15.265625 0.234375 m /two glyphshow
grestore
gsave
/o {
gsave
newpath
translate
0.5 setlinewidth
1 setlinejoin
0 setlinecap
0 0 m
0 4 l
gsave
0.000 setgray
fill
grestore
stroke
grestore
} bind def
257.401 52.65 o
grestore
gsave
/o {
gsave
newpath
translate
0.5 setlinewidth
1 setlinejoin
0 setlinecap
0 0 m
0 -4 l
gsave
0.000 setgray
fill
grestore
stroke
grestore
} bind def
257.401 473.85 o
grestore
gsave
245.651324 36.540625 translate
0.000000 rotate
0.000000 0.234375 m /zero glyphshow
10.179688 0.234375 m /period glyphshow
15.265625 0.234375 m /four glyphshow
grestore
gsave
/o {
gsave
newpath
translate
0.5 setlinewidth
1 setlinejoin
0 setlinecap
0 0 m
0 4 l
gsave
0.000 setgray
fill
grestore
stroke
grestore
} bind def
311.683 52.65 o
grestore
gsave
/o {
gsave
newpath
translate
0.5 setlinewidth
1 setlinejoin
0 setlinecap
0 0 m
0 -4 l
gsave
0.000 setgray
fill
grestore
stroke
grestore
} bind def
311.683 473.85 o
grestore
gsave
299.987923 36.540625 translate
0.000000 rotate
0.000000 0.234375 m /zero glyphshow
10.179688 0.234375 m /period glyphshow
15.265625 0.234375 m /six glyphshow
grestore
gsave
/o {
gsave
newpath
translate
0.5 setlinewidth
1 setlinejoin
0 setlinecap
0 0 m
0 4 l
gsave
0.000 setgray
fill
grestore
stroke
grestore
} bind def
365.965 52.65 o
grestore
gsave
/o {
gsave
newpath
translate
0.5 setlinewidth
1 setlinejoin
0 setlinecap
0 0 m
0 -4 l
gsave
0.000 setgray
fill
grestore
stroke
grestore
} bind def
365.965 473.85 o
grestore
gsave
354.308897 36.540625 translate
0.000000 rotate
0.000000 0.234375 m /zero glyphshow
10.179688 0.234375 m /period glyphshow
15.265625 0.234375 m /eight glyphshow
grestore
gsave
/o {
gsave
newpath
translate
0.5 setlinewidth
1 setlinejoin
0 setlinecap
0 0 m
0 4 l
gsave
0.000 setgray
fill
grestore
stroke
grestore
} bind def
420.247 52.65 o
grestore
gsave
/o {
gsave
newpath
translate
0.5 setlinewidth
1 setlinejoin
0 setlinecap
0 0 m
0 -4 l
gsave
0.000 setgray
fill
grestore
stroke
grestore
} bind def
420.247 473.85 o
grestore
gsave
408.926746 36.540625 translate
0.000000 rotate
0.000000 0.234375 m /one glyphshow
10.179688 0.234375 m /period glyphshow
15.265625 0.234375 m /zero glyphshow
grestore
gsave
247.409467 19.150000 translate
0.000000 rotate
0.000000 0.234375 m /t glyphshow
6.273438 0.234375 m /o glyphshow
16.062500 0.234375 m /l glyphshow
20.507812 0.234375 m /e glyphshow
30.351562 0.234375 m /r glyphshow
36.929688 0.234375 m /a glyphshow
46.734375 0.234375 m /n glyphshow
56.875000 0.234375 m /c glyphshow
65.671875 0.234375 m /e glyphshow
grestore
gsave
/o {
gsave
newpath
translate
0.5 setlinewidth
1 setlinejoin
0 setlinecap
0 0 m
4 0 l
gsave
0.000 setgray
fill
grestore
stroke
grestore
} bind def
148.838 52.65 o
grestore
gsave
/o {
gsave
newpath
translate
0.5 setlinewidth
1 setlinejoin
0 setlinecap
0 0 m
-4 0 l
gsave
0.000 setgray
fill
grestore
stroke
grestore
} bind def
420.247 52.65 o
grestore
gsave
111.306250 46.595313 translate
0.000000 rotate
0.000000 0.234375 m /zero glyphshow
10.179688 0.234375 m /period glyphshow
15.265625 0.234375 m /six glyphshow
25.445312 0.234375 m /zero glyphshow
grestore
gsave
/o {
gsave
newpath
translate
0.5 setlinewidth
1 setlinejoin
0 setlinecap
0 0 m
4 0 l
gsave
0.000 setgray
fill
grestore
stroke
grestore
} bind def
148.838 112.821 o
grestore
gsave
/o {
gsave
newpath
translate
0.5 setlinewidth
1 setlinejoin
0 setlinecap
0 0 m
-4 0 l
gsave
0.000 setgray
fill
grestore
stroke
grestore
} bind def
420.247 112.821 o
grestore
gsave
111.650000 106.766741 translate
0.000000 rotate
0.000000 0.234375 m /zero glyphshow
10.179688 0.234375 m /period glyphshow
15.265625 0.234375 m /six glyphshow
25.445312 0.234375 m /five glyphshow
grestore
gsave
/o {
gsave
newpath
translate
0.5 setlinewidth
1 setlinejoin
0 setlinecap
0 0 m
4 0 l
gsave
0.000 setgray
fill
grestore
stroke
grestore
} bind def
148.838 172.993 o
grestore
gsave
/o {
gsave
newpath
translate
0.5 setlinewidth
1 setlinejoin
0 setlinecap
0 0 m
-4 0 l
gsave
0.000 setgray
fill
grestore
stroke
grestore
} bind def
420.247 172.993 o
grestore
gsave
111.306250 166.938170 translate
0.000000 rotate
0.000000 0.234375 m /zero glyphshow
10.179688 0.234375 m /period glyphshow
15.265625 0.234375 m /seven glyphshow
25.445312 0.234375 m /zero glyphshow
grestore
gsave
/o {
gsave
newpath
translate
0.5 setlinewidth
1 setlinejoin
0 setlinecap
0 0 m
4 0 l
gsave
0.000 setgray
fill
grestore
stroke
grestore
} bind def
148.838 233.164 o
grestore
gsave
/o {
gsave
newpath
translate
0.5 setlinewidth
1 setlinejoin
0 setlinecap
0 0 m
-4 0 l
gsave
0.000 setgray
fill
grestore
stroke
grestore
} bind def
420.247 233.164 o
grestore
gsave
111.650000 227.109598 translate
0.000000 rotate
0.000000 0.234375 m /zero glyphshow
10.179688 0.234375 m /period glyphshow
15.265625 0.234375 m /seven glyphshow
25.445312 0.234375 m /five glyphshow
grestore
gsave
/o {
gsave
newpath
translate
0.5 setlinewidth
1 setlinejoin
0 setlinecap
0 0 m
4 0 l
gsave
0.000 setgray
fill
grestore
stroke
grestore
} bind def
148.838 293.336 o
grestore
gsave
/o {
gsave
newpath
translate
0.5 setlinewidth
1 setlinejoin
0 setlinecap
0 0 m
-4 0 l
gsave
0.000 setgray
fill
grestore
stroke
grestore
} bind def
420.247 293.336 o
grestore
gsave
111.306250 287.281027 translate
0.000000 rotate
0.000000 0.234375 m /zero glyphshow
10.179688 0.234375 m /period glyphshow
15.265625 0.234375 m /eight glyphshow
25.445312 0.234375 m /zero glyphshow
grestore
gsave
/o {
gsave
newpath
translate
0.5 setlinewidth
1 setlinejoin
0 setlinecap
0 0 m
4 0 l
gsave
0.000 setgray
fill
grestore
stroke
grestore
} bind def
148.838 353.507 o
grestore
gsave
/o {
gsave
newpath
translate
0.5 setlinewidth
1 setlinejoin
0 setlinecap
0 0 m
-4 0 l
gsave
0.000 setgray
fill
grestore
stroke
grestore
} bind def
420.247 353.507 o
grestore
gsave
111.650000 347.452455 translate
0.000000 rotate
0.000000 0.234375 m /zero glyphshow
10.179688 0.234375 m /period glyphshow
15.265625 0.234375 m /eight glyphshow
25.445312 0.234375 m /five glyphshow
grestore
gsave
/o {
gsave
newpath
translate
0.5 setlinewidth
1 setlinejoin
0 setlinecap
0 0 m
4 0 l
gsave
0.000 setgray
fill
grestore
stroke
grestore
} bind def
148.838 413.679 o
grestore
gsave
/o {
gsave
newpath
translate
0.5 setlinewidth
1 setlinejoin
0 setlinecap
0 0 m
-4 0 l
gsave
0.000 setgray
fill
grestore
stroke
grestore
} bind def
420.247 413.679 o
grestore
gsave
111.306250 407.623884 translate
0.000000 rotate
0.000000 0.234375 m /zero glyphshow
10.179688 0.234375 m /period glyphshow
15.265625 0.234375 m /nine glyphshow
25.445312 0.234375 m /zero glyphshow
grestore
gsave
106.306250 234.585938 translate
90.000000 rotate
0.000000 3.328125 m /d glyphshow
10.156250 3.328125 m /e glyphshow
20.000000 3.328125 m /n glyphshow
30.140625 3.328125 m /s glyphshow
38.476562 3.328125 m /i glyphshow
42.921875 3.328125 m /t glyphshow
49.195312 3.328125 m /y glyphshow
grestore
1.000 setlinewidth
2 setlinecap
gsave
148.838 473.85 m
420.247 473.85 l
stroke
grestore
gsave
420.247 52.65 m
420.247 473.85 l
stroke
grestore
gsave
148.838 52.65 m
420.247 52.65 l
stroke
grestore
gsave
148.838 52.65 m
148.838 473.85 l
stroke
grestore
/DejaVuSans findfont
9.000 scalefont
setfont
gsave
205.305144 246.339176 translate
75.927035 rotate
0.000000 0.125000 m /zero glyphshow
5.726074 0.125000 m /period glyphshow
8.586914 0.125000 m /two glyphshow
14.312988 0.125000 m /five glyphshow
20.039062 0.125000 m /zero glyphshow
grestore
gsave
342.073483 142.017390 translate
89.920743 rotate
0.000000 0.125000 m /zero glyphshow
5.726074 0.125000 m /period glyphshow
8.586914 0.125000 m /two glyphshow
14.312988 0.125000 m /five glyphshow
20.039062 0.125000 m /zero glyphshow
grestore
gsave
200.643005 301.338921 translate
71.798403 rotate
0.000000 0.125000 m /zero glyphshow
5.726074 0.125000 m /period glyphshow
8.586914 0.125000 m /five glyphshow
14.312988 0.125000 m /zero glyphshow
20.039062 0.125000 m /zero glyphshow
grestore
gsave
347.093681 303.663486 translate
291.301666 rotate
0.000000 0.125000 m /zero glyphshow
5.726074 0.125000 m /period glyphshow
8.586914 0.125000 m /five glyphshow
14.312988 0.125000 m /zero glyphshow
20.039062 0.125000 m /zero glyphshow
grestore
gsave
191.956507 403.138555 translate
83.164012 rotate
0.000000 0.125000 m /zero glyphshow
5.726074 0.125000 m /period glyphshow
8.586914 0.125000 m /seven glyphshow
14.312988 0.125000 m /five glyphshow
20.039062 0.125000 m /zero glyphshow
grestore
gsave
376.700171 412.451784 translate
282.933965 rotate
0.000000 0.125000 m /zero glyphshow
5.726074 0.125000 m /period glyphshow
8.586914 0.125000 m /seven glyphshow
14.312988 0.125000 m /five glyphshow
20.039062 0.125000 m /zero glyphshow
grestore
/DejaVuSans findfont
19.200 scalefont
setfont
gsave
252.511029 478.584375 translate
0.000000 rotate
0.000000 0.265625 m /f glyphshow
6.776978 0.265625 m /equal glyphshow
22.906372 0.265625 m /zero glyphshow
35.153809 0.265625 m /period glyphshow
41.272827 0.265625 m /zero glyphshow
53.520264 0.265625 m /zero glyphshow
grestore
gsave
474.529 52.65 m
745.939 52.65 l
745.939 473.85 l
474.529 473.85 l
cl
1.000 setgray
fill
grestore
/p3_0 {
newpath
translate
540.527 52.65 m
541.726 67.1741 l
543.244 81.6983 l
545.249 96.2224 l
546.313 110.747 l
548.464 125.271 l
549.401 132.895 l
550.246 139.795 l
553.135 154.319 l
554.6 168.843 l
555.253 183.367 l
557.235 197.891 l
557.553 212.416 l
558.014 220.111 l
} bind def
/p3_1 {
newpath
translate
564.292 262.898 m
565.23 270.512 l
566.654 285.036 l
568.118 295.759 l
577.477 298.972 l
578.375 299.56 l
586.836 309.349 l
596.195 305.901 l
605.554 309.563 l
607.58 299.56 l
611.335 285.036 l
614.913 275.388 l
624.272 271.641 l
624.586 270.512 l
627.731 255.988 l
632.078 241.464 l
633.631 237.615 l
636.85 226.94 l
642.99 213.705 l
643.605 212.416 l
650.532 197.891 l
652.349 193.261 l
653.459 183.367 l
656.615 168.843 l
659.002 154.319 l
661.708 144.112 l
663.056 139.795 l
664.797 125.271 l
668.817 110.747 l
670.477 96.2224 l
671.067 94.858 l
676.187 81.6983 l
680.426 68.4332 l
689.785 71.7911 l
690.848 67.1741 l
693.162 52.65 l
} bind def
0 setlinecap
gsave
271.4 421.2 474.5 52.65 clipbox
0 0 p3_0
stroke
grestore
gsave
271.4 421.2 474.5 52.65 clipbox
0 0 p3_1
stroke
grestore
/p4_0 {
newpath
translate
474.529 183.069 m
474.721 183.367 l
483.888 195.595 l
493.247 195.447 l
502.606 196.349 l
511.965 196.784 l
512.219 197.891 l
515.683 212.416 l
518.323 226.94 l
521.259 241.464 l
521.324 241.76 l
526.901 255.988 l
530.683 263.786 l
539.545 263.938 l
} bind def
/p4_1 {
newpath
translate
547.885 306.378 m
549.401 312.192 l
549.635 314.084 l
550.391 328.609 l
551.46 343.133 l
552.242 357.657 l
553.166 372.181 l
554.037 386.705 l
555.237 401.229 l
556.217 415.753 l
556.719 430.278 l
558.58 444.802 l
558.76 446.561 l
566.128 459.326 l
568.118 463.899 l
569.305 473.85 l
} bind def
/p4_2 {
newpath
translate
663.16 473.85 m
664.543 459.326 l
664.335 444.802 l
669.089 430.278 l
671.067 419.757 l
671.315 415.753 l
671.555 401.229 l
672.087 386.705 l
674.442 372.181 l
675.283 357.657 l
676.652 343.133 l
678.45 328.609 l
678.955 326.827 l
} bind def
/p4_3 {
newpath
translate
701.443 288.665 m
701.9 285.036 l
703.81 270.512 l
703.928 255.988 l
706.678 241.464 l
708.188 226.94 l
708.503 223.426 l
714.7 212.416 l
717.862 208.901 l
723.76 212.416 l
727.221 213.798 l
736.58 212.586 l
736.847 212.416 l
745.939 204.653 l
} bind def
gsave
271.4 421.2 474.5 52.65 clipbox
0 0 p4_0
stroke
grestore
gsave
271.4 421.2 474.5 52.65 clipbox
0 0 p4_1
stroke
grestore
gsave
271.4 421.2 474.5 52.65 clipbox
0 0 p4_2
stroke
grestore
gsave
271.4 421.2 474.5 52.65 clipbox
0 0 p4_3
stroke
grestore
/p5_0 {
newpath
translate
474.529 375.082 m
483.888 379.882 l
493.247 380.412 l
502.606 379.184 l
510.636 386.705 l
511.965 387.97 l
513.988 394.637 l
} bind def
/p5_1 {
newpath
translate
541.212 428.538 m
541.449 430.278 l
542.751 444.802 l
543.894 459.326 l
545.26 473.85 l
} bind def
/p5_2 {
newpath
translate
707.178 473.85 m
708.503 463.117 l
708.854 459.326 l
710.444 444.802 l
710.968 437.196 l
} bind def
/p5_3 {
newpath
translate
722.789 396.73 m
727.221 396.1 l
736.58 398.883 l
745.939 393.015 l
} bind def
gsave
271.4 421.2 474.5 52.65 clipbox
0 0 p5_0
stroke
grestore
gsave
271.4 421.2 474.5 52.65 clipbox
0 0 p5_1
stroke
grestore
gsave
271.4 421.2 474.5 52.65 clipbox
0 0 p5_2
stroke
grestore
gsave
271.4 421.2 474.5 52.65 clipbox
0 0 p5_3
stroke
grestore
0.500 setlinewidth
gsave
/o {
gsave
newpath
translate
0.5 setlinewidth
1 setlinejoin
0 setlinecap
0 0 m
0 4 l
gsave
0.000 setgray
fill
grestore
stroke
grestore
} bind def
474.529 52.65 o
grestore
gsave
/o {
gsave
newpath
translate
0.5 setlinewidth
1 setlinejoin
0 setlinecap
0 0 m
0 -4 l
gsave
0.000 setgray
fill
grestore
stroke
grestore
} bind def
474.529 473.85 o
grestore
/DejaVuSans findfont
16.000 scalefont
setfont
gsave
462.857096 36.540625 translate
0.000000 rotate
0.000000 0.234375 m /zero glyphshow
10.179688 0.234375 m /period glyphshow
15.265625 0.234375 m /zero glyphshow
grestore
gsave
/o {
gsave
newpath
translate
0.5 setlinewidth
1 setlinejoin
0 setlinecap
0 0 m
0 4 l
gsave
0.000 setgray
fill
grestore
stroke
grestore
} bind def
528.811 52.65 o
grestore
gsave
/o {
gsave
newpath
translate
0.5 setlinewidth
1 setlinejoin
0 setlinecap
0 0 m
0 -4 l
gsave
0.000 setgray
fill
grestore
stroke
grestore
} bind def
528.811 473.85 o
grestore
gsave
517.412445 36.540625 translate
0.000000 rotate
0.000000 0.234375 m /zero glyphshow
10.179688 0.234375 m /period glyphshow
15.265625 0.234375 m /two glyphshow
grestore
gsave
/o {
gsave
newpath
translate
0.5 setlinewidth
1 setlinejoin
0 setlinecap
0 0 m
0 4 l
gsave
0.000 setgray
fill
grestore
stroke
grestore
} bind def
583.093 52.65 o
grestore
gsave
/o {
gsave
newpath
translate
0.5 setlinewidth
1 setlinejoin
0 setlinecap
0 0 m
0 -4 l
gsave
0.000 setgray
fill
grestore
stroke
grestore
} bind def
583.093 473.85 o
grestore
gsave
571.342794 36.540625 translate
0.000000 rotate
0.000000 0.234375 m /zero glyphshow
10.179688 0.234375 m /period glyphshow
15.265625 0.234375 m /four glyphshow
grestore
gsave
/o {
gsave
newpath
translate
0.5 setlinewidth
1 setlinejoin
0 setlinecap
0 0 m
0 4 l
gsave
0.000 setgray
fill
grestore
stroke
grestore
} bind def
637.375 52.65 o
grestore
gsave
/o {
gsave
newpath
translate
0.5 setlinewidth
1 setlinejoin
0 setlinecap
0 0 m
0 -4 l
gsave
0.000 setgray
fill
grestore
stroke
grestore
} bind def
637.375 473.85 o
grestore
gsave
625.679393 36.540625 translate
0.000000 rotate
0.000000 0.234375 m /zero glyphshow
10.179688 0.234375 m /period glyphshow
15.265625 0.234375 m /six glyphshow
grestore
gsave
/o {
gsave
newpath
translate
0.5 setlinewidth
1 setlinejoin
0 setlinecap
0 0 m
0 4 l
gsave
0.000 setgray
fill
grestore
stroke
grestore
} bind def
691.657 52.65 o
grestore
gsave
/o {
gsave
newpath
translate
0.5 setlinewidth
1 setlinejoin
0 setlinecap
0 0 m
0 -4 l
gsave
0.000 setgray
fill
grestore
stroke
grestore
} bind def
691.657 473.85 o
grestore
gsave
680.000368 36.540625 translate
0.000000 rotate
0.000000 0.234375 m /zero glyphshow
10.179688 0.234375 m /period glyphshow
15.265625 0.234375 m /eight glyphshow
grestore
gsave
/o {
gsave
newpath
translate
0.5 setlinewidth
1 setlinejoin
0 setlinecap
0 0 m
0 4 l
gsave
0.000 setgray
fill
grestore
stroke
grestore
} bind def
745.939 52.65 o
grestore
gsave
/o {
gsave
newpath
translate
0.5 setlinewidth
1 setlinejoin
0 setlinecap
0 0 m
0 -4 l
gsave
0.000 setgray
fill
grestore
stroke
grestore
} bind def
745.939 473.85 o
grestore
gsave
734.618217 36.540625 translate
0.000000 rotate
0.000000 0.234375 m /one glyphshow
10.179688 0.234375 m /period glyphshow
15.265625 0.234375 m /zero glyphshow
grestore
gsave
573.100938 19.150000 translate
0.000000 rotate
0.000000 0.234375 m /t glyphshow
6.273438 0.234375 m /o glyphshow
16.062500 0.234375 m /l glyphshow
20.507812 0.234375 m /e glyphshow
30.351562 0.234375 m /r glyphshow
36.929688 0.234375 m /a glyphshow
46.734375 0.234375 m /n glyphshow
56.875000 0.234375 m /c glyphshow
65.671875 0.234375 m /e glyphshow
grestore
gsave
/o {
gsave
newpath
translate
0.5 setlinewidth
1 setlinejoin
0 setlinecap
0 0 m
4 0 l
gsave
0.000 setgray
fill
grestore
stroke
grestore
} bind def
474.529 52.65 o
grestore
gsave
/o {
gsave
newpath
translate
0.5 setlinewidth
1 setlinejoin
0 setlinecap
0 0 m
-4 0 l
gsave
0.000 setgray
fill
grestore
stroke
grestore
} bind def
745.939 52.65 o
grestore
gsave
436.997721 46.595313 translate
0.000000 rotate
0.000000 0.234375 m /zero glyphshow
10.179688 0.234375 m /period glyphshow
15.265625 0.234375 m /six glyphshow
25.445312 0.234375 m /zero glyphshow
grestore
gsave
/o {
gsave
newpath
translate
0.5 setlinewidth
1 setlinejoin
0 setlinecap
0 0 m
4 0 l
gsave
0.000 setgray
fill
grestore
stroke
grestore
} bind def
474.529 112.821 o
grestore
gsave
/o {
gsave
newpath
translate
0.5 setlinewidth
1 setlinejoin
0 setlinecap
0 0 m
-4 0 l
gsave
0.000 setgray
fill
grestore
stroke
grestore
} bind def
745.939 112.821 o
grestore
gsave
437.341471 106.766741 translate
0.000000 rotate
0.000000 0.234375 m /zero glyphshow
10.179688 0.234375 m /period glyphshow
15.265625 0.234375 m /six glyphshow
25.445312 0.234375 m /five glyphshow
grestore
gsave
/o {
gsave
newpath
translate
0.5 setlinewidth
1 setlinejoin
0 setlinecap
0 0 m
4 0 l
gsave
0.000 setgray
fill
grestore
stroke
grestore
} bind def
474.529 172.993 o
grestore
gsave
/o {
gsave
newpath
translate
0.5 setlinewidth
1 setlinejoin
0 setlinecap
0 0 m
-4 0 l
gsave
0.000 setgray
fill
grestore
stroke
grestore
} bind def
745.939 172.993 o
grestore
gsave
436.997721 166.938170 translate
0.000000 rotate
0.000000 0.234375 m /zero glyphshow
10.179688 0.234375 m /period glyphshow
15.265625 0.234375 m /seven glyphshow
25.445312 0.234375 m /zero glyphshow
grestore
gsave
/o {
gsave
newpath
translate
0.5 setlinewidth
1 setlinejoin
0 setlinecap
0 0 m
4 0 l
gsave
0.000 setgray
fill
grestore
stroke
grestore
} bind def
474.529 233.164 o
grestore
gsave
/o {
gsave
newpath
translate
0.5 setlinewidth
1 setlinejoin
0 setlinecap
0 0 m
-4 0 l
gsave
0.000 setgray
fill
grestore
stroke
grestore
} bind def
745.939 233.164 o
grestore
gsave
437.341471 227.109598 translate
0.000000 rotate
0.000000 0.234375 m /zero glyphshow
10.179688 0.234375 m /period glyphshow
15.265625 0.234375 m /seven glyphshow
25.445312 0.234375 m /five glyphshow
grestore
gsave
/o {
gsave
newpath
translate
0.5 setlinewidth
1 setlinejoin
0 setlinecap
0 0 m
4 0 l
gsave
0.000 setgray
fill
grestore
stroke
grestore
} bind def
474.529 293.336 o
grestore
gsave
/o {
gsave
newpath
translate
0.5 setlinewidth
1 setlinejoin
0 setlinecap
0 0 m
-4 0 l
gsave
0.000 setgray
fill
grestore
stroke
grestore
} bind def
745.939 293.336 o
grestore
gsave
436.997721 287.281027 translate
0.000000 rotate
0.000000 0.234375 m /zero glyphshow
10.179688 0.234375 m /period glyphshow
15.265625 0.234375 m /eight glyphshow
25.445312 0.234375 m /zero glyphshow
grestore
gsave
/o {
gsave
newpath
translate
0.5 setlinewidth
1 setlinejoin
0 setlinecap
0 0 m
4 0 l
gsave
0.000 setgray
fill
grestore
stroke
grestore
} bind def
474.529 353.507 o
grestore
gsave
/o {
gsave
newpath
translate
0.5 setlinewidth
1 setlinejoin
0 setlinecap
0 0 m
-4 0 l
gsave
0.000 setgray
fill
grestore
stroke
grestore
} bind def
745.939 353.507 o
grestore
gsave
437.341471 347.452455 translate
0.000000 rotate
0.000000 0.234375 m /zero glyphshow
10.179688 0.234375 m /period glyphshow
15.265625 0.234375 m /eight glyphshow
25.445312 0.234375 m /five glyphshow
grestore
gsave
/o {
gsave
newpath
translate
0.5 setlinewidth
1 setlinejoin
0 setlinecap
0 0 m
4 0 l
gsave
0.000 setgray
fill
grestore
stroke
grestore
} bind def
474.529 413.679 o
grestore
gsave
/o {
gsave
newpath
translate
0.5 setlinewidth
1 setlinejoin
0 setlinecap
0 0 m
-4 0 l
gsave
0.000 setgray
fill
grestore
stroke
grestore
} bind def
745.939 413.679 o
grestore
gsave
436.997721 407.623884 translate
0.000000 rotate
0.000000 0.234375 m /zero glyphshow
10.179688 0.234375 m /period glyphshow
15.265625 0.234375 m /nine glyphshow
25.445312 0.234375 m /zero glyphshow
grestore
1.000 setlinewidth
2 setlinecap
gsave
474.529 473.85 m
745.939 473.85 l
stroke
grestore
gsave
745.939 52.65 m
745.939 473.85 l
stroke
grestore
gsave
474.529 52.65 m
745.939 52.65 l
stroke
grestore
gsave
474.529 52.65 m
474.529 473.85 l
stroke
grestore
/DejaVuSans findfont
9.000 scalefont
setfont
gsave
563.854187 228.895731 translate
84.465613 rotate
0.000000 0.125000 m /zero glyphshow
5.726074 0.125000 m /period glyphshow
8.586914 0.125000 m /two glyphshow
14.312988 0.125000 m /five glyphshow
20.039062 0.125000 m /zero glyphshow
grestore
gsave
545.844745 272.458859 translate
84.221299 rotate
0.000000 0.125000 m /zero glyphshow
5.726074 0.125000 m /period glyphshow
8.586914 0.125000 m /five glyphshow
14.312988 0.125000 m /zero glyphshow
20.039062 0.125000 m /zero glyphshow
grestore
gsave
691.160435 320.065567 translate
293.247664 rotate
0.000000 0.125000 m /zero glyphshow
5.726074 0.125000 m /period glyphshow
8.586914 0.125000 m /five glyphshow
14.312988 0.125000 m /zero glyphshow
20.039062 0.125000 m /zero glyphshow
grestore
gsave
517.130520 403.527578 translate
57.881825 rotate
0.000000 0.125000 m /zero glyphshow
5.726074 0.125000 m /period glyphshow
8.586914 0.125000 m /seven glyphshow
14.312988 0.125000 m /five glyphshow
20.039062 0.125000 m /zero glyphshow
grestore
gsave
708.587913 427.601795 translate
276.305860 rotate
0.000000 0.125000 m /zero glyphshow
5.726074 0.125000 m /period glyphshow
8.586914 0.125000 m /seven glyphshow
14.312988 0.125000 m /five glyphshow
20.039062 0.125000 m /zero glyphshow
grestore
/DejaVuSans findfont
19.200 scalefont
setfont
gsave
578.405625 478.584375 translate
0.000000 rotate
0.000000 0.265625 m /f glyphshow
6.776978 0.265625 m /equal glyphshow
22.906372 0.265625 m /zero glyphshow
35.153809 0.265625 m /period glyphshow
41.272827 0.265625 m /two glyphshow
53.520264 0.265625 m /five glyphshow
grestore
gsave
800.22 52.65 m
1071.63 52.65 l
1071.63 473.85 l
800.22 473.85 l
cl
1.000 setgray
fill
grestore
/p6_0 {
newpath
translate
800.22 94.58 m
801.402 96.2224 l
809.579 108.846 l
818.938 109.5 l
828.297 109.993 l
837.656 109.388 l
838.182 110.747 l
845.806 125.271 l
847.015 126.945 l
853.895 139.795 l
856.374 145.301 l
865.733 142.932 l
871.176 154.319 l
873.886 162.384 l
} bind def
/p6_1 {
newpath
translate
887.93 204.483 m
888.773 212.416 l
893.152 226.94 l
893.81 228.793 l
900.998 241.464 l
903.169 245.74 l
912.528 250.483 l
919.371 255.988 l
921.887 260.753 l
931.246 263.024 l
940.605 265.366 l
949.964 269.259 l
957.958 255.988 l
959.323 253.996 l
968.682 252.453 l
978.04 242.26 l
978.707 241.464 l
987.399 231.383 l
989.06 226.94 l
995.106 212.416 l
996.758 206.184 l
1000.34 197.891 l
1006.12 191.541 l
1015.48 190.967 l
1022.67 183.367 l
1024.84 181.387 l
1027.07 168.843 l
1028.06 154.319 l
1031.18 139.795 l
1034.19 129.653 l
1039.49 125.271 l
1043.55 121.923 l
1052.91 120.202 l
1062.27 119.583 l
1071.63 122.748 l
} bind def
0 setlinecap
gsave
271.4 421.2 800.2 52.65 clipbox
0 0 p6_0
stroke
grestore
gsave
271.4 421.2 800.2 52.65 clipbox
0 0 p6_1
stroke
grestore
/p7_0 {
newpath
translate
800.22 267.374 m
804.247 270.512 l
809.579 273.075 l
818.938 273.747 l
828.297 274.276 l
837.656 276.15 l
841.31 285.036 l
847.015 295.782 l
852.942 299.56 l
856.374 302.902 l
865.733 304.416 l
869.763 314.084 l
875.092 324.474 l
876.109 328.609 l
878.347 336.371 l
} bind def
/p7_1 {
newpath
translate
892.315 378.459 m
893.81 381.558 l
895.89 386.705 l
900.683 401.229 l
902.817 415.753 l
903.169 416.939 l
912.528 416.471 l
921.027 430.278 l
921.887 431.714 l
931.246 432.314 l
940.605 431.842 l
949.964 433.46 l
959.323 430.622 l
968.682 430.81 l
969.411 430.278 l
978.04 422.173 l
987.399 417.97 l
989.055 415.753 l
992.714 401.229 l
996.758 394.496 l
999.637 386.705 l
1004.04 372.181 l
1006.12 365.24 l
1015.48 363.076 l
1024.84 363.445 l
1025.92 357.657 l
1028.38 343.133 l
1030.48 328.609 l
1033.33 314.084 l
1034.19 309.845 l
1038.21 299.56 l
1043.55 287.595 l
1052.91 285.864 l
1055.04 285.036 l
1062.27 283.514 l
1067.59 285.036 l
1071.63 287.346 l
} bind def
gsave
271.4 421.2 800.2 52.65 clipbox
0 0 p7_0
stroke
grestore
gsave
271.4 421.2 800.2 52.65 clipbox
0 0 p7_1
stroke
grestore
/p8_0 {
newpath
translate
800.22 413.059 m
807.041 415.753 l
809.579 416.389 l
818.938 415.778 l
820.371 415.932 l
} bind def
/p8_1 {
newpath
translate
867.581 441.375 m
868.572 444.802 l
872.563 459.326 l
874.693 473.85 l
} bind def
/p8_2 {
newpath
translate
1036.29 473.85 m
1037.49 459.326 l
1038.21 455.659 l
} bind def
gsave
271.4 421.2 800.2 52.65 clipbox
0 0 p8_0
stroke
grestore
gsave
271.4 421.2 800.2 52.65 clipbox
0 0 p8_1
stroke
grestore
gsave
271.4 421.2 800.2 52.65 clipbox
0 0 p8_2
stroke
grestore
0.500 setlinewidth
gsave
/o {
gsave
newpath
translate
0.5 setlinewidth
1 setlinejoin
0 setlinecap
0 0 m
0 4 l
gsave
0.000 setgray
fill
grestore
stroke
grestore
} bind def
800.22 52.65 o
grestore
gsave
/o {
gsave
newpath
translate
0.5 setlinewidth
1 setlinejoin
0 setlinecap
0 0 m
0 -4 l
gsave
0.000 setgray
fill
grestore
stroke
grestore
} bind def
800.22 473.85 o
grestore
/DejaVuSans findfont
16.000 scalefont
setfont
gsave
788.548566 36.540625 translate
0.000000 rotate
0.000000 0.234375 m /zero glyphshow
10.179688 0.234375 m /period glyphshow
15.265625 0.234375 m /zero glyphshow
grestore
gsave
/o {
gsave
newpath
translate
0.5 setlinewidth
1 setlinejoin
0 setlinecap
0 0 m
0 4 l
gsave
0.000 setgray
fill
grestore
stroke
grestore
} bind def
854.502 52.65 o
grestore
gsave
/o {
gsave
newpath
translate
0.5 setlinewidth
1 setlinejoin
0 setlinecap
0 0 m
0 -4 l
gsave
0.000 setgray
fill
grestore
stroke
grestore
} bind def
854.502 473.85 o
grestore
gsave
843.103915 36.540625 translate
0.000000 rotate
0.000000 0.234375 m /zero glyphshow
10.179688 0.234375 m /period glyphshow
15.265625 0.234375 m /two glyphshow
grestore
gsave
/o {
gsave
newpath
translate
0.5 setlinewidth
1 setlinejoin
0 setlinecap
0 0 m
0 4 l
gsave
0.000 setgray
fill
grestore
stroke
grestore
} bind def
908.784 52.65 o
grestore
gsave
/o {
gsave
newpath
translate
0.5 setlinewidth
1 setlinejoin
0 setlinecap
0 0 m
0 -4 l
gsave
0.000 setgray
fill
grestore
stroke
grestore
} bind def
908.784 473.85 o
grestore
gsave
897.034265 36.540625 translate
0.000000 rotate
0.000000 0.234375 m /zero glyphshow
10.179688 0.234375 m /period glyphshow
15.265625 0.234375 m /four glyphshow
grestore
gsave
/o {
gsave
newpath
translate
0.5 setlinewidth
1 setlinejoin
0 setlinecap
0 0 m
0 4 l
gsave
0.000 setgray
fill
grestore
stroke
grestore
} bind def
963.066 52.65 o
grestore
gsave
/o {
gsave
newpath
translate
0.5 setlinewidth
1 setlinejoin
0 setlinecap
0 0 m
0 -4 l
gsave
0.000 setgray
fill
grestore
stroke
grestore
} bind def
963.066 473.85 o
grestore
gsave
951.370864 36.540625 translate
0.000000 rotate
0.000000 0.234375 m /zero glyphshow
10.179688 0.234375 m /period glyphshow
15.265625 0.234375 m /six glyphshow
grestore
gsave
/o {
gsave
newpath
translate
0.5 setlinewidth
1 setlinejoin
0 setlinecap
0 0 m
0 4 l
gsave
0.000 setgray
fill
grestore
stroke
grestore
} bind def
1017.35 52.65 o
grestore
gsave
/o {
gsave
newpath
translate
0.5 setlinewidth
1 setlinejoin
0 setlinecap
0 0 m
0 -4 l
gsave
0.000 setgray
fill
grestore
stroke
grestore
} bind def
1017.35 473.85 o
grestore
gsave
1005.691838 36.540625 translate
0.000000 rotate
0.000000 0.234375 m /zero glyphshow
10.179688 0.234375 m /period glyphshow
15.265625 0.234375 m /eight glyphshow
grestore
gsave
/o {
gsave
newpath
translate
0.5 setlinewidth
1 setlinejoin
0 setlinecap
0 0 m
0 4 l
gsave
0.000 setgray
fill
grestore
stroke
grestore
} bind def
1071.63 52.65 o
grestore
gsave
/o {
gsave
newpath
translate
0.5 setlinewidth
1 setlinejoin
0 setlinecap
0 0 m
0 -4 l
gsave
0.000 setgray
fill
grestore
stroke
grestore
} bind def
1071.63 473.85 o
grestore
gsave
1060.309688 36.540625 translate
0.000000 rotate
0.000000 0.234375 m /one glyphshow
10.179688 0.234375 m /period glyphshow
15.265625 0.234375 m /zero glyphshow
grestore
gsave
898.792408 19.150000 translate
0.000000 rotate
0.000000 0.234375 m /t glyphshow
6.273438 0.234375 m /o glyphshow
16.062500 0.234375 m /l glyphshow
20.507812 0.234375 m /e glyphshow
30.351562 0.234375 m /r glyphshow
36.929688 0.234375 m /a glyphshow
46.734375 0.234375 m /n glyphshow
56.875000 0.234375 m /c glyphshow
65.671875 0.234375 m /e glyphshow
grestore
gsave
/o {
gsave
newpath
translate
0.5 setlinewidth
1 setlinejoin
0 setlinecap
0 0 m
4 0 l
gsave
0.000 setgray
fill
grestore
stroke
grestore
} bind def
800.22 52.65 o
grestore
gsave
/o {
gsave
newpath
translate
0.5 setlinewidth
1 setlinejoin
0 setlinecap
0 0 m
-4 0 l
gsave
0.000 setgray
fill
grestore
stroke
grestore
} bind def
1071.63 52.65 o
grestore
gsave
762.689191 46.595313 translate
0.000000 rotate
0.000000 0.234375 m /zero glyphshow
10.179688 0.234375 m /period glyphshow
15.265625 0.234375 m /six glyphshow
25.445312 0.234375 m /zero glyphshow
grestore
gsave
/o {
gsave
newpath
translate
0.5 setlinewidth
1 setlinejoin
0 setlinecap
0 0 m
4 0 l
gsave
0.000 setgray
fill
grestore
stroke
grestore
} bind def
800.22 112.821 o
grestore
gsave
/o {
gsave
newpath
translate
0.5 setlinewidth
1 setlinejoin
0 setlinecap
0 0 m
-4 0 l
gsave
0.000 setgray
fill
grestore
stroke
grestore
} bind def
1071.63 112.821 o
grestore
gsave
763.032941 106.766741 translate
0.000000 rotate
0.000000 0.234375 m /zero glyphshow
10.179688 0.234375 m /period glyphshow
15.265625 0.234375 m /six glyphshow
25.445312 0.234375 m /five glyphshow
grestore
gsave
/o {
gsave
newpath
translate
0.5 setlinewidth
1 setlinejoin
0 setlinecap
0 0 m
4 0 l
gsave
0.000 setgray
fill
grestore
stroke
grestore
} bind def
800.22 172.993 o
grestore
gsave
/o {
gsave
newpath
translate
0.5 setlinewidth
1 setlinejoin
0 setlinecap
0 0 m
-4 0 l
gsave
0.000 setgray
fill
grestore
stroke
grestore
} bind def
1071.63 172.993 o
grestore
gsave
762.689191 166.938170 translate
0.000000 rotate
0.000000 0.234375 m /zero glyphshow
10.179688 0.234375 m /period glyphshow
15.265625 0.234375 m /seven glyphshow
25.445312 0.234375 m /zero glyphshow
grestore
gsave
/o {
gsave
newpath
translate
0.5 setlinewidth
1 setlinejoin
0 setlinecap
0 0 m
4 0 l
gsave
0.000 setgray
fill
grestore
stroke
grestore
} bind def
800.22 233.164 o
grestore
gsave
/o {
gsave
newpath
translate
0.5 setlinewidth
1 setlinejoin
0 setlinecap
0 0 m
-4 0 l
gsave
0.000 setgray
fill
grestore
stroke
grestore
} bind def
1071.63 233.164 o
grestore
gsave
763.032941 227.109598 translate
0.000000 rotate
0.000000 0.234375 m /zero glyphshow
10.179688 0.234375 m /period glyphshow
15.265625 0.234375 m /seven glyphshow
25.445312 0.234375 m /five glyphshow
grestore
gsave
/o {
gsave
newpath
translate
0.5 setlinewidth
1 setlinejoin
0 setlinecap
0 0 m
4 0 l
gsave
0.000 setgray
fill
grestore
stroke
grestore
} bind def
800.22 293.336 o
grestore
gsave
/o {
gsave
newpath
translate
0.5 setlinewidth
1 setlinejoin
0 setlinecap
0 0 m
-4 0 l
gsave
0.000 setgray
fill
grestore
stroke
grestore
} bind def
1071.63 293.336 o
grestore
gsave
762.689191 287.281027 translate
0.000000 rotate
0.000000 0.234375 m /zero glyphshow
10.179688 0.234375 m /period glyphshow
15.265625 0.234375 m /eight glyphshow
25.445312 0.234375 m /zero glyphshow
grestore
gsave
/o {
gsave
newpath
translate
0.5 setlinewidth
1 setlinejoin
0 setlinecap
0 0 m
4 0 l
gsave
0.000 setgray
fill
grestore
stroke
grestore
} bind def
800.22 353.507 o
grestore
gsave
/o {
gsave
newpath
translate
0.5 setlinewidth
1 setlinejoin
0 setlinecap
0 0 m
-4 0 l
gsave
0.000 setgray
fill
grestore
stroke
grestore
} bind def
1071.63 353.507 o
grestore
gsave
763.032941 347.452455 translate
0.000000 rotate
0.000000 0.234375 m /zero glyphshow
10.179688 0.234375 m /period glyphshow
15.265625 0.234375 m /eight glyphshow
25.445312 0.234375 m /five glyphshow
grestore
gsave
/o {
gsave
newpath
translate
0.5 setlinewidth
1 setlinejoin
0 setlinecap
0 0 m
4 0 l
gsave
0.000 setgray
fill
grestore
stroke
grestore
} bind def
800.22 413.679 o
grestore
gsave
/o {
gsave
newpath
translate
0.5 setlinewidth
1 setlinejoin
0 setlinecap
0 0 m
-4 0 l
gsave
0.000 setgray
fill
grestore
stroke
grestore
} bind def
1071.63 413.679 o
grestore
gsave
762.689191 407.623884 translate
0.000000 rotate
0.000000 0.234375 m /zero glyphshow
10.179688 0.234375 m /period glyphshow
15.265625 0.234375 m /nine glyphshow
25.445312 0.234375 m /zero glyphshow
grestore
1.000 setlinewidth
2 setlinecap
gsave
800.22 473.85 m
1071.63 473.85 l
stroke
grestore
gsave
1071.63 52.65 m
1071.63 473.85 l
stroke
grestore
gsave
800.22 52.65 m
1071.63 52.65 l
stroke
grestore
gsave
800.22 52.65 m
800.22 473.85 l
stroke
grestore
/DejaVuSans findfont
9.000 scalefont
setfont
gsave
882.469496 170.626592 translate
77.666904 rotate
0.000000 0.125000 m /zero glyphshow
5.726074 0.125000 m /period glyphshow
8.586914 0.125000 m /four glyphshow
14.312988 0.125000 m /zero glyphshow
20.039062 0.125000 m /zero glyphshow
grestore
gsave
884.437133 344.946099 translate
79.546562 rotate
0.000000 0.125000 m /zero glyphshow
5.726074 0.125000 m /period glyphshow
8.586914 0.125000 m /six glyphshow
14.312988 0.125000 m /zero glyphshow
20.039062 0.125000 m /zero glyphshow
grestore
gsave
837.310865 419.635652 translate
41.030334 rotate
0.000000 0.125000 m /zero glyphshow
5.726074 0.125000 m /period glyphshow
8.586914 0.125000 m /eight glyphshow
14.312988 0.125000 m /zero glyphshow
20.039062 0.125000 m /zero glyphshow
grestore
gsave
1031.957275 439.735321 translate
319.853524 rotate
0.000000 0.125000 m /zero glyphshow
5.726074 0.125000 m /period glyphshow
8.586914 0.125000 m /eight glyphshow
14.312988 0.125000 m /zero glyphshow
20.039062 0.125000 m /zero glyphshow
grestore
/DejaVuSans findfont
19.200 scalefont
setfont
gsave
903.893971 478.584375 translate
0.000000 rotate
0.000000 0.265625 m /f glyphshow
6.776978 0.265625 m /equal glyphshow
22.906372 0.265625 m /zero glyphshow
35.153809 0.265625 m /period glyphshow
41.272827 0.265625 m /five glyphshow
53.520264 0.265625 m /zero glyphshow
grestore

end
showpage
