%!PS-Adobe-3.0 EPSF-3.0
%%Title: /home/aurelien/synchro/boulot/code/papers_code/schelling-2012/fig/phase_diagram_noisetol_3D_heat.eps
%%Creator: matplotlib version 1.1.1rc2, http://matplotlib.sourceforge.net/
%%CreationDate: Tue Jun 11 17:24:27 2013
%%Orientation: portrait
%%BoundingBox: 13 175 598 616
%%EndComments
%%BeginProlog
/mpldict 8 dict def
mpldict begin
/m { moveto } bind def
/l { lineto } bind def
/r { rlineto } bind def
/c { curveto } bind def
/cl { closepath } bind def
/box {
m
1 index 0 r
0 exch r
neg 0 r
cl
} bind def
/clipbox {
box
clip
newpath
} bind def
%!PS-Adobe-3.0 Resource-Font
%%Title: DejaVu Sans
%%Copyright: Copyright (c) 2003 by Bitstream, Inc. All Rights Reserved. Copyright (c) 2006 by Tavmjong Bah. All Rights Reserved. DejaVu changes are in public domain 
%%Creator: Converted from TrueType to type 3 by PPR
25 dict begin
/_d{bind def}bind def
/_m{moveto}_d
/_l{lineto}_d
/_cl{closepath eofill}_d
/_c{curveto}_d
/_sc{7 -1 roll{setcachedevice}{pop pop pop pop pop pop}ifelse}_d
/_e{exec}_d
/FontName /DejaVuSans def
/PaintType 0 def
/FontMatrix[.001 0 0 .001 0 0]def
/FontBBox[-1021 -415 1681 1167]def
/FontType 3 def
/Encoding [ /period /zero /one /two /three /four /five /six /seven /eight /nine /a /c /e /f /l /n /o /r /t ] def
/FontInfo 10 dict dup begin
/FamilyName (DejaVu Sans) def
/FullName (DejaVu Sans) def
/Notice (Copyright (c) 2003 by Bitstream, Inc. All Rights Reserved. Copyright (c) 2006 by Tavmjong Bah. All Rights Reserved. DejaVu changes are in public domain ) def
/Weight (Book) def
/Version (Version 2.33) def
/ItalicAngle 0.0 def
/isFixedPitch false def
/UnderlinePosition -130 def
/UnderlineThickness 90 def
end readonly def
/CharStrings 20 dict dup begin
/period{318 0 107 0 210 124 _sc
107 124 _m
210 124 _l
210 0 _l
107 0 _l
107 124 _l
_cl}_d
/zero{636 0 66 -13 570 742 _sc
318 664 _m
267 664 229 639 203 589 _c
177 539 165 464 165 364 _c
165 264 177 189 203 139 _c
229 89 267 64 318 64 _c
369 64 407 89 433 139 _c
458 189 471 264 471 364 _c
471 464 458 539 433 589 _c
407 639 369 664 318 664 _c
318 742 _m
399 742 461 709 505 645 _c
548 580 570 486 570 364 _c
570 241 548 147 505 83 _c
461 19 399 -13 318 -13 _c
236 -13 173 19 130 83 _c
87 147 66 241 66 364 _c
66 486 87 580 130 645 _c
173 709 236 742 318 742 _c
_cl}_d
/one{636 0 110 0 544 729 _sc
124 83 _m
285 83 _l
285 639 _l
110 604 _l
110 694 _l
284 729 _l
383 729 _l
383 83 _l
544 83 _l
544 0 _l
124 0 _l
124 83 _l
_cl}_d
/two{{636 0 73 0 536 742 _sc
192 83 _m
536 83 _l
536 0 _l
73 0 _l
73 83 _l
110 121 161 173 226 239 _c
290 304 331 346 348 365 _c
380 400 402 430 414 455 _c
426 479 433 504 433 528 _c
433 566 419 598 392 622 _c
365 646 330 659 286 659 _c
255 659 222 653 188 643 _c
154 632 117 616 78 594 _c
78 694 _l
118 710 155 722 189 730 _c
223 738 255 742 284 742 _c
}_e{359 742 419 723 464 685 _c
509 647 532 597 532 534 _c
532 504 526 475 515 449 _c
504 422 484 390 454 354 _c
446 344 420 317 376 272 _c
332 227 271 164 192 83 _c
_cl}_e}_d
/three{{636 0 76 -13 556 742 _sc
406 393 _m
453 383 490 362 516 330 _c
542 298 556 258 556 212 _c
556 140 531 84 482 45 _c
432 6 362 -13 271 -13 _c
240 -13 208 -10 176 -4 _c
144 1 110 10 76 22 _c
76 117 _l
103 101 133 89 166 81 _c
198 73 232 69 268 69 _c
330 69 377 81 409 105 _c
441 129 458 165 458 212 _c
458 254 443 288 413 312 _c
383 336 341 349 287 349 _c
}_e{202 349 _l
202 430 _l
291 430 _l
339 430 376 439 402 459 _c
428 478 441 506 441 543 _c
441 580 427 609 401 629 _c
374 649 336 659 287 659 _c
260 659 231 656 200 650 _c
169 644 135 635 98 623 _c
98 711 _l
135 721 170 729 203 734 _c
235 739 266 742 296 742 _c
370 742 429 725 473 691 _c
517 657 539 611 539 553 _c
539 513 527 479 504 451 _c
481 423 448 403 406 393 _c
_cl}_e}_d
/four{636 0 49 0 580 729 _sc
378 643 _m
129 254 _l
378 254 _l
378 643 _l
352 729 _m
476 729 _l
476 254 _l
580 254 _l
580 172 _l
476 172 _l
476 0 _l
378 0 _l
378 172 _l
49 172 _l
49 267 _l
352 729 _l
_cl}_d
/five{{636 0 77 -13 549 729 _sc
108 729 _m
495 729 _l
495 646 _l
198 646 _l
198 467 _l
212 472 227 476 241 478 _c
255 480 270 482 284 482 _c
365 482 429 459 477 415 _c
525 370 549 310 549 234 _c
549 155 524 94 475 51 _c
426 8 357 -13 269 -13 _c
238 -13 207 -10 175 -6 _c
143 -1 111 6 77 17 _c
77 116 _l
106 100 136 88 168 80 _c
199 72 232 69 267 69 _c
}_e{323 69 368 83 401 113 _c
433 143 450 183 450 234 _c
450 284 433 324 401 354 _c
368 384 323 399 267 399 _c
241 399 214 396 188 390 _c
162 384 135 375 108 363 _c
108 729 _l
_cl}_e}_d
/six{{636 0 70 -13 573 742 _sc
330 404 _m
286 404 251 388 225 358 _c
199 328 186 286 186 234 _c
186 181 199 139 225 109 _c
251 79 286 64 330 64 _c
374 64 409 79 435 109 _c
461 139 474 181 474 234 _c
474 286 461 328 435 358 _c
409 388 374 404 330 404 _c
526 713 _m
526 623 _l
501 635 476 644 451 650 _c
425 656 400 659 376 659 _c
310 659 260 637 226 593 _c
}_e{192 549 172 482 168 394 _c
187 422 211 444 240 459 _c
269 474 301 482 336 482 _c
409 482 467 459 509 415 _c
551 371 573 310 573 234 _c
573 159 550 99 506 54 _c
462 9 403 -13 330 -13 _c
246 -13 181 19 137 83 _c
92 147 70 241 70 364 _c
70 479 97 571 152 639 _c
206 707 280 742 372 742 _c
396 742 421 739 447 735 _c
472 730 498 723 526 713 _c
_cl}_e}_d
/seven{636 0 82 0 551 729 _sc
82 729 _m
551 729 _l
551 687 _l
286 0 _l
183 0 _l
432 646 _l
82 646 _l
82 729 _l
_cl}_d
/eight{{636 0 68 -13 568 742 _sc
318 346 _m
271 346 234 333 207 308 _c
180 283 167 249 167 205 _c
167 161 180 126 207 101 _c
234 76 271 64 318 64 _c
364 64 401 76 428 102 _c
455 127 469 161 469 205 _c
469 249 455 283 429 308 _c
402 333 365 346 318 346 _c
219 388 _m
177 398 144 418 120 447 _c
96 476 85 511 85 553 _c
85 611 105 657 147 691 _c
188 725 245 742 318 742 _c
}_e{390 742 447 725 489 691 _c
530 657 551 611 551 553 _c
551 511 539 476 515 447 _c
491 418 459 398 417 388 _c
464 377 501 355 528 323 _c
554 291 568 251 568 205 _c
568 134 546 80 503 43 _c
459 5 398 -13 318 -13 _c
237 -13 175 5 132 43 _c
89 80 68 134 68 205 _c
68 251 81 291 108 323 _c
134 355 171 377 219 388 _c
183 544 _m
183 506 194 476 218 455 _c
}_e{242 434 275 424 318 424 _c
360 424 393 434 417 455 _c
441 476 453 506 453 544 _c
453 582 441 611 417 632 _c
393 653 360 664 318 664 _c
275 664 242 653 218 632 _c
194 611 183 582 183 544 _c
_cl}_e}_d
/nine{{636 0 63 -13 566 742 _sc
110 15 _m
110 105 _l
134 93 159 84 185 78 _c
210 72 235 69 260 69 _c
324 69 374 90 408 134 _c
442 178 462 244 468 334 _c
448 306 424 284 396 269 _c
367 254 335 247 300 247 _c
226 247 168 269 126 313 _c
84 357 63 417 63 494 _c
63 568 85 628 129 674 _c
173 719 232 742 306 742 _c
390 742 455 709 499 645 _c
543 580 566 486 566 364 _c
}_e{566 248 538 157 484 89 _c
429 21 356 -13 264 -13 _c
239 -13 214 -10 189 -6 _c
163 -2 137 5 110 15 _c
306 324 _m
350 324 385 339 411 369 _c
437 399 450 441 450 494 _c
450 546 437 588 411 618 _c
385 648 350 664 306 664 _c
262 664 227 648 201 618 _c
175 588 162 546 162 494 _c
162 441 175 399 201 369 _c
227 339 262 324 306 324 _c
_cl}_e}_d
/a{{613 0 60 -13 522 560 _sc
343 275 _m
270 275 220 266 192 250 _c
164 233 150 205 150 165 _c
150 133 160 107 181 89 _c
202 70 231 61 267 61 _c
317 61 357 78 387 114 _c
417 149 432 196 432 255 _c
432 275 _l
343 275 _l
522 312 _m
522 0 _l
432 0 _l
432 83 _l
411 49 385 25 355 10 _c
325 -5 287 -13 243 -13 _c
187 -13 142 2 109 33 _c
76 64 60 106 60 159 _c
}_e{60 220 80 266 122 298 _c
163 329 224 345 306 345 _c
432 345 _l
432 354 _l
432 395 418 427 391 450 _c
364 472 326 484 277 484 _c
245 484 215 480 185 472 _c
155 464 127 453 100 439 _c
100 522 _l
132 534 164 544 195 550 _c
226 556 256 560 286 560 _c
365 560 424 539 463 498 _c
502 457 522 395 522 312 _c
_cl}_e}_d
/c{{550 0 55 -13 488 560 _sc
488 526 _m
488 442 _l
462 456 437 466 411 473 _c
385 480 360 484 334 484 _c
276 484 230 465 198 428 _c
166 391 150 339 150 273 _c
150 206 166 154 198 117 _c
230 80 276 62 334 62 _c
360 62 385 65 411 72 _c
437 79 462 90 488 104 _c
488 21 _l
462 9 436 0 410 -5 _c
383 -10 354 -13 324 -13 _c
242 -13 176 12 128 64 _c
}_e{79 115 55 185 55 273 _c
55 362 79 432 128 483 _c
177 534 244 560 330 560 _c
358 560 385 557 411 551 _c
437 545 463 537 488 526 _c
_cl}_e}_d
/e{{615 0 55 -13 562 560 _sc
562 296 _m
562 252 _l
149 252 _l
153 190 171 142 205 110 _c
238 78 284 62 344 62 _c
378 62 412 66 444 74 _c
476 82 509 95 541 113 _c
541 28 _l
509 14 476 3 442 -3 _c
408 -9 373 -13 339 -13 _c
251 -13 182 12 131 62 _c
80 112 55 181 55 268 _c
55 357 79 428 127 481 _c
175 533 241 560 323 560 _c
397 560 455 536 498 489 _c
}_e{540 441 562 377 562 296 _c
472 322 _m
471 371 457 410 431 440 _c
404 469 368 484 324 484 _c
274 484 234 469 204 441 _c
174 413 156 373 152 322 _c
472 322 _l
_cl}_e}_d
/f{352 0 23 0 371 760 _sc
371 760 _m
371 685 _l
285 685 _l
253 685 230 678 218 665 _c
205 652 199 629 199 595 _c
199 547 _l
347 547 _l
347 477 _l
199 477 _l
199 0 _l
109 0 _l
109 477 _l
23 477 _l
23 547 _l
109 547 _l
109 585 _l
109 645 123 690 151 718 _c
179 746 224 760 286 760 _c
371 760 _l
_cl}_d
/l{278 0 94 0 184 760 _sc
94 760 _m
184 760 _l
184 0 _l
94 0 _l
94 760 _l
_cl}_d
/n{634 0 91 0 549 560 _sc
549 330 _m
549 0 _l
459 0 _l
459 327 _l
459 379 448 417 428 443 _c
408 469 378 482 338 482 _c
289 482 251 466 223 435 _c
195 404 181 362 181 309 _c
181 0 _l
91 0 _l
91 547 _l
181 547 _l
181 462 _l
202 494 227 519 257 535 _c
286 551 320 560 358 560 _c
420 560 468 540 500 501 _c
532 462 549 405 549 330 _c
_cl}_d
/o{612 0 55 -13 557 560 _sc
306 484 _m
258 484 220 465 192 427 _c
164 389 150 338 150 273 _c
150 207 163 156 191 118 _c
219 80 257 62 306 62 _c
354 62 392 80 420 118 _c
448 156 462 207 462 273 _c
462 337 448 389 420 427 _c
392 465 354 484 306 484 _c
306 560 _m
384 560 445 534 490 484 _c
534 433 557 363 557 273 _c
557 183 534 113 490 63 _c
445 12 384 -13 306 -13 _c
227 -13 165 12 121 63 _c
77 113 55 183 55 273 _c
55 363 77 433 121 484 _c
165 534 227 560 306 560 _c
_cl}_d
/r{411 0 91 0 411 560 _sc
411 463 _m
401 469 390 473 378 476 _c
366 478 353 480 339 480 _c
288 480 249 463 222 430 _c
194 397 181 350 181 288 _c
181 0 _l
91 0 _l
91 547 _l
181 547 _l
181 462 _l
199 495 224 520 254 536 _c
284 552 321 560 365 560 _c
371 560 378 559 386 559 _c
393 558 401 557 411 555 _c
411 463 _l
_cl}_d
/t{392 0 27 0 368 702 _sc
183 702 _m
183 547 _l
368 547 _l
368 477 _l
183 477 _l
183 180 _l
183 135 189 106 201 94 _c
213 81 238 75 276 75 _c
368 75 _l
368 0 _l
276 0 _l
206 0 158 13 132 39 _c
106 65 93 112 93 180 _c
93 477 _l
27 477 _l
27 547 _l
93 547 _l
93 702 _l
183 702 _l
_cl}_d
end readonly def

/BuildGlyph
 {exch begin
 CharStrings exch
 2 copy known not{pop /.notdef}if
 true 3 1 roll get exec
 end}_d

/BuildChar {
 1 index /Encoding get exch get
 1 index /BuildGlyph get exec
}_d

FontName currentdict end definefont pop
end
%%EndProlog
mpldict begin
13.5 175.5 translate
585 441 0 0 clipbox
gsave
0 0 m
585 0 l
585 441 l
0 441 l
cl
1.000 setgray
fill
grestore
gsave
73.125 44.1 m
526.5 44.1 l
526.5 396.9 l
73.125 396.9 l
cl
1.000 setgray
fill
grestore
1.000 setlinewidth
1 setlinejoin
2 setlinecap
[] 0 setdash
0.950 setgray
gsave
476.795 163.214 m
278.062 229.892 l
276.345 384.077 l
487.831 320.637 l
gsave
fill
grestore
stroke
grestore
0.900 setgray
gsave
131.789 133.957 m
278.062 229.892 l
276.345 384.077 l
120.309 292.687 l
gsave
fill
grestore
stroke
grestore
0.925 setgray
gsave
337.121 57.9378 m
476.795 163.214 l
278.062 229.892 l
131.789 133.957 l
gsave
fill
grestore
stroke
grestore
0.750 setlinewidth
0.000 setgray
gsave
476.795 163.214 m
337.121 57.9378 l
stroke
grestore
/DejaVuSans findfont
16.000 scalefont
setfont
gsave
432.725907 77.628999 translate
0.000000 rotate
0.000000 0.000000 m /f glyphshow
grestore
/p0_0 {
newpath
translate
340.104 60.1863 m
134.904 136 l
123.645 294.641 l
} bind def
/p0_1 {
newpath
translate
368.327 81.459 m
164.393 155.341 l
155.199 313.122 l
} bind def
/p0_2 {
newpath
translate
395.819 102.18 m
193.152 174.203 l
185.923 331.117 l
} bind def
/p0_3 {
newpath
translate
422.607 122.371 m
221.209 192.604 l
215.848 348.644 l
} bind def
/p0_4 {
newpath
translate
448.719 142.053 m
248.588 210.561 l
245.007 365.722 l
} bind def
/p0_5 {
newpath
translate
474.179 161.243 m
275.315 228.09 l
273.426 382.367 l
} bind def
1.000 setlinewidth
0 setlinecap
0.900 setgray
gsave
0 0 p0_0
stroke
grestore
gsave
0 0 p0_1
stroke
grestore
gsave
0 0 p0_2
stroke
grestore
gsave
0 0 p0_3
stroke
grestore
gsave
0 0 p0_4
stroke
grestore
gsave
0 0 p0_5
stroke
grestore
2 setlinecap
0.000 setgray
gsave
338.382 60.8223 m
343.551 58.9127 l
stroke
grestore
gsave
340.352775 35.165083 translate
0.000000 rotate
0.000000 0.234375 m /zero glyphshow
10.179688 0.234375 m /period glyphshow
15.265625 0.234375 m /zero glyphshow
grestore
gsave
366.617 82.0784 m
371.751 80.2186 l
stroke
grestore
gsave
368.606048 56.588653 translate
0.000000 rotate
0.000000 0.234375 m /zero glyphshow
10.179688 0.234375 m /period glyphshow
15.265625 0.234375 m /one glyphshow
grestore
gsave
394.121 102.784 m
399.219 100.972 l
stroke
grestore
gsave
395.984729 77.457461 translate
0.000000 rotate
0.000000 0.234375 m /zero glyphshow
10.179688 0.234375 m /period glyphshow
15.265625 0.234375 m /two glyphshow
grestore
gsave
420.921 122.96 m
425.984 121.194 l
stroke
grestore
gsave
422.438537 97.792780 translate
0.000000 rotate
0.000000 0.234375 m /zero glyphshow
10.179688 0.234375 m /period glyphshow
15.265625 0.234375 m /three glyphshow
grestore
gsave
447.044 142.626 m
452.073 140.904 l
stroke
grestore
gsave
448.197038 117.614808 translate
0.000000 rotate
0.000000 0.234375 m /zero glyphshow
10.179688 0.234375 m /period glyphshow
15.265625 0.234375 m /four glyphshow
grestore
gsave
472.515 161.802 m
477.51 160.123 l
stroke
grestore
gsave
473.746290 136.942738 translate
0.000000 rotate
0.000000 0.234375 m /zero glyphshow
10.179688 0.234375 m /period glyphshow
15.265625 0.234375 m /five glyphshow
grestore
0.750 setlinewidth
gsave
131.789 133.957 m
337.121 57.9378 l
stroke
grestore
gsave
176.035890 70.978735 translate
339.683980 rotate
0.000000 0.234375 m /t glyphshow
6.273438 0.234375 m /o glyphshow
16.062500 0.234375 m /l glyphshow
20.507812 0.234375 m /e glyphshow
30.351562 0.234375 m /r glyphshow
36.929688 0.234375 m /a glyphshow
46.734375 0.234375 m /n glyphshow
56.875000 0.234375 m /c glyphshow
65.671875 0.234375 m /e glyphshow
grestore
/p1_0 {
newpath
translate
483.399 321.967 m
472.641 164.608 l
332.816 59.5314 l
} bind def
/p1_1 {
newpath
translate
456.986 329.89 m
447.879 172.916 l
307.167 69.0274 l
} bind def
/p1_2 {
newpath
translate
430.879 337.721 m
423.387 181.133 l
281.817 78.4128 l
} bind def
/p1_3 {
newpath
translate
405.073 345.462 m
399.161 189.261 l
256.761 87.6895 l
} bind def
/p1_4 {
newpath
translate
379.563 353.115 m
375.196 197.302 l
231.992 96.8594 l
} bind def
/p1_5 {
newpath
translate
354.344 360.68 m
351.488 205.256 l
207.508 105.924 l
} bind def
/p1_6 {
newpath
translate
329.41 368.159 m
328.033 213.126 l
183.302 114.886 l
} bind def
/p1_7 {
newpath
translate
304.758 375.554 m
304.827 220.912 l
159.37 123.746 l
} bind def
/p1_8 {
newpath
translate
280.382 382.866 m
281.866 228.616 l
135.707 132.507 l
} bind def
1.000 setlinewidth
0 setlinecap
0.900 setgray
gsave
0 0 p1_0
stroke
grestore
gsave
0 0 p1_1
stroke
grestore
gsave
0 0 p1_2
stroke
grestore
gsave
0 0 p1_3
stroke
grestore
gsave
0 0 p1_4
stroke
grestore
gsave
0 0 p1_5
stroke
grestore
gsave
0 0 p1_6
stroke
grestore
gsave
0 0 p1_7
stroke
grestore
gsave
0 0 p1_8
stroke
grestore
2 setlinecap
0.000 setgray
gsave
334.012 60.4297 m
330.422 57.7316 l
stroke
grestore
gsave
312.882886 32.655861 translate
0.000000 rotate
0.000000 0.234375 m /zero glyphshow
10.179688 0.234375 m /period glyphshow
15.265625 0.234375 m /one glyphshow
grestore
gsave
308.37 69.9153 m
304.758 67.2487 l
stroke
grestore
gsave
287.339601 42.240774 translate
0.000000 rotate
0.000000 0.234375 m /zero glyphshow
10.179688 0.234375 m /period glyphshow
15.265625 0.234375 m /two glyphshow
grestore
gsave
283.027 79.2904 m
279.394 76.6547 l
stroke
grestore
gsave
261.868089 51.714012 translate
0.000000 rotate
0.000000 0.234375 m /zero glyphshow
10.179688 0.234375 m /period glyphshow
15.265625 0.234375 m /three glyphshow
grestore
gsave
257.977 88.5569 m
254.324 85.9518 l
stroke
grestore
gsave
236.666292 61.077516 translate
0.000000 rotate
0.000000 0.234375 m /zero glyphshow
10.179688 0.234375 m /period glyphshow
15.265625 0.234375 m /four glyphshow
grestore
gsave
233.215 97.7169 m
229.543 95.1416 l
stroke
grestore
gsave
212.190082 70.333181 translate
0.000000 rotate
0.000000 0.234375 m /zero glyphshow
10.179688 0.234375 m /period glyphshow
15.265625 0.234375 m /five glyphshow
grestore
gsave
208.736 106.772 m
205.046 104.226 l
stroke
grestore
gsave
187.551699 79.482860 translate
0.000000 rotate
0.000000 0.234375 m /zero glyphshow
10.179688 0.234375 m /period glyphshow
15.265625 0.234375 m /six glyphshow
grestore
gsave
184.537 115.724 m
180.828 113.207 l
stroke
grestore
gsave
163.566620 88.528363 translate
0.000000 rotate
0.000000 0.234375 m /zero glyphshow
10.179688 0.234375 m /period glyphshow
15.265625 0.234375 m /seven glyphshow
grestore
gsave
160.61 124.575 m
156.885 122.086 l
stroke
grestore
gsave
139.534805 97.471458 translate
0.000000 rotate
0.000000 0.234375 m /zero glyphshow
10.179688 0.234375 m /period glyphshow
15.265625 0.234375 m /eight glyphshow
grestore
gsave
136.953 133.326 m
133.211 130.866 l
stroke
grestore
gsave
115.928199 106.313875 translate
0.000000 rotate
0.000000 0.234375 m /zero glyphshow
10.179688 0.234375 m /period glyphshow
15.265625 0.234375 m /nine glyphshow
grestore
0.750 setlinewidth
gsave
131.789 133.957 m
120.309 292.687 l
stroke
grestore
/p2_0 {
newpath
translate
129.648 163.57 m
277.741 258.752 l
478.856 192.613 l
} bind def
/p2_1 {
newpath
translate
127.264 196.521 m
277.384 290.814 l
481.148 225.309 l
} bind def
/p2_2 {
newpath
translate
124.816 230.374 m
277.018 323.698 l
483.502 258.884 l
} bind def
/p2_3 {
newpath
translate
122.299 265.169 m
276.642 357.436 l
485.92 293.373 l
} bind def
1.000 setlinewidth
0 setlinecap
0.900 setgray
gsave
0 0 p2_0
stroke
grestore
gsave
0 0 p2_1
stroke
grestore
gsave
0 0 p2_2
stroke
grestore
gsave
0 0 p2_3
stroke
grestore
2 setlinecap
0.000 setgray
gsave
130.911 164.382 m
127.117 161.944 l
stroke
grestore
gsave
95.555568 149.800986 translate
0.000000 rotate
0.000000 0.234375 m /five glyphshow
10.179688 0.234375 m /zero glyphshow
20.359375 0.234375 m /zero glyphshow
grestore
gsave
128.546 197.326 m
124.697 194.908 l
stroke
grestore
gsave
88.071432 182.765478 translate
0.000000 rotate
0.000000 0.234375 m /one glyphshow
10.179688 0.234375 m /zero glyphshow
20.359375 0.234375 m /zero glyphshow
30.539062 0.234375 m /zero glyphshow
grestore
gsave
126.116 231.172 m
122.21 228.777 l
stroke
grestore
gsave
85.342544 216.634478 translate
0.000000 rotate
0.000000 0.234375 m /one glyphshow
10.179688 0.234375 m /five glyphshow
20.359375 0.234375 m /zero glyphshow
30.539062 0.234375 m /zero glyphshow
grestore
gsave
123.619 265.958 m
119.654 263.588 l
stroke
grestore
gsave
82.240861 251.445731 translate
0.000000 rotate
0.000000 0.234375 m /two glyphshow
10.179688 0.234375 m /zero glyphshow
20.359375 0.234375 m /zero glyphshow
30.539062 0.234375 m /zero glyphshow
grestore
/p3_0 {
newpath
translate
336.069 82.6303 m
330.776 88.0438 l
325.521 98.3464 l
320.208 103.321 l
314.929 117.155 l
309.578 110.517 l
304.27 114.675 l
298.956 122.206 l
293.553 144.761 l
288.383 124.801 l
283.47 89.2061 l
277.925 122.747 l
273.016 101.409 l
267.959 96.3573 l
262.882 94.7538 l
257.754 96.9604 l
252.518 104.488 l
247.544 100.823 l
242.356 106.535 l
237.274 108.408 l
231.858 121.444 l
227.134 112.508 l
220.686 154.261 l
216.525 130.394 l
211.516 131.135 l
206.032 143.763 l
199.516 179.43 l
196.21 141.634 l
189.59 177.324 l
184.349 182.597 l
179.616 177.982 l
174.389 183.305 l
169.135 189.053 l
160.919 246.21 l
158.287 206.061 l
153.794 199.071 l
149.706 186.43 l
145.045 183.592 l
142.569 148.782 l
135.289 185.434 l
} bind def
/p3_1 {
newpath
translate
365.338 106.322 m
360.034 107.915 l
354.788 111.615 l
349.677 122.48 l
344.442 127.362 l
339.228 133.69 l
333.854 126.966 l
328.693 137.376 l
323.948 208.65 l
318.383 175.35 l
312.968 136.578 l
307.785 156.813 l
302.586 140.332 l
297.415 141.743 l
292.356 125.96 l
287.182 136.013 l
282.132 131.241 l
277.088 129.364 l
272.019 131.134 l
266.989 131.275 l
261.678 147.772 l
256.501 155.29 l
251.468 155.872 l
246.531 153.229 l
241.581 152.174 l
236.57 154.048 l
230.625 186.856 l
225.976 176.42 l
221.375 166.357 l
215.97 179.841 l
212.026 154.634 l
207.16 155.004 l
200.027 208.93 l
195.639 196.972 l
188.688 241.419 l
184.006 235.92 l
181.345 191.242 l
176.417 193.416 l
172 186.37 l
166.061 207.13 l
} bind def
/p3_2 {
newpath
translate
393.82 128.022 m
388.517 128.648 l
383.459 136.345 l
378.187 137.322 l
373.053 142.675 l
367.921 148.244 l
362.687 149.603 l
357.574 156.026 l
353.417 212.855 l
347.417 174.14 l
342.203 176.02 l
337.016 178.975 l
331.694 168.502 l
326.536 169.794 l
321.287 154.533 l
316.212 160.526 l
311.121 162.15 l
306.043 154.909 l
300.998 155.505 l
295.942 162.571 l
290.94 159.474 l
285.942 159.634 l
280.924 163.491 l
275.935 165.271 l
270.918 169.768 l
265.943 171.713 l
260.832 181.624 l
255.919 180.758 l
250.895 185.863 l
246.133 180.102 l
240.794 197.775 l
235.761 202.834 l
231.305 188.809 l
225.913 206.012 l
220.905 210.57 l
214.829 244.636 l
210.898 219.421 l
206.849 200.046 l
201.857 205.315 l
197.351 199.46 l
} bind def
/p3_3 {
newpath
translate
421.611 150.173 m
416.279 149.68 l
411.236 155.335 l
406.181 160.804 l
401.008 163.327 l
395.701 161.982 l
390.702 168.798 l
385.483 169.106 l
380.884 189.213 l
375.403 180.479 l
370.482 190.944 l
365.372 194.63 l
360.268 198.366 l
355.193 203.414 l
349.679 183.876 l
344.589 184.918 l
339.468 182.595 l
334.401 182.529 l
329.384 185.699 l
324.353 186.195 l
319.334 186.049 l
314.349 190.003 l
309.359 188.889 l
304.388 193.381 l
299.428 193.815 l
294.486 193.951 l
289.545 196.543 l
284.626 197.459 l
279.725 197.972 l
274.812 200.717 l
269.942 200.984 l
265.102 200.445 l
260.234 202.5 l
255.094 218.282 l
250.331 215.256 l
245.767 205.24 l
240.084 240.051 l
235.669 225.64 l
230.932 224.321 l
226.468 215.182 l
} bind def
/p3_4 {
newpath
translate
448.495 168.05 m
443.279 169.256 l
438.348 175.479 l
433.395 181.415 l
428.084 180.27 l
423.197 187.514 l
417.692 181.432 l
412.675 185.57 l
408.068 199.575 l
402.776 197.12 l
398 207.797 l
392.877 209.275 l
387.621 206.334 l
382.531 207.763 l
377.167 199.236 l
372.165 202.232 l
367.034 199.777 l
362.008 200.675 l
357.052 204.284 l
352.03 204.136 l
347.061 206.04 l
342.093 207.34 l
337.161 210.486 l
332.252 215.245 l
327.253 209.724 l
322.35 212.776 l
317.443 213.636 l
312.572 222.967 l
307.672 218.277 l
302.798 221.732 l
297.941 220.953 l
293.086 223.774 l
288.261 223.156 l
283.377 231.343 l
278.517 235.928 l
273.767 231.947 l
268.77 246.815 l
264.248 230.814 l
259.4 236.56 l
254.708 234.399 l
} bind def
/p3_5 {
newpath
translate
471.462 184.01 m
466.325 185.949 l
461.293 189.37 l
456.415 195.235 l
451.132 194.331 l
446.009 195.834 l
441.093 200.886 l
435.91 200.92 l
431.056 207.097 l
426.279 215.008 l
421.082 214.151 l
416.117 218.04 l
411.1 220.633 l
405.819 216.48 l
400.848 219.5 l
395.62 215.25 l
390.877 224.221 l
385.701 220.244 l
380.839 225.568 l
375.792 224.447 l
370.768 223.325 l
365.778 222.701 l
360.847 223.851 l
355.936 225.362 l
351.151 233.197 l
346.269 235.846 l
341.39 238.22 l
336.451 235.032 l
331.552 232.86 l
326.702 233.584 l
321.883 236.929 l
317.051 236.446 l
312.271 249.141 l
307.448 243.791 l
302.651 247.499 l
297.865 248.318 l
293.105 246.591 l
288.307 253.655 l
283.499 260.709 l
278.89 248.27 l
} bind def
/p3_6 {
newpath
translate
336.069 82.6303 m
339.757 84.7551 l
343.487 90.4777 l
347.117 90.6626 l
350.835 96.5498 l
354.464 98.178 l
358.129 102.181 l
361.714 103.122 l
365.338 106.322 l
368.95 109.473 l
372.488 110.301 l
376.063 113.009 l
379.543 113.012 l
383.243 120.438 l
386.795 123.411 l
390.287 124.947 l
393.82 128.022 l
397.293 129.781 l
400.739 131.213 l
404.303 135.879 l
407.733 137.502 l
411.251 141.451 l
414.607 141.987 l
418.06 144.955 l
421.611 150.173 l
425.027 152.726 l
428.407 154.769 l
431.687 155.124 l
435.003 156.448 l
438.358 158.756 l
441.794 162.713 l
445.07 163.997 l
448.495 168.05 l
451.795 170.103 l
455.102 172.482 l
458.319 173.556 l
461.513 174.513 l
464.872 178.213 l
468.246 182.241 l
471.462 184.01 l
} bind def
/p3_7 {
newpath
translate
293.553 144.761 m
297.318 158.908 l
301.116 168.337 l
304.936 142.725 l
308.706 161.995 l
312.66 235.304 l
316.291 183.686 l
319.953 168.513 l
323.948 208.65 l
327.771 217.537 l
331.139 181.519 l
334.859 186.376 l
338.51 186.425 l
342.108 184.245 l
346.078 206.666 l
349.21 178.974 l
353.417 212.855 l
356.362 181.439 l
359.719 173.763 l
363.575 189.186 l
366.753 176.244 l
370.351 181.442 l
373.775 180.492 l
377.394 186.946 l
380.884 189.213 l
384.207 186.578 l
387.725 190.581 l
391.046 189.094 l
394.411 189.438 l
397.613 185.838 l
401.221 193.49 l
404.868 202.006 l
408.068 199.575 l
411.162 195.193 l
414.755 202.841 l
418.278 208.854 l
421.317 204.507 l
424.646 206.789 l
428.192 213.727 l
431.056 207.097 l
} bind def
/p3_8 {
newpath
translate
252.518 104.488 m
256.191 110.921 l
260.111 104.546 l
263.73 112.814 l
267.508 111.598 l
271.071 123.439 l
274.779 125.388 l
278.534 121.956 l
282.132 131.241 l
285.755 138.619 l
289.417 140.585 l
293.083 139.245 l
296.687 147.669 l
300.315 148.787 l
303.922 154.882 l
307.526 158.912 l
311.121 162.15 l
314.699 163.28 l
318.28 168.161 l
321.879 176.385 l
325.419 176.645 l
328.936 176.391 l
332.43 175.764 l
336 183.034 l
339.468 182.595 l
342.976 186.182 l
346.441 187.594 l
350.007 195.413 l
353.387 193.411 l
356.872 197.577 l
360.264 197.849 l
363.622 197.317 l
367.034 199.777 l
370.46 203.176 l
374.167 217.108 l
377.293 210.108 l
380.696 213.48 l
384.057 215.808 l
387.301 214.866 l
390.877 224.221 l
} bind def
/p3_9 {
newpath
translate
211.516 131.135 m
215.025 141.553 l
219.376 128.946 l
223.334 125.973 l
226.615 142.676 l
230.493 141.322 l
234.478 135.479 l
238.011 144.401 l
241.581 152.174 l
245.337 152.644 l
249.13 150.744 l
252.779 154.276 l
256.396 158.878 l
260.135 156.744 l
263.642 166.496 l
267.302 167.174 l
270.918 169.768 l
274.437 178.983 l
278.066 179.215 l
281.668 180.438 l
285.242 183.044 l
288.771 190.568 l
292.37 185.941 l
295.895 191.742 l
299.428 193.815 l
302.957 189.411 l
306.458 199.506 l
309.957 201.834 l
313.432 200.033 l
316.92 206.25 l
320.371 206.037 l
323.864 214.232 l
327.253 209.724 l
330.741 218.124 l
334.126 216.946 l
337.521 218.102 l
340.917 220.379 l
344.465 233.21 l
347.698 226.146 l
351.151 233.197 l
} bind def
/p3_a {
newpath
translate
169.135 189.053 m
173.862 176.349 l
173.334 262.971 l
180.283 207.107 l
185.859 175.108 l
189.021 191.377 l
192.366 204.351 l
196.908 190.713 l
200.027 208.93 l
205.177 178.613 l
207.695 211.97 l
212.776 180.015 l
216.308 187.335 l
219.375 208.062 l
223.097 210.459 l
226.274 229.569 l
231.305 188.809 l
234.951 191.136 l
237.722 225.105 l
242.328 191.157 l
245.662 204.568 l
249.304 205.4 l
251.74 261.896 l
256.218 223.242 l
260.234 202.5 l
263.437 224.893 l
267.11 220.085 l
270.435 237.627 l
274.036 236.014 l
277.78 219.752 l
281.305 219.142 l
284.705 231.087 l
288.261 223.156 l
291.637 240.067 l
295.125 237.741 l
298.586 236.56 l
302.013 243.981 l
305.446 238.79 l
308.859 243.228 l
312.271 249.141 l
} bind def
/p3_b {
newpath
translate
135.289 185.434 m
141.115 159.568 l
145.292 157.044 l
148.347 171.465 l
152.047 176.025 l
156.003 176.298 l
159.887 177.457 l
164.451 166.588 l
166.061 207.13 l
171.764 174.94 l
175.808 171.647 l
178.959 185.055 l
181.819 204.717 l
186.638 184.843 l
190.132 191.447 l
193.976 190.378 l
197.351 199.46 l
201.269 195.946 l
203.946 222.048 l
207.859 218.276 l
211.694 215.747 l
215.749 206.457 l
219.029 218.038 l
223.188 203.795 l
226.468 215.182 l
229.815 224.868 l
233.451 224.918 l
237.205 220.047 l
240.821 219.221 l
244.321 222.286 l
247.459 240.527 l
251.147 235.184 l
254.708 234.399 l
258.199 236.279 l
261.565 244.603 l
264.898 255.345 l
268.661 237.913 l
272.051 243.411 l
275.491 244.593 l
278.89 248.27 l
} bind def
0 setlinecap
gsave
453.4 352.8 73.12 44.1 clipbox
0 0 p3_0
stroke
grestore
gsave
453.4 352.8 73.12 44.1 clipbox
0 0 p3_1
stroke
grestore
gsave
453.4 352.8 73.12 44.1 clipbox
0 0 p3_2
stroke
grestore
gsave
453.4 352.8 73.12 44.1 clipbox
0 0 p3_3
stroke
grestore
gsave
453.4 352.8 73.12 44.1 clipbox
0 0 p3_4
stroke
grestore
gsave
453.4 352.8 73.12 44.1 clipbox
0 0 p3_5
stroke
grestore
gsave
453.4 352.8 73.12 44.1 clipbox
0 0 p3_6
stroke
grestore
gsave
453.4 352.8 73.12 44.1 clipbox
0 0 p3_7
stroke
grestore
gsave
453.4 352.8 73.12 44.1 clipbox
0 0 p3_8
stroke
grestore
gsave
453.4 352.8 73.12 44.1 clipbox
0 0 p3_9
stroke
grestore
gsave
453.4 352.8 73.12 44.1 clipbox
0 0 p3_a
stroke
grestore
gsave
453.4 352.8 73.12 44.1 clipbox
0 0 p3_b
stroke
grestore

end
showpage
