%!PS-Adobe-3.0 EPSF-3.0
%%Title: /home/aurelien/synchro/boulot/code/papers_code/schelling-2012/fig/phase_diagram_noisetol.eps
%%Creator: matplotlib version 1.1.1rc2, http://matplotlib.sourceforge.net/
%%CreationDate: Tue Jun  4 12:33:04 2013
%%Orientation: portrait
%%BoundingBox: -108 95 720 696
%%EndComments
%%BeginProlog
/mpldict 8 dict def
mpldict begin
/m { moveto } bind def
/l { lineto } bind def
/r { rlineto } bind def
/c { curveto } bind def
/cl { closepath } bind def
/box {
m
1 index 0 r
0 exch r
neg 0 r
cl
} bind def
/clipbox {
box
clip
newpath
} bind def
%!PS-Adobe-3.0 Resource-Font
%%Title: DejaVu Sans
%%Copyright: Copyright (c) 2003 by Bitstream, Inc. All Rights Reserved. Copyright (c) 2006 by Tavmjong Bah. All Rights Reserved. DejaVu changes are in public domain 
%%Creator: Converted from TrueType to type 3 by PPR
25 dict begin
/_d{bind def}bind def
/_m{moveto}_d
/_l{lineto}_d
/_cl{closepath eofill}_d
/_c{curveto}_d
/_sc{7 -1 roll{setcachedevice}{pop pop pop pop pop pop}ifelse}_d
/_e{exec}_d
/FontName /DejaVuSans def
/PaintType 0 def
/FontMatrix[.001 0 0 .001 0 0]def
/FontBBox[-1021 -415 1681 1167]def
/FontType 3 def
/Encoding [ /period /zero /one /two /three /four /five /six /seven /eight /nine /a /c /f /l /o /r /t ] def
/FontInfo 10 dict dup begin
/FamilyName (DejaVu Sans) def
/FullName (DejaVu Sans) def
/Notice (Copyright (c) 2003 by Bitstream, Inc. All Rights Reserved. Copyright (c) 2006 by Tavmjong Bah. All Rights Reserved. DejaVu changes are in public domain ) def
/Weight (Book) def
/Version (Version 2.33) def
/ItalicAngle 0.0 def
/isFixedPitch false def
/UnderlinePosition -130 def
/UnderlineThickness 90 def
end readonly def
/CharStrings 18 dict dup begin
/period{318 0 107 0 210 124 _sc
107 124 _m
210 124 _l
210 0 _l
107 0 _l
107 124 _l
_cl}_d
/zero{636 0 66 -13 570 742 _sc
318 664 _m
267 664 229 639 203 589 _c
177 539 165 464 165 364 _c
165 264 177 189 203 139 _c
229 89 267 64 318 64 _c
369 64 407 89 433 139 _c
458 189 471 264 471 364 _c
471 464 458 539 433 589 _c
407 639 369 664 318 664 _c
318 742 _m
399 742 461 709 505 645 _c
548 580 570 486 570 364 _c
570 241 548 147 505 83 _c
461 19 399 -13 318 -13 _c
236 -13 173 19 130 83 _c
87 147 66 241 66 364 _c
66 486 87 580 130 645 _c
173 709 236 742 318 742 _c
_cl}_d
/one{636 0 110 0 544 729 _sc
124 83 _m
285 83 _l
285 639 _l
110 604 _l
110 694 _l
284 729 _l
383 729 _l
383 83 _l
544 83 _l
544 0 _l
124 0 _l
124 83 _l
_cl}_d
/two{{636 0 73 0 536 742 _sc
192 83 _m
536 83 _l
536 0 _l
73 0 _l
73 83 _l
110 121 161 173 226 239 _c
290 304 331 346 348 365 _c
380 400 402 430 414 455 _c
426 479 433 504 433 528 _c
433 566 419 598 392 622 _c
365 646 330 659 286 659 _c
255 659 222 653 188 643 _c
154 632 117 616 78 594 _c
78 694 _l
118 710 155 722 189 730 _c
223 738 255 742 284 742 _c
}_e{359 742 419 723 464 685 _c
509 647 532 597 532 534 _c
532 504 526 475 515 449 _c
504 422 484 390 454 354 _c
446 344 420 317 376 272 _c
332 227 271 164 192 83 _c
_cl}_e}_d
/three{{636 0 76 -13 556 742 _sc
406 393 _m
453 383 490 362 516 330 _c
542 298 556 258 556 212 _c
556 140 531 84 482 45 _c
432 6 362 -13 271 -13 _c
240 -13 208 -10 176 -4 _c
144 1 110 10 76 22 _c
76 117 _l
103 101 133 89 166 81 _c
198 73 232 69 268 69 _c
330 69 377 81 409 105 _c
441 129 458 165 458 212 _c
458 254 443 288 413 312 _c
383 336 341 349 287 349 _c
}_e{202 349 _l
202 430 _l
291 430 _l
339 430 376 439 402 459 _c
428 478 441 506 441 543 _c
441 580 427 609 401 629 _c
374 649 336 659 287 659 _c
260 659 231 656 200 650 _c
169 644 135 635 98 623 _c
98 711 _l
135 721 170 729 203 734 _c
235 739 266 742 296 742 _c
370 742 429 725 473 691 _c
517 657 539 611 539 553 _c
539 513 527 479 504 451 _c
481 423 448 403 406 393 _c
_cl}_e}_d
/four{636 0 49 0 580 729 _sc
378 643 _m
129 254 _l
378 254 _l
378 643 _l
352 729 _m
476 729 _l
476 254 _l
580 254 _l
580 172 _l
476 172 _l
476 0 _l
378 0 _l
378 172 _l
49 172 _l
49 267 _l
352 729 _l
_cl}_d
/five{{636 0 77 -13 549 729 _sc
108 729 _m
495 729 _l
495 646 _l
198 646 _l
198 467 _l
212 472 227 476 241 478 _c
255 480 270 482 284 482 _c
365 482 429 459 477 415 _c
525 370 549 310 549 234 _c
549 155 524 94 475 51 _c
426 8 357 -13 269 -13 _c
238 -13 207 -10 175 -6 _c
143 -1 111 6 77 17 _c
77 116 _l
106 100 136 88 168 80 _c
199 72 232 69 267 69 _c
}_e{323 69 368 83 401 113 _c
433 143 450 183 450 234 _c
450 284 433 324 401 354 _c
368 384 323 399 267 399 _c
241 399 214 396 188 390 _c
162 384 135 375 108 363 _c
108 729 _l
_cl}_e}_d
/six{{636 0 70 -13 573 742 _sc
330 404 _m
286 404 251 388 225 358 _c
199 328 186 286 186 234 _c
186 181 199 139 225 109 _c
251 79 286 64 330 64 _c
374 64 409 79 435 109 _c
461 139 474 181 474 234 _c
474 286 461 328 435 358 _c
409 388 374 404 330 404 _c
526 713 _m
526 623 _l
501 635 476 644 451 650 _c
425 656 400 659 376 659 _c
310 659 260 637 226 593 _c
}_e{192 549 172 482 168 394 _c
187 422 211 444 240 459 _c
269 474 301 482 336 482 _c
409 482 467 459 509 415 _c
551 371 573 310 573 234 _c
573 159 550 99 506 54 _c
462 9 403 -13 330 -13 _c
246 -13 181 19 137 83 _c
92 147 70 241 70 364 _c
70 479 97 571 152 639 _c
206 707 280 742 372 742 _c
396 742 421 739 447 735 _c
472 730 498 723 526 713 _c
_cl}_e}_d
/seven{636 0 82 0 551 729 _sc
82 729 _m
551 729 _l
551 687 _l
286 0 _l
183 0 _l
432 646 _l
82 646 _l
82 729 _l
_cl}_d
/eight{{636 0 68 -13 568 742 _sc
318 346 _m
271 346 234 333 207 308 _c
180 283 167 249 167 205 _c
167 161 180 126 207 101 _c
234 76 271 64 318 64 _c
364 64 401 76 428 102 _c
455 127 469 161 469 205 _c
469 249 455 283 429 308 _c
402 333 365 346 318 346 _c
219 388 _m
177 398 144 418 120 447 _c
96 476 85 511 85 553 _c
85 611 105 657 147 691 _c
188 725 245 742 318 742 _c
}_e{390 742 447 725 489 691 _c
530 657 551 611 551 553 _c
551 511 539 476 515 447 _c
491 418 459 398 417 388 _c
464 377 501 355 528 323 _c
554 291 568 251 568 205 _c
568 134 546 80 503 43 _c
459 5 398 -13 318 -13 _c
237 -13 175 5 132 43 _c
89 80 68 134 68 205 _c
68 251 81 291 108 323 _c
134 355 171 377 219 388 _c
183 544 _m
183 506 194 476 218 455 _c
}_e{242 434 275 424 318 424 _c
360 424 393 434 417 455 _c
441 476 453 506 453 544 _c
453 582 441 611 417 632 _c
393 653 360 664 318 664 _c
275 664 242 653 218 632 _c
194 611 183 582 183 544 _c
_cl}_e}_d
/nine{{636 0 63 -13 566 742 _sc
110 15 _m
110 105 _l
134 93 159 84 185 78 _c
210 72 235 69 260 69 _c
324 69 374 90 408 134 _c
442 178 462 244 468 334 _c
448 306 424 284 396 269 _c
367 254 335 247 300 247 _c
226 247 168 269 126 313 _c
84 357 63 417 63 494 _c
63 568 85 628 129 674 _c
173 719 232 742 306 742 _c
390 742 455 709 499 645 _c
543 580 566 486 566 364 _c
}_e{566 248 538 157 484 89 _c
429 21 356 -13 264 -13 _c
239 -13 214 -10 189 -6 _c
163 -2 137 5 110 15 _c
306 324 _m
350 324 385 339 411 369 _c
437 399 450 441 450 494 _c
450 546 437 588 411 618 _c
385 648 350 664 306 664 _c
262 664 227 648 201 618 _c
175 588 162 546 162 494 _c
162 441 175 399 201 369 _c
227 339 262 324 306 324 _c
_cl}_e}_d
/a{{613 0 60 -13 522 560 _sc
343 275 _m
270 275 220 266 192 250 _c
164 233 150 205 150 165 _c
150 133 160 107 181 89 _c
202 70 231 61 267 61 _c
317 61 357 78 387 114 _c
417 149 432 196 432 255 _c
432 275 _l
343 275 _l
522 312 _m
522 0 _l
432 0 _l
432 83 _l
411 49 385 25 355 10 _c
325 -5 287 -13 243 -13 _c
187 -13 142 2 109 33 _c
76 64 60 106 60 159 _c
}_e{60 220 80 266 122 298 _c
163 329 224 345 306 345 _c
432 345 _l
432 354 _l
432 395 418 427 391 450 _c
364 472 326 484 277 484 _c
245 484 215 480 185 472 _c
155 464 127 453 100 439 _c
100 522 _l
132 534 164 544 195 550 _c
226 556 256 560 286 560 _c
365 560 424 539 463 498 _c
502 457 522 395 522 312 _c
_cl}_e}_d
/c{{550 0 55 -13 488 560 _sc
488 526 _m
488 442 _l
462 456 437 466 411 473 _c
385 480 360 484 334 484 _c
276 484 230 465 198 428 _c
166 391 150 339 150 273 _c
150 206 166 154 198 117 _c
230 80 276 62 334 62 _c
360 62 385 65 411 72 _c
437 79 462 90 488 104 _c
488 21 _l
462 9 436 0 410 -5 _c
383 -10 354 -13 324 -13 _c
242 -13 176 12 128 64 _c
}_e{79 115 55 185 55 273 _c
55 362 79 432 128 483 _c
177 534 244 560 330 560 _c
358 560 385 557 411 551 _c
437 545 463 537 488 526 _c
_cl}_e}_d
/f{352 0 23 0 371 760 _sc
371 760 _m
371 685 _l
285 685 _l
253 685 230 678 218 665 _c
205 652 199 629 199 595 _c
199 547 _l
347 547 _l
347 477 _l
199 477 _l
199 0 _l
109 0 _l
109 477 _l
23 477 _l
23 547 _l
109 547 _l
109 585 _l
109 645 123 690 151 718 _c
179 746 224 760 286 760 _c
371 760 _l
_cl}_d
/l{278 0 94 0 184 760 _sc
94 760 _m
184 760 _l
184 0 _l
94 0 _l
94 760 _l
_cl}_d
/o{612 0 55 -13 557 560 _sc
306 484 _m
258 484 220 465 192 427 _c
164 389 150 338 150 273 _c
150 207 163 156 191 118 _c
219 80 257 62 306 62 _c
354 62 392 80 420 118 _c
448 156 462 207 462 273 _c
462 337 448 389 420 427 _c
392 465 354 484 306 484 _c
306 560 _m
384 560 445 534 490 484 _c
534 433 557 363 557 273 _c
557 183 534 113 490 63 _c
445 12 384 -13 306 -13 _c
227 -13 165 12 121 63 _c
77 113 55 183 55 273 _c
55 363 77 433 121 484 _c
165 534 227 560 306 560 _c
_cl}_d
/r{411 0 91 0 411 560 _sc
411 463 _m
401 469 390 473 378 476 _c
366 478 353 480 339 480 _c
288 480 249 463 222 430 _c
194 397 181 350 181 288 _c
181 0 _l
91 0 _l
91 547 _l
181 547 _l
181 462 _l
199 495 224 520 254 536 _c
284 552 321 560 365 560 _c
371 560 378 559 386 559 _c
393 558 401 557 411 555 _c
411 463 _l
_cl}_d
/t{392 0 27 0 368 702 _sc
183 702 _m
183 547 _l
368 547 _l
368 477 _l
183 477 _l
183 180 _l
183 135 189 106 201 94 _c
213 81 238 75 276 75 _c
368 75 _l
368 0 _l
276 0 _l
206 0 158 13 132 39 _c
106 65 93 112 93 180 _c
93 477 _l
27 477 _l
27 547 _l
93 547 _l
93 702 _l
183 702 _l
_cl}_d
end readonly def

/BuildGlyph
 {exch begin
 CharStrings exch
 2 copy known not{pop /.notdef}if
 true 3 1 roll get exec
 end}_d

/BuildChar {
 1 index /Encoding get exch get
 1 index /BuildGlyph get exec
}_d

FontName currentdict end definefont pop
end
%%EndProlog
mpldict begin
-108 95.4 translate
828 601.2 0 0 clipbox
gsave
0 0 m
828 0 l
828 601.2 l
0 601.2 l
cl
1.000 setgray
fill
grestore
gsave
103.5 399.621 m
745.2 399.621 l
745.2 541.08 l
103.5 541.08 l
cl
1.000 setgray
fill
grestore
/p0_0 {
newpath
translate
103.5 450.401 m
103.5 450.401 l
103.5 450.401 l
} bind def
1.000 setlinewidth
1 setlinejoin
0 setlinecap
[] 0 setdash
0.000 setgray
gsave
641.7 141.5 103.5 399.6 clipbox
0 0 p0_0
stroke
grestore
/p1_0 {
newpath
translate
103.5 428.131 m
119.954 428.229 l
136.408 428.397 l
152.862 428.545 l
161.958 428.638 l
154.899 432.266 l
169.315 433.093 l
185.769 433.888 l
202.223 434.545 l
218.677 435.229 l
235.131 435.792 l
235.665 435.805 l
} bind def
/p1_1 {
newpath
translate
282.552 449.924 m
284.492 450.075 l
287.334 450.401 l
288.733 454.028 l
284.492 456.421 l
282.015 457.656 l
280.789 461.283 l
284.492 464.392 l
284.956 464.91 l
284.492 465.53 l
281.813 468.537 l
268.038 469.688 l
251.585 470.56 l
235.131 471.731 l
218.677 472.144 l
218.306 472.164 l
218.677 472.86 l
223.35 475.791 l
218.916 479.418 l
218.677 479.439 l
202.223 480.606 l
185.769 481.325 l
169.315 482.401 l
152.862 482.928 l
150.816 483.046 l
148.832 486.673 l
152.862 488.059 l
158.522 490.3 l
152.862 490.493 l
136.408 490.85 l
119.954 490.854 l
103.5 490.724 l
} bind def
gsave
641.7 141.5 103.5 399.6 clipbox
0 0 p1_0
stroke
grestore
gsave
641.7 141.5 103.5 399.6 clipbox
0 0 p1_1
stroke
grestore
/p2_0 {
newpath
translate
103.5 426.946 m
119.954 427.001 l
136.408 427.105 l
152.862 427.205 l
169.315 427.31 l
185.769 427.489 l
202.223 427.635 l
218.677 427.985 l
235.131 428.127 l
251.585 428.601 l
268.038 428.623 l
268.753 428.638 l
268.038 429.497 l
251.585 430.948 l
250.885 432.266 l
251.585 432.303 l
268.038 432.364 l
284.492 433.11 l
300.946 433.438 l
317.4 434.161 l
333.854 434.64 l
350.308 434.963 l
366.762 435.351 l
376.476 435.893 l
377.571 439.52 l
383.215 441.234 l
391.285 443.147 l
390.645 446.774 l
399.669 447.385 l
416.123 447.932 l
432.577 448.686 l
449.031 449.511 l
465.485 449.945 l
481.938 450.296 l
484.614 450.401 l
485.889 454.028 l
485.623 457.656 l
494.51 460.227 l
} bind def
/p2_1 {
newpath
translate
475.075 482.971 m
474.415 483.046 l
481.284 486.673 l
476.523 490.3 l
465.485 490.795 l
449.031 491.647 l
432.577 492.677 l
416.123 492.834 l
399.669 493.182 l
390.119 493.927 l
383.215 495.613 l
371.606 497.554 l
383.215 500.009 l
386.887 501.181 l
383.215 504.69 l
382.83 504.809 l
366.762 505.373 l
350.308 506.464 l
333.854 506.228 l
317.4 506.08 l
300.946 507.018 l
284.492 508.01 l
272.067 508.436 l
268.038 510.855 l
266.258 512.063 l
251.585 512.152 l
241.891 512.063 l
235.131 511.616 l
218.677 511.98 l
217.33 512.063 l
202.223 512.14 l
185.769 512.168 l
169.315 512.361 l
152.862 512.364 l
136.408 512.346 l
119.954 512.498 l
103.5 512.544 l
} bind def
/p2_2 {
newpath
translate
287.565 512.063 m
300.946 511.518 l
302.462 512.063 l
300.946 512.09 l
287.565 512.063 l
} bind def
gsave
641.7 141.5 103.5 399.6 clipbox
0 0 p2_0
stroke
grestore
gsave
641.7 141.5 103.5 399.6 clipbox
0 0 p2_1
stroke
grestore
gsave
641.7 141.5 103.5 399.6 clipbox
0 0 p2_2
stroke
grestore
/p3_0 {
newpath
translate
103.5 425.762 m
119.954 425.773 l
136.408 425.814 l
152.862 425.865 l
169.315 425.902 l
185.769 425.995 l
202.223 426.043 l
218.677 426.208 l
235.131 426.249 l
251.585 426.441 l
268.038 426.479 l
284.492 426.653 l
300.946 426.845 l
317.4 426.966 l
324.833 427.041 l
} bind def
/p3_1 {
newpath
translate
375.78 427.694 m
383.215 427.902 l
399.669 427.969 l
416.123 428.128 l
432.577 428.474 l
440.558 428.638 l
446.488 432.266 l
449.031 432.298 l
465.485 432.756 l
481.938 433.039 l
498.392 433.489 l
514.846 433.625 l
531.3 434.134 l
547.754 434.395 l
564.208 435.205 l
580.662 435.339 l
593.226 435.893 l
592.004 439.52 l
597.115 440.799 l
613.569 441.074 l
618.278 443.147 l
613.569 446.407 l
612.857 446.774 l
613.569 446.787 l
630.023 447.207 l
646.477 447.465 l
662.931 447.796 l
679.385 447.848 l
695.838 448.569 l
712.292 448.901 l
728.746 449.568 l
745.2 450.031 l
} bind def
/p3_2 {
newpath
translate
103.5 514.832 m
119.954 514.853 l
136.408 514.934 l
152.862 514.993 l
169.315 515.286 l
185.769 514.942 l
202.223 514.906 l
218.677 514.976 l
235.131 515.091 l
251.585 515.237 l
268.038 515.252 l
284.492 515.329 l
300.946 515.533 l
317.4 515.443 l
324.831 515.437 l
} bind def
/p3_3 {
newpath
translate
375.784 515.497 m
383.215 515.562 l
399.669 515.625 l
416.123 515.564 l
432.577 515.361 l
449.031 515.338 l
465.485 515.338 l
481.938 515.461 l
498.392 515.192 l
514.846 515.265 l
531.3 515.159 l
547.754 515.159 l
564.208 515.049 l
580.662 514.992 l
597.115 514.295 l
613.569 514.753 l
630.023 514.168 l
646.477 514.424 l
662.931 513.83 l
679.385 513.726 l
695.838 513.071 l
712.292 513.066 l
728.746 512.537 l
736.703 512.063 l
737.57 508.436 l
745.2 507.186 l
} bind def
/p3_4 {
newpath
translate
414.978 522.944 m
416.123 522.464 l
421.553 519.317 l
432.577 517.462 l
443.445 519.317 l
432.577 522.644 l
423.603 522.944 l
416.123 523.248 l
414.978 522.944 l
} bind def
gsave
641.7 141.5 103.5 399.6 clipbox
0 0 p3_0
stroke
grestore
gsave
641.7 141.5 103.5 399.6 clipbox
0 0 p3_1
stroke
grestore
gsave
641.7 141.5 103.5 399.6 clipbox
0 0 p3_2
stroke
grestore
gsave
641.7 141.5 103.5 399.6 clipbox
0 0 p3_3
stroke
grestore
gsave
641.7 141.5 103.5 399.6 clipbox
0 0 p3_4
stroke
grestore
0.500 setlinewidth
gsave
/o {
gsave
newpath
translate
0.5 setlinewidth
1 setlinejoin
0 setlinecap
0 0 m
0 4 l
gsave
0.000 setgray
fill
grestore
stroke
grestore
} bind def
103.5 399.621 o
grestore
gsave
/o {
gsave
newpath
translate
0.5 setlinewidth
1 setlinejoin
0 setlinecap
0 0 m
0 -4 l
gsave
0.000 setgray
fill
grestore
stroke
grestore
} bind def
103.5 541.08 o
grestore
/DejaVuSans findfont
16.000 scalefont
setfont
gsave
91.828125 383.511801 translate
0.000000 rotate
0.000000 0.234375 m /zero glyphshow
10.179688 0.234375 m /period glyphshow
15.265625 0.234375 m /zero glyphshow
grestore
gsave
/o {
gsave
newpath
translate
0.5 setlinewidth
1 setlinejoin
0 setlinecap
0 0 m
0 4 l
gsave
0.000 setgray
fill
grestore
stroke
grestore
} bind def
231.84 399.621 o
grestore
gsave
/o {
gsave
newpath
translate
0.5 setlinewidth
1 setlinejoin
0 setlinecap
0 0 m
0 -4 l
gsave
0.000 setgray
fill
grestore
stroke
grestore
} bind def
231.84 541.08 o
grestore
gsave
220.379063 383.511801 translate
0.000000 rotate
0.000000 0.234375 m /zero glyphshow
10.179688 0.234375 m /period glyphshow
15.265625 0.234375 m /one glyphshow
grestore
gsave
/o {
gsave
newpath
translate
0.5 setlinewidth
1 setlinejoin
0 setlinecap
0 0 m
0 4 l
gsave
0.000 setgray
fill
grestore
stroke
grestore
} bind def
360.18 399.621 o
grestore
gsave
/o {
gsave
newpath
translate
0.5 setlinewidth
1 setlinejoin
0 setlinecap
0 0 m
0 -4 l
gsave
0.000 setgray
fill
grestore
stroke
grestore
} bind def
360.18 541.08 o
grestore
gsave
348.781563 383.511801 translate
0.000000 rotate
0.000000 0.234375 m /zero glyphshow
10.179688 0.234375 m /period glyphshow
15.265625 0.234375 m /two glyphshow
grestore
gsave
/o {
gsave
newpath
translate
0.5 setlinewidth
1 setlinejoin
0 setlinecap
0 0 m
0 4 l
gsave
0.000 setgray
fill
grestore
stroke
grestore
} bind def
488.52 399.621 o
grestore
gsave
/o {
gsave
newpath
translate
0.5 setlinewidth
1 setlinejoin
0 setlinecap
0 0 m
0 -4 l
gsave
0.000 setgray
fill
grestore
stroke
grestore
} bind def
488.52 541.08 o
grestore
gsave
476.957500 383.511801 translate
0.000000 rotate
0.000000 0.234375 m /zero glyphshow
10.179688 0.234375 m /period glyphshow
15.265625 0.234375 m /three glyphshow
grestore
gsave
/o {
gsave
newpath
translate
0.5 setlinewidth
1 setlinejoin
0 setlinecap
0 0 m
0 4 l
gsave
0.000 setgray
fill
grestore
stroke
grestore
} bind def
616.86 399.621 o
grestore
gsave
/o {
gsave
newpath
translate
0.5 setlinewidth
1 setlinejoin
0 setlinecap
0 0 m
0 -4 l
gsave
0.000 setgray
fill
grestore
stroke
grestore
} bind def
616.86 541.08 o
grestore
gsave
605.110000 383.511801 translate
0.000000 rotate
0.000000 0.234375 m /zero glyphshow
10.179688 0.234375 m /period glyphshow
15.265625 0.234375 m /four glyphshow
grestore
gsave
/o {
gsave
newpath
translate
0.5 setlinewidth
1 setlinejoin
0 setlinecap
0 0 m
0 4 l
gsave
0.000 setgray
fill
grestore
stroke
grestore
} bind def
745.2 399.621 o
grestore
gsave
/o {
gsave
newpath
translate
0.5 setlinewidth
1 setlinejoin
0 setlinecap
0 0 m
0 -4 l
gsave
0.000 setgray
fill
grestore
stroke
grestore
} bind def
745.2 541.08 o
grestore
gsave
733.700000 383.511801 translate
0.000000 rotate
0.000000 0.234375 m /zero glyphshow
10.179688 0.234375 m /period glyphshow
15.265625 0.234375 m /five glyphshow
grestore
gsave
/o {
gsave
newpath
translate
0.5 setlinewidth
1 setlinejoin
0 setlinecap
0 0 m
4 0 l
gsave
0.000 setgray
fill
grestore
stroke
grestore
} bind def
103.5 399.621 o
grestore
gsave
/o {
gsave
newpath
translate
0.5 setlinewidth
1 setlinejoin
0 setlinecap
0 0 m
-4 0 l
gsave
0.000 setgray
fill
grestore
stroke
grestore
} bind def
745.2 399.621 o
grestore
gsave
76.578125 393.566489 translate
0.000000 rotate
0.000000 0.234375 m /zero glyphshow
10.179688 0.234375 m /period glyphshow
15.265625 0.234375 m /one glyphshow
grestore
gsave
/o {
gsave
newpath
translate
0.5 setlinewidth
1 setlinejoin
0 setlinecap
0 0 m
4 0 l
gsave
0.000 setgray
fill
grestore
stroke
grestore
} bind def
103.5 417.304 o
grestore
gsave
/o {
gsave
newpath
translate
0.5 setlinewidth
1 setlinejoin
0 setlinecap
0 0 m
-4 0 l
gsave
0.000 setgray
fill
grestore
stroke
grestore
} bind def
745.2 417.304 o
grestore
gsave
76.703125 411.248842 translate
0.000000 rotate
0.000000 0.234375 m /zero glyphshow
10.179688 0.234375 m /period glyphshow
15.265625 0.234375 m /two glyphshow
grestore
gsave
/o {
gsave
newpath
translate
0.5 setlinewidth
1 setlinejoin
0 setlinecap
0 0 m
4 0 l
gsave
0.000 setgray
fill
grestore
stroke
grestore
} bind def
103.5 434.986 o
grestore
gsave
/o {
gsave
newpath
translate
0.5 setlinewidth
1 setlinejoin
0 setlinecap
0 0 m
-4 0 l
gsave
0.000 setgray
fill
grestore
stroke
grestore
} bind def
745.2 434.986 o
grestore
gsave
76.375000 428.931195 translate
0.000000 rotate
0.000000 0.234375 m /zero glyphshow
10.179688 0.234375 m /period glyphshow
15.265625 0.234375 m /three glyphshow
grestore
gsave
/o {
gsave
newpath
translate
0.5 setlinewidth
1 setlinejoin
0 setlinecap
0 0 m
4 0 l
gsave
0.000 setgray
fill
grestore
stroke
grestore
} bind def
103.5 452.668 o
grestore
gsave
/o {
gsave
newpath
translate
0.5 setlinewidth
1 setlinejoin
0 setlinecap
0 0 m
-4 0 l
gsave
0.000 setgray
fill
grestore
stroke
grestore
} bind def
745.2 452.668 o
grestore
gsave
76.000000 446.613548 translate
0.000000 rotate
0.000000 0.234375 m /zero glyphshow
10.179688 0.234375 m /period glyphshow
15.265625 0.234375 m /four glyphshow
grestore
gsave
/o {
gsave
newpath
translate
0.5 setlinewidth
1 setlinejoin
0 setlinecap
0 0 m
4 0 l
gsave
0.000 setgray
fill
grestore
stroke
grestore
} bind def
103.5 470.351 o
grestore
gsave
/o {
gsave
newpath
translate
0.5 setlinewidth
1 setlinejoin
0 setlinecap
0 0 m
-4 0 l
gsave
0.000 setgray
fill
grestore
stroke
grestore
} bind def
745.2 470.351 o
grestore
gsave
76.500000 464.295901 translate
0.000000 rotate
0.000000 0.234375 m /zero glyphshow
10.179688 0.234375 m /period glyphshow
15.265625 0.234375 m /five glyphshow
grestore
gsave
/o {
gsave
newpath
translate
0.5 setlinewidth
1 setlinejoin
0 setlinecap
0 0 m
4 0 l
gsave
0.000 setgray
fill
grestore
stroke
grestore
} bind def
103.5 488.033 o
grestore
gsave
/o {
gsave
newpath
translate
0.5 setlinewidth
1 setlinejoin
0 setlinecap
0 0 m
-4 0 l
gsave
0.000 setgray
fill
grestore
stroke
grestore
} bind def
745.2 488.033 o
grestore
gsave
76.109375 481.978254 translate
0.000000 rotate
0.000000 0.234375 m /zero glyphshow
10.179688 0.234375 m /period glyphshow
15.265625 0.234375 m /six glyphshow
grestore
gsave
/o {
gsave
newpath
translate
0.5 setlinewidth
1 setlinejoin
0 setlinecap
0 0 m
4 0 l
gsave
0.000 setgray
fill
grestore
stroke
grestore
} bind def
103.5 505.715 o
grestore
gsave
/o {
gsave
newpath
translate
0.5 setlinewidth
1 setlinejoin
0 setlinecap
0 0 m
-4 0 l
gsave
0.000 setgray
fill
grestore
stroke
grestore
} bind def
745.2 505.715 o
grestore
gsave
76.468750 499.660607 translate
0.000000 rotate
0.000000 0.234375 m /zero glyphshow
10.179688 0.234375 m /period glyphshow
15.265625 0.234375 m /seven glyphshow
grestore
gsave
/o {
gsave
newpath
translate
0.5 setlinewidth
1 setlinejoin
0 setlinecap
0 0 m
4 0 l
gsave
0.000 setgray
fill
grestore
stroke
grestore
} bind def
103.5 523.398 o
grestore
gsave
/o {
gsave
newpath
translate
0.5 setlinewidth
1 setlinejoin
0 setlinecap
0 0 m
-4 0 l
gsave
0.000 setgray
fill
grestore
stroke
grestore
} bind def
745.2 523.398 o
grestore
gsave
76.187500 517.342960 translate
0.000000 rotate
0.000000 0.234375 m /zero glyphshow
10.179688 0.234375 m /period glyphshow
15.265625 0.234375 m /eight glyphshow
grestore
gsave
/o {
gsave
newpath
translate
0.5 setlinewidth
1 setlinejoin
0 setlinecap
0 0 m
4 0 l
gsave
0.000 setgray
fill
grestore
stroke
grestore
} bind def
103.5 541.08 o
grestore
gsave
/o {
gsave
newpath
translate
0.5 setlinewidth
1 setlinejoin
0 setlinecap
0 0 m
-4 0 l
gsave
0.000 setgray
fill
grestore
stroke
grestore
} bind def
745.2 541.08 o
grestore
gsave
76.218750 535.025312 translate
0.000000 rotate
0.000000 0.234375 m /zero glyphshow
10.179688 0.234375 m /period glyphshow
15.265625 0.234375 m /nine glyphshow
grestore
gsave
71.000000 461.053713 translate
90.000000 rotate
0.000000 0.234375 m /t glyphshow
6.273438 0.234375 m /o glyphshow
16.062500 0.234375 m /l glyphshow
grestore
1.000 setlinewidth
2 setlinecap
gsave
103.5 541.08 m
745.2 541.08 l
stroke
grestore
gsave
745.2 399.621 m
745.2 541.08 l
stroke
grestore
gsave
103.5 399.621 m
745.2 399.621 l
stroke
grestore
gsave
103.5 399.621 m
103.5 541.08 l
stroke
grestore
/DejaVuSans findfont
9.000 scalefont
setfont
gsave
246.697220 439.685825 translate
18.236796 rotate
0.000000 0.125000 m /zero glyphshow
5.726074 0.125000 m /period glyphshow
8.586914 0.125000 m /two glyphshow
14.312988 0.125000 m /five glyphshow
20.039062 0.125000 m /six glyphshow
grestore
gsave
489.469890 486.198794 translate
312.418648 rotate
0.000000 0.125000 m /zero glyphshow
5.726074 0.125000 m /period glyphshow
8.586914 0.125000 m /four glyphshow
14.312988 0.125000 m /seven glyphshow
20.039062 0.125000 m /zero glyphshow
grestore
gsave
338.112084 423.786628 translate
0.639284 rotate
0.000000 0.125000 m /zero glyphshow
5.726074 0.125000 m /period glyphshow
8.586914 0.125000 m /six glyphshow
14.312988 0.125000 m /eight glyphshow
20.039062 0.125000 m /three glyphshow
grestore
gsave
338.074143 511.900050 translate
0.013879 rotate
0.000000 0.125000 m /zero glyphshow
5.726074 0.125000 m /period glyphshow
8.586914 0.125000 m /six glyphshow
14.312988 0.125000 m /eight glyphshow
20.039062 0.125000 m /three glyphshow
grestore
gsave
103.5 229.871 m
745.2 229.871 l
745.2 371.329 l
103.5 371.329 l
cl
1.000 setgray
fill
grestore
/p5_0 {
newpath
translate
103.5 284.278 m
103.5 284.278 l
103.5 284.278 l
} bind def
0 setlinecap
gsave
641.7 141.5 103.5 229.9 clipbox
0 0 p5_0
stroke
grestore
/p6_0 {
newpath
translate
103.5 241.263 m
119.954 241.499 l
127.2 240.752 l
136.408 239.623 l
152.862 240.271 l
169.315 238.98 l
185.769 240.544 l
202.223 240.148 l
206.7 240.752 l
206.706 244.379 l
202.223 246.31 l
194.381 244.379 l
185.769 241.602 l
183.154 244.379 l
177.05 248.006 l
180.379 251.633 l
185.769 253.512 l
202.223 254.573 l
218.677 252.843 l
235.131 253.45 l
251.585 252.586 l
257.678 251.633 l
268.038 249.428 l
274.014 251.633 l
268.038 254.157 l
264.596 255.261 l
268.038 255.36 l
284.492 255.396 l
300.946 255.529 l
317.4 255.996 l
333.854 255.368 l
350.308 255.606 l
365.839 255.261 l
366.762 254.672 l
367.689 255.261 l
383.215 255.693 l
399.669 255.861 l
416.123 255.284 l
432.577 256.473 l
449.031 256.324 l
465.485 256.567 l
481.938 255.919 l
498.392 256.422 l
514.846 257.771 l
522.346 257.041 l
} bind def
/p6_1 {
newpath
translate
573.022 259.383 m
580.662 262.132 l
597.115 260.147 l
599.299 258.888 l
613.569 256.941 l
630.023 258.007 l
637.915 258.888 l
646.477 261.58 l
656.261 258.888 l
662.931 258.09 l
679.385 258.431 l
686.182 258.888 l
679.385 260.612 l
670.477 262.515 l
663.187 266.142 l
674.379 269.769 l
679.385 272.3 l
685.089 273.396 l
682.409 277.024 l
679.385 277.35 l
662.931 277.613 l
646.477 277.776 l
630.023 278.34 l
615.926 277.024 l
613.569 276.391 l
597.115 276.125 l
594.082 277.024 l
580.662 279.61 l
564.208 279.6 l
547.754 278.073 l
531.3 279.892 l
514.846 278.511 l
498.392 280.084 l
483.196 280.651 l
481.938 280.785 l
480.338 280.651 l
465.485 280.095 l
449.031 279.555 l
432.577 279.244 l
416.123 279.613 l
399.669 279.574 l
383.215 278.346 l
366.762 277.753 l
350.308 279.483 l
333.854 279.459 l
317.4 279.528 l
300.946 277.903 l
284.492 277.868 l
278.683 277.024 l
279.375 273.396 l
280.466 269.769 l
268.038 267.746 l
261.235 266.142 l
251.585 265.719 l
237.839 266.142 l
251.585 269.513 l
252.88 269.769 l
260.047 273.396 l
251.585 275.319 l
239.436 273.396 l
235.131 272.522 l
227.292 269.769 l
232.38 266.142 l
218.677 265.47 l
202.223 264.877 l
185.769 265.212 l
169.315 264.384 l
152.862 265.589 l
136.408 264.764 l
119.954 263.46 l
103.5 263.064 l
} bind def
/p6_2 {
newpath
translate
103.5 321.402 m
119.954 322.93 l
136.408 322.496 l
141.313 322.738 l
} bind def
/p6_3 {
newpath
translate
137.343 330.215 m
136.408 330.129 l
124.549 327.804 l
119.954 325.407 l
103.5 327.476 l
} bind def
/p6_4 {
newpath
translate
103.5 328.404 m
118.867 331.431 l
119.954 331.622 l
135.198 335.058 l
136.408 335.217 l
152.862 337.89 l
158.383 338.685 l
152.862 339.261 l
150.152 342.312 l
152.862 342.804 l
166.268 342.312 l
169.315 340.94 l
170.52 338.685 l
174.204 335.058 l
185.769 332.273 l
202.223 332.689 l
210.872 335.058 l
218.677 336.839 l
225.51 338.685 l
218.677 340.961 l
204.801 338.685 l
202.223 338.148 l
200.798 338.685 l
185.769 341.945 l
174.237 342.312 l
185.769 342.742 l
202.223 343.023 l
218.677 345.032 l
235.131 343.697 l
241.717 342.312 l
251.585 339.537 l
261.424 342.312 l
268.038 343.801 l
280.935 345.939 l
284.492 347.901 l
300.946 346.031 l
301.198 345.939 l
317.4 343.019 l
333.854 343.287 l
350.308 342.889 l
365.942 345.939 l
366.762 346.699 l
374.448 345.939 l
383.215 344.954 l
386.507 344.429 l
} bind def
/p6_5 {
newpath
translate
386.044 349.407 m
384.045 349.567 l
399.669 352.083 l
416.123 351.072 l
424.405 349.567 l
430.412 345.939 l
432.577 345.592 l
438.51 345.939 l
441.316 349.567 l
444.478 353.194 l
449.031 354.979 l
465.485 355.726 l
473.904 356.821 l
481.938 358.116 l
498.392 359.207 l
511.734 356.821 l
514.846 355.085 l
519.757 356.821 l
531.3 357.888 l
542.688 356.821 l
531.3 354.654 l
521.552 353.194 l
514.846 352.004 l
504.032 349.567 l
510.857 345.939 l
514.846 344.999 l
528.805 345.939 l
531.3 346.759 l
533.266 345.939 l
547.754 342.387 l
564.208 344.403 l
573.141 345.939 l
571.155 349.567 l
564.208 350.815 l
556.634 349.567 l
547.754 347.549 l
535.751 349.567 l
547.754 350.907 l
556.179 353.194 l
564.208 356.819 l
564.215 356.821 l
574.246 360.448 l
564.208 362.148 l
558.328 360.448 l
547.754 357.937 l
542.908 360.448 l
531.3 364.03 l
514.846 361.504 l
498.813 364.075 l
498.392 364.243 l
481.938 367.306 l
468.709 364.075 l
465.485 363.375 l
461.934 364.075 l
449.031 366.019 l
432.577 365.21 l
424.121 364.075 l
416.123 363.36 l
399.669 361.079 l
394.17 364.075 l
399.669 367.378 l
416.123 365.404 l
423.145 367.702 l
416.123 370.617 l
412.447 371.329 l
} bind def
/p6_6 {
newpath
translate
103.5 365.972 m
117.14 364.075 l
119.954 362.61 l
127.876 364.075 l
136.408 364.658 l
143.86 364.691 l
} bind def
/p6_7 {
newpath
translate
194.745 367.041 m
202.223 367.465 l
218.677 365.091 l
231.88 367.702 l
232.196 371.329 l
} bind def
/p6_8 {
newpath
translate
103.5 370.824 m
106.975 371.329 l
} bind def
/p6_9 {
newpath
translate
114.496 306.041 m
119.954 307.304 l
127.966 306.041 l
119.954 304.868 l
114.496 306.041 l
} bind def
/p6_a {
newpath
translate
119.414 338.685 m
119.954 338.49 l
120.477 338.685 l
119.954 339.767 l
119.414 338.685 l
} bind def
/p6_b {
newpath
translate
113.355 353.194 m
119.954 351.158 l
125.799 353.194 l
119.954 355.881 l
113.355 353.194 l
} bind def
/p6_c {
newpath
translate
130.119 248.006 m
136.408 246.23 l
141.875 248.006 l
136.408 250.528 l
130.119 248.006 l
} bind def
/p6_d {
newpath
translate
135.555 255.261 m
136.408 254.301 l
146.266 251.633 l
152.862 251.172 l
155.064 251.633 l
169.315 255.004 l
171.679 255.261 l
169.315 255.303 l
152.862 255.604 l
136.408 255.292 l
135.555 255.261 l
} bind def
/p6_e {
newpath
translate
129.994 356.821 m
136.408 356.423 l
139.121 356.821 l
136.408 358.792 l
129.994 356.821 l
} bind def
/p6_f {
newpath
translate
147.363 244.379 m
152.862 242.808 l
154.658 244.379 l
152.862 245.128 l
147.363 244.379 l
} bind def
/p6_10 {
newpath
translate
144.138 360.448 m
152.862 359.876 l
156.052 360.448 l
152.862 362.411 l
144.138 360.448 l
} bind def
/p6_11 {
newpath
translate
226.469 322.429 m
218.677 322.805 l
210.801 324.176 l
202.223 325.951 l
194.778 324.176 l
185.769 322.989 l
179.025 324.176 l
169.315 327.637 l
164.381 327.804 l
169.315 328.041 l
185.769 330.358 l
202.223 329.748 l
218.677 330.916 l
225.914 331.431 l
227.23 335.058 l
235.131 336.463 l
244.07 335.148 l
} bind def
/p6_12 {
newpath
translate
162.406 350.817 m
160.031 349.567 l
169.315 346.27 l
185.769 348.074 l
202.223 347.774 l
210.764 349.567 l
210.298 349.663 l
} bind def
/p6_13 {
newpath
translate
166.637 371.329 m
169.315 370.858 l
172.651 371.329 l
} bind def
/p6_14 {
newpath
translate
182.321 277.024 m
185.769 277.784 l
190.137 277.024 l
185.769 275.032 l
182.321 277.024 l
} bind def
/p6_15 {
newpath
translate
200.988 269.769 m
202.223 269.975 l
203.078 269.769 l
202.223 269.649 l
200.988 269.769 l
} bind def
/p6_16 {
newpath
translate
226.311 248.006 m
235.131 249.549 l
240.744 248.006 l
251.585 245.889 l
262.898 244.379 l
251.585 242.139 l
236.141 244.379 l
235.131 244.679 l
226.311 248.006 l
} bind def
/p6_17 {
newpath
translate
250.64 345.939 m
251.585 345.715 l
252.635 345.939 l
251.585 347 l
250.64 345.939 l
} bind def
/p6_18 {
newpath
translate
248.345 356.821 m
251.585 355.962 l
257.138 356.821 l
251.585 358.039 l
248.345 356.821 l
} bind def
/p6_19 {
newpath
translate
238.678 371.329 m
240.588 367.702 l
236.278 364.075 l
251.585 362.809 l
268.038 363.525 l
272.777 364.075 l
284.492 365.957 l
291.97 366.006 l
} bind def
/p6_1a {
newpath
translate
342.861 365.671 m
350.308 365.761 l
360.008 364.075 l
366.762 362.662 l
369.898 364.075 l
383.215 366.632 l
397.935 367.702 l
393.01 371.329 l
} bind def
/p6_1b {
newpath
translate
277.38 248.006 m
284.492 248.8 l
289.568 248.006 l
284.492 246.041 l
277.38 248.006 l
} bind def
/p6_1c {
newpath
translate
276.307 324.176 m
284.492 325.969 l
291.43 324.176 l
284.492 322.578 l
276.307 324.176 l
} bind def
/p6_1d {
newpath
translate
272.019 331.431 m
284.492 333.533 l
298.57 335.058 l
300.946 335.693 l
302.637 335.058 l
312.436 331.431 l
300.946 329.037 l
284.492 329.145 l
272.019 331.431 l
} bind def
/p6_1e {
newpath
translate
282.332 353.194 m
284.492 351.837 l
288.284 353.194 l
284.492 353.39 l
282.332 353.194 l
} bind def
/p6_1f {
newpath
translate
284.687 266.142 m
300.946 265.099 l
317.4 266.12 l
317.57 266.142 l
317.4 266.26 l
300.946 267.468 l
284.687 266.142 l
} bind def
/p6_20 {
newpath
translate
299.997 356.821 m
300.946 355.939 l
309.314 356.821 l
317.4 358.942 l
333.854 360.199 l
336.518 360.448 l
333.854 360.938 l
317.4 362.04 l
300.946 362.063 l
291.486 360.448 l
299.997 356.821 l
} bind def
/p6_21 {
newpath
translate
295.489 371.329 m
300.946 370.206 l
305.58 371.329 l
} bind def
/p6_22 {
newpath
translate
315.536 251.633 m
317.4 251.68 l
317.808 251.633 l
317.4 251.549 l
315.536 251.633 l
} bind def
/p6_23 {
newpath
translate
317.152 273.396 m
317.4 273.236 l
317.668 273.396 l
317.4 273.436 l
317.152 273.396 l
} bind def
/p6_24 {
newpath
translate
312.37 338.685 m
317.4 340.218 l
320.582 338.685 l
317.4 337.989 l
312.37 338.685 l
} bind def
/p6_25 {
newpath
translate
331.366 335.058 m
333.854 335.611 l
336.067 335.058 l
333.854 334.476 l
331.366 335.058 l
} bind def
/p6_26 {
newpath
translate
326.473 349.567 m
333.854 347.914 l
338.971 349.567 l
333.854 350.738 l
326.473 349.567 l
} bind def
/p6_27 {
newpath
translate
348.206 269.769 m
350.308 268.997 l
351.868 269.769 l
350.308 270.097 l
348.206 269.769 l
} bind def
/p6_28 {
newpath
translate
344.701 353.194 m
350.308 352.002 l
362.669 353.194 l
350.308 354.903 l
344.701 353.194 l
} bind def
/p6_29 {
newpath
translate
366.05 331.431 m
366.762 331.612 l
367.325 331.431 l
366.762 331.249 l
366.05 331.431 l
} bind def
/p6_2a {
newpath
translate
356.616 338.685 m
366.762 341.139 l
371.743 338.685 l
366.762 337.683 l
356.616 338.685 l
} bind def
/p6_2b {
newpath
translate
391.826 324.176 m
397.878 327.804 l
399.669 327.984 l
416.123 329.311 l
423.612 327.804 l
416.123 326.887 l
404.898 324.176 l
399.669 322.651 l
391.826 324.176 l
} bind def
/p6_2c {
newpath
translate
391.234 335.058 m
399.669 336.563 l
406.734 335.058 l
399.669 333.432 l
391.234 335.058 l
} bind def
/p6_2d {
newpath
translate
421.88 356.821 m
432.577 355.347 l
443.014 356.821 l
432.577 359.15 l
421.88 356.821 l
} bind def
/p6_2e {
newpath
translate
437.205 338.685 m
449.031 340.757 l
455.546 338.685 l
449.031 337.039 l
437.205 338.685 l
} bind def
/p6_2f {
newpath
translate
450.337 345.939 m
454.007 349.567 l
465.485 351.577 l
474.274 353.194 l
481.938 355.656 l
494.549 353.194 l
493.854 349.567 l
485.842 345.939 l
481.938 342.916 l
465.485 342.764 l
450.337 345.939 l
} bind def
/p6_30 {
newpath
translate
511.255 331.431 m
514.846 334.018 l
519.173 331.431 l
514.846 330.75 l
511.255 331.431 l
} bind def
/p6_31 {
newpath
translate
528.744 284.278 m
531.3 284.906 l
538.194 284.278 l
531.3 282.81 l
528.744 284.278 l
} bind def
/p6_32 {
newpath
translate
546.623 287.905 m
547.754 288.356 l
548.937 287.905 l
547.754 287.17 l
546.623 287.905 l
} bind def
/p6_33 {
newpath
translate
579.218 269.769 m
580.662 269.432 l
581.279 269.769 l
580.662 270.303 l
579.218 269.769 l
} bind def
/p6_34 {
newpath
translate
579.771 313.295 m
580.662 313.417 l
581.176 313.295 l
580.662 313.132 l
579.771 313.295 l
} bind def
/p6_35 {
newpath
translate
611.041 342.312 m
613.569 343.264 l
616.609 342.312 l
613.569 341.168 l
611.041 342.312 l
} bind def
/p6_36 {
newpath
translate
608.176 364.075 m
613.569 365.243 l
617.858 364.075 l
613.569 362.647 l
608.176 364.075 l
} bind def
/p6_37 {
newpath
translate
624.61 360.448 m
630.023 361.211 l
646.477 361.407 l
660.467 364.075 l
662.931 364.622 l
667.343 364.075 l
669.527 360.448 l
662.931 358.25 l
650.567 356.821 l
646.477 355.573 l
645.481 356.821 l
630.023 359.334 l
624.61 360.448 l
} bind def
/p6_38 {
newpath
translate
644.145 345.939 m
646.477 346.345 l
662.931 346.269 l
672.52 349.567 l
679.035 353.194 l
679.385 353.298 l
680.026 353.194 l
688.844 349.567 l
684.465 345.939 l
679.385 345.235 l
662.931 345.613 l
646.477 345.225 l
644.145 345.939 l
} bind def
/p6_39 {
newpath
translate
656.757 287.905 m
662.931 289.184 l
671.149 287.905 l
662.931 285.019 l
656.757 287.905 l
} bind def
/p6_3a {
newpath
translate
666.679 298.786 m
679.385 299.862 l
682.799 298.786 l
679.385 298.132 l
666.679 298.786 l
} bind def
/p6_3b {
newpath
translate
703.524 266.142 m
712.292 266.748 l
728.746 267.777 l
738.156 266.142 l
728.746 264.319 l
712.292 265.551 l
703.524 266.142 l
} bind def
/p6_3c {
newpath
translate
726.799 258.888 m
728.746 259.094 l
729.405 258.888 l
728.746 258.779 l
726.799 258.888 l
} bind def
/p6_3d {
newpath
translate
745.2 270.717 m
728.746 272.266 l
712.98 273.396 l
728.746 276.07 l
745.2 275.744 l
} bind def
/p6_3e {
newpath
translate
745.2 287.389 m
742.456 287.905 l
745.2 288.535 l
} bind def
/p6_3f {
newpath
translate
745.2 345.405 m
741.706 345.939 l
745.2 346.6 l
} bind def
gsave
641.7 141.5 103.5 229.9 clipbox
0 0 p6_0
stroke
grestore
gsave
641.7 141.5 103.5 229.9 clipbox
0 0 p6_1
stroke
grestore
gsave
641.7 141.5 103.5 229.9 clipbox
0 0 p6_2
stroke
grestore
gsave
641.7 141.5 103.5 229.9 clipbox
0 0 p6_3
stroke
grestore
gsave
641.7 141.5 103.5 229.9 clipbox
0 0 p6_4
stroke
grestore
gsave
641.7 141.5 103.5 229.9 clipbox
0 0 p6_5
stroke
grestore
gsave
641.7 141.5 103.5 229.9 clipbox
0 0 p6_6
stroke
grestore
gsave
641.7 141.5 103.5 229.9 clipbox
0 0 p6_7
stroke
grestore
gsave
641.7 141.5 103.5 229.9 clipbox
0 0 p6_8
stroke
grestore
gsave
641.7 141.5 103.5 229.9 clipbox
0 0 p6_9
stroke
grestore
gsave
641.7 141.5 103.5 229.9 clipbox
0 0 p6_a
stroke
grestore
gsave
641.7 141.5 103.5 229.9 clipbox
0 0 p6_b
stroke
grestore
gsave
641.7 141.5 103.5 229.9 clipbox
0 0 p6_c
stroke
grestore
gsave
641.7 141.5 103.5 229.9 clipbox
0 0 p6_d
stroke
grestore
gsave
641.7 141.5 103.5 229.9 clipbox
0 0 p6_e
stroke
grestore
gsave
641.7 141.5 103.5 229.9 clipbox
0 0 p6_f
stroke
grestore
gsave
641.7 141.5 103.5 229.9 clipbox
0 0 p6_10
stroke
grestore
gsave
641.7 141.5 103.5 229.9 clipbox
0 0 p6_11
stroke
grestore
gsave
641.7 141.5 103.5 229.9 clipbox
0 0 p6_12
stroke
grestore
gsave
641.7 141.5 103.5 229.9 clipbox
0 0 p6_13
stroke
grestore
gsave
641.7 141.5 103.5 229.9 clipbox
0 0 p6_14
stroke
grestore
gsave
641.7 141.5 103.5 229.9 clipbox
0 0 p6_15
stroke
grestore
gsave
641.7 141.5 103.5 229.9 clipbox
0 0 p6_16
stroke
grestore
gsave
641.7 141.5 103.5 229.9 clipbox
0 0 p6_17
stroke
grestore
gsave
641.7 141.5 103.5 229.9 clipbox
0 0 p6_18
stroke
grestore
gsave
641.7 141.5 103.5 229.9 clipbox
0 0 p6_19
stroke
grestore
gsave
641.7 141.5 103.5 229.9 clipbox
0 0 p6_1a
stroke
grestore
gsave
641.7 141.5 103.5 229.9 clipbox
0 0 p6_1b
stroke
grestore
gsave
641.7 141.5 103.5 229.9 clipbox
0 0 p6_1c
stroke
grestore
gsave
641.7 141.5 103.5 229.9 clipbox
0 0 p6_1d
stroke
grestore
gsave
641.7 141.5 103.5 229.9 clipbox
0 0 p6_1e
stroke
grestore
gsave
641.7 141.5 103.5 229.9 clipbox
0 0 p6_1f
stroke
grestore
gsave
641.7 141.5 103.5 229.9 clipbox
0 0 p6_20
stroke
grestore
gsave
641.7 141.5 103.5 229.9 clipbox
0 0 p6_21
stroke
grestore
gsave
641.7 141.5 103.5 229.9 clipbox
0 0 p6_22
stroke
grestore
gsave
641.7 141.5 103.5 229.9 clipbox
0 0 p6_23
stroke
grestore
gsave
641.7 141.5 103.5 229.9 clipbox
0 0 p6_24
stroke
grestore
gsave
641.7 141.5 103.5 229.9 clipbox
0 0 p6_25
stroke
grestore
gsave
641.7 141.5 103.5 229.9 clipbox
0 0 p6_26
stroke
grestore
gsave
641.7 141.5 103.5 229.9 clipbox
0 0 p6_27
stroke
grestore
gsave
641.7 141.5 103.5 229.9 clipbox
0 0 p6_28
stroke
grestore
gsave
641.7 141.5 103.5 229.9 clipbox
0 0 p6_29
stroke
grestore
gsave
641.7 141.5 103.5 229.9 clipbox
0 0 p6_2a
stroke
grestore
gsave
641.7 141.5 103.5 229.9 clipbox
0 0 p6_2b
stroke
grestore
gsave
641.7 141.5 103.5 229.9 clipbox
0 0 p6_2c
stroke
grestore
gsave
641.7 141.5 103.5 229.9 clipbox
0 0 p6_2d
stroke
grestore
gsave
641.7 141.5 103.5 229.9 clipbox
0 0 p6_2e
stroke
grestore
gsave
641.7 141.5 103.5 229.9 clipbox
0 0 p6_2f
stroke
grestore
gsave
641.7 141.5 103.5 229.9 clipbox
0 0 p6_30
stroke
grestore
gsave
641.7 141.5 103.5 229.9 clipbox
0 0 p6_31
stroke
grestore
gsave
641.7 141.5 103.5 229.9 clipbox
0 0 p6_32
stroke
grestore
gsave
641.7 141.5 103.5 229.9 clipbox
0 0 p6_33
stroke
grestore
gsave
641.7 141.5 103.5 229.9 clipbox
0 0 p6_34
stroke
grestore
gsave
641.7 141.5 103.5 229.9 clipbox
0 0 p6_35
stroke
grestore
gsave
641.7 141.5 103.5 229.9 clipbox
0 0 p6_36
stroke
grestore
gsave
641.7 141.5 103.5 229.9 clipbox
0 0 p6_37
stroke
grestore
gsave
641.7 141.5 103.5 229.9 clipbox
0 0 p6_38
stroke
grestore
gsave
641.7 141.5 103.5 229.9 clipbox
0 0 p6_39
stroke
grestore
gsave
641.7 141.5 103.5 229.9 clipbox
0 0 p6_3a
stroke
grestore
gsave
641.7 141.5 103.5 229.9 clipbox
0 0 p6_3b
stroke
grestore
gsave
641.7 141.5 103.5 229.9 clipbox
0 0 p6_3c
stroke
grestore
gsave
641.7 141.5 103.5 229.9 clipbox
0 0 p6_3d
stroke
grestore
gsave
641.7 141.5 103.5 229.9 clipbox
0 0 p6_3e
stroke
grestore
gsave
641.7 141.5 103.5 229.9 clipbox
0 0 p6_3f
stroke
grestore
/p7_0 {
newpath
translate
103.5 337.898 m
104.474 338.685 l
103.5 339.033 l
} bind def
/p7_1 {
newpath
translate
103.5 347.026 m
113.897 349.567 l
103.5 352.855 l
} bind def
/p7_2 {
newpath
translate
103.5 356.381 m
103.764 356.821 l
103.5 356.915 l
} bind def
/p7_3 {
newpath
translate
119.075 258.888 m
119.954 259 l
136.408 261.642 l
137.058 262.515 l
152.862 264.087 l
163.395 262.515 l
152.862 260.01 l
140.106 258.888 l
136.408 258.457 l
119.954 258.779 l
119.075 258.888 l
} bind def
/p7_4 {
newpath
translate
134.244 327.804 m
136.408 328.228 l
139.28 327.804 l
136.408 326.835 l
134.244 327.804 l
} bind def
/p7_5 {
newpath
translate
134.966 338.685 m
136.408 341.144 l
137.947 338.685 l
136.408 338.371 l
134.966 338.685 l
} bind def
/p7_6 {
newpath
translate
123.453 345.939 m
136.408 349.104 l
152.862 346.708 l
155.654 345.939 l
152.862 345.423 l
136.408 342.396 l
123.453 345.939 l
} bind def
/p7_7 {
newpath
translate
135.424 353.194 m
136.408 353.493 l
152.862 355.278 l
157.039 353.194 l
152.862 351.869 l
136.408 352.254 l
135.424 353.194 l
} bind def
/p7_8 {
newpath
translate
289.778 258.455 m
284.492 258.544 l
268.038 258.723 l
251.585 257.365 l
235.131 257.009 l
219.742 258.888 l
218.677 261.943 l
215.618 258.888 l
202.223 258.058 l
185.769 256.635 l
171.425 258.888 l
185.769 262.223 l
192.22 262.515 l
202.223 262.925 l
218.677 262.551 l
221.091 262.515 l
235.131 262.261 l
236.531 262.515 l
251.585 263.917 l
268.038 264.176 l
284.492 263.904 l
290.297 263.057 l
} bind def
/p7_9 {
newpath
translate
226.743 353.408 m
218.677 354.391 l
204.35 356.821 l
218.677 360.132 l
228.283 358.763 l
} bind def
/p7_a {
newpath
translate
264.276 349.567 m
268.038 351.453 l
272.002 349.567 l
268.038 347.417 l
264.276 349.567 l
} bind def
/p7_b {
newpath
translate
272.54 356.821 m
284.492 359.042 l
292.323 356.821 l
284.492 355.088 l
272.54 356.821 l
} bind def
/p7_c {
newpath
translate
318.245 258.888 m
333.854 262.372 l
336.716 262.515 l
350.308 262.999 l
353.287 262.515 l
350.308 261.307 l
345.692 258.888 l
333.854 257.521 l
318.245 258.888 l
} bind def
/p7_d {
newpath
translate
356.284 258.888 m
366.762 260.474 l
375.14 258.888 l
366.762 257.786 l
356.284 258.888 l
} bind def
/p7_e {
newpath
translate
363.652 356.821 m
366.762 357.416 l
368.997 356.821 l
366.762 356.377 l
363.652 356.821 l
} bind def
/p7_f {
newpath
translate
382.405 364.075 m
383.215 364.231 l
383.882 364.075 l
383.215 363.416 l
382.405 364.075 l
} bind def
/p7_10 {
newpath
translate
391.513 269.769 m
399.669 270.981 l
405.572 269.769 l
399.669 268.382 l
391.513 269.769 l
} bind def
/p7_11 {
newpath
translate
463.495 345.939 m
465.485 346.805 l
467.909 345.939 l
465.485 345.522 l
463.495 345.939 l
} bind def
gsave
641.7 141.5 103.5 229.9 clipbox
0 0 p7_0
stroke
grestore
gsave
641.7 141.5 103.5 229.9 clipbox
0 0 p7_1
stroke
grestore
gsave
641.7 141.5 103.5 229.9 clipbox
0 0 p7_2
stroke
grestore
gsave
641.7 141.5 103.5 229.9 clipbox
0 0 p7_3
stroke
grestore
gsave
641.7 141.5 103.5 229.9 clipbox
0 0 p7_4
stroke
grestore
gsave
641.7 141.5 103.5 229.9 clipbox
0 0 p7_5
stroke
grestore
gsave
641.7 141.5 103.5 229.9 clipbox
0 0 p7_6
stroke
grestore
gsave
641.7 141.5 103.5 229.9 clipbox
0 0 p7_7
stroke
grestore
gsave
641.7 141.5 103.5 229.9 clipbox
0 0 p7_8
stroke
grestore
gsave
641.7 141.5 103.5 229.9 clipbox
0 0 p7_9
stroke
grestore
gsave
641.7 141.5 103.5 229.9 clipbox
0 0 p7_a
stroke
grestore
gsave
641.7 141.5 103.5 229.9 clipbox
0 0 p7_b
stroke
grestore
gsave
641.7 141.5 103.5 229.9 clipbox
0 0 p7_c
stroke
grestore
gsave
641.7 141.5 103.5 229.9 clipbox
0 0 p7_d
stroke
grestore
gsave
641.7 141.5 103.5 229.9 clipbox
0 0 p7_e
stroke
grestore
gsave
641.7 141.5 103.5 229.9 clipbox
0 0 p7_f
stroke
grestore
gsave
641.7 141.5 103.5 229.9 clipbox
0 0 p7_10
stroke
grestore
gsave
641.7 141.5 103.5 229.9 clipbox
0 0 p7_11
stroke
grestore
/p8_0 {
newpath
translate
129.93 345.939 m
136.408 347.522 l
145.535 345.939 l
136.408 344.168 l
129.93 345.939 l
} bind def
/p8_1 {
newpath
translate
152.146 262.515 m
152.862 262.586 l
153.338 262.515 l
152.862 262.402 l
152.146 262.515 l
} bind def
/p8_2 {
newpath
translate
180.686 258.888 m
185.769 260.07 l
192.951 258.888 l
185.769 258.09 l
180.686 258.888 l
} bind def
/p8_3 {
newpath
translate
211.622 356.821 m
218.677 358.451 l
228.118 356.821 l
218.677 355.624 l
211.622 356.821 l
} bind def
/p8_4 {
newpath
translate
284.252 356.821 m
284.492 356.865 l
284.65 356.821 l
284.492 356.786 l
284.252 356.821 l
} bind def
gsave
641.7 141.5 103.5 229.9 clipbox
0 0 p8_0
stroke
grestore
gsave
641.7 141.5 103.5 229.9 clipbox
0 0 p8_1
stroke
grestore
gsave
641.7 141.5 103.5 229.9 clipbox
0 0 p8_2
stroke
grestore
gsave
641.7 141.5 103.5 229.9 clipbox
0 0 p8_3
stroke
grestore
gsave
641.7 141.5 103.5 229.9 clipbox
0 0 p8_4
stroke
grestore
0.500 setlinewidth
gsave
/o {
gsave
newpath
translate
0.5 setlinewidth
1 setlinejoin
0 setlinecap
0 0 m
0 4 l
gsave
0.000 setgray
fill
grestore
stroke
grestore
} bind def
103.5 229.871 o
grestore
gsave
/o {
gsave
newpath
translate
0.5 setlinewidth
1 setlinejoin
0 setlinecap
0 0 m
0 -4 l
gsave
0.000 setgray
fill
grestore
stroke
grestore
} bind def
103.5 371.329 o
grestore
/DejaVuSans findfont
16.000 scalefont
setfont
gsave
91.828125 213.761213 translate
0.000000 rotate
0.000000 0.234375 m /zero glyphshow
10.179688 0.234375 m /period glyphshow
15.265625 0.234375 m /zero glyphshow
grestore
gsave
/o {
gsave
newpath
translate
0.5 setlinewidth
1 setlinejoin
0 setlinecap
0 0 m
0 4 l
gsave
0.000 setgray
fill
grestore
stroke
grestore
} bind def
231.84 229.871 o
grestore
gsave
/o {
gsave
newpath
translate
0.5 setlinewidth
1 setlinejoin
0 setlinecap
0 0 m
0 -4 l
gsave
0.000 setgray
fill
grestore
stroke
grestore
} bind def
231.84 371.329 o
grestore
gsave
220.379063 213.761213 translate
0.000000 rotate
0.000000 0.234375 m /zero glyphshow
10.179688 0.234375 m /period glyphshow
15.265625 0.234375 m /one glyphshow
grestore
gsave
/o {
gsave
newpath
translate
0.5 setlinewidth
1 setlinejoin
0 setlinecap
0 0 m
0 4 l
gsave
0.000 setgray
fill
grestore
stroke
grestore
} bind def
360.18 229.871 o
grestore
gsave
/o {
gsave
newpath
translate
0.5 setlinewidth
1 setlinejoin
0 setlinecap
0 0 m
0 -4 l
gsave
0.000 setgray
fill
grestore
stroke
grestore
} bind def
360.18 371.329 o
grestore
gsave
348.781563 213.761213 translate
0.000000 rotate
0.000000 0.234375 m /zero glyphshow
10.179688 0.234375 m /period glyphshow
15.265625 0.234375 m /two glyphshow
grestore
gsave
/o {
gsave
newpath
translate
0.5 setlinewidth
1 setlinejoin
0 setlinecap
0 0 m
0 4 l
gsave
0.000 setgray
fill
grestore
stroke
grestore
} bind def
488.52 229.871 o
grestore
gsave
/o {
gsave
newpath
translate
0.5 setlinewidth
1 setlinejoin
0 setlinecap
0 0 m
0 -4 l
gsave
0.000 setgray
fill
grestore
stroke
grestore
} bind def
488.52 371.329 o
grestore
gsave
476.957500 213.761213 translate
0.000000 rotate
0.000000 0.234375 m /zero glyphshow
10.179688 0.234375 m /period glyphshow
15.265625 0.234375 m /three glyphshow
grestore
gsave
/o {
gsave
newpath
translate
0.5 setlinewidth
1 setlinejoin
0 setlinecap
0 0 m
0 4 l
gsave
0.000 setgray
fill
grestore
stroke
grestore
} bind def
616.86 229.871 o
grestore
gsave
/o {
gsave
newpath
translate
0.5 setlinewidth
1 setlinejoin
0 setlinecap
0 0 m
0 -4 l
gsave
0.000 setgray
fill
grestore
stroke
grestore
} bind def
616.86 371.329 o
grestore
gsave
605.110000 213.761213 translate
0.000000 rotate
0.000000 0.234375 m /zero glyphshow
10.179688 0.234375 m /period glyphshow
15.265625 0.234375 m /four glyphshow
grestore
gsave
/o {
gsave
newpath
translate
0.5 setlinewidth
1 setlinejoin
0 setlinecap
0 0 m
0 4 l
gsave
0.000 setgray
fill
grestore
stroke
grestore
} bind def
745.2 229.871 o
grestore
gsave
/o {
gsave
newpath
translate
0.5 setlinewidth
1 setlinejoin
0 setlinecap
0 0 m
0 -4 l
gsave
0.000 setgray
fill
grestore
stroke
grestore
} bind def
745.2 371.329 o
grestore
gsave
733.700000 213.761213 translate
0.000000 rotate
0.000000 0.234375 m /zero glyphshow
10.179688 0.234375 m /period glyphshow
15.265625 0.234375 m /five glyphshow
grestore
gsave
/o {
gsave
newpath
translate
0.5 setlinewidth
1 setlinejoin
0 setlinecap
0 0 m
4 0 l
gsave
0.000 setgray
fill
grestore
stroke
grestore
} bind def
103.5 229.871 o
grestore
gsave
/o {
gsave
newpath
translate
0.5 setlinewidth
1 setlinejoin
0 setlinecap
0 0 m
-4 0 l
gsave
0.000 setgray
fill
grestore
stroke
grestore
} bind def
745.2 229.871 o
grestore
gsave
76.578125 223.815901 translate
0.000000 rotate
0.000000 0.234375 m /zero glyphshow
10.179688 0.234375 m /period glyphshow
15.265625 0.234375 m /one glyphshow
grestore
gsave
/o {
gsave
newpath
translate
0.5 setlinewidth
1 setlinejoin
0 setlinecap
0 0 m
4 0 l
gsave
0.000 setgray
fill
grestore
stroke
grestore
} bind def
103.5 247.553 o
grestore
gsave
/o {
gsave
newpath
translate
0.5 setlinewidth
1 setlinejoin
0 setlinecap
0 0 m
-4 0 l
gsave
0.000 setgray
fill
grestore
stroke
grestore
} bind def
745.2 247.553 o
grestore
gsave
76.703125 241.498254 translate
0.000000 rotate
0.000000 0.234375 m /zero glyphshow
10.179688 0.234375 m /period glyphshow
15.265625 0.234375 m /two glyphshow
grestore
gsave
/o {
gsave
newpath
translate
0.5 setlinewidth
1 setlinejoin
0 setlinecap
0 0 m
4 0 l
gsave
0.000 setgray
fill
grestore
stroke
grestore
} bind def
103.5 265.235 o
grestore
gsave
/o {
gsave
newpath
translate
0.5 setlinewidth
1 setlinejoin
0 setlinecap
0 0 m
-4 0 l
gsave
0.000 setgray
fill
grestore
stroke
grestore
} bind def
745.2 265.235 o
grestore
gsave
76.375000 259.180607 translate
0.000000 rotate
0.000000 0.234375 m /zero glyphshow
10.179688 0.234375 m /period glyphshow
15.265625 0.234375 m /three glyphshow
grestore
gsave
/o {
gsave
newpath
translate
0.5 setlinewidth
1 setlinejoin
0 setlinecap
0 0 m
4 0 l
gsave
0.000 setgray
fill
grestore
stroke
grestore
} bind def
103.5 282.918 o
grestore
gsave
/o {
gsave
newpath
translate
0.5 setlinewidth
1 setlinejoin
0 setlinecap
0 0 m
-4 0 l
gsave
0.000 setgray
fill
grestore
stroke
grestore
} bind def
745.2 282.918 o
grestore
gsave
76.000000 276.862960 translate
0.000000 rotate
0.000000 0.234375 m /zero glyphshow
10.179688 0.234375 m /period glyphshow
15.265625 0.234375 m /four glyphshow
grestore
gsave
/o {
gsave
newpath
translate
0.5 setlinewidth
1 setlinejoin
0 setlinecap
0 0 m
4 0 l
gsave
0.000 setgray
fill
grestore
stroke
grestore
} bind def
103.5 300.6 o
grestore
gsave
/o {
gsave
newpath
translate
0.5 setlinewidth
1 setlinejoin
0 setlinecap
0 0 m
-4 0 l
gsave
0.000 setgray
fill
grestore
stroke
grestore
} bind def
745.2 300.6 o
grestore
gsave
76.500000 294.545312 translate
0.000000 rotate
0.000000 0.234375 m /zero glyphshow
10.179688 0.234375 m /period glyphshow
15.265625 0.234375 m /five glyphshow
grestore
gsave
/o {
gsave
newpath
translate
0.5 setlinewidth
1 setlinejoin
0 setlinecap
0 0 m
4 0 l
gsave
0.000 setgray
fill
grestore
stroke
grestore
} bind def
103.5 318.282 o
grestore
gsave
/o {
gsave
newpath
translate
0.5 setlinewidth
1 setlinejoin
0 setlinecap
0 0 m
-4 0 l
gsave
0.000 setgray
fill
grestore
stroke
grestore
} bind def
745.2 318.282 o
grestore
gsave
76.109375 312.227665 translate
0.000000 rotate
0.000000 0.234375 m /zero glyphshow
10.179688 0.234375 m /period glyphshow
15.265625 0.234375 m /six glyphshow
grestore
gsave
/o {
gsave
newpath
translate
0.5 setlinewidth
1 setlinejoin
0 setlinecap
0 0 m
4 0 l
gsave
0.000 setgray
fill
grestore
stroke
grestore
} bind def
103.5 335.965 o
grestore
gsave
/o {
gsave
newpath
translate
0.5 setlinewidth
1 setlinejoin
0 setlinecap
0 0 m
-4 0 l
gsave
0.000 setgray
fill
grestore
stroke
grestore
} bind def
745.2 335.965 o
grestore
gsave
76.468750 329.910018 translate
0.000000 rotate
0.000000 0.234375 m /zero glyphshow
10.179688 0.234375 m /period glyphshow
15.265625 0.234375 m /seven glyphshow
grestore
gsave
/o {
gsave
newpath
translate
0.5 setlinewidth
1 setlinejoin
0 setlinecap
0 0 m
4 0 l
gsave
0.000 setgray
fill
grestore
stroke
grestore
} bind def
103.5 353.647 o
grestore
gsave
/o {
gsave
newpath
translate
0.5 setlinewidth
1 setlinejoin
0 setlinecap
0 0 m
-4 0 l
gsave
0.000 setgray
fill
grestore
stroke
grestore
} bind def
745.2 353.647 o
grestore
gsave
76.187500 347.592371 translate
0.000000 rotate
0.000000 0.234375 m /zero glyphshow
10.179688 0.234375 m /period glyphshow
15.265625 0.234375 m /eight glyphshow
grestore
gsave
/o {
gsave
newpath
translate
0.5 setlinewidth
1 setlinejoin
0 setlinecap
0 0 m
4 0 l
gsave
0.000 setgray
fill
grestore
stroke
grestore
} bind def
103.5 371.329 o
grestore
gsave
/o {
gsave
newpath
translate
0.5 setlinewidth
1 setlinejoin
0 setlinecap
0 0 m
-4 0 l
gsave
0.000 setgray
fill
grestore
stroke
grestore
} bind def
745.2 371.329 o
grestore
gsave
76.218750 365.274724 translate
0.000000 rotate
0.000000 0.234375 m /zero glyphshow
10.179688 0.234375 m /period glyphshow
15.265625 0.234375 m /nine glyphshow
grestore
gsave
71.000000 291.303125 translate
90.000000 rotate
0.000000 0.234375 m /t glyphshow
6.273438 0.234375 m /o glyphshow
16.062500 0.234375 m /l glyphshow
grestore
1.000 setlinewidth
2 setlinecap
gsave
103.5 371.329 m
745.2 371.329 l
stroke
grestore
gsave
745.2 229.871 m
745.2 371.329 l
stroke
grestore
gsave
103.5 229.871 m
745.2 229.871 l
stroke
grestore
gsave
103.5 229.871 m
103.5 371.329 l
stroke
grestore
/DejaVuSans findfont
9.000 scalefont
setfont
gsave
535.744257 253.056885 translate
2.644027 rotate
0.000000 0.125000 m /zero glyphshow
5.726074 0.125000 m /period glyphshow
8.586914 0.125000 m /zero glyphshow
14.312988 0.125000 m /zero glyphshow
20.039062 0.125000 m /one glyphshow
grestore
gsave
144.397870 338.396836 translate
296.382516 rotate
0.000000 0.125000 m /zero glyphshow
5.726074 0.125000 m /period glyphshow
8.586914 0.125000 m /zero glyphshow
14.312988 0.125000 m /zero glyphshow
20.039062 0.125000 m /one glyphshow
grestore
gsave
406.958895 357.849634 translate
274.028882 rotate
0.000000 0.125000 m /zero glyphshow
5.726074 0.125000 m /period glyphshow
8.586914 0.125000 m /zero glyphshow
14.312988 0.125000 m /zero glyphshow
20.039062 0.125000 m /one glyphshow
grestore
gsave
157.334392 361.492653 translate
3.052893 rotate
0.000000 0.125000 m /zero glyphshow
5.726074 0.125000 m /period glyphshow
8.586914 0.125000 m /zero glyphshow
14.312988 0.125000 m /zero glyphshow
20.039062 0.125000 m /one glyphshow
grestore
gsave
248.032273 312.098692 translate
57.119589 rotate
0.000000 0.125000 m /zero glyphshow
5.726074 0.125000 m /period glyphshow
8.586914 0.125000 m /zero glyphshow
14.312988 0.125000 m /zero glyphshow
20.039062 0.125000 m /one glyphshow
grestore
gsave
174.013928 354.461288 translate
355.128022 rotate
0.000000 0.125000 m /zero glyphshow
5.726074 0.125000 m /period glyphshow
8.586914 0.125000 m /zero glyphshow
14.312988 0.125000 m /zero glyphshow
20.039062 0.125000 m /one glyphshow
grestore
gsave
305.179100 361.616539 translate
359.291072 rotate
0.000000 0.125000 m /zero glyphshow
5.726074 0.125000 m /period glyphshow
8.586914 0.125000 m /zero glyphshow
14.312988 0.125000 m /zero glyphshow
20.039062 0.125000 m /one glyphshow
grestore
gsave
317.490348 246.442877 translate
84.632716 rotate
0.000000 0.125000 m /zero glyphshow
5.726074 0.125000 m /period glyphshow
8.586914 0.125000 m /zero glyphshow
14.312988 0.125000 m /zero glyphshow
20.039062 0.125000 m /one glyphshow
grestore
gsave
251.640860 340.502408 translate
74.630285 rotate
0.000000 0.125000 m /zero glyphshow
5.726074 0.125000 m /period glyphshow
8.586914 0.125000 m /zero glyphshow
14.312988 0.125000 m /zero glyphshow
20.039062 0.125000 m /one glyphshow
grestore
gsave
103.5 60.12 m
745.2 60.12 l
745.2 201.579 l
103.5 201.579 l
cl
1.000 setgray
fill
grestore
/pa_0 {
newpath
translate
136.408 121.782 m
136.408 121.782 l
136.408 121.782 l
136.408 121.782 l
136.408 121.782 l
} bind def
0 setlinecap
gsave
641.7 141.5 103.5 60.12 clipbox
0 0 pa_0
stroke
grestore
/pb_0 {
newpath
translate
103.5 72.2933 m
119.954 72.6996 l
135.561 74.6286 l
123.039 78.2557 l
134.055 81.8829 l
128.956 85.51 l
136.408 85.7384 l
152.862 86.2738 l
169.315 85.8971 l
185.043 85.51 l
185.769 85.3497 l
186.726 85.51 l
202.223 85.7176 l
216.162 85.51 l
218.677 85.0747 l
235.131 85.1126 l
251.585 85.4809 l
251.669 85.51 l
268.038 85.9056 l
284.29 85.8538 l
} bind def
/pb_1 {
newpath
translate
350.498 86.1656 m
366.762 85.5819 l
383.215 86.3838 l
399.669 86.9622 l
416.123 86.1758 l
432.577 87.4053 l
449.031 87.186 l
465.485 87.6123 l
481.938 86.6868 l
498.392 87.117 l
514.846 88.1178 l
531.3 87.4913 l
547.754 88.2092 l
564.208 88.919 l
565.952 89.1372 l
577.824 92.7643 l
580.662 94.3304 l
588.837 92.7643 l
597.115 89.3885 l
597.588 89.1372 l
613.569 87.7236 l
630.023 88.8222 l
632.614 89.1372 l
630.023 90.0706 l
624.041 92.7643 l
630.023 94.0151 l
644.014 96.3915 l
643.363 100.019 l
646.477 100.755 l
662.931 102.672 l
671.294 103.646 l
662.931 105.214 l
646.477 106.774 l
637.956 107.273 l
630.023 107.545 l
623.909 107.273 l
613.569 106.109 l
597.115 105.556 l
593.446 107.273 l
580.662 109.224 l
564.208 108.61 l
547.754 108.728 l
531.3 109.518 l
514.846 108.348 l
498.392 109.95 l
481.938 110.271 l
465.485 109.742 l
449.031 109.443 l
432.577 108.718 l
416.123 110.04 l
399.669 109.897 l
383.215 108.277 l
366.762 107.685 l
350.308 109.665 l
333.854 109.798 l
317.4 109.525 l
300.946 107.694 l
284.492 107.945 l
279.95 107.273 l
281.109 103.646 l
280.845 100.019 l
284.492 97.5499 l
300.946 98.1957 l
317.4 96.7182 l
317.929 96.3915 l
317.4 96.3139 l
300.946 95.1972 l
284.492 96.2936 l
281.56 96.3915 l
268.038 97.7744 l
262.758 96.3915 l
251.585 95.6688 l
235.131 95.902 l
218.677 95.9784 l
202.223 95.0833 l
185.769 96.0977 l
169.315 95.1739 l
152.862 95.791 l
136.408 95.1423 l
119.954 94.163 l
103.5 93.3169 l
} bind def
/pb_2 {
newpath
translate
103.5 77.8841 m
110.588 78.2557 l
103.5 79.6672 l
} bind def
/pb_3 {
newpath
translate
103.5 138.931 m
109.495 139.917 l
103.5 141.457 l
} bind def
/pb_4 {
newpath
translate
103.5 151.342 m
118.914 154.426 l
103.5 157.054 l
} bind def
/pb_5 {
newpath
translate
103.5 159.218 m
119.954 161.451 l
124.661 158.053 l
136.408 154.579 l
152.862 157.812 l
169.315 157.886 l
177.77 154.426 l
185.769 153.115 l
194.751 154.426 l
202.223 157.374 l
211.972 154.426 l
218.677 152.714 l
235.131 152.569 l
245.345 154.426 l
237.643 158.053 l
235.131 159.205 l
218.677 161.521 l
202.223 158.658 l
185.769 160.123 l
169.315 158.31 l
153.523 161.68 l
152.862 161.873 l
152.523 161.68 l
136.408 160.521 l
120.849 161.68 l
136.408 165.228 l
137.338 165.307 l
152.227 168.934 l
152.862 170.754 l
163.178 168.934 l
169.315 168.688 l
174.482 165.307 l
185.769 162.663 l
202.223 163.382 l
209.283 165.307 l
218.677 166.914 l
227.505 168.934 l
218.677 171.496 l
204.019 168.934 l
202.223 168.317 l
200.195 168.934 l
185.769 172.009 l
179.968 172.562 l
185.769 173.282 l
202.223 173.039 l
218.677 174.347 l
235.131 174.296 l
242.176 172.562 l
251.585 169.831 l
262.86 172.562 l
268.038 173.925 l
280.244 176.189 l
284.492 178.52 l
300.946 177.264 l
304.477 176.189 l
317.4 172.854 l
325.424 172.562 l
333.854 172.316 l
335.09 172.407 l
} bind def
/pb_6 {
newpath
translate
365.993 178.559 m
366.762 179.025 l
374.287 179.816 l
383.215 183.306 l
399.669 182.092 l
416.123 182.538 l
422.286 179.816 l
432.577 177.806 l
440.571 179.816 l
442.735 183.443 l
449.031 186.784 l
465.485 185.867 l
472.352 187.07 l
481.938 189.176 l
498.392 189.227 l
514.846 188.8 l
531.3 187.752 l
542.058 187.07 l
531.3 185.593 l
518.49 183.443 l
514.846 182.459 l
502.63 179.816 l
512.678 176.189 l
514.846 175.542 l
520.965 176.189 l
523.446 179.816 l
531.3 181.306 l
547.754 180.83 l
552.542 183.443 l
558.259 187.07 l
547.754 188.411 l
544.908 190.697 l
531.3 194.102 l
514.846 191.179 l
498.392 193.756 l
495.792 194.325 l
481.938 196.626 l
469.77 194.325 l
465.485 193.749 l
463.262 194.325 l
449.031 196.442 l
432.577 195.262 l
418.121 194.325 l
416.123 194.225 l
399.818 190.697 l
399.669 190.662 l
399.535 190.697 l
394.749 194.325 l
383.215 196.568 l
370.267 194.325 l
366.762 192.709 l
356.63 194.325 l
350.308 195.256 l
333.854 195.761 l
318.141 194.325 l
325.642 190.697 l
317.4 187.528 l
315.578 187.07 l
300.946 185.5 l
299.032 187.07 l
293.243 190.697 l
300.946 191.848 l
317.083 194.325 l
300.946 196.584 l
284.492 195.884 l
271.912 194.325 l
268.038 193.97 l
251.585 191.919 l
237.951 194.325 l
235.131 195.682 l
218.677 195.331 l
206.47 194.325 l
202.223 193.736 l
199.861 194.325 l
185.769 195.868 l
169.315 195.775 l
152.862 195.62 l
143.205 194.325 l
136.408 192.76 l
119.954 192.416 l
114.991 194.325 l
103.5 195.624 l
} bind def
/pb_7 {
newpath
translate
103.5 200.39 m
110.146 201.579 l
} bind def
/pb_8 {
newpath
translate
113.42 136.29 m
119.954 138.113 l
130.948 136.29 l
119.954 134.673 l
113.42 136.29 l
} bind def
/pb_9 {
newpath
translate
114.637 183.443 m
119.954 180.345 l
125.714 183.443 l
119.954 185.733 l
114.637 183.443 l
} bind def
/pb_a {
newpath
translate
129.408 187.07 m
136.408 186.385 l
147.409 187.07 l
136.408 188.675 l
129.408 187.07 l
} bind def
/pb_b {
newpath
translate
149.216 78.2557 m
152.862 79.1325 l
162.007 78.2557 l
169.315 77.7926 l
180.476 74.6286 l
180.063 71.0014 l
169.315 70.0443 l
158.439 71.0014 l
158.572 74.6286 l
152.862 77.3261 l
149.216 78.2557 l
} bind def
/pb_c {
newpath
translate
151.626 179.816 m
152.862 179.563 l
169.315 176.661 l
185.769 177.975 l
202.223 178.25 l
210.17 179.816 l
202.223 181.77 l
192.376 183.443 l
187.65 187.07 l
185.769 187.649 l
176.855 187.07 l
169.315 186.401 l
165.651 183.443 l
152.862 180.012 l
151.626 179.816 l
} bind def
/pb_d {
newpath
translate
148.616 190.697 m
152.862 188.995 l
157.131 190.697 l
152.862 191.582 l
148.616 190.697 l
} bind def
/pb_e {
newpath
translate
166.696 81.8829 m
169.315 82.5103 l
172.166 81.8829 l
169.315 80.3363 l
166.696 81.8829 l
} bind def
/pb_f {
newpath
translate
180.648 107.273 m
185.769 108.451 l
191.686 107.273 l
185.769 105.356 l
180.648 107.273 l
} bind def
/pb_10 {
newpath
translate
196.38 100.019 m
202.223 101.341 l
206.594 100.019 l
202.223 99.3701 l
196.38 100.019 l
} bind def
/pb_11 {
newpath
translate
217.12 107.273 m
218.677 107.636 l
223.552 107.273 l
218.677 106.55 l
217.12 107.273 l
} bind def
/pb_12 {
newpath
translate
217.822 183.443 m
218.677 183.291 l
218.964 183.443 l
218.677 183.475 l
217.822 183.443 l
} bind def
/pb_13 {
newpath
translate
232.777 78.2557 m
235.131 78.6647 l
236.805 78.2557 l
235.131 77.467 l
232.777 78.2557 l
} bind def
/pb_14 {
newpath
translate
227.291 100.019 m
235.131 102.586 l
238.801 103.646 l
251.585 105.775 l
261.926 103.646 l
253.557 100.019 l
251.585 99.6756 l
235.131 97.4616 l
227.291 100.019 l
} bind def
/pb_15 {
newpath
translate
232.752 165.307 m
235.131 165.795 l
239.522 165.307 l
235.131 164.177 l
232.752 165.307 l
} bind def
/pb_16 {
newpath
translate
229.333 201.579 m
235.131 199.001 l
241.518 201.579 l
} bind def
/pb_17 {
newpath
translate
247.708 74.6286 m
251.585 75.0335 l
254.905 74.6286 l
251.585 74.0714 l
247.708 74.6286 l
} bind def
/pb_18 {
newpath
translate
248.9 176.189 m
251.585 175.69 l
254.427 176.189 l
251.585 178.454 l
248.9 176.189 l
} bind def
/pb_19 {
newpath
translate
247.574 187.07 m
251.585 186.047 l
256.232 187.07 l
251.585 189.459 l
247.574 187.07 l
} bind def
/pb_1a {
newpath
translate
267.565 139.917 m
268.038 140.019 l
268.439 139.917 l
268.038 139.74 l
267.565 139.917 l
} bind def
/pb_1b {
newpath
translate
265.928 158.053 m
268.038 159.41 l
270.596 158.053 l
268.038 157.47 l
265.928 158.053 l
} bind def
/pb_1c {
newpath
translate
274.022 161.68 m
284.492 162.995 l
299.618 165.307 l
300.946 165.757 l
301.984 165.307 l
317.4 162.461 l
321.804 161.68 l
317.4 160.621 l
300.946 159.894 l
284.492 160.41 l
274.022 161.68 l
} bind def
/pb_1d {
newpath
translate
299.525 201.579 m
300.946 201.373 l
302.044 201.579 l
} bind def
/pb_1e {
newpath
translate
315.857 103.646 m
317.4 102.853 l
318.977 103.646 l
317.4 103.929 l
315.857 103.646 l
} bind def
/pb_1f {
newpath
translate
311.205 168.934 m
317.4 171.926 l
321.431 168.934 l
317.4 168.125 l
311.205 168.934 l
} bind def
/pb_20 {
newpath
translate
326.456 179.816 m
333.854 177.988 l
339.508 179.816 l
333.854 181.538 l
326.456 179.816 l
} bind def
/pb_21 {
newpath
translate
345.258 100.019 m
350.308 97.8094 l
354.077 100.019 l
350.308 100.813 l
345.258 100.019 l
} bind def
/pb_22 {
newpath
translate
341.665 183.443 m
350.308 182.026 l
362.478 183.443 l
350.308 186.036 l
341.665 183.443 l
} bind def
/pb_23 {
newpath
translate
393.368 158.053 m
399.669 158.367 l
416.123 158.868 l
420.747 158.053 l
416.123 157.42 l
399.669 157.279 l
393.368 158.053 l
} bind def
/pb_24 {
newpath
translate
393.051 165.307 m
399.669 166.723 l
405.383 165.307 l
399.669 164.095 l
393.051 165.307 l
} bind def
/pb_25 {
newpath
translate
389.608 176.189 m
399.669 178.061 l
408.392 176.189 l
399.669 173.094 l
389.608 176.189 l
} bind def
/pb_26 {
newpath
translate
396.508 201.579 m
399.669 199.789 l
409.366 197.952 l
416.123 195.001 l
418.979 197.952 l
416.123 200.429 l
412.02 201.579 l
} bind def
/pb_27 {
newpath
translate
419.999 187.07 m
432.577 186.141 l
446.833 187.07 l
432.577 189.048 l
419.999 187.07 l
} bind def
/pb_28 {
newpath
translate
437.157 168.934 m
449.031 172.161 l
456.841 168.934 l
449.031 167.369 l
437.157 168.934 l
} bind def
/pb_29 {
newpath
translate
451.332 176.189 m
453.953 179.816 l
465.485 181.956 l
475.028 183.443 l
481.938 185.297 l
490.723 183.443 l
486.735 179.816 l
485.966 176.189 l
485.254 172.562 l
481.938 171.286 l
477.251 172.562 l
465.485 173.282 l
451.332 176.189 l
} bind def
/pb_2a {
newpath
translate
497.523 92.7643 m
498.392 92.6834 l
514.846 92.2563 l
523.355 92.7643 l
514.846 92.962 l
498.392 92.8616 l
497.523 92.7643 l
} bind def
/pb_2b {
newpath
translate
511.117 161.68 m
514.846 162.755 l
518.802 161.68 l
514.846 160.788 l
511.117 161.68 l
} bind def
/pb_2c {
newpath
translate
536.159 176.189 m
547.754 179.191 l
560.858 179.816 l
564.208 179.958 l
564.977 179.816 l
570.212 176.189 l
564.208 174.809 l
547.754 173.433 l
536.159 176.189 l
} bind def
/pb_2d {
newpath
translate
562.81 190.697 m
564.208 194.133 l
565.918 190.697 l
564.208 189.905 l
562.81 190.697 l
} bind def
/pb_2e {
newpath
translate
567.444 100.019 m
580.662 98.1077 l
584.86 100.019 l
582.691 103.646 l
580.662 103.802 l
570.125 103.646 l
567.444 100.019 l
} bind def
/pb_2f {
newpath
translate
608.611 96.3915 m
613.569 95.4361 l
617.646 96.3915 l
613.569 99.0343 l
608.611 96.3915 l
} bind def
/pb_30 {
newpath
translate
607.861 194.325 m
613.569 195.355 l
618.756 194.325 l
613.569 192.293 l
607.861 194.325 l
} bind def
/pb_31 {
newpath
translate
625.771 190.697 m
630.023 191.103 l
634.269 190.697 l
630.023 190.158 l
625.771 190.697 l
} bind def
/pb_32 {
newpath
translate
657.393 96.3915 m
662.931 96.8184 l
664.889 96.3915 l
662.931 96.053 l
657.393 96.3915 l
} bind def
/pb_33 {
newpath
translate
662.44 118.154 m
662.931 118.265 l
663.538 118.154 l
662.931 117.772 l
662.44 118.154 l
} bind def
/pb_34 {
newpath
translate
665.059 89.1372 m
679.385 90.5488 l
687.079 89.1372 l
679.385 88.4428 l
665.059 89.1372 l
} bind def
/pb_35 {
newpath
translate
675.869 179.816 m
678.993 183.443 l
679.385 183.589 l
680.301 183.443 l
685.55 179.816 l
679.385 178.984 l
675.869 179.816 l
} bind def
/pb_36 {
newpath
translate
710.809 190.697 m
712.292 190.89 l
713.574 190.697 l
712.292 190.505 l
710.809 190.697 l
} bind def
/pb_37 {
newpath
translate
725.514 89.1372 m
728.746 89.5772 l
730.384 89.1372 l
728.746 88.9159 l
725.514 89.1372 l
} bind def
/pb_38 {
newpath
translate
727.297 96.3915 m
728.746 96.4769 l
729.637 96.3915 l
728.746 96.2568 l
727.297 96.3915 l
} bind def
gsave
641.7 141.5 103.5 60.12 clipbox
0 0 pb_0
stroke
grestore
gsave
641.7 141.5 103.5 60.12 clipbox
0 0 pb_1
stroke
grestore
gsave
641.7 141.5 103.5 60.12 clipbox
0 0 pb_2
stroke
grestore
gsave
641.7 141.5 103.5 60.12 clipbox
0 0 pb_3
stroke
grestore
gsave
641.7 141.5 103.5 60.12 clipbox
0 0 pb_4
stroke
grestore
gsave
641.7 141.5 103.5 60.12 clipbox
0 0 pb_5
stroke
grestore
gsave
641.7 141.5 103.5 60.12 clipbox
0 0 pb_6
stroke
grestore
gsave
641.7 141.5 103.5 60.12 clipbox
0 0 pb_7
stroke
grestore
gsave
641.7 141.5 103.5 60.12 clipbox
0 0 pb_8
stroke
grestore
gsave
641.7 141.5 103.5 60.12 clipbox
0 0 pb_9
stroke
grestore
gsave
641.7 141.5 103.5 60.12 clipbox
0 0 pb_a
stroke
grestore
gsave
641.7 141.5 103.5 60.12 clipbox
0 0 pb_b
stroke
grestore
gsave
641.7 141.5 103.5 60.12 clipbox
0 0 pb_c
stroke
grestore
gsave
641.7 141.5 103.5 60.12 clipbox
0 0 pb_d
stroke
grestore
gsave
641.7 141.5 103.5 60.12 clipbox
0 0 pb_e
stroke
grestore
gsave
641.7 141.5 103.5 60.12 clipbox
0 0 pb_f
stroke
grestore
gsave
641.7 141.5 103.5 60.12 clipbox
0 0 pb_10
stroke
grestore
gsave
641.7 141.5 103.5 60.12 clipbox
0 0 pb_11
stroke
grestore
gsave
641.7 141.5 103.5 60.12 clipbox
0 0 pb_12
stroke
grestore
gsave
641.7 141.5 103.5 60.12 clipbox
0 0 pb_13
stroke
grestore
gsave
641.7 141.5 103.5 60.12 clipbox
0 0 pb_14
stroke
grestore
gsave
641.7 141.5 103.5 60.12 clipbox
0 0 pb_15
stroke
grestore
gsave
641.7 141.5 103.5 60.12 clipbox
0 0 pb_16
stroke
grestore
gsave
641.7 141.5 103.5 60.12 clipbox
0 0 pb_17
stroke
grestore
gsave
641.7 141.5 103.5 60.12 clipbox
0 0 pb_18
stroke
grestore
gsave
641.7 141.5 103.5 60.12 clipbox
0 0 pb_19
stroke
grestore
gsave
641.7 141.5 103.5 60.12 clipbox
0 0 pb_1a
stroke
grestore
gsave
641.7 141.5 103.5 60.12 clipbox
0 0 pb_1b
stroke
grestore
gsave
641.7 141.5 103.5 60.12 clipbox
0 0 pb_1c
stroke
grestore
gsave
641.7 141.5 103.5 60.12 clipbox
0 0 pb_1d
stroke
grestore
gsave
641.7 141.5 103.5 60.12 clipbox
0 0 pb_1e
stroke
grestore
gsave
641.7 141.5 103.5 60.12 clipbox
0 0 pb_1f
stroke
grestore
gsave
641.7 141.5 103.5 60.12 clipbox
0 0 pb_20
stroke
grestore
gsave
641.7 141.5 103.5 60.12 clipbox
0 0 pb_21
stroke
grestore
gsave
641.7 141.5 103.5 60.12 clipbox
0 0 pb_22
stroke
grestore
gsave
641.7 141.5 103.5 60.12 clipbox
0 0 pb_23
stroke
grestore
gsave
641.7 141.5 103.5 60.12 clipbox
0 0 pb_24
stroke
grestore
gsave
641.7 141.5 103.5 60.12 clipbox
0 0 pb_25
stroke
grestore
gsave
641.7 141.5 103.5 60.12 clipbox
0 0 pb_26
stroke
grestore
gsave
641.7 141.5 103.5 60.12 clipbox
0 0 pb_27
stroke
grestore
gsave
641.7 141.5 103.5 60.12 clipbox
0 0 pb_28
stroke
grestore
gsave
641.7 141.5 103.5 60.12 clipbox
0 0 pb_29
stroke
grestore
gsave
641.7 141.5 103.5 60.12 clipbox
0 0 pb_2a
stroke
grestore
gsave
641.7 141.5 103.5 60.12 clipbox
0 0 pb_2b
stroke
grestore
gsave
641.7 141.5 103.5 60.12 clipbox
0 0 pb_2c
stroke
grestore
gsave
641.7 141.5 103.5 60.12 clipbox
0 0 pb_2d
stroke
grestore
gsave
641.7 141.5 103.5 60.12 clipbox
0 0 pb_2e
stroke
grestore
gsave
641.7 141.5 103.5 60.12 clipbox
0 0 pb_2f
stroke
grestore
gsave
641.7 141.5 103.5 60.12 clipbox
0 0 pb_30
stroke
grestore
gsave
641.7 141.5 103.5 60.12 clipbox
0 0 pb_31
stroke
grestore
gsave
641.7 141.5 103.5 60.12 clipbox
0 0 pb_32
stroke
grestore
gsave
641.7 141.5 103.5 60.12 clipbox
0 0 pb_33
stroke
grestore
gsave
641.7 141.5 103.5 60.12 clipbox
0 0 pb_34
stroke
grestore
gsave
641.7 141.5 103.5 60.12 clipbox
0 0 pb_35
stroke
grestore
gsave
641.7 141.5 103.5 60.12 clipbox
0 0 pb_36
stroke
grestore
gsave
641.7 141.5 103.5 60.12 clipbox
0 0 pb_37
stroke
grestore
gsave
641.7 141.5 103.5 60.12 clipbox
0 0 pb_38
stroke
grestore
/pc_0 {
newpath
translate
103.5 176.854 m
112.744 179.816 l
104.429 183.443 l
103.5 184.88 l
} bind def
/pc_1 {
newpath
translate
118.341 89.1372 m
119.954 89.2884 l
136.408 92.1522 l
137.254 92.7643 l
152.862 94.0767 l
162.257 92.7643 l
152.862 90.6245 l
140.977 89.1372 l
136.408 88.56 l
119.954 89.0231 l
118.341 89.1372 l
} bind def
/pc_2 {
newpath
translate
134.817 158.053 m
136.408 158.387 l
138.659 158.053 l
136.408 157.583 l
134.817 158.053 l
} bind def
/pc_3 {
newpath
translate
133.496 168.934 m
136.408 171.661 l
138.991 168.934 l
136.408 168.336 l
133.496 168.934 l
} bind def
/pc_4 {
newpath
translate
124.996 176.189 m
136.408 179.673 l
152.862 176.239 l
153.135 176.189 l
152.862 176.132 l
136.408 172.71 l
124.996 176.189 l
} bind def
/pc_5 {
newpath
translate
137.9 183.443 m
152.862 184.428 l
156.042 183.443 l
152.862 182.59 l
137.9 183.443 l
} bind def
/pc_6 {
newpath
translate
264.18 88.696 m
251.585 87.3264 l
235.131 87.4624 l
220.897 89.1372 l
218.677 91.2134 l
214.02 89.1372 l
202.223 88.288 l
185.769 86.852 l
170.198 89.1372 l
185.769 92.3938 l
195.755 92.7643 l
202.223 93.0218 l
218.677 93.0496 l
228.401 92.7643 l
235.131 92.4937 l
236.55 92.7643 l
251.585 93.9746 l
265.154 94.3744 l
} bind def
/pc_7 {
newpath
translate
258.002 181.386 m
251.585 183.162 l
235.131 181.834 l
229.739 183.443 l
218.677 184.673 l
203.787 187.07 l
218.677 190.462 l
235.131 187.988 l
238.094 187.07 l
251.585 183.629 l
263.435 186.238 l
} bind def
/pc_8 {
newpath
translate
298.049 194.325 m
300.946 194.576 l
302.744 194.325 l
300.946 194.049 l
298.049 194.325 l
} bind def
/pc_9 {
newpath
translate
321.298 89.1372 m
333.854 91.8645 l
342.075 89.1372 l
333.854 88.1886 l
321.298 89.1372 l
} bind def
/pc_a {
newpath
translate
358.24 89.1372 m
366.762 90.5857 l
374.625 89.1372 l
366.762 88.0772 l
358.24 89.1372 l
} bind def
/pc_b {
newpath
translate
365.997 187.07 m
366.762 187.268 l
367.501 187.07 l
366.762 186.906 l
365.997 187.07 l
} bind def
/pc_c {
newpath
translate
395.53 100.019 m
399.669 100.753 l
402.545 100.019 l
399.669 99.2668 l
395.53 100.019 l
} bind def
/pc_d {
newpath
translate
462.602 176.189 m
465.485 177.413 l
469.31 176.189 l
465.485 175.597 l
462.602 176.189 l
} bind def
/pc_e {
newpath
translate
531.211 190.697 m
531.3 190.714 l
531.368 190.697 l
531.3 190.683 l
531.211 190.697 l
} bind def
gsave
641.7 141.5 103.5 60.12 clipbox
0 0 pc_0
stroke
grestore
gsave
641.7 141.5 103.5 60.12 clipbox
0 0 pc_1
stroke
grestore
gsave
641.7 141.5 103.5 60.12 clipbox
0 0 pc_2
stroke
grestore
gsave
641.7 141.5 103.5 60.12 clipbox
0 0 pc_3
stroke
grestore
gsave
641.7 141.5 103.5 60.12 clipbox
0 0 pc_4
stroke
grestore
gsave
641.7 141.5 103.5 60.12 clipbox
0 0 pc_5
stroke
grestore
gsave
641.7 141.5 103.5 60.12 clipbox
0 0 pc_6
stroke
grestore
gsave
641.7 141.5 103.5 60.12 clipbox
0 0 pc_7
stroke
grestore
gsave
641.7 141.5 103.5 60.12 clipbox
0 0 pc_8
stroke
grestore
gsave
641.7 141.5 103.5 60.12 clipbox
0 0 pc_9
stroke
grestore
gsave
641.7 141.5 103.5 60.12 clipbox
0 0 pc_a
stroke
grestore
gsave
641.7 141.5 103.5 60.12 clipbox
0 0 pc_b
stroke
grestore
gsave
641.7 141.5 103.5 60.12 clipbox
0 0 pc_c
stroke
grestore
gsave
641.7 141.5 103.5 60.12 clipbox
0 0 pc_d
stroke
grestore
gsave
641.7 141.5 103.5 60.12 clipbox
0 0 pc_e
stroke
grestore
/pd_0 {
newpath
translate
103.5 179.39 m
104.831 179.816 l
103.5 180.382 l
} bind def
/pd_1 {
newpath
translate
132.555 176.189 m
136.408 177.365 l
142.02 176.189 l
136.408 175.014 l
132.555 176.189 l
} bind def
/pd_2 {
newpath
translate
179.388 89.1372 m
185.769 90.4718 l
194.145 89.1372 l
185.769 88.2007 l
179.388 89.1372 l
} bind def
/pd_3 {
newpath
translate
211.232 187.07 m
218.677 188.766 l
228.428 187.07 l
218.677 185.872 l
211.232 187.07 l
} bind def
gsave
641.7 141.5 103.5 60.12 clipbox
0 0 pd_0
stroke
grestore
gsave
641.7 141.5 103.5 60.12 clipbox
0 0 pd_1
stroke
grestore
gsave
641.7 141.5 103.5 60.12 clipbox
0 0 pd_2
stroke
grestore
gsave
641.7 141.5 103.5 60.12 clipbox
0 0 pd_3
stroke
grestore
0.500 setlinewidth
gsave
/o {
gsave
newpath
translate
0.5 setlinewidth
1 setlinejoin
0 setlinecap
0 0 m
0 4 l
gsave
0.000 setgray
fill
grestore
stroke
grestore
} bind def
103.5 60.12 o
grestore
gsave
/o {
gsave
newpath
translate
0.5 setlinewidth
1 setlinejoin
0 setlinecap
0 0 m
0 -4 l
gsave
0.000 setgray
fill
grestore
stroke
grestore
} bind def
103.5 201.579 o
grestore
/DejaVuSans findfont
16.000 scalefont
setfont
gsave
91.828125 44.010625 translate
0.000000 rotate
0.000000 0.234375 m /zero glyphshow
10.179688 0.234375 m /period glyphshow
15.265625 0.234375 m /zero glyphshow
grestore
gsave
/o {
gsave
newpath
translate
0.5 setlinewidth
1 setlinejoin
0 setlinecap
0 0 m
0 4 l
gsave
0.000 setgray
fill
grestore
stroke
grestore
} bind def
231.84 60.12 o
grestore
gsave
/o {
gsave
newpath
translate
0.5 setlinewidth
1 setlinejoin
0 setlinecap
0 0 m
0 -4 l
gsave
0.000 setgray
fill
grestore
stroke
grestore
} bind def
231.84 201.579 o
grestore
gsave
220.379063 44.010625 translate
0.000000 rotate
0.000000 0.234375 m /zero glyphshow
10.179688 0.234375 m /period glyphshow
15.265625 0.234375 m /one glyphshow
grestore
gsave
/o {
gsave
newpath
translate
0.5 setlinewidth
1 setlinejoin
0 setlinecap
0 0 m
0 4 l
gsave
0.000 setgray
fill
grestore
stroke
grestore
} bind def
360.18 60.12 o
grestore
gsave
/o {
gsave
newpath
translate
0.5 setlinewidth
1 setlinejoin
0 setlinecap
0 0 m
0 -4 l
gsave
0.000 setgray
fill
grestore
stroke
grestore
} bind def
360.18 201.579 o
grestore
gsave
348.781563 44.010625 translate
0.000000 rotate
0.000000 0.234375 m /zero glyphshow
10.179688 0.234375 m /period glyphshow
15.265625 0.234375 m /two glyphshow
grestore
gsave
/o {
gsave
newpath
translate
0.5 setlinewidth
1 setlinejoin
0 setlinecap
0 0 m
0 4 l
gsave
0.000 setgray
fill
grestore
stroke
grestore
} bind def
488.52 60.12 o
grestore
gsave
/o {
gsave
newpath
translate
0.5 setlinewidth
1 setlinejoin
0 setlinecap
0 0 m
0 -4 l
gsave
0.000 setgray
fill
grestore
stroke
grestore
} bind def
488.52 201.579 o
grestore
gsave
476.957500 44.010625 translate
0.000000 rotate
0.000000 0.234375 m /zero glyphshow
10.179688 0.234375 m /period glyphshow
15.265625 0.234375 m /three glyphshow
grestore
gsave
/o {
gsave
newpath
translate
0.5 setlinewidth
1 setlinejoin
0 setlinecap
0 0 m
0 4 l
gsave
0.000 setgray
fill
grestore
stroke
grestore
} bind def
616.86 60.12 o
grestore
gsave
/o {
gsave
newpath
translate
0.5 setlinewidth
1 setlinejoin
0 setlinecap
0 0 m
0 -4 l
gsave
0.000 setgray
fill
grestore
stroke
grestore
} bind def
616.86 201.579 o
grestore
gsave
605.110000 44.010625 translate
0.000000 rotate
0.000000 0.234375 m /zero glyphshow
10.179688 0.234375 m /period glyphshow
15.265625 0.234375 m /four glyphshow
grestore
gsave
/o {
gsave
newpath
translate
0.5 setlinewidth
1 setlinejoin
0 setlinecap
0 0 m
0 4 l
gsave
0.000 setgray
fill
grestore
stroke
grestore
} bind def
745.2 60.12 o
grestore
gsave
/o {
gsave
newpath
translate
0.5 setlinewidth
1 setlinejoin
0 setlinecap
0 0 m
0 -4 l
gsave
0.000 setgray
fill
grestore
stroke
grestore
} bind def
745.2 201.579 o
grestore
gsave
733.700000 44.010625 translate
0.000000 rotate
0.000000 0.234375 m /zero glyphshow
10.179688 0.234375 m /period glyphshow
15.265625 0.234375 m /five glyphshow
grestore
gsave
409.615625 26.620000 translate
0.000000 rotate
0.000000 0.234375 m /f glyphshow
5.632812 0.234375 m /r glyphshow
12.210938 0.234375 m /a glyphshow
22.015625 0.234375 m /c glyphshow
grestore
gsave
/o {
gsave
newpath
translate
0.5 setlinewidth
1 setlinejoin
0 setlinecap
0 0 m
4 0 l
gsave
0.000 setgray
fill
grestore
stroke
grestore
} bind def
103.5 60.12 o
grestore
gsave
/o {
gsave
newpath
translate
0.5 setlinewidth
1 setlinejoin
0 setlinecap
0 0 m
-4 0 l
gsave
0.000 setgray
fill
grestore
stroke
grestore
} bind def
745.2 60.12 o
grestore
gsave
76.578125 54.065312 translate
0.000000 rotate
0.000000 0.234375 m /zero glyphshow
10.179688 0.234375 m /period glyphshow
15.265625 0.234375 m /one glyphshow
grestore
gsave
/o {
gsave
newpath
translate
0.5 setlinewidth
1 setlinejoin
0 setlinecap
0 0 m
4 0 l
gsave
0.000 setgray
fill
grestore
stroke
grestore
} bind def
103.5 77.8024 o
grestore
gsave
/o {
gsave
newpath
translate
0.5 setlinewidth
1 setlinejoin
0 setlinecap
0 0 m
-4 0 l
gsave
0.000 setgray
fill
grestore
stroke
grestore
} bind def
745.2 77.8024 o
grestore
gsave
76.703125 71.747665 translate
0.000000 rotate
0.000000 0.234375 m /zero glyphshow
10.179688 0.234375 m /period glyphshow
15.265625 0.234375 m /two glyphshow
grestore
gsave
/o {
gsave
newpath
translate
0.5 setlinewidth
1 setlinejoin
0 setlinecap
0 0 m
4 0 l
gsave
0.000 setgray
fill
grestore
stroke
grestore
} bind def
103.5 95.4847 o
grestore
gsave
/o {
gsave
newpath
translate
0.5 setlinewidth
1 setlinejoin
0 setlinecap
0 0 m
-4 0 l
gsave
0.000 setgray
fill
grestore
stroke
grestore
} bind def
745.2 95.4847 o
grestore
gsave
76.375000 89.430018 translate
0.000000 rotate
0.000000 0.234375 m /zero glyphshow
10.179688 0.234375 m /period glyphshow
15.265625 0.234375 m /three glyphshow
grestore
gsave
/o {
gsave
newpath
translate
0.5 setlinewidth
1 setlinejoin
0 setlinecap
0 0 m
4 0 l
gsave
0.000 setgray
fill
grestore
stroke
grestore
} bind def
103.5 113.167 o
grestore
gsave
/o {
gsave
newpath
translate
0.5 setlinewidth
1 setlinejoin
0 setlinecap
0 0 m
-4 0 l
gsave
0.000 setgray
fill
grestore
stroke
grestore
} bind def
745.2 113.167 o
grestore
gsave
76.000000 107.112371 translate
0.000000 rotate
0.000000 0.234375 m /zero glyphshow
10.179688 0.234375 m /period glyphshow
15.265625 0.234375 m /four glyphshow
grestore
gsave
/o {
gsave
newpath
translate
0.5 setlinewidth
1 setlinejoin
0 setlinecap
0 0 m
4 0 l
gsave
0.000 setgray
fill
grestore
stroke
grestore
} bind def
103.5 130.849 o
grestore
gsave
/o {
gsave
newpath
translate
0.5 setlinewidth
1 setlinejoin
0 setlinecap
0 0 m
-4 0 l
gsave
0.000 setgray
fill
grestore
stroke
grestore
} bind def
745.2 130.849 o
grestore
gsave
76.500000 124.794724 translate
0.000000 rotate
0.000000 0.234375 m /zero glyphshow
10.179688 0.234375 m /period glyphshow
15.265625 0.234375 m /five glyphshow
grestore
gsave
/o {
gsave
newpath
translate
0.5 setlinewidth
1 setlinejoin
0 setlinecap
0 0 m
4 0 l
gsave
0.000 setgray
fill
grestore
stroke
grestore
} bind def
103.5 148.532 o
grestore
gsave
/o {
gsave
newpath
translate
0.5 setlinewidth
1 setlinejoin
0 setlinecap
0 0 m
-4 0 l
gsave
0.000 setgray
fill
grestore
stroke
grestore
} bind def
745.2 148.532 o
grestore
gsave
76.109375 142.477077 translate
0.000000 rotate
0.000000 0.234375 m /zero glyphshow
10.179688 0.234375 m /period glyphshow
15.265625 0.234375 m /six glyphshow
grestore
gsave
/o {
gsave
newpath
translate
0.5 setlinewidth
1 setlinejoin
0 setlinecap
0 0 m
4 0 l
gsave
0.000 setgray
fill
grestore
stroke
grestore
} bind def
103.5 166.214 o
grestore
gsave
/o {
gsave
newpath
translate
0.5 setlinewidth
1 setlinejoin
0 setlinecap
0 0 m
-4 0 l
gsave
0.000 setgray
fill
grestore
stroke
grestore
} bind def
745.2 166.214 o
grestore
gsave
76.468750 160.159430 translate
0.000000 rotate
0.000000 0.234375 m /zero glyphshow
10.179688 0.234375 m /period glyphshow
15.265625 0.234375 m /seven glyphshow
grestore
gsave
/o {
gsave
newpath
translate
0.5 setlinewidth
1 setlinejoin
0 setlinecap
0 0 m
4 0 l
gsave
0.000 setgray
fill
grestore
stroke
grestore
} bind def
103.5 183.896 o
grestore
gsave
/o {
gsave
newpath
translate
0.5 setlinewidth
1 setlinejoin
0 setlinecap
0 0 m
-4 0 l
gsave
0.000 setgray
fill
grestore
stroke
grestore
} bind def
745.2 183.896 o
grestore
gsave
76.187500 177.841783 translate
0.000000 rotate
0.000000 0.234375 m /zero glyphshow
10.179688 0.234375 m /period glyphshow
15.265625 0.234375 m /eight glyphshow
grestore
gsave
/o {
gsave
newpath
translate
0.5 setlinewidth
1 setlinejoin
0 setlinecap
0 0 m
4 0 l
gsave
0.000 setgray
fill
grestore
stroke
grestore
} bind def
103.5 201.579 o
grestore
gsave
/o {
gsave
newpath
translate
0.5 setlinewidth
1 setlinejoin
0 setlinecap
0 0 m
-4 0 l
gsave
0.000 setgray
fill
grestore
stroke
grestore
} bind def
745.2 201.579 o
grestore
gsave
76.218750 195.524136 translate
0.000000 rotate
0.000000 0.234375 m /zero glyphshow
10.179688 0.234375 m /period glyphshow
15.265625 0.234375 m /nine glyphshow
grestore
gsave
71.000000 121.552537 translate
90.000000 rotate
0.000000 0.234375 m /t glyphshow
6.273438 0.234375 m /o glyphshow
16.062500 0.234375 m /l glyphshow
grestore
1.000 setlinewidth
2 setlinecap
gsave
103.5 201.579 m
745.2 201.579 l
stroke
grestore
gsave
745.2 60.12 m
745.2 201.579 l
stroke
grestore
gsave
103.5 60.12 m
745.2 60.12 l
stroke
grestore
gsave
103.5 60.12 m
103.5 201.579 l
stroke
grestore
/DejaVuSans findfont
9.000 scalefont
setfont
gsave
299.479157 83.050571 translate
0.147761 rotate
0.000000 0.125000 m /six glyphshow
5.726074 0.125000 m /four glyphshow
11.452148 0.125000 m /nine glyphshow
17.178223 0.125000 m /period glyphshow
20.039062 0.125000 m /one glyphshow
25.765137 0.125000 m /five glyphshow
31.491211 0.125000 m /seven glyphshow
grestore
gsave
349.744655 163.407614 translate
6.871239 rotate
0.000000 0.125000 m /six glyphshow
5.726074 0.125000 m /four glyphshow
11.452148 0.125000 m /nine glyphshow
17.178223 0.125000 m /period glyphshow
20.039062 0.125000 m /one glyphshow
25.765137 0.125000 m /five glyphshow
31.491211 0.125000 m /seven glyphshow
grestore
gsave
300.749054 68.166285 translate
79.709343 rotate
0.000000 0.125000 m /one glyphshow
5.726074 0.125000 m /two glyphshow
11.452148 0.125000 m /one glyphshow
17.178223 0.125000 m /two glyphshow
22.904297 0.125000 m /period glyphshow
25.765137 0.125000 m /four glyphshow
31.491211 0.125000 m /zero glyphshow
37.217285 0.125000 m /eight glyphshow
grestore
gsave
284.012249 164.895812 translate
79.341930 rotate
0.000000 0.125000 m /one glyphshow
5.726074 0.125000 m /two glyphshow
11.452148 0.125000 m /one glyphshow
17.178223 0.125000 m /two glyphshow
22.904297 0.125000 m /period glyphshow
25.765137 0.125000 m /four glyphshow
31.491211 0.125000 m /zero glyphshow
37.217285 0.125000 m /eight glyphshow
grestore

end
showpage
