%!PS-Adobe-3.0 EPSF-3.0
%%Title: /home/aurelien/synchro/boulot/code/papers_code/schelling-2013/fig/xinf_frac.eps
%%Creator: matplotlib version 1.1.1rc2, http://matplotlib.sourceforge.net/
%%CreationDate: Tue Oct 15 18:23:08 2013
%%Orientation: portrait
%%BoundingBox: -102 148 714 643
%%EndComments
%%BeginProlog
/mpldict 8 dict def
mpldict begin
/m { moveto } bind def
/l { lineto } bind def
/r { rlineto } bind def
/c { curveto } bind def
/cl { closepath } bind def
/box {
m
1 index 0 r
0 exch r
neg 0 r
cl
} bind def
/clipbox {
box
clip
newpath
} bind def
%!PS-Adobe-3.0 Resource-Font
%%Title: DejaVu Sans
%%Copyright: Copyright (c) 2003 by Bitstream, Inc. All Rights Reserved. Copyright (c) 2006 by Tavmjong Bah. All Rights Reserved. DejaVu changes are in public domain 
%%Creator: Converted from TrueType to type 3 by PPR
25 dict begin
/_d{bind def}bind def
/_m{moveto}_d
/_l{lineto}_d
/_cl{closepath eofill}_d
/_c{curveto}_d
/_sc{7 -1 roll{setcachedevice}{pop pop pop pop pop pop}ifelse}_d
/_e{exec}_d
/FontName /DejaVuSans def
/PaintType 0 def
/FontMatrix[.001 0 0 .001 0 0]def
/FontBBox[-1021 -415 1681 1167]def
/FontType 3 def
/Encoding [ /space /period /zero /one /two /three /four /five /six /seven /eight /nine /a /c /e /i /m /n /t /x ] def
/FontInfo 10 dict dup begin
/FamilyName (DejaVu Sans) def
/FullName (DejaVu Sans) def
/Notice (Copyright (c) 2003 by Bitstream, Inc. All Rights Reserved. Copyright (c) 2006 by Tavmjong Bah. All Rights Reserved. DejaVu changes are in public domain ) def
/Weight (Book) def
/Version (Version 2.33) def
/ItalicAngle 0.0 def
/isFixedPitch false def
/UnderlinePosition -130 def
/UnderlineThickness 90 def
end readonly def
/CharStrings 20 dict dup begin
/space{318 0 0 0 0 0 _sc
}_d
/period{318 0 107 0 210 124 _sc
107 124 _m
210 124 _l
210 0 _l
107 0 _l
107 124 _l
_cl}_d
/zero{636 0 66 -13 570 742 _sc
318 664 _m
267 664 229 639 203 589 _c
177 539 165 464 165 364 _c
165 264 177 189 203 139 _c
229 89 267 64 318 64 _c
369 64 407 89 433 139 _c
458 189 471 264 471 364 _c
471 464 458 539 433 589 _c
407 639 369 664 318 664 _c
318 742 _m
399 742 461 709 505 645 _c
548 580 570 486 570 364 _c
570 241 548 147 505 83 _c
461 19 399 -13 318 -13 _c
236 -13 173 19 130 83 _c
87 147 66 241 66 364 _c
66 486 87 580 130 645 _c
173 709 236 742 318 742 _c
_cl}_d
/one{636 0 110 0 544 729 _sc
124 83 _m
285 83 _l
285 639 _l
110 604 _l
110 694 _l
284 729 _l
383 729 _l
383 83 _l
544 83 _l
544 0 _l
124 0 _l
124 83 _l
_cl}_d
/two{{636 0 73 0 536 742 _sc
192 83 _m
536 83 _l
536 0 _l
73 0 _l
73 83 _l
110 121 161 173 226 239 _c
290 304 331 346 348 365 _c
380 400 402 430 414 455 _c
426 479 433 504 433 528 _c
433 566 419 598 392 622 _c
365 646 330 659 286 659 _c
255 659 222 653 188 643 _c
154 632 117 616 78 594 _c
78 694 _l
118 710 155 722 189 730 _c
223 738 255 742 284 742 _c
}_e{359 742 419 723 464 685 _c
509 647 532 597 532 534 _c
532 504 526 475 515 449 _c
504 422 484 390 454 354 _c
446 344 420 317 376 272 _c
332 227 271 164 192 83 _c
_cl}_e}_d
/three{{636 0 76 -13 556 742 _sc
406 393 _m
453 383 490 362 516 330 _c
542 298 556 258 556 212 _c
556 140 531 84 482 45 _c
432 6 362 -13 271 -13 _c
240 -13 208 -10 176 -4 _c
144 1 110 10 76 22 _c
76 117 _l
103 101 133 89 166 81 _c
198 73 232 69 268 69 _c
330 69 377 81 409 105 _c
441 129 458 165 458 212 _c
458 254 443 288 413 312 _c
383 336 341 349 287 349 _c
}_e{202 349 _l
202 430 _l
291 430 _l
339 430 376 439 402 459 _c
428 478 441 506 441 543 _c
441 580 427 609 401 629 _c
374 649 336 659 287 659 _c
260 659 231 656 200 650 _c
169 644 135 635 98 623 _c
98 711 _l
135 721 170 729 203 734 _c
235 739 266 742 296 742 _c
370 742 429 725 473 691 _c
517 657 539 611 539 553 _c
539 513 527 479 504 451 _c
481 423 448 403 406 393 _c
_cl}_e}_d
/four{636 0 49 0 580 729 _sc
378 643 _m
129 254 _l
378 254 _l
378 643 _l
352 729 _m
476 729 _l
476 254 _l
580 254 _l
580 172 _l
476 172 _l
476 0 _l
378 0 _l
378 172 _l
49 172 _l
49 267 _l
352 729 _l
_cl}_d
/five{{636 0 77 -13 549 729 _sc
108 729 _m
495 729 _l
495 646 _l
198 646 _l
198 467 _l
212 472 227 476 241 478 _c
255 480 270 482 284 482 _c
365 482 429 459 477 415 _c
525 370 549 310 549 234 _c
549 155 524 94 475 51 _c
426 8 357 -13 269 -13 _c
238 -13 207 -10 175 -6 _c
143 -1 111 6 77 17 _c
77 116 _l
106 100 136 88 168 80 _c
199 72 232 69 267 69 _c
}_e{323 69 368 83 401 113 _c
433 143 450 183 450 234 _c
450 284 433 324 401 354 _c
368 384 323 399 267 399 _c
241 399 214 396 188 390 _c
162 384 135 375 108 363 _c
108 729 _l
_cl}_e}_d
/six{{636 0 70 -13 573 742 _sc
330 404 _m
286 404 251 388 225 358 _c
199 328 186 286 186 234 _c
186 181 199 139 225 109 _c
251 79 286 64 330 64 _c
374 64 409 79 435 109 _c
461 139 474 181 474 234 _c
474 286 461 328 435 358 _c
409 388 374 404 330 404 _c
526 713 _m
526 623 _l
501 635 476 644 451 650 _c
425 656 400 659 376 659 _c
310 659 260 637 226 593 _c
}_e{192 549 172 482 168 394 _c
187 422 211 444 240 459 _c
269 474 301 482 336 482 _c
409 482 467 459 509 415 _c
551 371 573 310 573 234 _c
573 159 550 99 506 54 _c
462 9 403 -13 330 -13 _c
246 -13 181 19 137 83 _c
92 147 70 241 70 364 _c
70 479 97 571 152 639 _c
206 707 280 742 372 742 _c
396 742 421 739 447 735 _c
472 730 498 723 526 713 _c
_cl}_e}_d
/seven{636 0 82 0 551 729 _sc
82 729 _m
551 729 _l
551 687 _l
286 0 _l
183 0 _l
432 646 _l
82 646 _l
82 729 _l
_cl}_d
/eight{{636 0 68 -13 568 742 _sc
318 346 _m
271 346 234 333 207 308 _c
180 283 167 249 167 205 _c
167 161 180 126 207 101 _c
234 76 271 64 318 64 _c
364 64 401 76 428 102 _c
455 127 469 161 469 205 _c
469 249 455 283 429 308 _c
402 333 365 346 318 346 _c
219 388 _m
177 398 144 418 120 447 _c
96 476 85 511 85 553 _c
85 611 105 657 147 691 _c
188 725 245 742 318 742 _c
}_e{390 742 447 725 489 691 _c
530 657 551 611 551 553 _c
551 511 539 476 515 447 _c
491 418 459 398 417 388 _c
464 377 501 355 528 323 _c
554 291 568 251 568 205 _c
568 134 546 80 503 43 _c
459 5 398 -13 318 -13 _c
237 -13 175 5 132 43 _c
89 80 68 134 68 205 _c
68 251 81 291 108 323 _c
134 355 171 377 219 388 _c
183 544 _m
183 506 194 476 218 455 _c
}_e{242 434 275 424 318 424 _c
360 424 393 434 417 455 _c
441 476 453 506 453 544 _c
453 582 441 611 417 632 _c
393 653 360 664 318 664 _c
275 664 242 653 218 632 _c
194 611 183 582 183 544 _c
_cl}_e}_d
/nine{{636 0 63 -13 566 742 _sc
110 15 _m
110 105 _l
134 93 159 84 185 78 _c
210 72 235 69 260 69 _c
324 69 374 90 408 134 _c
442 178 462 244 468 334 _c
448 306 424 284 396 269 _c
367 254 335 247 300 247 _c
226 247 168 269 126 313 _c
84 357 63 417 63 494 _c
63 568 85 628 129 674 _c
173 719 232 742 306 742 _c
390 742 455 709 499 645 _c
543 580 566 486 566 364 _c
}_e{566 248 538 157 484 89 _c
429 21 356 -13 264 -13 _c
239 -13 214 -10 189 -6 _c
163 -2 137 5 110 15 _c
306 324 _m
350 324 385 339 411 369 _c
437 399 450 441 450 494 _c
450 546 437 588 411 618 _c
385 648 350 664 306 664 _c
262 664 227 648 201 618 _c
175 588 162 546 162 494 _c
162 441 175 399 201 369 _c
227 339 262 324 306 324 _c
_cl}_e}_d
/a{{613 0 60 -13 522 560 _sc
343 275 _m
270 275 220 266 192 250 _c
164 233 150 205 150 165 _c
150 133 160 107 181 89 _c
202 70 231 61 267 61 _c
317 61 357 78 387 114 _c
417 149 432 196 432 255 _c
432 275 _l
343 275 _l
522 312 _m
522 0 _l
432 0 _l
432 83 _l
411 49 385 25 355 10 _c
325 -5 287 -13 243 -13 _c
187 -13 142 2 109 33 _c
76 64 60 106 60 159 _c
}_e{60 220 80 266 122 298 _c
163 329 224 345 306 345 _c
432 345 _l
432 354 _l
432 395 418 427 391 450 _c
364 472 326 484 277 484 _c
245 484 215 480 185 472 _c
155 464 127 453 100 439 _c
100 522 _l
132 534 164 544 195 550 _c
226 556 256 560 286 560 _c
365 560 424 539 463 498 _c
502 457 522 395 522 312 _c
_cl}_e}_d
/c{{550 0 55 -13 488 560 _sc
488 526 _m
488 442 _l
462 456 437 466 411 473 _c
385 480 360 484 334 484 _c
276 484 230 465 198 428 _c
166 391 150 339 150 273 _c
150 206 166 154 198 117 _c
230 80 276 62 334 62 _c
360 62 385 65 411 72 _c
437 79 462 90 488 104 _c
488 21 _l
462 9 436 0 410 -5 _c
383 -10 354 -13 324 -13 _c
242 -13 176 12 128 64 _c
}_e{79 115 55 185 55 273 _c
55 362 79 432 128 483 _c
177 534 244 560 330 560 _c
358 560 385 557 411 551 _c
437 545 463 537 488 526 _c
_cl}_e}_d
/e{{615 0 55 -13 562 560 _sc
562 296 _m
562 252 _l
149 252 _l
153 190 171 142 205 110 _c
238 78 284 62 344 62 _c
378 62 412 66 444 74 _c
476 82 509 95 541 113 _c
541 28 _l
509 14 476 3 442 -3 _c
408 -9 373 -13 339 -13 _c
251 -13 182 12 131 62 _c
80 112 55 181 55 268 _c
55 357 79 428 127 481 _c
175 533 241 560 323 560 _c
397 560 455 536 498 489 _c
}_e{540 441 562 377 562 296 _c
472 322 _m
471 371 457 410 431 440 _c
404 469 368 484 324 484 _c
274 484 234 469 204 441 _c
174 413 156 373 152 322 _c
472 322 _l
_cl}_e}_d
/i{278 0 94 0 184 760 _sc
94 547 _m
184 547 _l
184 0 _l
94 0 _l
94 547 _l
94 760 _m
184 760 _l
184 646 _l
94 646 _l
94 760 _l
_cl}_d
/m{{974 0 91 0 889 560 _sc
520 442 _m
542 482 569 511 600 531 _c
631 550 668 560 711 560 _c
767 560 811 540 842 500 _c
873 460 889 403 889 330 _c
889 0 _l
799 0 _l
799 327 _l
799 379 789 418 771 444 _c
752 469 724 482 686 482 _c
639 482 602 466 575 435 _c
548 404 535 362 535 309 _c
535 0 _l
445 0 _l
445 327 _l
445 379 435 418 417 444 _c
398 469 369 482 331 482 _c
}_e{285 482 248 466 221 435 _c
194 404 181 362 181 309 _c
181 0 _l
91 0 _l
91 547 _l
181 547 _l
181 462 _l
201 495 226 520 255 536 _c
283 552 317 560 357 560 _c
397 560 430 550 458 530 _c
486 510 506 480 520 442 _c
_cl}_e}_d
/n{634 0 91 0 549 560 _sc
549 330 _m
549 0 _l
459 0 _l
459 327 _l
459 379 448 417 428 443 _c
408 469 378 482 338 482 _c
289 482 251 466 223 435 _c
195 404 181 362 181 309 _c
181 0 _l
91 0 _l
91 547 _l
181 547 _l
181 462 _l
202 494 227 519 257 535 _c
286 551 320 560 358 560 _c
420 560 468 540 500 501 _c
532 462 549 405 549 330 _c
_cl}_d
/t{392 0 27 0 368 702 _sc
183 702 _m
183 547 _l
368 547 _l
368 477 _l
183 477 _l
183 180 _l
183 135 189 106 201 94 _c
213 81 238 75 276 75 _c
368 75 _l
368 0 _l
276 0 _l
206 0 158 13 132 39 _c
106 65 93 112 93 180 _c
93 477 _l
27 477 _l
27 547 _l
93 547 _l
93 702 _l
183 702 _l
_cl}_d
/x{592 0 29 0 559 547 _sc
549 547 _m
351 281 _l
559 0 _l
453 0 _l
294 215 _l
135 0 _l
29 0 _l
241 286 _l
47 547 _l
153 547 _l
298 352 _l
443 547 _l
549 547 _l
_cl}_d
end readonly def

/BuildGlyph
 {exch begin
 CharStrings exch
 2 copy known not{pop /.notdef}if
 true 3 1 roll get exec
 end}_d

/BuildChar {
 1 index /Encoding get exch get
 1 index /BuildGlyph get exec
}_d

FontName currentdict end definefont pop
end
%%EndProlog
mpldict begin
-102.6 148.95 translate
817.2 494.1 0 0 clipbox
gsave
0 0 m
817.2 0 l
817.2 494.1 l
0 494.1 l
cl
1.000 setgray
fill
grestore
gsave
102.15 49.41 m
567.037 49.41 l
567.037 444.69 l
102.15 444.69 l
cl
1.000 setgray
fill
grestore
1.000 setlinewidth
1 setlinejoin
2 setlinecap
[] 0 setdash
0.000 0.000 1.000 setrgbcolor
gsave
464.9 395.3 102.1 49.41 clipbox
102.15 441.451 m
153.804 293.495 l
205.458 218.502 l
257.112 162.943 l
308.766 134.834 l
360.42 112.435 l
412.074 99.7533 l
463.729 83.3931 l
515.383 76.311 l
567.037 69.723 l
stroke
grestore
0 setlinecap
[6 6] 0 setdash
gsave
464.9 395.3 102.1 49.41 clipbox
102.15 437.169 m
153.804 282.625 l
205.458 200.275 l
257.112 152.787 l
308.766 123.36 l
360.42 101.565 l
412.074 85.4244 l
463.729 75.5424 l
515.383 67.8015 l
567.037 59.0175 l
stroke
grestore
2 setlinecap
[] 0 setdash
1.000 0.000 0.000 setrgbcolor
gsave
464.9 395.3 102.1 49.41 clipbox
102.15 396.652 m
153.804 352.129 l
205.458 332.749 l
257.112 328.467 l
308.766 323.8 l
360.42 322.318 l
412.074 318.255 l
463.729 319.463 l
515.383 324.294 l
567.037 318.53 l
stroke
grestore
0 setlinecap
[6 6] 0 setdash
gsave
464.9 395.3 102.1 49.41 clipbox
102.15 395.005 m
153.804 300.028 l
205.458 252.375 l
257.112 230.196 l
308.766 212.957 l
360.42 202.581 l
412.074 195.773 l
463.729 189.076 l
515.383 186.331 l
567.037 182.927 l
stroke
grestore
2 setlinecap
[] 0 setdash
0.750 0.750 0.000 setrgbcolor
gsave
464.9 395.3 102.1 49.41 clipbox
102.15 340.545 m
153.804 334.725 l
205.458 336.702 l
257.112 337.141 l
308.766 336.263 l
360.42 338.294 l
412.074 331.541 l
463.729 336.866 l
515.383 330.333 l
567.037 332.035 l
stroke
grestore
0 setlinecap
[6 6] 0 setdash
gsave
464.9 395.3 102.1 49.41 clipbox
102.15 337.196 m
153.804 292.342 l
205.458 269.01 l
257.112 253.144 l
308.766 244.47 l
360.42 240.901 l
412.074 235.686 l
463.729 231.294 l
515.383 229.537 l
567.037 228 l
stroke
grestore
0.500 setlinewidth
[] 0 setdash
0.000 setgray
gsave
/o {
gsave
newpath
translate
0.5 setlinewidth
1 setlinejoin
0 setlinecap
0 0 m
0 4 l
gsave
0.000 setgray
fill
grestore
stroke
grestore
} bind def
102.15 49.41 o
grestore
gsave
/o {
gsave
newpath
translate
0.5 setlinewidth
1 setlinejoin
0 setlinecap
0 0 m
0 -4 l
gsave
0.000 setgray
fill
grestore
stroke
grestore
} bind def
102.15 444.69 o
grestore
/DejaVuSans findfont
16.000 scalefont
setfont
gsave
98.118750 33.300625 translate
0.000000 rotate
0.000000 0.234375 m /zero glyphshow
grestore
gsave
/o {
gsave
newpath
translate
0.5 setlinewidth
1 setlinejoin
0 setlinecap
0 0 m
0 4 l
gsave
0.000 setgray
fill
grestore
stroke
grestore
} bind def
153.804 49.41 o
grestore
gsave
/o {
gsave
newpath
translate
0.5 setlinewidth
1 setlinejoin
0 setlinecap
0 0 m
0 -4 l
gsave
0.000 setgray
fill
grestore
stroke
grestore
} bind def
153.804 444.69 o
grestore
gsave
150.335332 33.738125 translate
0.000000 rotate
0.000000 0.000000 m /one glyphshow
grestore
gsave
/o {
gsave
newpath
translate
0.5 setlinewidth
1 setlinejoin
0 setlinecap
0 0 m
0 4 l
gsave
0.000 setgray
fill
grestore
stroke
grestore
} bind def
205.458 49.41 o
grestore
gsave
/o {
gsave
newpath
translate
0.5 setlinewidth
1 setlinejoin
0 setlinecap
0 0 m
0 -4 l
gsave
0.000 setgray
fill
grestore
stroke
grestore
} bind def
205.458 444.69 o
grestore
gsave
201.755038 33.535000 translate
0.000000 rotate
0.000000 0.000000 m /two glyphshow
grestore
gsave
/o {
gsave
newpath
translate
0.5 setlinewidth
1 setlinejoin
0 setlinecap
0 0 m
0 4 l
gsave
0.000 setgray
fill
grestore
stroke
grestore
} bind def
257.112 49.41 o
grestore
gsave
/o {
gsave
newpath
translate
0.5 setlinewidth
1 setlinejoin
0 setlinecap
0 0 m
0 -4 l
gsave
0.000 setgray
fill
grestore
stroke
grestore
} bind def
257.112 444.69 o
grestore
gsave
253.268495 33.300625 translate
0.000000 rotate
0.000000 0.234375 m /three glyphshow
grestore
gsave
/o {
gsave
newpath
translate
0.5 setlinewidth
1 setlinejoin
0 setlinecap
0 0 m
0 4 l
gsave
0.000 setgray
fill
grestore
stroke
grestore
} bind def
308.766 49.41 o
grestore
gsave
/o {
gsave
newpath
translate
0.5 setlinewidth
1 setlinejoin
0 setlinecap
0 0 m
0 -4 l
gsave
0.000 setgray
fill
grestore
stroke
grestore
} bind def
308.766 444.69 o
grestore
gsave
304.516327 33.738125 translate
0.000000 rotate
0.000000 0.000000 m /four glyphshow
grestore
gsave
/o {
gsave
newpath
translate
0.5 setlinewidth
1 setlinejoin
0 setlinecap
0 0 m
0 4 l
gsave
0.000 setgray
fill
grestore
stroke
grestore
} bind def
360.42 49.41 o
grestore
gsave
/o {
gsave
newpath
translate
0.5 setlinewidth
1 setlinejoin
0 setlinecap
0 0 m
0 -4 l
gsave
0.000 setgray
fill
grestore
stroke
grestore
} bind def
360.42 444.69 o
grestore
gsave
356.646971 33.503750 translate
0.000000 rotate
0.000000 0.234375 m /five glyphshow
grestore
gsave
/o {
gsave
newpath
translate
0.5 setlinewidth
1 setlinejoin
0 setlinecap
0 0 m
0 4 l
gsave
0.000 setgray
fill
grestore
stroke
grestore
} bind def
412.074 49.41 o
grestore
gsave
/o {
gsave
newpath
translate
0.5 setlinewidth
1 setlinejoin
0 setlinecap
0 0 m
0 -4 l
gsave
0.000 setgray
fill
grestore
stroke
grestore
} bind def
412.074 444.69 o
grestore
gsave
408.051052 33.300625 translate
0.000000 rotate
0.000000 0.234375 m /six glyphshow
grestore
gsave
/o {
gsave
newpath
translate
0.5 setlinewidth
1 setlinejoin
0 setlinecap
0 0 m
0 4 l
gsave
0.000 setgray
fill
grestore
stroke
grestore
} bind def
463.729 49.41 o
grestore
gsave
/o {
gsave
newpath
translate
0.5 setlinewidth
1 setlinejoin
0 setlinecap
0 0 m
0 -4 l
gsave
0.000 setgray
fill
grestore
stroke
grestore
} bind def
463.729 444.69 o
grestore
gsave
459.978571 33.738125 translate
0.000000 rotate
0.000000 0.000000 m /seven glyphshow
grestore
gsave
/o {
gsave
newpath
translate
0.5 setlinewidth
1 setlinejoin
0 setlinecap
0 0 m
0 4 l
gsave
0.000 setgray
fill
grestore
stroke
grestore
} bind def
515.383 49.41 o
grestore
gsave
/o {
gsave
newpath
translate
0.5 setlinewidth
1 setlinejoin
0 setlinecap
0 0 m
0 -4 l
gsave
0.000 setgray
fill
grestore
stroke
grestore
} bind def
515.383 444.69 o
grestore
gsave
511.382653 33.300625 translate
0.000000 rotate
0.000000 0.234375 m /eight glyphshow
grestore
gsave
/o {
gsave
newpath
translate
0.5 setlinewidth
1 setlinejoin
0 setlinecap
0 0 m
0 4 l
gsave
0.000 setgray
fill
grestore
stroke
grestore
} bind def
567.037 49.41 o
grestore
gsave
/o {
gsave
newpath
translate
0.5 setlinewidth
1 setlinejoin
0 setlinecap
0 0 m
0 -4 l
gsave
0.000 setgray
fill
grestore
stroke
grestore
} bind def
567.037 444.69 o
grestore
gsave
563.013297 33.300625 translate
0.000000 rotate
0.000000 0.234375 m /nine glyphshow
grestore
gsave
317.148055 15.910000 translate
0.000000 rotate
0.000000 0.234375 m /t glyphshow
6.273438 0.234375 m /i glyphshow
10.718750 0.234375 m /m glyphshow
26.304688 0.234375 m /e glyphshow
grestore
gsave
/o {
gsave
newpath
translate
0.5 setlinewidth
1 setlinejoin
0 setlinecap
0 0 m
4 0 l
gsave
0.000 setgray
fill
grestore
stroke
grestore
} bind def
102.15 49.41 o
grestore
gsave
/o {
gsave
newpath
translate
0.5 setlinewidth
1 setlinejoin
0 setlinecap
0 0 m
-4 0 l
gsave
0.000 setgray
fill
grestore
stroke
grestore
} bind def
567.037 49.41 o
grestore
gsave
75.228125 43.355312 translate
0.000000 rotate
0.000000 0.234375 m /zero glyphshow
10.179688 0.234375 m /period glyphshow
15.265625 0.234375 m /one glyphshow
grestore
gsave
/o {
gsave
newpath
translate
0.5 setlinewidth
1 setlinejoin
0 setlinecap
0 0 m
4 0 l
gsave
0.000 setgray
fill
grestore
stroke
grestore
} bind def
102.15 98.82 o
grestore
gsave
/o {
gsave
newpath
translate
0.5 setlinewidth
1 setlinejoin
0 setlinecap
0 0 m
-4 0 l
gsave
0.000 setgray
fill
grestore
stroke
grestore
} bind def
567.037 98.82 o
grestore
gsave
75.353125 92.765312 translate
0.000000 rotate
0.000000 0.234375 m /zero glyphshow
10.179688 0.234375 m /period glyphshow
15.265625 0.234375 m /two glyphshow
grestore
gsave
/o {
gsave
newpath
translate
0.5 setlinewidth
1 setlinejoin
0 setlinecap
0 0 m
4 0 l
gsave
0.000 setgray
fill
grestore
stroke
grestore
} bind def
102.15 148.23 o
grestore
gsave
/o {
gsave
newpath
translate
0.5 setlinewidth
1 setlinejoin
0 setlinecap
0 0 m
-4 0 l
gsave
0.000 setgray
fill
grestore
stroke
grestore
} bind def
567.037 148.23 o
grestore
gsave
75.025000 142.175313 translate
0.000000 rotate
0.000000 0.234375 m /zero glyphshow
10.179688 0.234375 m /period glyphshow
15.265625 0.234375 m /three glyphshow
grestore
gsave
/o {
gsave
newpath
translate
0.5 setlinewidth
1 setlinejoin
0 setlinecap
0 0 m
4 0 l
gsave
0.000 setgray
fill
grestore
stroke
grestore
} bind def
102.15 197.64 o
grestore
gsave
/o {
gsave
newpath
translate
0.5 setlinewidth
1 setlinejoin
0 setlinecap
0 0 m
-4 0 l
gsave
0.000 setgray
fill
grestore
stroke
grestore
} bind def
567.037 197.64 o
grestore
gsave
74.650000 191.585312 translate
0.000000 rotate
0.000000 0.234375 m /zero glyphshow
10.179688 0.234375 m /period glyphshow
15.265625 0.234375 m /four glyphshow
grestore
gsave
/o {
gsave
newpath
translate
0.5 setlinewidth
1 setlinejoin
0 setlinecap
0 0 m
4 0 l
gsave
0.000 setgray
fill
grestore
stroke
grestore
} bind def
102.15 247.05 o
grestore
gsave
/o {
gsave
newpath
translate
0.5 setlinewidth
1 setlinejoin
0 setlinecap
0 0 m
-4 0 l
gsave
0.000 setgray
fill
grestore
stroke
grestore
} bind def
567.037 247.05 o
grestore
gsave
75.150000 240.995312 translate
0.000000 rotate
0.000000 0.234375 m /zero glyphshow
10.179688 0.234375 m /period glyphshow
15.265625 0.234375 m /five glyphshow
grestore
gsave
/o {
gsave
newpath
translate
0.5 setlinewidth
1 setlinejoin
0 setlinecap
0 0 m
4 0 l
gsave
0.000 setgray
fill
grestore
stroke
grestore
} bind def
102.15 296.46 o
grestore
gsave
/o {
gsave
newpath
translate
0.5 setlinewidth
1 setlinejoin
0 setlinecap
0 0 m
-4 0 l
gsave
0.000 setgray
fill
grestore
stroke
grestore
} bind def
567.037 296.46 o
grestore
gsave
74.759375 290.405312 translate
0.000000 rotate
0.000000 0.234375 m /zero glyphshow
10.179688 0.234375 m /period glyphshow
15.265625 0.234375 m /six glyphshow
grestore
gsave
/o {
gsave
newpath
translate
0.5 setlinewidth
1 setlinejoin
0 setlinecap
0 0 m
4 0 l
gsave
0.000 setgray
fill
grestore
stroke
grestore
} bind def
102.15 345.87 o
grestore
gsave
/o {
gsave
newpath
translate
0.5 setlinewidth
1 setlinejoin
0 setlinecap
0 0 m
-4 0 l
gsave
0.000 setgray
fill
grestore
stroke
grestore
} bind def
567.037 345.87 o
grestore
gsave
75.118750 339.815313 translate
0.000000 rotate
0.000000 0.234375 m /zero glyphshow
10.179688 0.234375 m /period glyphshow
15.265625 0.234375 m /seven glyphshow
grestore
gsave
/o {
gsave
newpath
translate
0.5 setlinewidth
1 setlinejoin
0 setlinecap
0 0 m
4 0 l
gsave
0.000 setgray
fill
grestore
stroke
grestore
} bind def
102.15 395.28 o
grestore
gsave
/o {
gsave
newpath
translate
0.5 setlinewidth
1 setlinejoin
0 setlinecap
0 0 m
-4 0 l
gsave
0.000 setgray
fill
grestore
stroke
grestore
} bind def
567.037 395.28 o
grestore
gsave
74.837500 389.225313 translate
0.000000 rotate
0.000000 0.234375 m /zero glyphshow
10.179688 0.234375 m /period glyphshow
15.265625 0.234375 m /eight glyphshow
grestore
gsave
/o {
gsave
newpath
translate
0.5 setlinewidth
1 setlinejoin
0 setlinecap
0 0 m
4 0 l
gsave
0.000 setgray
fill
grestore
stroke
grestore
} bind def
102.15 444.69 o
grestore
gsave
/o {
gsave
newpath
translate
0.5 setlinewidth
1 setlinejoin
0 setlinecap
0 0 m
-4 0 l
gsave
0.000 setgray
fill
grestore
stroke
grestore
} bind def
567.037 444.69 o
grestore
gsave
74.868750 438.635312 translate
0.000000 rotate
0.000000 0.234375 m /zero glyphshow
10.179688 0.234375 m /period glyphshow
15.265625 0.234375 m /nine glyphshow
grestore
gsave
69.650000 242.807813 translate
90.000000 rotate
0.000000 0.000000 m /x glyphshow
grestore
1.000 setlinewidth
2 setlinecap
gsave
102.15 444.69 m
567.037 444.69 l
stroke
grestore
gsave
567.037 49.41 m
567.037 444.69 l
stroke
grestore
gsave
102.15 49.41 m
567.037 49.41 l
stroke
grestore
gsave
102.15 49.41 m
102.15 444.69 l
stroke
grestore
gsave
590.281 274.674 m
743.167 274.674 l
743.167 444.69 l
590.281 444.69 l
590.281 274.674 l
cl
gsave
1.000 setgray
fill
grestore
stroke
grestore
0.000 0.000 1.000 setrgbcolor
gsave
603.721 429.293 m
630.601 429.293 l
stroke
grestore
0.000 setgray
/DejaVuSans findfont
19.200 scalefont
setfont
gsave
651.721071 422.306875 translate
0.000000 rotate
0.000000 0.265625 m /zero glyphshow
12.247437 0.265625 m /period glyphshow
18.366455 0.265625 m /zero glyphshow
30.613892 0.265625 m /space glyphshow
36.732910 0.265625 m /a glyphshow
48.529175 0.265625 m /c glyphshow
59.112915 0.265625 m /t glyphshow
grestore
0 setlinecap
[6 6] 0 setdash
0.000 0.000 1.000 setrgbcolor
gsave
603.721 401.302 m
630.601 401.302 l
stroke
grestore
0.000 setgray
gsave
651.721071 394.316250 translate
0.000000 rotate
0.000000 0.265625 m /zero glyphshow
12.247437 0.265625 m /period glyphshow
18.366455 0.265625 m /zero glyphshow
30.613892 0.265625 m /space glyphshow
36.732910 0.265625 m /i glyphshow
42.081177 0.265625 m /n glyphshow
54.281616 0.265625 m /a glyphshow
66.077881 0.265625 m /c glyphshow
76.661621 0.265625 m /t glyphshow
grestore
2 setlinecap
[] 0 setdash
1.000 0.000 0.000 setrgbcolor
gsave
603.721 373.311 m
630.601 373.311 l
stroke
grestore
0.000 setgray
gsave
651.721071 366.325625 translate
0.000000 rotate
0.000000 0.265625 m /zero glyphshow
12.247437 0.265625 m /period glyphshow
18.366455 0.265625 m /three glyphshow
30.613892 0.265625 m /space glyphshow
36.732910 0.265625 m /a glyphshow
48.529175 0.265625 m /c glyphshow
59.112915 0.265625 m /t glyphshow
grestore
0 setlinecap
[6 6] 0 setdash
1.000 0.000 0.000 setrgbcolor
gsave
603.721 345.321 m
630.601 345.321 l
stroke
grestore
0.000 setgray
gsave
651.721071 338.335000 translate
0.000000 rotate
0.000000 0.265625 m /zero glyphshow
12.247437 0.265625 m /period glyphshow
18.366455 0.265625 m /three glyphshow
30.613892 0.265625 m /space glyphshow
36.732910 0.265625 m /i glyphshow
42.081177 0.265625 m /n glyphshow
54.281616 0.265625 m /a glyphshow
66.077881 0.265625 m /c glyphshow
76.661621 0.265625 m /t glyphshow
grestore
2 setlinecap
[] 0 setdash
0.750 0.750 0.000 setrgbcolor
gsave
603.721 317.33 m
630.601 317.33 l
stroke
grestore
0.000 setgray
gsave
651.721071 310.344375 translate
0.000000 rotate
0.000000 0.265625 m /zero glyphshow
12.247437 0.265625 m /period glyphshow
18.366455 0.265625 m /six glyphshow
30.613892 0.265625 m /space glyphshow
36.732910 0.265625 m /a glyphshow
48.529175 0.265625 m /c glyphshow
59.112915 0.265625 m /t glyphshow
grestore
0 setlinecap
[6 6] 0 setdash
0.750 0.750 0.000 setrgbcolor
gsave
603.721 289.339 m
630.601 289.339 l
stroke
grestore
0.000 setgray
gsave
651.721071 282.353750 translate
0.000000 rotate
0.000000 0.265625 m /zero glyphshow
12.247437 0.265625 m /period glyphshow
18.366455 0.265625 m /six glyphshow
30.613892 0.265625 m /space glyphshow
36.732910 0.265625 m /i glyphshow
42.081177 0.265625 m /n glyphshow
54.281616 0.265625 m /a glyphshow
66.077881 0.265625 m /c glyphshow
76.661621 0.265625 m /t glyphshow
grestore

end
showpage
